<?xml version="1.0" encoding="UTF-8"?>
<graphml xmlns="http://graphml.graphdrawing.org/xmlns">
<key attr.name="label" attr.type="string" for="node" id="label"/>
<key attr.name="Edge Label" attr.type="string" for="edge" id="edgelabel"/>
<key attr.name="weight" attr.type="double" for="edge" id="weight"/>
<key attr.name="r" attr.type="int" for="node" id="r"/>
<key attr.name="g" attr.type="int" for="node" id="g"/>
<key attr.name="b" attr.type="int" for="node" id="b"/>
<key attr.name="x" attr.type="float" for="node" id="x"/>
<key attr.name="y" attr.type="float" for="node" id="y"/>
<key attr.name="size" attr.type="float" for="node" id="size"/>
<key attr.name="sub_type" attr.type="string" for="node" id="d2"/>
<key attr.name="type" attr.type="string" for="node" id="d1"/>
<key attr.name="count" attr.type="int" for="node" id="d0"/>
<key attr.name="direction" attr.type="string" for="edge" id="d6"/>
<key attr.name="count" attr.type="int" for="edge" id="d5"/>
<graph edgedefault="directed">
<node id="attribute.integrity.variety.Software installation">
<data key="label">attribute.integrity.variety.Software installation</data>
<data key="d2">attribute.integrity</data>
<data key="d1">attribute</data>
<data key="d0">22</data>
<data key="size">50.0</data>
<data key="r">0</data>
<data key="g">196</data>
<data key="b">255</data>
<data key="x">-106.333725</data>
<data key="y">337.80066</data>
</node>
<node id="attribute.integrity.variety.Alter behavior">
<data key="label">attribute.integrity.variety.Alter behavior</data>
<data key="d2">attribute.integrity</data>
<data key="d1">attribute</data>
<data key="d0">17</data>
<data key="size">48.821312</data>
<data key="r">0</data>
<data key="g">196</data>
<data key="b">255</data>
<data key="x">-289.89566</data>
<data key="y">203.4125</data>
</node>
<node id="action.social.variety.Phishing">
<data key="label">action.social.variety.Phishing</data>
<data key="d2">action.social</data>
<data key="d1">action</data>
<data key="d0">16</data>
<data key="size">48.38076</data>
<data key="r">76</data>
<data key="g">70</data>
<data key="b">62</data>
<data key="x">-211.92075</data>
<data key="y">-283.73532</data>
</node>
<node id="action.malware.variety.C2">
<data key="label">action.malware.variety.C2</data>
<data key="d2">action.malware</data>
<data key="d1">action</data>
<data key="d0">9</data>
<data key="size">42.941162</data>
<data key="r">223</data>
<data key="g">137</data>
<data key="b">255</data>
<data key="x">305.0142</data>
<data key="y">179.95132</data>
</node>
<node id="action.hacking.variety.Use of backdoor or C2">
<data key="label">action.hacking.variety.Use of backdoor or C2</data>
<data key="d2">action.hacking</data>
<data key="d1">action</data>
<data key="d0">9</data>
<data key="size">42.941162</data>
<data key="r">255</data>
<data key="g">85</data>
<data key="b">132</data>
<data key="x">125.25137</data>
<data key="y">331.25253</data>
</node>
<node id="attribute.confidentiality.data.variety.Secrets">
<data key="label">attribute.confidentiality.data.variety.Secrets</data>
<data key="d2">attribute.confidentiality</data>
<data key="d1">attribute</data>
<data key="d0">7</data>
<data key="size">40.2934</data>
<data key="r">115</data>
<data key="g">192</data>
<data key="b">0</data>
<data key="x">-337.27307</data>
<data key="y">107.99545</data>
</node>
<node id="action.malware.variety.Ransomware">
<data key="label">action.malware.variety.Ransomware</data>
<data key="d2">action.malware</data>
<data key="d1">action</data>
<data key="d0">4</data>
<data key="size">34.572937</data>
<data key="r">223</data>
<data key="g">137</data>
<data key="b">255</data>
<data key="x">352.18372</data>
<data key="y">-37.185688</data>
</node>
<node id="attribute.availability.variety.Obscuration">
<data key="label">attribute.availability.variety.Obscuration</data>
<data key="d2">attribute.availability</data>
<data key="d1">attribute</data>
<data key="d0">4</data>
<data key="size">34.572937</data>
<data key="r">0</data>
<data key="g">189</data>
<data key="b">148</data>
<data key="x">-312.69818</data>
<data key="y">-166.24077</data>
</node>
<node id="action.malware.vector.Email attachment">
<data key="label">action.malware.vector.Email attachment</data>
<data key="d2">action.malware</data>
<data key="d1">action</data>
<data key="d0">4</data>
<data key="size">34.572937</data>
<data key="r">223</data>
<data key="g">137</data>
<data key="b">255</data>
<data key="x">227.10701</data>
<data key="y">-271.73248</data>
</node>
<node id="action.malware.variety.Capture stored data">
<data key="label">action.malware.variety.Capture stored data</data>
<data key="d2">action.malware</data>
<data key="d1">action</data>
<data key="d0">3</data>
<data key="size">31.871729</data>
<data key="r">223</data>
<data key="g">137</data>
<data key="b">255</data>
<data key="x">351.59677</data>
<data key="y">42.377445</data>
</node>
<node id="action.hacking.variety.DoS">
<data key="label">action.hacking.variety.DoS</data>
<data key="d2">action.hacking</data>
<data key="d1">action</data>
<data key="d0">3</data>
<data key="size">31.871729</data>
<data key="r">255</data>
<data key="g">85</data>
<data key="b">132</data>
<data key="x">38.171772</data>
<data key="y">352.0782</data>
</node>
<node id="action.malware.vector.Direct install">
<data key="label">action.malware.vector.Direct install</data>
<data key="d2">action.malware</data>
<data key="d1">action</data>
<data key="d0">3</data>
<data key="size">31.871729</data>
<data key="r">223</data>
<data key="g">137</data>
<data key="b">255</data>
<data key="x">282.03915</data>
<data key="y">-214.17297</data>
</node>
<node id="action.social.variety.Baiting">
<data key="label">action.social.variety.Baiting</data>
<data key="d2">action.social</data>
<data key="d1">action</data>
<data key="d0">2</data>
<data key="size">28.425068</data>
<data key="r">76</data>
<data key="g">70</data>
<data key="b">62</data>
<data key="x">-77.86862</data>
<data key="y">-345.4745</data>
</node>
<node id="attribute.confidentiality.data.variety.Classified">
<data key="label">attribute.confidentiality.data.variety.Classified</data>
<data key="d2">attribute.confidentiality</data>
<data key="d1">attribute</data>
<data key="d0">2</data>
<data key="size">28.425068</data>
<data key="r">115</data>
<data key="g">192</data>
<data key="b">0</data>
<data key="x">-351.77777</data>
<data key="y">-40.847736</data>
</node>
<node id="action.misuse.variety.Privilege abuse">
<data key="label">action.misuse.variety.Privilege abuse</data>
<data key="d2">action.misuse</data>
<data key="d1">action</data>
<data key="d0">2</data>
<data key="size">28.425068</data>
<data key="r">255</data>
<data key="g">136</data>
<data key="b">5</data>
<data key="x">-10.288524</data>
<data key="y">-353.99194</data>
</node>
<node id="action.malware.variety.Backdoor">
<data key="label">action.malware.variety.Backdoor</data>
<data key="d2">action.malware</data>
<data key="d1">action</data>
<data key="d0">2</data>
<data key="size">28.425068</data>
<data key="r">223</data>
<data key="g">137</data>
<data key="b">255</data>
<data key="x">253.04578</data>
<data key="y">247.7579</data>
</node>
<node id="attribute.confidentiality.data.variety.Personal">
<data key="label">attribute.confidentiality.data.variety.Personal</data>
<data key="d2">attribute.confidentiality</data>
<data key="d1">attribute</data>
<data key="d0">2</data>
<data key="size">28.425068</data>
<data key="r">115</data>
<data key="g">192</data>
<data key="b">0</data>
<data key="x">-353.09113</data>
<data key="y">27.254332</data>
</node>
<node id="action.malware.variety.Adminware">
<data key="label">action.malware.variety.Adminware</data>
<data key="d2">action.malware</data>
<data key="d1">action</data>
<data key="d0">2</data>
<data key="size">28.425068</data>
<data key="r">223</data>
<data key="g">137</data>
<data key="b">255</data>
<data key="x">200.93292</data>
<data key="y">291.61978</data>
</node>
<node id="action.malware.vector.Removable media">
<data key="label">action.malware.vector.Removable media</data>
<data key="d2">action.malware</data>
<data key="d1">action</data>
<data key="d0">2</data>
<data key="size">28.425068</data>
<data key="r">223</data>
<data key="g">137</data>
<data key="b">255</data>
<data key="x">164.38573</data>
<data key="y">-313.67734</data>
</node>
<node id="action.malware.variety.Capture app data">
<data key="label">action.malware.variety.Capture app data</data>
<data key="d2">action.malware</data>
<data key="d1">action</data>
<data key="d0">1</data>
<data key="size">23.545279</data>
<data key="r">223</data>
<data key="g">137</data>
<data key="b">255</data>
<data key="x">337.50522</data>
<data key="y">107.26776</data>
</node>
<node id="action.social.variety.Bribery">
<data key="label">action.social.variety.Bribery</data>
<data key="d2">action.social</data>
<data key="d1">action</data>
<data key="d0">1</data>
<data key="size">23.545279</data>
<data key="r">76</data>
<data key="g">70</data>
<data key="b">62</data>
<data key="x">-137.18854</data>
<data key="y">-326.4896</data>
</node>
<node id="action.malware.variety.Worm">
<data key="label">action.malware.variety.Worm</data>
<data key="d2">action.malware</data>
<data key="d1">action</data>
<data key="d0">1</data>
<data key="size">23.545279</data>
<data key="r">223</data>
<data key="g">137</data>
<data key="b">255</data>
<data key="x">317.06256</data>
<data key="y">-157.75768</data>
</node>
<node id="action.malware.variety.Spyware/Keylogger">
<data key="label">action.malware.variety.Spyware/Keylogger</data>
<data key="d2">action.malware</data>
<data key="d1">action</data>
<data key="d0">1</data>
<data key="size">23.545279</data>
<data key="r">223</data>
<data key="g">137</data>
<data key="b">255</data>
<data key="x">338.10068</data>
<data key="y">-105.37584</data>
</node>
<node id="attribute.integrity.variety.Modify data">
<data key="label">attribute.integrity.variety.Modify data</data>
<data key="d2">attribute.integrity</data>
<data key="d1">attribute</data>
<data key="d0">1</data>
<data key="size">23.545279</data>
<data key="r">0</data>
<data key="g">196</data>
<data key="b">255</data>
<data key="x">-186.36238</data>
<data key="y">301.13983</data>
</node>
<node id="attribute.confidentiality.data.variety.Bank">
<data key="label">attribute.confidentiality.data.variety.Bank</data>
<data key="d2">attribute.confidentiality</data>
<data key="d1">attribute</data>
<data key="d0">1</data>
<data key="size">23.545279</data>
<data key="r">115</data>
<data key="g">192</data>
<data key="b">0</data>
<data key="x">-339.18112</data>
<data key="y">-101.84449</data>
</node>
<node id="action.malware.vector.Web drive-by">
<data key="label">action.malware.vector.Web drive-by</data>
<data key="d2">action.malware</data>
<data key="d1">action</data>
<data key="d0">1</data>
<data key="size">23.545279</data>
<data key="r">223</data>
<data key="g">137</data>
<data key="b">255</data>
<data key="x">106.889786</data>
<data key="y">-337.62512</data>
</node>
<node id="action.misuse.variety.Knowledge abuse">
<data key="label">action.misuse.variety.Knowledge abuse</data>
<data key="d2">action.misuse</data>
<data key="d1">action</data>
<data key="d0">1</data>
<data key="size">23.545279</data>
<data key="r">255</data>
<data key="g">136</data>
<data key="b">5</data>
<data key="x">51.88699</data>
<data key="y">-350.31967</data>
</node>
<node id="attribute.integrity.variety.Modify configuration">
<data key="label">attribute.integrity.variety.Modify configuration</data>
<data key="d2">attribute.integrity</data>
<data key="d1">attribute</data>
<data key="d0">1</data>
<data key="size">23.545279</data>
<data key="r">0</data>
<data key="g">196</data>
<data key="b">255</data>
<data key="x">-231.84273</data>
<data key="y">267.70337</data>
</node>
<node id="attribute.availability.variety.Degradation">
<data key="label">attribute.availability.variety.Degradation</data>
<data key="d2">attribute.availability</data>
<data key="d1">attribute</data>
<data key="d0">1</data>
<data key="size">23.545279</data>
<data key="r">0</data>
<data key="g">189</data>
<data key="b">148</data>
<data key="x">-274.1272</data>
<data key="y">-224.21066</data>
</node>
<node id="end">
<data key="label">end</data>
<data key="d2">end</data>
<data key="d1">end</data>
<data key="d0">0</data>
<data key="size">10.0</data>
<data key="r">211</data>
<data key="g">179</data>
<data key="b">176</data>
<data key="x">-400.99554</data>
<data key="y">332.3366</data>
</node>
<node id="start">
<data key="label">start</data>
<data key="d2">start</data>
<data key="d1">start</data>
<data key="d0">0</data>
<data key="size">10.0</data>
<data key="r">192</data>
<data key="g">192</data>
<data key="b">192</data>
<data key="x">389.38394</data>
<data key="y">-354.32355</data>
</node>
<edge id="464" source="action.social.variety.Baiting" target="action.social.variety.Phishing">
<data key="edgelabel">action.social.variety.Baiting-&gt;action.social.variety.Phishing</data>
<data key="weight">1.0</data>
<data key="d6">forward</data>
<data key="d5">1</data>
</edge>
<edge id="465" source="attribute.confidentiality.data.variety.Classified" target="end">
<data key="edgelabel">attribute.confidentiality.data.variety.Classified-&gt;end</data>
<data key="weight">1.0</data>
<data key="d6">forward</data>
<data key="d5">1</data>
</edge>
<edge id="466" source="action.misuse.variety.Privilege abuse" target="attribute.confidentiality.data.variety.Personal">
<data key="edgelabel">action.misuse.variety.Privilege abuse-&gt;attribute.confidentiality.data.variety.Personal</data>
<data key="weight">1.0</data>
<data key="d6">forward</data>
<data key="d5">1</data>
</edge>
<edge id="467" source="action.social.variety.Phishing" target="attribute.integrity.variety.Software installation">
<data key="edgelabel">action.social.variety.Phishing-&gt;attribute.integrity.variety.Software installation</data>
<data key="weight">1.0</data>
<data key="d6">forward</data>
<data key="d5">15</data>
</edge>
<edge id="468" source="action.social.variety.Phishing" target="attribute.integrity.variety.Alter behavior">
<data key="edgelabel">action.social.variety.Phishing-&gt;attribute.integrity.variety.Alter behavior</data>
<data key="weight">1.0</data>
<data key="d6">forward</data>
<data key="d5">15</data>
</edge>
<edge id="469" source="attribute.integrity.variety.Software installation" target="action.malware.variety.Ransomware">
<data key="edgelabel">attribute.integrity.variety.Software installation-&gt;action.malware.variety.Ransomware</data>
<data key="weight">1.0</data>
<data key="d6">backward</data>
<data key="d5">5</data>
</edge>
<edge id="470" source="attribute.integrity.variety.Software installation" target="end">
<data key="edgelabel">attribute.integrity.variety.Software installation-&gt;end</data>
<data key="weight">1.0</data>
<data key="d6">forward</data>
<data key="d5">1</data>
</edge>
<edge id="471" source="attribute.integrity.variety.Software installation" target="action.social.variety.Phishing">
<data key="edgelabel">attribute.integrity.variety.Software installation-&gt;action.social.variety.Phishing</data>
<data key="weight">1.0</data>
<data key="d6">backward</data>
<data key="d5">17</data>
</edge>
<edge id="472" source="attribute.integrity.variety.Modify data" target="end">
<data key="edgelabel">attribute.integrity.variety.Modify data-&gt;end</data>
<data key="weight">1.0</data>
<data key="d6">forward</data>
<data key="d5">1</data>
</edge>
<edge id="473" source="action.malware.variety.Backdoor" target="action.social.variety.Phishing">
<data key="edgelabel">action.malware.variety.Backdoor-&gt;action.social.variety.Phishing</data>
<data key="weight">1.0</data>
<data key="d6">forward</data>
<data key="d5">1</data>
</edge>
<edge id="474" source="attribute.confidentiality.data.variety.Bank" target="end">
<data key="edgelabel">attribute.confidentiality.data.variety.Bank-&gt;end</data>
<data key="weight">1.0</data>
<data key="d6">forward</data>
<data key="d5">1</data>
</edge>
<edge id="475" source="attribute.confidentiality.data.variety.Personal" target="end">
<data key="edgelabel">attribute.confidentiality.data.variety.Personal-&gt;end</data>
<data key="weight">1.0</data>
<data key="d6">forward</data>
<data key="d5">1</data>
</edge>
<edge id="476" source="action.malware.variety.Capture stored data" target="action.social.variety.Phishing">
<data key="edgelabel">action.malware.variety.Capture stored data-&gt;action.social.variety.Phishing</data>
<data key="weight">1.0</data>
<data key="d6">forward</data>
<data key="d5">1</data>
</edge>
<edge id="477" source="start" target="action.social.variety.Baiting">
<data key="edgelabel">start-&gt;action.social.variety.Baiting</data>
<data key="weight">1.0</data>
<data key="d6">forward</data>
<data key="d5">1</data>
</edge>
<edge id="478" source="start" target="action.malware.variety.Ransomware">
<data key="edgelabel">start-&gt;action.malware.variety.Ransomware</data>
<data key="weight">1.0</data>
<data key="d6">forward</data>
<data key="d5">1</data>
</edge>
<edge id="479" source="start" target="action.misuse.variety.Privilege abuse">
<data key="edgelabel">start-&gt;action.misuse.variety.Privilege abuse</data>
<data key="weight">1.0</data>
<data key="d6">forward</data>
<data key="d5">1</data>
</edge>
<edge id="480" source="start" target="action.malware.variety.Capture app data">
<data key="edgelabel">start-&gt;action.malware.variety.Capture app data</data>
<data key="weight">1.0</data>
<data key="d6">forward</data>
<data key="d5">1</data>
</edge>
<edge id="481" source="start" target="action.malware.vector.Web drive-by">
<data key="edgelabel">start-&gt;action.malware.vector.Web drive-by</data>
<data key="weight">1.0</data>
<data key="d6">forward</data>
<data key="d5">1</data>
</edge>
<edge id="482" source="start" target="action.social.variety.Bribery">
<data key="edgelabel">start-&gt;action.social.variety.Bribery</data>
<data key="weight">1.0</data>
<data key="d6">forward</data>
<data key="d5">1</data>
</edge>
<edge id="483" source="start" target="action.social.variety.Phishing">
<data key="edgelabel">start-&gt;action.social.variety.Phishing</data>
<data key="weight">1.0</data>
<data key="d6">forward</data>
<data key="d5">1</data>
</edge>
<edge id="484" source="start" target="action.malware.variety.Capture stored data">
<data key="edgelabel">start-&gt;action.malware.variety.Capture stored data</data>
<data key="weight">1.0</data>
<data key="d6">forward</data>
<data key="d5">1</data>
</edge>
<edge id="485" source="start" target="action.malware.variety.Spyware/Keylogger">
<data key="edgelabel">start-&gt;action.malware.variety.Spyware/Keylogger</data>
<data key="weight">1.0</data>
<data key="d6">forward</data>
<data key="d5">1</data>
</edge>
<edge id="486" source="start" target="action.hacking.variety.DoS">
<data key="edgelabel">start-&gt;action.hacking.variety.DoS</data>
<data key="weight">1.0</data>
<data key="d6">forward</data>
<data key="d5">1</data>
</edge>
<edge id="487" source="start" target="action.malware.vector.Direct install">
<data key="edgelabel">start-&gt;action.malware.vector.Direct install</data>
<data key="weight">1.0</data>
<data key="d6">forward</data>
<data key="d5">1</data>
</edge>
<edge id="488" source="start" target="action.malware.vector.Removable media">
<data key="edgelabel">start-&gt;action.malware.vector.Removable media</data>
<data key="weight">1.0</data>
<data key="d6">forward</data>
<data key="d5">1</data>
</edge>
<edge id="489" source="start" target="action.misuse.variety.Knowledge abuse">
<data key="edgelabel">start-&gt;action.misuse.variety.Knowledge abuse</data>
<data key="weight">1.0</data>
<data key="d6">forward</data>
<data key="d5">1</data>
</edge>
<edge id="490" source="start" target="action.malware.variety.Backdoor">
<data key="edgelabel">start-&gt;action.malware.variety.Backdoor</data>
<data key="weight">1.0</data>
<data key="d6">forward</data>
<data key="d5">1</data>
</edge>
<edge id="491" source="start" target="action.malware.variety.Worm">
<data key="edgelabel">start-&gt;action.malware.variety.Worm</data>
<data key="weight">1.0</data>
<data key="d6">forward</data>
<data key="d5">1</data>
</edge>
<edge id="492" source="start" target="action.malware.vector.Email attachment">
<data key="edgelabel">start-&gt;action.malware.vector.Email attachment</data>
<data key="weight">1.0</data>
<data key="d6">forward</data>
<data key="d5">1</data>
</edge>
<edge id="493" source="start" target="action.malware.variety.C2">
<data key="edgelabel">start-&gt;action.malware.variety.C2</data>
<data key="weight">1.0</data>
<data key="d6">forward</data>
<data key="d5">1</data>
</edge>
<edge id="494" source="start" target="action.hacking.variety.Use of backdoor or C2">
<data key="edgelabel">start-&gt;action.hacking.variety.Use of backdoor or C2</data>
<data key="weight">1.0</data>
<data key="d6">forward</data>
<data key="d5">1</data>
</edge>
<edge id="495" source="start" target="action.malware.variety.Adminware">
<data key="edgelabel">start-&gt;action.malware.variety.Adminware</data>
<data key="weight">1.0</data>
<data key="d6">forward</data>
<data key="d5">1</data>
</edge>
<edge id="496" source="action.malware.variety.C2" target="action.social.variety.Phishing">
<data key="edgelabel">action.malware.variety.C2-&gt;action.social.variety.Phishing</data>
<data key="weight">1.0</data>
<data key="d6">forward</data>
<data key="d5">7</data>
</edge>
<edge id="497" source="action.malware.variety.Adminware" target="action.social.variety.Phishing">
<data key="edgelabel">action.malware.variety.Adminware-&gt;action.social.variety.Phishing</data>
<data key="weight">1.0</data>
<data key="d6">forward</data>
<data key="d5">1</data>
</edge>
<edge id="498" source="action.malware.variety.Ransomware" target="attribute.availability.variety.Obscuration">
<data key="edgelabel">action.malware.variety.Ransomware-&gt;attribute.availability.variety.Obscuration</data>
<data key="weight">1.0</data>
<data key="d6">forward</data>
<data key="d5">3</data>
</edge>
<edge id="499" source="action.malware.variety.Ransomware" target="attribute.integrity.variety.Software installation">
<data key="edgelabel">action.malware.variety.Ransomware-&gt;attribute.integrity.variety.Software installation</data>
<data key="weight">1.0</data>
<data key="d6">forward</data>
<data key="d5">3</data>
</edge>
<edge id="500" source="attribute.availability.variety.Obscuration" target="action.malware.variety.Ransomware">
<data key="edgelabel">attribute.availability.variety.Obscuration-&gt;action.malware.variety.Ransomware</data>
<data key="weight">1.0</data>
<data key="d6">backward</data>
<data key="d5">3</data>
</edge>
<edge id="501" source="attribute.availability.variety.Obscuration" target="end">
<data key="edgelabel">attribute.availability.variety.Obscuration-&gt;end</data>
<data key="weight">1.0</data>
<data key="d6">forward</data>
<data key="d5">1</data>
</edge>
<edge id="502" source="attribute.availability.variety.Obscuration" target="action.social.variety.Phishing">
<data key="edgelabel">attribute.availability.variety.Obscuration-&gt;action.social.variety.Phishing</data>
<data key="weight">1.0</data>
<data key="d6">backward</data>
<data key="d5">2</data>
</edge>
<edge id="503" source="action.hacking.variety.DoS" target="action.social.variety.Phishing">
<data key="edgelabel">action.hacking.variety.DoS-&gt;action.social.variety.Phishing</data>
<data key="weight">1.0</data>
<data key="d6">forward</data>
<data key="d5">2</data>
</edge>
<edge id="504" source="action.malware.vector.Direct install" target="attribute.integrity.variety.Software installation">
<data key="edgelabel">action.malware.vector.Direct install-&gt;attribute.integrity.variety.Software installation</data>
<data key="weight">1.0</data>
<data key="d6">forward</data>
<data key="d5">2</data>
</edge>
<edge id="505" source="attribute.integrity.variety.Alter behavior" target="action.malware.variety.Ransomware">
<data key="edgelabel">attribute.integrity.variety.Alter behavior-&gt;action.malware.variety.Ransomware</data>
<data key="weight">1.0</data>
<data key="d6">backward</data>
<data key="d5">2</data>
</edge>
<edge id="506" source="attribute.integrity.variety.Alter behavior" target="end">
<data key="edgelabel">attribute.integrity.variety.Alter behavior-&gt;end</data>
<data key="weight">1.0</data>
<data key="d6">forward</data>
<data key="d5">1</data>
</edge>
<edge id="507" source="attribute.integrity.variety.Alter behavior" target="action.social.variety.Phishing">
<data key="edgelabel">attribute.integrity.variety.Alter behavior-&gt;action.social.variety.Phishing</data>
<data key="weight">1.0</data>
<data key="d6">backward</data>
<data key="d5">15</data>
</edge>
<edge id="508" source="action.hacking.variety.Use of backdoor or C2" target="action.social.variety.Phishing">
<data key="edgelabel">action.hacking.variety.Use of backdoor or C2-&gt;action.social.variety.Phishing</data>
<data key="weight">1.0</data>
<data key="d6">forward</data>
<data key="d5">7</data>
</edge>
<edge id="509" source="action.malware.vector.Email attachment" target="action.malware.variety.Ransomware">
<data key="edgelabel">action.malware.vector.Email attachment-&gt;action.malware.variety.Ransomware</data>
<data key="weight">1.0</data>
<data key="d6">forward</data>
<data key="d5">1</data>
</edge>
<edge id="510" source="action.malware.vector.Email attachment" target="action.social.variety.Phishing">
<data key="edgelabel">action.malware.vector.Email attachment-&gt;action.social.variety.Phishing</data>
<data key="weight">1.0</data>
<data key="d6">forward</data>
<data key="d5">3</data>
</edge>
<edge id="511" source="attribute.confidentiality.data.variety.Secrets" target="end">
<data key="edgelabel">attribute.confidentiality.data.variety.Secrets-&gt;end</data>
<data key="weight">1.0</data>
<data key="d6">forward</data>
<data key="d5">1</data>
</edge>
<edge id="512" source="action.malware.vector.Removable media" target="action.social.variety.Phishing">
<data key="edgelabel">action.malware.vector.Removable media-&gt;action.social.variety.Phishing</data>
<data key="weight">1.0</data>
<data key="d6">forward</data>
<data key="d5">1</data>
</edge>
<edge id="513" source="attribute.integrity.variety.Modify configuration" target="end">
<data key="edgelabel">attribute.integrity.variety.Modify configuration-&gt;end</data>
<data key="weight">1.0</data>
<data key="d6">forward</data>
<data key="d5">1</data>
</edge>
<edge id="514" source="attribute.availability.variety.Degradation" target="end">
<data key="edgelabel">attribute.availability.variety.Degradation-&gt;end</data>
<data key="weight">1.0</data>
<data key="d6">forward</data>
<data key="d5">1</data>
</edge>
</graph>
</graphml>
