<?xml version="1.0" encoding="UTF-8"?>
<graphml xmlns="http://graphml.graphdrawing.org/xmlns">
<key attr.name="label" attr.type="string" for="node" id="label"/>
<key attr.name="Edge Label" attr.type="string" for="edge" id="edgelabel"/>
<key attr.name="weight" attr.type="double" for="edge" id="weight"/>
<key attr.name="r" attr.type="int" for="node" id="r"/>
<key attr.name="g" attr.type="int" for="node" id="g"/>
<key attr.name="b" attr.type="int" for="node" id="b"/>
<key attr.name="x" attr.type="float" for="node" id="x"/>
<key attr.name="y" attr.type="float" for="node" id="y"/>
<key attr.name="size" attr.type="float" for="node" id="size"/>
<key attr.name="sub_type" attr.type="string" for="node" id="d2"/>
<key attr.name="type" attr.type="string" for="node" id="d1"/>
<key attr.name="count" attr.type="int" for="node" id="d0"/>
<key attr.name="direction" attr.type="string" for="edge" id="d6"/>
<key attr.name="count" attr.type="int" for="edge" id="d5"/>
<graph edgedefault="directed">
<node id="attribute.integrity.variety.Alter behavior">
<data key="label">attribute.integrity.variety.Alter behavior</data>
<data key="d2">attribute.integrity</data>
<data key="d1">attribute</data>
<data key="d0">4</data>
<data key="size">50.0</data>
<data key="r">223</data>
<data key="g">137</data>
<data key="b">255</data>
<data key="x">-259.70963</data>
<data key="y">1.9946399</data>
</node>
<node id="attribute.integrity.variety.Fraudulent transaction">
<data key="label">attribute.integrity.variety.Fraudulent transaction</data>
<data key="d2">attribute.integrity</data>
<data key="d1">attribute</data>
<data key="d0">3</data>
<data key="size">48.609673</data>
<data key="r">223</data>
<data key="g">137</data>
<data key="b">255</data>
<data key="x">-232.33888</data>
<data key="y">116.06767</data>
</node>
<node id="attribute.confidentiality.data.variety.Personal">
<data key="label">attribute.confidentiality.data.variety.Personal</data>
<data key="d2">attribute.confidentiality</data>
<data key="d1">attribute</data>
<data key="d0">3</data>
<data key="size">48.609673</data>
<data key="r">115</data>
<data key="g">192</data>
<data key="b">0</data>
<data key="x">-181.50859</data>
<data key="y">-185.76247</data>
</node>
<node id="action.social.variety.Pretexting">
<data key="label">action.social.variety.Pretexting</data>
<data key="d2">action.social</data>
<data key="d1">action</data>
<data key="d0">2</data>
<data key="size">45.0</data>
<data key="r">76</data>
<data key="g">70</data>
<data key="b">62</data>
<data key="x">2.0106611</data>
<data key="y">-259.7095</data>
</node>
<node id="action.hacking.variety.SSI injection">
<data key="label">action.hacking.variety.SSI injection</data>
<data key="d2">action.hacking</data>
<data key="d1">action</data>
<data key="d0">2</data>
<data key="size">45.0</data>
<data key="r">211</data>
<data key="g">179</data>
<data key="b">176</data>
<data key="x">53.61177</data>
<data key="y">254.12367</data>
</node>
<node id="action.misuse.variety.Data mishandling">
<data key="label">action.misuse.variety.Data mishandling</data>
<data key="d2">action.misuse</data>
<data key="d1">action</data>
<data key="d0">2</data>
<data key="size">45.0</data>
<data key="r">0</data>
<data key="g">196</data>
<data key="b">255</data>
<data key="x">251.71031</data>
<data key="y">63.99204</data>
</node>
<node id="action.misuse.variety.Knowledge abuse">
<data key="label">action.misuse.variety.Knowledge abuse</data>
<data key="d2">action.misuse</data>
<data key="d1">action</data>
<data key="d0">1</data>
<data key="size">37.77189</data>
<data key="r">0</data>
<data key="g">196</data>
<data key="b">255</data>
<data key="x">230.06395</data>
<data key="y">-120.51408</data>
</node>
<node id="attribute.confidentiality.data.variety.Internal">
<data key="label">attribute.confidentiality.data.variety.Internal</data>
<data key="d2">attribute.confidentiality</data>
<data key="d1">attribute</data>
<data key="d0">1</data>
<data key="size">37.77189</data>
<data key="r">115</data>
<data key="g">192</data>
<data key="b">0</data>
<data key="x">-95.05435</data>
<data key="y">-241.6976</data>
</node>
<node id="action.social.variety.Bribery">
<data key="label">action.social.variety.Bribery</data>
<data key="d2">action.social</data>
<data key="d1">action</data>
<data key="d0">1</data>
<data key="size">37.77189</data>
<data key="r">76</data>
<data key="g">70</data>
<data key="b">62</data>
<data key="x">174.97551</data>
<data key="y">-191.92873</data>
</node>
<node id="attribute.integrity.variety.Modify data">
<data key="label">attribute.integrity.variety.Modify data</data>
<data key="d2">attribute.integrity</data>
<data key="d1">attribute</data>
<data key="d0">1</data>
<data key="size">37.77189</data>
<data key="r">223</data>
<data key="g">137</data>
<data key="b">255</data>
<data key="x">-168.9734</data>
<data key="y">197.23349</data>
</node>
<node id="action.social.variety.Phishing">
<data key="label">action.social.variety.Phishing</data>
<data key="d2">action.social</data>
<data key="d1">action</data>
<data key="d0">1</data>
<data key="size">37.77189</data>
<data key="r">76</data>
<data key="g">70</data>
<data key="b">62</data>
<data key="x">98.785164</data>
<data key="y">-240.1969</data>
</node>
<node id="attribute.confidentiality.data.variety.Secrets">
<data key="label">attribute.confidentiality.data.variety.Secrets</data>
<data key="d2">attribute.confidentiality</data>
<data key="d1">attribute</data>
<data key="d0">1</data>
<data key="size">37.77189</data>
<data key="r">115</data>
<data key="g">192</data>
<data key="b">0</data>
<data key="x">-239.43115</data>
<data key="y">-100.62697</data>
</node>
<node id="action.misuse.variety.Email misuse">
<data key="label">action.misuse.variety.Email misuse</data>
<data key="d2">action.misuse</data>
<data key="d1">action</data>
<data key="d0">1</data>
<data key="size">37.77189</data>
<data key="r">0</data>
<data key="g">196</data>
<data key="b">255</data>
<data key="x">257.40686</data>
<data key="y">-34.56553</data>
</node>
<node id="attribute.integrity.variety.Software installation">
<data key="label">attribute.integrity.variety.Software installation</data>
<data key="d2">attribute.integrity</data>
<data key="d1">attribute</data>
<data key="d0">1</data>
<data key="size">37.77189</data>
<data key="r">223</data>
<data key="g">137</data>
<data key="b">255</data>
<data key="x">-91.33076</data>
<data key="y">243.12909</data>
</node>
<node id="action.malware.variety.C2">
<data key="label">action.malware.variety.C2</data>
<data key="d2">action.malware</data>
<data key="d1">action</data>
<data key="d0">1</data>
<data key="size">37.77189</data>
<data key="r">255</data>
<data key="g">136</data>
<data key="b">5</data>
<data key="x">144.5739</data>
<data key="y">215.75784</data>
</node>
<node id="action.malware.vector.Email attachment">
<data key="label">action.malware.vector.Email attachment</data>
<data key="d2">action.malware</data>
<data key="d1">action</data>
<data key="d0">1</data>
<data key="size">37.77189</data>
<data key="r">255</data>
<data key="g">136</data>
<data key="b">5</data>
<data key="x">209.64508</data>
<data key="y">153.30363</data>
</node>
<node id="end">
<data key="label">end</data>
<data key="d2">end</data>
<data key="d1">end</data>
<data key="d0">0</data>
<data key="size">10.0</data>
<data key="r">255</data>
<data key="g">85</data>
<data key="b">132</data>
<data key="x">-331.00284</data>
<data key="y">235.44034</data>
</node>
<node id="start">
<data key="label">start</data>
<data key="d2">start</data>
<data key="d1">start</data>
<data key="d0">0</data>
<data key="size">10.0</data>
<data key="r">0</data>
<data key="g">189</data>
<data key="b">148</data>
<data key="x">308.87082</data>
<data key="y">-269.36353</data>
</node>
<edge id="515" source="action.social.variety.Pretexting" target="attribute.integrity.variety.Fraudulent transaction">
<data key="edgelabel">action.social.variety.Pretexting-&gt;attribute.integrity.variety.Fraudulent transaction</data>
<data key="weight">1.0</data>
<data key="d6">forward</data>
<data key="d5">1</data>
</edge>
<edge id="516" source="action.social.variety.Pretexting" target="attribute.integrity.variety.Alter behavior">
<data key="edgelabel">action.social.variety.Pretexting-&gt;attribute.integrity.variety.Alter behavior</data>
<data key="weight">1.0</data>
<data key="d6">forward</data>
<data key="d5">1</data>
</edge>
<edge id="517" source="attribute.integrity.variety.Fraudulent transaction" target="action.social.variety.Pretexting">
<data key="edgelabel">attribute.integrity.variety.Fraudulent transaction-&gt;action.social.variety.Pretexting</data>
<data key="weight">1.0</data>
<data key="d6">backward</data>
<data key="d5">1</data>
</edge>
<edge id="518" source="attribute.integrity.variety.Fraudulent transaction" target="end">
<data key="edgelabel">attribute.integrity.variety.Fraudulent transaction-&gt;end</data>
<data key="weight">1.0</data>
<data key="d6">forward</data>
<data key="d5">1</data>
</edge>
<edge id="519" source="attribute.confidentiality.data.variety.Internal" target="end">
<data key="edgelabel">attribute.confidentiality.data.variety.Internal-&gt;end</data>
<data key="weight">1.0</data>
<data key="d6">forward</data>
<data key="d5">1</data>
</edge>
<edge id="520" source="action.hacking.variety.SSI injection" target="attribute.confidentiality.data.variety.Personal">
<data key="edgelabel">action.hacking.variety.SSI injection-&gt;attribute.confidentiality.data.variety.Personal</data>
<data key="weight">1.0</data>
<data key="d6">forward</data>
<data key="d5">1</data>
</edge>
<edge id="521" source="attribute.integrity.variety.Modify data" target="end">
<data key="edgelabel">attribute.integrity.variety.Modify data-&gt;end</data>
<data key="weight">1.0</data>
<data key="d6">forward</data>
<data key="d5">1</data>
</edge>
<edge id="522" source="attribute.confidentiality.data.variety.Personal" target="end">
<data key="edgelabel">attribute.confidentiality.data.variety.Personal-&gt;end</data>
<data key="weight">1.0</data>
<data key="d6">forward</data>
<data key="d5">1</data>
</edge>
<edge id="523" source="start" target="action.social.variety.Pretexting">
<data key="edgelabel">start-&gt;action.social.variety.Pretexting</data>
<data key="weight">1.0</data>
<data key="d6">forward</data>
<data key="d5">1</data>
</edge>
<edge id="524" source="start" target="action.misuse.variety.Knowledge abuse">
<data key="edgelabel">start-&gt;action.misuse.variety.Knowledge abuse</data>
<data key="weight">1.0</data>
<data key="d6">forward</data>
<data key="d5">1</data>
</edge>
<edge id="525" source="start" target="action.misuse.variety.Email misuse">
<data key="edgelabel">start-&gt;action.misuse.variety.Email misuse</data>
<data key="weight">1.0</data>
<data key="d6">forward</data>
<data key="d5">1</data>
</edge>
<edge id="526" source="start" target="action.hacking.variety.SSI injection">
<data key="edgelabel">start-&gt;action.hacking.variety.SSI injection</data>
<data key="weight">1.0</data>
<data key="d6">forward</data>
<data key="d5">1</data>
</edge>
<edge id="527" source="start" target="action.social.variety.Bribery">
<data key="edgelabel">start-&gt;action.social.variety.Bribery</data>
<data key="weight">1.0</data>
<data key="d6">forward</data>
<data key="d5">1</data>
</edge>
<edge id="528" source="start" target="action.social.variety.Phishing">
<data key="edgelabel">start-&gt;action.social.variety.Phishing</data>
<data key="weight">1.0</data>
<data key="d6">forward</data>
<data key="d5">1</data>
</edge>
<edge id="529" source="start" target="action.misuse.variety.Data mishandling">
<data key="edgelabel">start-&gt;action.misuse.variety.Data mishandling</data>
<data key="weight">1.0</data>
<data key="d6">forward</data>
<data key="d5">1</data>
</edge>
<edge id="530" source="start" target="action.malware.variety.C2">
<data key="edgelabel">start-&gt;action.malware.variety.C2</data>
<data key="weight">1.0</data>
<data key="d6">forward</data>
<data key="d5">1</data>
</edge>
<edge id="531" source="start" target="action.malware.vector.Email attachment">
<data key="edgelabel">start-&gt;action.malware.vector.Email attachment</data>
<data key="weight">1.0</data>
<data key="d6">forward</data>
<data key="d5">1</data>
</edge>
<edge id="532" source="attribute.confidentiality.data.variety.Secrets" target="end">
<data key="edgelabel">attribute.confidentiality.data.variety.Secrets-&gt;end</data>
<data key="weight">1.0</data>
<data key="d6">forward</data>
<data key="d5">1</data>
</edge>
<edge id="533" source="attribute.integrity.variety.Alter behavior" target="action.social.variety.Pretexting">
<data key="edgelabel">attribute.integrity.variety.Alter behavior-&gt;action.social.variety.Pretexting</data>
<data key="weight">1.0</data>
<data key="d6">backward</data>
<data key="d5">1</data>
</edge>
<edge id="534" source="attribute.integrity.variety.Alter behavior" target="end">
<data key="edgelabel">attribute.integrity.variety.Alter behavior-&gt;end</data>
<data key="weight">1.0</data>
<data key="d6">forward</data>
<data key="d5">1</data>
</edge>
<edge id="535" source="attribute.integrity.variety.Software installation" target="end">
<data key="edgelabel">attribute.integrity.variety.Software installation-&gt;end</data>
<data key="weight">1.0</data>
<data key="d6">forward</data>
<data key="d5">1</data>
</edge>
</graph>
</graphml>
