<?xml version="1.0" encoding="UTF-8"?>
<graphml xmlns="http://graphml.graphdrawing.org/xmlns">
<key attr.name="label" attr.type="string" for="node" id="label"/>
<key attr.name="Edge Label" attr.type="string" for="edge" id="edgelabel"/>
<key attr.name="weight" attr.type="double" for="edge" id="weight"/>
<key attr.name="r" attr.type="int" for="node" id="r"/>
<key attr.name="g" attr.type="int" for="node" id="g"/>
<key attr.name="b" attr.type="int" for="node" id="b"/>
<key attr.name="x" attr.type="float" for="node" id="x"/>
<key attr.name="y" attr.type="float" for="node" id="y"/>
<key attr.name="size" attr.type="float" for="node" id="size"/>
<key attr.name="sub_type" attr.type="string" for="node" id="d2"/>
<key attr.name="type" attr.type="string" for="node" id="d1"/>
<key attr.name="count" attr.type="int" for="node" id="d0"/>
<key attr.name="direction" attr.type="string" for="edge" id="d6"/>
<key attr.name="count" attr.type="int" for="edge" id="d5"/>
<graph edgedefault="directed">
<node id="attribute.confidentiality.data.variety.Internal">
<data key="label">attribute.confidentiality.data.variety.Internal</data>
<data key="d2">attribute.confidentiality</data>
<data key="d1">attribute</data>
<data key="d0">7</data>
<data key="size">50.0</data>
<data key="r">223</data>
<data key="g">137</data>
<data key="b">255</data>
<data key="x">-241.34198</data>
<data key="y">-154.2936</data>
</node>
<node id="attribute.integrity.variety.Alter behavior">
<data key="label">attribute.integrity.variety.Alter behavior</data>
<data key="d2">attribute.integrity</data>
<data key="d1">attribute</data>
<data key="d0">6</data>
<data key="size">49.46145</data>
<data key="r">115</data>
<data key="g">192</data>
<data key="b">0</data>
<data key="x">-280.0541</data>
<data key="y">60.18445</data>
</node>
<node id="action.misuse.variety.Privilege abuse">
<data key="label">action.misuse.variety.Privilege abuse</data>
<data key="d2">action.misuse</data>
<data key="d1">action</data>
<data key="d0">5</data>
<data key="size">48.242035</data>
<data key="r">76</data>
<data key="g">70</data>
<data key="b">62</data>
<data key="x">279.8937</data>
<data key="y">-60.926052</data>
</node>
<node id="attribute.confidentiality.data.variety.Secrets">
<data key="label">attribute.confidentiality.data.variety.Secrets</data>
<data key="d2">attribute.confidentiality</data>
<data key="d1">attribute</data>
<data key="d0">3</data>
<data key="size">43.425827</data>
<data key="r">223</data>
<data key="g">137</data>
<data key="b">255</data>
<data key="x">-281.95026</data>
<data key="y">-50.56213</data>
</node>
<node id="action.social.variety.Phishing">
<data key="label">action.social.variety.Phishing</data>
<data key="d2">action.social</data>
<data key="d1">action</data>
<data key="d0">3</data>
<data key="size">43.425827</data>
<data key="r">255</data>
<data key="g">85</data>
<data key="b">132</data>
<data key="x">89.07863</data>
<data key="y">-272.24524</data>
</node>
<node id="attribute.confidentiality.data.variety.Credentials">
<data key="label">attribute.confidentiality.data.variety.Credentials</data>
<data key="d2">attribute.confidentiality</data>
<data key="d1">attribute</data>
<data key="d0">2</data>
<data key="size">39.161316</data>
<data key="r">223</data>
<data key="g">137</data>
<data key="b">255</data>
<data key="x">-168.40057</data>
<data key="y">-231.71904</data>
</node>
<node id="action.social.variety.Pretexting">
<data key="label">action.social.variety.Pretexting</data>
<data key="d2">action.social</data>
<data key="d1">action</data>
<data key="d0">2</data>
<data key="size">39.161316</data>
<data key="r">255</data>
<data key="g">85</data>
<data key="b">132</data>
<data key="x">-8.522604</data>
<data key="y">-286.3212</data>
</node>
<node id="action.misuse.variety.Knowledge abuse">
<data key="label">action.misuse.variety.Knowledge abuse</data>
<data key="d2">action.misuse</data>
<data key="d1">action</data>
<data key="d0">2</data>
<data key="size">39.161316</data>
<data key="r">76</data>
<data key="g">70</data>
<data key="b">62</data>
<data key="x">283.15308</data>
<data key="y">43.322105</data>
</node>
<node id="action.physical.variety.Surveillance">
<data key="label">action.physical.variety.Surveillance</data>
<data key="d2">action.physical</data>
<data key="d1">action</data>
<data key="d0">2</data>
<data key="size">39.161316</data>
<data key="r">255</data>
<data key="g">136</data>
<data key="b">5</data>
<data key="x">176.12305</data>
<data key="y">-225.90515</data>
</node>
<node id="attribute.integrity.variety.Created account">
<data key="label">attribute.integrity.variety.Created account</data>
<data key="d2">attribute.integrity</data>
<data key="d1">attribute</data>
<data key="d0">2</data>
<data key="size">39.161316</data>
<data key="r">115</data>
<data key="g">192</data>
<data key="b">0</data>
<data key="x">-239.13963</data>
<data key="y">157.68546</data>
</node>
<node id="action.hacking.variety.Use of stolen creds">
<data key="label">action.hacking.variety.Use of stolen creds</data>
<data key="d2">action.hacking</data>
<data key="d1">action</data>
<data key="d0">2</data>
<data key="size">39.161316</data>
<data key="r">192</data>
<data key="g">192</data>
<data key="b">192</data>
<data key="x">46.783062</data>
<data key="y">282.60187</data>
</node>
<node id="action.malware.vector.Email attachment">
<data key="label">action.malware.vector.Email attachment</data>
<data key="d2">action.malware</data>
<data key="d1">action</data>
<data key="d0">2</data>
<data key="size">39.161316</data>
<data key="r">0</data>
<data key="g">196</data>
<data key="b">255</data>
<data key="x">254.08667</data>
<data key="y">132.25896</data>
</node>
<node id="attribute.integrity.variety.Fraudulent transaction">
<data key="label">attribute.integrity.variety.Fraudulent transaction</data>
<data key="d2">attribute.integrity</data>
<data key="d1">attribute</data>
<data key="d0">2</data>
<data key="size">39.161316</data>
<data key="r">115</data>
<data key="g">192</data>
<data key="b">0</data>
<data key="x">-175.5669</data>
<data key="y">226.33766</data>
</node>
<node id="action.physical.variety.Bypassed controls">
<data key="label">action.physical.variety.Bypassed controls</data>
<data key="d2">action.physical</data>
<data key="d1">action</data>
<data key="d0">2</data>
<data key="size">39.161316</data>
<data key="r">255</data>
<data key="g">136</data>
<data key="b">5</data>
<data key="x">239.52675</data>
<data key="y">-157.0968</data>
</node>
<node id="action.malware.variety.Spyware/Keylogger">
<data key="label">action.malware.variety.Spyware/Keylogger</data>
<data key="d2">action.malware</data>
<data key="d1">action</data>
<data key="d0">2</data>
<data key="size">39.161316</data>
<data key="r">0</data>
<data key="g">196</data>
<data key="b">255</data>
<data key="x">197.9104</data>
<data key="y">207.0844</data>
</node>
<node id="attribute.integrity.variety.Software installation">
<data key="label">attribute.integrity.variety.Software installation</data>
<data key="d2">attribute.integrity</data>
<data key="d1">attribute</data>
<data key="d0">2</data>
<data key="size">39.161316</data>
<data key="r">115</data>
<data key="g">192</data>
<data key="b">0</data>
<data key="x">-93.26196</data>
<data key="y">270.84067</data>
</node>
<node id="action.malware.variety.Backdoor">
<data key="label">action.malware.variety.Backdoor</data>
<data key="d2">action.malware</data>
<data key="d1">action</data>
<data key="d0">1</data>
<data key="size">32.294777</data>
<data key="r">0</data>
<data key="g">196</data>
<data key="b">255</data>
<data key="x">128.04079</data>
<data key="y">256.23822</data>
</node>
<node id="attribute.confidentiality.data.variety.Bank">
<data key="label">attribute.confidentiality.data.variety.Bank</data>
<data key="d2">attribute.confidentiality</data>
<data key="d1">attribute</data>
<data key="d0">1</data>
<data key="size">32.294777</data>
<data key="r">223</data>
<data key="g">137</data>
<data key="b">255</data>
<data key="x">-92.57862</data>
<data key="y">-271.075</data>
</node>
<node id="end">
<data key="label">end</data>
<data key="d2">end</data>
<data key="d1">end</data>
<data key="d0">0</data>
<data key="size">10.0</data>
<data key="r">0</data>
<data key="g">189</data>
<data key="b">148</data>
<data key="x">-352.84714</data>
<data key="y">284.1888</data>
</node>
<node id="start">
<data key="label">start</data>
<data key="d2">start</data>
<data key="d1">start</data>
<data key="d0">0</data>
<data key="size">10.0</data>
<data key="r">211</data>
<data key="g">179</data>
<data key="b">176</data>
<data key="x">321.502</data>
<data key="y">-288.556</data>
</node>
<edge id="1521" source="attribute.confidentiality.data.variety.Credentials" target="end">
<data key="edgelabel">attribute.confidentiality.data.variety.Credentials-&gt;end</data>
<data key="weight">1.0</data>
<data key="d6">forward</data>
<data key="d5">1</data>
</edge>
<edge id="1522" source="action.social.variety.Pretexting" target="attribute.integrity.variety.Fraudulent transaction">
<data key="edgelabel">action.social.variety.Pretexting-&gt;attribute.integrity.variety.Fraudulent transaction</data>
<data key="weight">1.0</data>
<data key="d6">forward</data>
<data key="d5">1</data>
</edge>
<edge id="1523" source="action.social.variety.Pretexting" target="attribute.integrity.variety.Alter behavior">
<data key="edgelabel">action.social.variety.Pretexting-&gt;attribute.integrity.variety.Alter behavior</data>
<data key="weight">1.0</data>
<data key="d6">forward</data>
<data key="d5">1</data>
</edge>
<edge id="1524" source="attribute.confidentiality.data.variety.Secrets" target="end">
<data key="edgelabel">attribute.confidentiality.data.variety.Secrets-&gt;end</data>
<data key="weight">1.0</data>
<data key="d6">forward</data>
<data key="d5">1</data>
</edge>
<edge id="1525" source="attribute.confidentiality.data.variety.Secrets" target="action.misuse.variety.Privilege abuse">
<data key="edgelabel">attribute.confidentiality.data.variety.Secrets-&gt;action.misuse.variety.Privilege abuse</data>
<data key="weight">1.0</data>
<data key="d6">backward</data>
<data key="d5">1</data>
</edge>
<edge id="1526" source="action.misuse.variety.Privilege abuse" target="attribute.confidentiality.data.variety.Secrets">
<data key="edgelabel">action.misuse.variety.Privilege abuse-&gt;attribute.confidentiality.data.variety.Secrets</data>
<data key="weight">1.0</data>
<data key="d6">forward</data>
<data key="d5">1</data>
</edge>
<edge id="1527" source="action.misuse.variety.Privilege abuse" target="attribute.integrity.variety.Alter behavior">
<data key="edgelabel">action.misuse.variety.Privilege abuse-&gt;attribute.integrity.variety.Alter behavior</data>
<data key="weight">1.0</data>
<data key="d6">forward</data>
<data key="d5">1</data>
</edge>
<edge id="1528" source="action.misuse.variety.Privilege abuse" target="attribute.confidentiality.data.variety.Internal">
<data key="edgelabel">action.misuse.variety.Privilege abuse-&gt;attribute.confidentiality.data.variety.Internal</data>
<data key="weight">1.0</data>
<data key="d6">forward</data>
<data key="d5">4</data>
</edge>
<edge id="1529" source="action.misuse.variety.Privilege abuse" target="attribute.integrity.variety.Created account">
<data key="edgelabel">action.misuse.variety.Privilege abuse-&gt;attribute.integrity.variety.Created account</data>
<data key="weight">1.0</data>
<data key="d6">forward</data>
<data key="d5">1</data>
</edge>
<edge id="1530" source="action.misuse.variety.Knowledge abuse" target="attribute.confidentiality.data.variety.Secrets">
<data key="edgelabel">action.misuse.variety.Knowledge abuse-&gt;attribute.confidentiality.data.variety.Secrets</data>
<data key="weight">1.0</data>
<data key="d6">forward</data>
<data key="d5">1</data>
</edge>
<edge id="1531" source="attribute.confidentiality.data.variety.Internal" target="end">
<data key="edgelabel">attribute.confidentiality.data.variety.Internal-&gt;end</data>
<data key="weight">1.0</data>
<data key="d6">forward</data>
<data key="d5">1</data>
</edge>
<edge id="1532" source="attribute.confidentiality.data.variety.Internal" target="action.misuse.variety.Privilege abuse">
<data key="edgelabel">attribute.confidentiality.data.variety.Internal-&gt;action.misuse.variety.Privilege abuse</data>
<data key="weight">1.0</data>
<data key="d6">backward</data>
<data key="d5">3</data>
</edge>
<edge id="1533" source="start" target="action.social.variety.Pretexting">
<data key="edgelabel">start-&gt;action.social.variety.Pretexting</data>
<data key="weight">1.0</data>
<data key="d6">forward</data>
<data key="d5">1</data>
</edge>
<edge id="1534" source="start" target="action.misuse.variety.Privilege abuse">
<data key="edgelabel">start-&gt;action.misuse.variety.Privilege abuse</data>
<data key="weight">1.0</data>
<data key="d6">forward</data>
<data key="d5">1</data>
</edge>
<edge id="1535" source="start" target="action.misuse.variety.Knowledge abuse">
<data key="edgelabel">start-&gt;action.misuse.variety.Knowledge abuse</data>
<data key="weight">1.0</data>
<data key="d6">forward</data>
<data key="d5">1</data>
</edge>
<edge id="1536" source="start" target="action.malware.variety.Backdoor">
<data key="edgelabel">start-&gt;action.malware.variety.Backdoor</data>
<data key="weight">1.0</data>
<data key="d6">forward</data>
<data key="d5">1</data>
</edge>
<edge id="1537" source="start" target="action.physical.variety.Surveillance">
<data key="edgelabel">start-&gt;action.physical.variety.Surveillance</data>
<data key="weight">1.0</data>
<data key="d6">forward</data>
<data key="d5">1</data>
</edge>
<edge id="1538" source="start" target="action.social.variety.Phishing">
<data key="edgelabel">start-&gt;action.social.variety.Phishing</data>
<data key="weight">1.0</data>
<data key="d6">forward</data>
<data key="d5">1</data>
</edge>
<edge id="1539" source="start" target="action.hacking.variety.Use of stolen creds">
<data key="edgelabel">start-&gt;action.hacking.variety.Use of stolen creds</data>
<data key="weight">1.0</data>
<data key="d6">forward</data>
<data key="d5">1</data>
</edge>
<edge id="1540" source="start" target="action.physical.variety.Bypassed controls">
<data key="edgelabel">start-&gt;action.physical.variety.Bypassed controls</data>
<data key="weight">1.0</data>
<data key="d6">forward</data>
<data key="d5">1</data>
</edge>
<edge id="1541" source="start" target="action.malware.variety.Spyware/Keylogger">
<data key="edgelabel">start-&gt;action.malware.variety.Spyware/Keylogger</data>
<data key="weight">1.0</data>
<data key="d6">forward</data>
<data key="d5">1</data>
</edge>
<edge id="1542" source="start" target="action.malware.vector.Email attachment">
<data key="edgelabel">start-&gt;action.malware.vector.Email attachment</data>
<data key="weight">1.0</data>
<data key="d6">forward</data>
<data key="d5">1</data>
</edge>
<edge id="1543" source="attribute.confidentiality.data.variety.Bank" target="end">
<data key="edgelabel">attribute.confidentiality.data.variety.Bank-&gt;end</data>
<data key="weight">1.0</data>
<data key="d6">forward</data>
<data key="d5">1</data>
</edge>
<edge id="1544" source="attribute.integrity.variety.Created account" target="end">
<data key="edgelabel">attribute.integrity.variety.Created account-&gt;end</data>
<data key="weight">1.0</data>
<data key="d6">forward</data>
<data key="d5">1</data>
</edge>
<edge id="1545" source="attribute.integrity.variety.Created account" target="action.misuse.variety.Privilege abuse">
<data key="edgelabel">attribute.integrity.variety.Created account-&gt;action.misuse.variety.Privilege abuse</data>
<data key="weight">1.0</data>
<data key="d6">backward</data>
<data key="d5">2</data>
</edge>
<edge id="1546" source="attribute.integrity.variety.Fraudulent transaction" target="action.social.variety.Pretexting">
<data key="edgelabel">attribute.integrity.variety.Fraudulent transaction-&gt;action.social.variety.Pretexting</data>
<data key="weight">1.0</data>
<data key="d6">backward</data>
<data key="d5">1</data>
</edge>
<edge id="1547" source="attribute.integrity.variety.Fraudulent transaction" target="end">
<data key="edgelabel">attribute.integrity.variety.Fraudulent transaction-&gt;end</data>
<data key="weight">1.0</data>
<data key="d6">forward</data>
<data key="d5">1</data>
</edge>
<edge id="1548" source="attribute.integrity.variety.Software installation" target="end">
<data key="edgelabel">attribute.integrity.variety.Software installation-&gt;end</data>
<data key="weight">1.0</data>
<data key="d6">forward</data>
<data key="d5">1</data>
</edge>
<edge id="1549" source="attribute.integrity.variety.Alter behavior" target="action.social.variety.Pretexting">
<data key="edgelabel">attribute.integrity.variety.Alter behavior-&gt;action.social.variety.Pretexting</data>
<data key="weight">1.0</data>
<data key="d6">backward</data>
<data key="d5">1</data>
</edge>
<edge id="1550" source="attribute.integrity.variety.Alter behavior" target="end">
<data key="edgelabel">attribute.integrity.variety.Alter behavior-&gt;end</data>
<data key="weight">1.0</data>
<data key="d6">forward</data>
<data key="d5">1</data>
</edge>
<edge id="1551" source="attribute.integrity.variety.Alter behavior" target="action.misuse.variety.Privilege abuse">
<data key="edgelabel">attribute.integrity.variety.Alter behavior-&gt;action.misuse.variety.Privilege abuse</data>
<data key="weight">1.0</data>
<data key="d6">backward</data>
<data key="d5">2</data>
</edge>
</graph>
</graphml>
