<?xml version="1.0" encoding="UTF-8"?>
<graphml xmlns="http://graphml.graphdrawing.org/xmlns">
<key attr.name="label" attr.type="string" for="node" id="label"/>
<key attr.name="Edge Label" attr.type="string" for="edge" id="edgelabel"/>
<key attr.name="weight" attr.type="double" for="edge" id="weight"/>
<key attr.name="r" attr.type="int" for="node" id="r"/>
<key attr.name="g" attr.type="int" for="node" id="g"/>
<key attr.name="b" attr.type="int" for="node" id="b"/>
<key attr.name="x" attr.type="float" for="node" id="x"/>
<key attr.name="y" attr.type="float" for="node" id="y"/>
<key attr.name="size" attr.type="float" for="node" id="size"/>
<key attr.name="sub_type" attr.type="string" for="node" id="d2"/>
<key attr.name="type" attr.type="string" for="node" id="d1"/>
<key attr.name="count" attr.type="int" for="node" id="d0"/>
<key attr.name="direction" attr.type="string" for="edge" id="d6"/>
<key attr.name="count" attr.type="int" for="edge" id="d5"/>
<graph edgedefault="directed">
<node id="attribute.availability.variety.Degradation">
<data key="label">attribute.availability.variety.Degradation</data>
<data key="d2">attribute.availability</data>
<data key="d1">attribute</data>
<data key="d0">2825</data>
<data key="size">50.0</data>
<data key="r">0</data>
<data key="g">189</data>
<data key="b">148</data>
<data key="x">-219.8841</data>
<data key="y">-278.56604</data>
</node>
<node id="action.hacking.variety.DoS">
<data key="label">action.hacking.variety.DoS</data>
<data key="d2">action.hacking</data>
<data key="d1">action</data>
<data key="d0">2824</data>
<data key="size">49.99995</data>
<data key="r">0</data>
<data key="g">196</data>
<data key="b">255</data>
<data key="x">144.3076</data>
<data key="y">324.22736</data>
</node>
<node id="attribute.integrity.variety.Software installation">
<data key="label">attribute.integrity.variety.Software installation</data>
<data key="d2">attribute.integrity</data>
<data key="d1">attribute</data>
<data key="d0">78</data>
<data key="size">20.769629</data>
<data key="r">76</data>
<data key="g">70</data>
<data key="b">62</data>
<data key="x">-72.41147</data>
<data key="y">347.42572</data>
</node>
<node id="attribute.integrity.variety.Alter behavior">
<data key="label">attribute.integrity.variety.Alter behavior</data>
<data key="d2">attribute.integrity</data>
<data key="d1">attribute</data>
<data key="d0">72</data>
<data key="size">20.375359</data>
<data key="r">76</data>
<data key="g">70</data>
<data key="b">62</data>
<data key="x">-286.66058</data>
<data key="y">209.2218</data>
</node>
<node id="action.social.variety.Phishing">
<data key="label">action.social.variety.Phishing</data>
<data key="d2">action.social</data>
<data key="d1">action</data>
<data key="d0">51</data>
<data key="size">18.824158</data>
<data key="r">255</data>
<data key="g">85</data>
<data key="b">132</data>
<data key="x">-116.57241</data>
<data key="y">-335.19983</data>
</node>
<node id="attribute.confidentiality.data.variety.Personal">
<data key="label">attribute.confidentiality.data.variety.Personal</data>
<data key="d2">attribute.confidentiality</data>
<data key="d1">attribute</data>
<data key="d0">35</data>
<data key="size">17.379383</data>
<data key="r">115</data>
<data key="g">192</data>
<data key="b">0</data>
<data key="x">-344.66333</data>
<data key="y">84.58868</data>
</node>
<node id="attribute.availability.variety.Loss">
<data key="label">attribute.availability.variety.Loss</data>
<data key="d2">attribute.availability</data>
<data key="d1">attribute</data>
<data key="d0">25</data>
<data key="size">16.280409</data>
<data key="r">0</data>
<data key="g">189</data>
<data key="b">148</data>
<data key="x">-293.20435</data>
<data key="y">-199.94818</data>
</node>
<node id="action.malware.vector.Email attachment">
<data key="label">action.malware.vector.Email attachment</data>
<data key="d2">action.malware</data>
<data key="d1">action</data>
<data key="d0">25</data>
<data key="size">16.280409</data>
<data key="r">223</data>
<data key="g">137</data>
<data key="b">255</data>
<data key="x">233.75244</data>
<data key="y">-267.0353</data>
</node>
<node id="action.physical.variety.Theft">
<data key="label">action.physical.variety.Theft</data>
<data key="d2">action.physical</data>
<data key="d1">action</data>
<data key="d0">25</data>
<data key="size">16.280409</data>
<data key="r">192</data>
<data key="g">192</data>
<data key="b">192</data>
<data key="x">-19.88051</data>
<data key="y">-354.33435</data>
</node>
<node id="attribute.confidentiality.data.variety.Credentials">
<data key="label">attribute.confidentiality.data.variety.Credentials</data>
<data key="d2">attribute.confidentiality</data>
<data key="d1">attribute</data>
<data key="d0">21</data>
<data key="size">15.774311</data>
<data key="r">115</data>
<data key="g">192</data>
<data key="b">0</data>
<data key="x">-345.78958</data>
<data key="y">-79.860085</data>
</node>
<node id="action.hacking.variety.Use of stolen creds">
<data key="label">action.hacking.variety.Use of stolen creds</data>
<data key="d2">action.hacking</data>
<data key="d1">action</data>
<data key="d0">20</data>
<data key="size">15.639853</data>
<data key="r">0</data>
<data key="g">196</data>
<data key="b">255</data>
<data key="x">310.22134</data>
<data key="y">172.36813</data>
</node>
<node id="attribute.integrity.variety.Fraudulent transaction">
<data key="label">attribute.integrity.variety.Fraudulent transaction</data>
<data key="d2">attribute.integrity</data>
<data key="d1">attribute</data>
<data key="d0">20</data>
<data key="size">15.639853</data>
<data key="r">76</data>
<data key="g">70</data>
<data key="b">62</data>
<data key="x">-259.1218</data>
<data key="y">242.49527</data>
</node>
<node id="attribute.confidentiality.data.variety.Secrets">
<data key="label">attribute.confidentiality.data.variety.Secrets</data>
<data key="d2">attribute.confidentiality</data>
<data key="d1">attribute</data>
<data key="d0">20</data>
<data key="size">15.639853</data>
<data key="r">115</data>
<data key="g">192</data>
<data key="b">0</data>
<data key="x">-333.0928</data>
<data key="y">122.46323</data>
</node>
<node id="action.malware.variety.C2">
<data key="label">action.malware.variety.C2</data>
<data key="d2">action.malware</data>
<data key="d1">action</data>
<data key="d0">19</data>
<data key="size">15.501747</data>
<data key="r">223</data>
<data key="g">137</data>
<data key="b">255</data>
<data key="x">352.07968</data>
<data key="y">44.586437</data>
</node>
<node id="action.malware.variety.Backdoor">
<data key="label">action.malware.variety.Backdoor</data>
<data key="d2">action.malware</data>
<data key="d1">action</data>
<data key="d0">18</data>
<data key="size">15.359701</data>
<data key="r">223</data>
<data key="g">137</data>
<data key="b">255</data>
<data key="x">345.5202</data>
<data key="y">81.01756</data>
</node>
<node id="action.hacking.variety.Use of backdoor or C2">
<data key="label">action.hacking.variety.Use of backdoor or C2</data>
<data key="d2">action.hacking</data>
<data key="d1">action</data>
<data key="d0">18</data>
<data key="size">15.359701</data>
<data key="r">0</data>
<data key="g">196</data>
<data key="b">255</data>
<data key="x">290.48425</data>
<data key="y">203.87975</data>
</node>
<node id="action.social.variety.Pretexting">
<data key="label">action.social.variety.Pretexting</data>
<data key="d2">action.social</data>
<data key="d1">action</data>
<data key="d0">15</data>
<data key="size">14.906334</data>
<data key="r">255</data>
<data key="g">85</data>
<data key="b">132</data>
<data key="x">-153.96288</data>
<data key="y">-319.75537</data>
</node>
<node id="attribute.confidentiality.data.variety.Internal">
<data key="label">attribute.confidentiality.data.variety.Internal</data>
<data key="d2">attribute.confidentiality</data>
<data key="d1">attribute</data>
<data key="d0">14</data>
<data key="size">14.74464</data>
<data key="r">115</data>
<data key="g">192</data>
<data key="b">0</data>
<data key="x">-352.1765</data>
<data key="y">-43.81508</data>
</node>
<node id="action.malware.variety.Ransomware">
<data key="label">action.malware.variety.Ransomware</data>
<data key="d2">action.malware</data>
<data key="d1">action</data>
<data key="d0">13</data>
<data key="size">14.576715</data>
<data key="r">223</data>
<data key="g">137</data>
<data key="b">255</data>
<data key="x">326.4506</data>
<data key="y">-139.20512</data>
</node>
<node id="action.malware.variety.Export data">
<data key="label">action.malware.variety.Export data</data>
<data key="d2">action.malware</data>
<data key="d1">action</data>
<data key="d0">12</data>
<data key="size">14.401821</data>
<data key="r">223</data>
<data key="g">137</data>
<data key="b">255</data>
<data key="x">345.93692</data>
<data key="y">-79.219315</data>
</node>
<node id="action.malware.variety.Spyware/Keylogger">
<data key="label">action.malware.variety.Spyware/Keylogger</data>
<data key="d2">action.malware</data>
<data key="d1">action</data>
<data key="d0">12</data>
<data key="size">14.401821</data>
<data key="r">223</data>
<data key="g">137</data>
<data key="b">255</data>
<data key="x">296.65347</data>
<data key="y">-194.79419</data>
</node>
<node id="attribute.availability.variety.Obscuration">
<data key="label">attribute.availability.variety.Obscuration</data>
<data key="d2">attribute.availability</data>
<data key="d1">attribute</data>
<data key="d0">11</data>
<data key="size">14.2190695</data>
<data key="r">0</data>
<data key="g">189</data>
<data key="b">148</data>
<data key="x">-312.23032</data>
<data key="y">-168.70177</data>
</node>
<node id="action.misuse.variety.Privilege abuse">
<data key="label">action.misuse.variety.Privilege abuse</data>
<data key="d2">action.misuse</data>
<data key="d1">action</data>
<data key="d0">9</data>
<data key="size">13.825312</data>
<data key="r">255</data>
<data key="g">136</data>
<data key="b">5</data>
<data key="x">16.23028</data>
<data key="y">-354.5203</data>
</node>
<node id="action.malware.variety.Adminware">
<data key="label">action.malware.variety.Adminware</data>
<data key="d2">action.malware</data>
<data key="d1">action</data>
<data key="d0">8</data>
<data key="size">13.611144</data>
<data key="r">223</data>
<data key="g">137</data>
<data key="b">255</data>
<data key="x">335.93997</data>
<data key="y">114.422035</data>
</node>
<node id="attribute.confidentiality.data.variety.Medical">
<data key="label">attribute.confidentiality.data.variety.Medical</data>
<data key="d2">attribute.confidentiality</data>
<data key="d1">attribute</data>
<data key="d0">6</data>
<data key="size">13.136148</data>
<data key="r">115</data>
<data key="g">192</data>
<data key="b">0</data>
<data key="x">-354.73718</data>
<data key="y">-10.468694</data>
</node>
<node id="attribute.confidentiality.data.variety.Payment">
<data key="label">attribute.confidentiality.data.variety.Payment</data>
<data key="d2">attribute.confidentiality</data>
<data key="d1">attribute</data>
<data key="d0">5</data>
<data key="size">12.867427</data>
<data key="r">115</data>
<data key="g">192</data>
<data key="b">0</data>
<data key="x">-351.49847</data>
<data key="y">48.958</data>
</node>
<node id="attribute.confidentiality.data.variety.Bank">
<data key="label">attribute.confidentiality.data.variety.Bank</data>
<data key="d2">attribute.confidentiality</data>
<data key="d1">attribute</data>
<data key="d0">5</data>
<data key="size">12.867427</data>
<data key="r">115</data>
<data key="g">192</data>
<data key="b">0</data>
<data key="x">-326.35114</data>
<data key="y">-139.43811</data>
</node>
<node id="action.misuse.variety.Data mishandling">
<data key="label">action.misuse.variety.Data mishandling</data>
<data key="d2">action.misuse</data>
<data key="d1">action</data>
<data key="d0">5</data>
<data key="size">12.867427</data>
<data key="r">255</data>
<data key="g">136</data>
<data key="b">5</data>
<data key="x">102.29686</data>
<data key="y">-339.8285</data>
</node>
<node id="action.malware.vector.Direct install">
<data key="label">action.malware.vector.Direct install</data>
<data key="d2">action.malware</data>
<data key="d1">action</data>
<data key="d0">5</data>
<data key="size">12.867427</data>
<data key="r">223</data>
<data key="g">137</data>
<data key="b">255</data>
<data key="x">258.89392</data>
<data key="y">-242.73853</data>
</node>
<node id="action.hacking.variety.Brute force">
<data key="label">action.hacking.variety.Brute force</data>
<data key="d2">action.hacking</data>
<data key="d1">action</data>
<data key="d0">5</data>
<data key="size">12.867427</data>
<data key="r">0</data>
<data key="g">196</data>
<data key="b">255</data>
<data key="x">44.672836</data>
<data key="y">352.06873</data>
</node>
<node id="action.malware.variety.Capture app data">
<data key="label">action.malware.variety.Capture app data</data>
<data key="d2">action.malware</data>
<data key="d1">action</data>
<data key="d0">4</data>
<data key="size">12.569197</data>
<data key="r">223</data>
<data key="g">137</data>
<data key="b">255</data>
<data key="x">354.72055</data>
<data key="y">11.017666</data>
</node>
<node id="action.malware.variety.Downloader">
<data key="label">action.malware.variety.Downloader</data>
<data key="d2">action.malware</data>
<data key="d1">action</data>
<data key="d0">4</data>
<data key="size">12.569197</data>
<data key="r">223</data>
<data key="g">137</data>
<data key="b">255</data>
<data key="x">354.37524</data>
<data key="y">-19.137348</data>
</node>
<node id="action.malware.vector.Email link">
<data key="label">action.malware.vector.Email link</data>
<data key="d2">action.malware</data>
<data key="d1">action</data>
<data key="d0">3</data>
<data key="size">12.229479</data>
<data key="r">223</data>
<data key="g">137</data>
<data key="b">255</data>
<data key="x">206.96454</data>
<data key="y">-288.29453</data>
</node>
<node id="attribute.integrity.variety.Modify data">
<data key="label">attribute.integrity.variety.Modify data</data>
<data key="d2">attribute.integrity</data>
<data key="d1">attribute</data>
<data key="d0">3</data>
<data key="size">12.229479</data>
<data key="r">76</data>
<data key="g">70</data>
<data key="b">62</data>
<data key="x">-164.65807</data>
<data key="y">314.3816</data>
</node>
<node id="action.hacking.variety.Abuse of functionality">
<data key="label">action.hacking.variety.Abuse of functionality</data>
<data key="d2">action.hacking</data>
<data key="d1">action</data>
<data key="d0">3</data>
<data key="size">12.229479</data>
<data key="r">0</data>
<data key="g">196</data>
<data key="b">255</data>
<data key="x">14.671192</data>
<data key="y">354.58823</data>
</node>
<node id="action.malware.vector.Web download">
<data key="label">action.malware.vector.Web download</data>
<data key="d2">action.malware</data>
<data key="d1">action</data>
<data key="d0">3</data>
<data key="size">12.229479</data>
<data key="r">223</data>
<data key="g">137</data>
<data key="b">255</data>
<data key="x">157.54099</data>
<data key="y">-318.0077</data>
</node>
<node id="action.malware.vector.Web drive-by">
<data key="label">action.malware.vector.Web drive-by</data>
<data key="d2">action.malware</data>
<data key="d1">action</data>
<data key="d0">3</data>
<data key="size">12.229479</data>
<data key="r">223</data>
<data key="g">137</data>
<data key="b">255</data>
<data key="x">130.73216</data>
<data key="y">-329.9351</data>
</node>
<node id="attribute.integrity.variety.Repurpose">
<data key="label">attribute.integrity.variety.Repurpose</data>
<data key="d2">attribute.integrity</data>
<data key="d1">attribute</data>
<data key="d0">3</data>
<data key="size">12.229479</data>
<data key="r">76</data>
<data key="g">70</data>
<data key="b">62</data>
<data key="x">-110.64666</data>
<data key="y">337.20227</data>
</node>
<node id="attribute.integrity.variety.Modify privileges">
<data key="label">attribute.integrity.variety.Modify privileges</data>
<data key="d2">attribute.integrity</data>
<data key="d1">attribute</data>
<data key="d0">3</data>
<data key="size">12.229479</data>
<data key="r">76</data>
<data key="g">70</data>
<data key="b">62</data>
<data key="x">-138.12447</data>
<data key="y">326.9093</data>
</node>
<node id="attribute.integrity.variety.Modify configuration">
<data key="label">attribute.integrity.variety.Modify configuration</data>
<data key="d2">attribute.integrity</data>
<data key="d1">attribute</data>
<data key="d0">3</data>
<data key="size">12.229479</data>
<data key="r">76</data>
<data key="g">70</data>
<data key="b">62</data>
<data key="x">-190.06607</data>
<data key="y">299.70477</data>
</node>
<node id="attribute.integrity.variety.Misrepresentation">
<data key="label">attribute.integrity.variety.Misrepresentation</data>
<data key="d2">attribute.integrity</data>
<data key="d1">attribute</data>
<data key="d0">3</data>
<data key="size">12.229479</data>
<data key="r">76</data>
<data key="g">70</data>
<data key="b">62</data>
<data key="x">-214.17479</data>
<data key="y">282.9792</data>
</node>
<node id="action.hacking.variety.Footprinting">
<data key="label">action.hacking.variety.Footprinting</data>
<data key="d2">action.hacking</data>
<data key="d1">action</data>
<data key="d0">3</data>
<data key="size">12.229479</data>
<data key="r">0</data>
<data key="g">196</data>
<data key="b">255</data>
<data key="x">208.84544</data>
<data key="y">286.9349</data>
</node>
<node id="attribute.confidentiality.data.variety.Classified">
<data key="label">attribute.confidentiality.data.variety.Classified</data>
<data key="d2">attribute.confidentiality</data>
<data key="d1">attribute</data>
<data key="d0">2</data>
<data key="size">11.82523</data>
<data key="r">115</data>
<data key="g">192</data>
<data key="b">0</data>
<data key="x">-336.84296</data>
<data key="y">-111.73578</data>
</node>
<node id="action.social.variety.Elicitation">
<data key="label">action.social.variety.Elicitation</data>
<data key="d2">action.social</data>
<data key="d1">action</data>
<data key="d0">2</data>
<data key="size">11.82523</data>
<data key="r">255</data>
<data key="g">85</data>
<data key="b">132</data>
<data key="x">-53.413944</data>
<data key="y">-350.84897</data>
</node>
<node id="action.hacking.variety.RFI">
<data key="label">action.hacking.variety.RFI</data>
<data key="d2">action.hacking</data>
<data key="d1">action</data>
<data key="d0">2</data>
<data key="size">11.82523</data>
<data key="r">0</data>
<data key="g">196</data>
<data key="b">255</data>
<data key="x">251.3308</data>
<data key="y">250.56116</data>
</node>
<node id="action.malware.variety.Worm">
<data key="label">action.malware.variety.Worm</data>
<data key="d2">action.malware</data>
<data key="d1">action</data>
<data key="d0">2</data>
<data key="size">11.82523</data>
<data key="r">223</data>
<data key="g">137</data>
<data key="b">255</data>
<data key="x">278.23563</data>
<data key="y">-220.30203</data>
</node>
<node id="action.malware.variety.Rootkit">
<data key="label">action.malware.variety.Rootkit</data>
<data key="d2">action.malware</data>
<data key="d1">action</data>
<data key="d0">2</data>
<data key="size">11.82523</data>
<data key="r">223</data>
<data key="g">137</data>
<data key="b">255</data>
<data key="x">312.7398</data>
<data key="y">-167.75539</data>
</node>
<node id="action.malware.variety.Exploit vuln">
<data key="label">action.malware.variety.Exploit vuln</data>
<data key="d2">action.malware</data>
<data key="d1">action</data>
<data key="d0">2</data>
<data key="size">11.82523</data>
<data key="r">223</data>
<data key="g">137</data>
<data key="b">255</data>
<data key="x">351.59363</data>
<data key="y">-48.269867</data>
</node>
<node id="action.social.variety.Extortion">
<data key="label">action.social.variety.Extortion</data>
<data key="d2">action.social</data>
<data key="d1">action</data>
<data key="d0">2</data>
<data key="size">11.82523</data>
<data key="r">255</data>
<data key="g">85</data>
<data key="b">132</data>
<data key="x">-81.27061</data>
<data key="y">-345.4608</data>
</node>
<node id="action.malware.vector.Remote injection">
<data key="label">action.malware.vector.Remote injection</data>
<data key="d2">action.malware</data>
<data key="d1">action</data>
<data key="d0">2</data>
<data key="size">11.82523</data>
<data key="r">223</data>
<data key="g">137</data>
<data key="b">255</data>
<data key="x">182.8573</data>
<data key="y">-304.15665</data>
</node>
<node id="action.hacking.variety.XSS">
<data key="label">action.hacking.variety.XSS</data>
<data key="d2">action.hacking</data>
<data key="d1">action</data>
<data key="d0">2</data>
<data key="size">11.82523</data>
<data key="r">0</data>
<data key="g">196</data>
<data key="b">255</data>
<data key="x">324.86905</data>
<data key="y">142.85712</data>
</node>
<node id="action.misuse.variety.Possession abuse">
<data key="label">action.misuse.variety.Possession abuse</data>
<data key="d2">action.misuse</data>
<data key="d1">action</data>
<data key="d0">2</data>
<data key="size">11.82523</data>
<data key="r">255</data>
<data key="g">136</data>
<data key="b">5</data>
<data key="x">46.879177</data>
<data key="y">-351.78174</data>
</node>
<node id="action.malware.variety.Ram scraper">
<data key="label">action.malware.variety.Ram scraper</data>
<data key="d2">action.malware</data>
<data key="d1">action</data>
<data key="d0">2</data>
<data key="size">11.82523</data>
<data key="r">223</data>
<data key="g">137</data>
<data key="b">255</data>
<data key="x">337.5614</data>
<data key="y">-109.54616</data>
</node>
<node id="attribute.confidentiality.data.variety.Other">
<data key="label">attribute.confidentiality.data.variety.Other</data>
<data key="d2">attribute.confidentiality</data>
<data key="d1">attribute</data>
<data key="d0">2</data>
<data key="size">11.82523</data>
<data key="r">115</data>
<data key="g">192</data>
<data key="b">0</data>
<data key="x">-354.35693</data>
<data key="y">19.473656</data>
</node>
<node id="action.hacking.variety.Buffer overflow">
<data key="label">action.hacking.variety.Buffer overflow</data>
<data key="d2">action.hacking</data>
<data key="d1">action</data>
<data key="d0">2</data>
<data key="size">11.82523</data>
<data key="r">0</data>
<data key="g">196</data>
<data key="b">255</data>
<data key="x">73.87857</data>
<data key="y">347.11673</data>
</node>
<node id="action.hacking.variety.SQLi">
<data key="label">action.hacking.variety.SQLi</data>
<data key="d2">action.hacking</data>
<data key="d1">action</data>
<data key="d0">2</data>
<data key="size">11.82523</data>
<data key="r">0</data>
<data key="g">196</data>
<data key="b">255</data>
<data key="x">270.54352</data>
<data key="y">229.68297</data>
</node>
<node id="attribute.confidentiality.data.variety.Source code">
<data key="label">attribute.confidentiality.data.variety.Source code</data>
<data key="d2">attribute.confidentiality</data>
<data key="d1">attribute</data>
<data key="d0">2</data>
<data key="size">11.82523</data>
<data key="r">115</data>
<data key="g">192</data>
<data key="b">0</data>
<data key="x">-320.30087</data>
<data key="y">152.82475</data>
</node>
<node id="attribute.availability.variety.Interruption">
<data key="label">attribute.availability.variety.Interruption</data>
<data key="d2">attribute.availability</data>
<data key="d1">attribute</data>
<data key="d0">2</data>
<data key="size">11.82523</data>
<data key="r">0</data>
<data key="g">189</data>
<data key="b">148</data>
<data key="x">-272.90802</data>
<data key="y">-226.86841</data>
</node>
<node id="attribute.confidentiality.data.variety.System">
<data key="label">attribute.confidentiality.data.variety.System</data>
<data key="d2">attribute.confidentiality</data>
<data key="d1">attribute</data>
<data key="d0">1</data>
<data key="size">11.300589</data>
<data key="r">115</data>
<data key="g">192</data>
<data key="b">0</data>
<data key="x">-307.38406</data>
<data key="y">177.37839</data>
</node>
<node id="action.misuse.variety.Knowledge abuse">
<data key="label">action.misuse.variety.Knowledge abuse</data>
<data key="d2">action.misuse</data>
<data key="d1">action</data>
<data key="d0">1</data>
<data key="size">11.300589</data>
<data key="r">255</data>
<data key="g">136</data>
<data key="b">5</data>
<data key="x">74.215706</data>
<data key="y">-347.0448</data>
</node>
<node id="attribute.integrity.variety.Log tampering">
<data key="label">attribute.integrity.variety.Log tampering</data>
<data key="d2">attribute.integrity</data>
<data key="d1">attribute</data>
<data key="d0">1</data>
<data key="size">11.300589</data>
<data key="r">76</data>
<data key="g">70</data>
<data key="b">62</data>
<data key="x">-235.98807</data>
<data key="y">265.06168</data>
</node>
<node id="action.hacking.variety.Other">
<data key="label">action.hacking.variety.Other</data>
<data key="d2">action.hacking</data>
<data key="d1">action</data>
<data key="d0">1</data>
<data key="size">11.300589</data>
<data key="r">0</data>
<data key="g">196</data>
<data key="b">255</data>
<data key="x">230.98996</data>
<data key="y">269.42847</data>
</node>
<node id="end">
<data key="label">end</data>
<data key="d2">end</data>
<data key="d1">end</data>
<data key="d0">0</data>
<data key="size">10.0</data>
<data key="r">211</data>
<data key="g">179</data>
<data key="b">176</data>
<data key="x">-370.1018</data>
<data key="y">340.3545</data>
</node>
<node id="start">
<data key="label">start</data>
<data key="d2">start</data>
<data key="d1">start</data>
<data key="d0">0</data>
<data key="size">10.0</data>
<data key="r">192</data>
<data key="g">192</data>
<data key="b">192</data>
<data key="x">363.93622</data>
<data key="y">-359.0409</data>
</node>
<edge id="1552" source="attribute.confidentiality.data.variety.Classified" target="end">
<data key="edgelabel">attribute.confidentiality.data.variety.Classified-&gt;end</data>
<data key="weight">1.0</data>
<data key="d6">forward</data>
<data key="d5">1</data>
</edge>
<edge id="1553" source="action.misuse.variety.Privilege abuse" target="attribute.confidentiality.data.variety.Payment">
<data key="edgelabel">action.misuse.variety.Privilege abuse-&gt;attribute.confidentiality.data.variety.Payment</data>
<data key="weight">1.0</data>
<data key="d6">forward</data>
<data key="d5">2</data>
</edge>
<edge id="1554" source="action.misuse.variety.Privilege abuse" target="attribute.integrity.variety.Fraudulent transaction">
<data key="edgelabel">action.misuse.variety.Privilege abuse-&gt;attribute.integrity.variety.Fraudulent transaction</data>
<data key="weight">1.0</data>
<data key="d6">forward</data>
<data key="d5">1</data>
</edge>
<edge id="1555" source="action.misuse.variety.Privilege abuse" target="attribute.integrity.variety.Modify data">
<data key="edgelabel">action.misuse.variety.Privilege abuse-&gt;attribute.integrity.variety.Modify data</data>
<data key="weight">1.0</data>
<data key="d6">forward</data>
<data key="d5">2</data>
</edge>
<edge id="1556" source="action.misuse.variety.Privilege abuse" target="attribute.confidentiality.data.variety.Internal">
<data key="edgelabel">action.misuse.variety.Privilege abuse-&gt;attribute.confidentiality.data.variety.Internal</data>
<data key="weight">1.0</data>
<data key="d6">forward</data>
<data key="d5">4</data>
</edge>
<edge id="1557" source="action.misuse.variety.Privilege abuse" target="action.physical.variety.Theft">
<data key="edgelabel">action.misuse.variety.Privilege abuse-&gt;action.physical.variety.Theft</data>
<data key="weight">1.0</data>
<data key="d6">forward</data>
<data key="d5">1</data>
</edge>
<edge id="1558" source="action.misuse.variety.Privilege abuse" target="attribute.confidentiality.data.variety.Bank">
<data key="edgelabel">action.misuse.variety.Privilege abuse-&gt;attribute.confidentiality.data.variety.Bank</data>
<data key="weight">1.0</data>
<data key="d6">forward</data>
<data key="d5">1</data>
</edge>
<edge id="1559" source="action.misuse.variety.Privilege abuse" target="attribute.confidentiality.data.variety.Source code">
<data key="edgelabel">action.misuse.variety.Privilege abuse-&gt;attribute.confidentiality.data.variety.Source code</data>
<data key="weight">1.0</data>
<data key="d6">forward</data>
<data key="d5">1</data>
</edge>
<edge id="1560" source="action.malware.variety.Capture app data" target="action.malware.variety.Spyware/Keylogger">
<data key="edgelabel">action.malware.variety.Capture app data-&gt;action.malware.variety.Spyware/Keylogger</data>
<data key="weight">1.0</data>
<data key="d6">forward</data>
<data key="d5">1</data>
</edge>
<edge id="1561" source="action.malware.variety.Capture app data" target="action.malware.vector.Web download">
<data key="edgelabel">action.malware.variety.Capture app data-&gt;action.malware.vector.Web download</data>
<data key="weight">1.0</data>
<data key="d6">forward</data>
<data key="d5">1</data>
</edge>
<edge id="1562" source="action.malware.variety.Capture app data" target="action.malware.vector.Web drive-by">
<data key="edgelabel">action.malware.variety.Capture app data-&gt;action.malware.vector.Web drive-by</data>
<data key="weight">1.0</data>
<data key="d6">forward</data>
<data key="d5">1</data>
</edge>
<edge id="1563" source="action.malware.variety.Capture app data" target="action.hacking.variety.Use of stolen creds">
<data key="edgelabel">action.malware.variety.Capture app data-&gt;action.hacking.variety.Use of stolen creds</data>
<data key="weight">1.0</data>
<data key="d6">forward</data>
<data key="d5">1</data>
</edge>
<edge id="1564" source="attribute.confidentiality.data.variety.Internal" target="action.malware.variety.Spyware/Keylogger">
<data key="edgelabel">attribute.confidentiality.data.variety.Internal-&gt;action.malware.variety.Spyware/Keylogger</data>
<data key="weight">1.0</data>
<data key="d6">backward</data>
<data key="d5">2</data>
</edge>
<edge id="1565" source="attribute.confidentiality.data.variety.Internal" target="action.physical.variety.Theft">
<data key="edgelabel">attribute.confidentiality.data.variety.Internal-&gt;action.physical.variety.Theft</data>
<data key="weight">1.0</data>
<data key="d6">backward</data>
<data key="d5">5</data>
</edge>
<edge id="1566" source="attribute.confidentiality.data.variety.Internal" target="action.hacking.variety.Abuse of functionality">
<data key="edgelabel">attribute.confidentiality.data.variety.Internal-&gt;action.hacking.variety.Abuse of functionality</data>
<data key="weight">1.0</data>
<data key="d6">backward</data>
<data key="d5">1</data>
</edge>
<edge id="1567" source="attribute.confidentiality.data.variety.Internal" target="end">
<data key="edgelabel">attribute.confidentiality.data.variety.Internal-&gt;end</data>
<data key="weight">1.0</data>
<data key="d6">forward</data>
<data key="d5">1</data>
</edge>
<edge id="1568" source="attribute.confidentiality.data.variety.Internal" target="action.misuse.variety.Privilege abuse">
<data key="edgelabel">attribute.confidentiality.data.variety.Internal-&gt;action.misuse.variety.Privilege abuse</data>
<data key="weight">1.0</data>
<data key="d6">backward</data>
<data key="d5">3</data>
</edge>
<edge id="1569" source="attribute.confidentiality.data.variety.Medical" target="action.physical.variety.Theft">
<data key="edgelabel">attribute.confidentiality.data.variety.Medical-&gt;action.physical.variety.Theft</data>
<data key="weight">1.0</data>
<data key="d6">backward</data>
<data key="d5">2</data>
</edge>
<edge id="1570" source="attribute.confidentiality.data.variety.Medical" target="end">
<data key="edgelabel">attribute.confidentiality.data.variety.Medical-&gt;end</data>
<data key="weight">1.0</data>
<data key="d6">forward</data>
<data key="d5">1</data>
</edge>
<edge id="1571" source="attribute.confidentiality.data.variety.Medical" target="action.misuse.variety.Data mishandling">
<data key="edgelabel">attribute.confidentiality.data.variety.Medical-&gt;action.misuse.variety.Data mishandling</data>
<data key="weight">1.0</data>
<data key="d6">backward</data>
<data key="d5">3</data>
</edge>
<edge id="1572" source="action.social.variety.Elicitation" target="action.social.variety.Pretexting">
<data key="edgelabel">action.social.variety.Elicitation-&gt;action.social.variety.Pretexting</data>
<data key="weight">1.0</data>
<data key="d6">forward</data>
<data key="d5">1</data>
</edge>
<edge id="1573" source="action.social.variety.Phishing" target="attribute.integrity.variety.Fraudulent transaction">
<data key="edgelabel">action.social.variety.Phishing-&gt;attribute.integrity.variety.Fraudulent transaction</data>
<data key="weight">1.0</data>
<data key="d6">forward</data>
<data key="d5">10</data>
</edge>
<edge id="1574" source="action.social.variety.Phishing" target="attribute.integrity.variety.Software installation">
<data key="edgelabel">action.social.variety.Phishing-&gt;attribute.integrity.variety.Software installation</data>
<data key="weight">1.0</data>
<data key="d6">forward</data>
<data key="d5">48</data>
</edge>
<edge id="1575" source="action.social.variety.Phishing" target="attribute.integrity.variety.Alter behavior">
<data key="edgelabel">action.social.variety.Phishing-&gt;attribute.integrity.variety.Alter behavior</data>
<data key="weight">1.0</data>
<data key="d6">forward</data>
<data key="d5">50</data>
</edge>
<edge id="1576" source="action.social.variety.Phishing" target="attribute.confidentiality.data.variety.Personal">
<data key="edgelabel">action.social.variety.Phishing-&gt;attribute.confidentiality.data.variety.Personal</data>
<data key="weight">1.0</data>
<data key="d6">forward</data>
<data key="d5">1</data>
</edge>
<edge id="1577" source="attribute.confidentiality.data.variety.System" target="end">
<data key="edgelabel">attribute.confidentiality.data.variety.System-&gt;end</data>
<data key="weight">1.0</data>
<data key="d6">forward</data>
<data key="d5">1</data>
</edge>
<edge id="1578" source="action.hacking.variety.Use of stolen creds" target="attribute.integrity.variety.Fraudulent transaction">
<data key="edgelabel">action.hacking.variety.Use of stolen creds-&gt;attribute.integrity.variety.Fraudulent transaction</data>
<data key="weight">1.0</data>
<data key="d6">forward</data>
<data key="d5">11</data>
</edge>
<edge id="1579" source="action.hacking.variety.Use of stolen creds" target="attribute.integrity.variety.Repurpose">
<data key="edgelabel">action.hacking.variety.Use of stolen creds-&gt;attribute.integrity.variety.Repurpose</data>
<data key="weight">1.0</data>
<data key="d6">forward</data>
<data key="d5">2</data>
</edge>
<edge id="1580" source="action.hacking.variety.Use of stolen creds" target="attribute.confidentiality.data.variety.Bank">
<data key="edgelabel">action.hacking.variety.Use of stolen creds-&gt;attribute.confidentiality.data.variety.Bank</data>
<data key="weight">1.0</data>
<data key="d6">forward</data>
<data key="d5">1</data>
</edge>
<edge id="1581" source="action.hacking.variety.Use of stolen creds" target="attribute.confidentiality.data.variety.Personal">
<data key="edgelabel">action.hacking.variety.Use of stolen creds-&gt;attribute.confidentiality.data.variety.Personal</data>
<data key="weight">1.0</data>
<data key="d6">forward</data>
<data key="d5">1</data>
</edge>
<edge id="1582" source="action.hacking.variety.Use of stolen creds" target="attribute.confidentiality.data.variety.Credentials">
<data key="edgelabel">action.hacking.variety.Use of stolen creds-&gt;attribute.confidentiality.data.variety.Credentials</data>
<data key="weight">1.0</data>
<data key="d6">forward</data>
<data key="d5">16</data>
</edge>
<edge id="1583" source="action.hacking.variety.Use of stolen creds" target="attribute.integrity.variety.Alter behavior">
<data key="edgelabel">action.hacking.variety.Use of stolen creds-&gt;attribute.integrity.variety.Alter behavior</data>
<data key="weight">1.0</data>
<data key="d6">forward</data>
<data key="d5">12</data>
</edge>
<edge id="1584" source="action.hacking.variety.Use of stolen creds" target="attribute.integrity.variety.Software installation">
<data key="edgelabel">action.hacking.variety.Use of stolen creds-&gt;attribute.integrity.variety.Software installation</data>
<data key="weight">1.0</data>
<data key="d6">forward</data>
<data key="d5">17</data>
</edge>
<edge id="1585" source="action.malware.vector.Email link" target="action.social.variety.Phishing">
<data key="edgelabel">action.malware.vector.Email link-&gt;action.social.variety.Phishing</data>
<data key="weight">1.0</data>
<data key="d6">forward</data>
<data key="d5">2</data>
</edge>
<edge id="1586" source="action.malware.variety.Export data" target="action.social.variety.Phishing">
<data key="edgelabel">action.malware.variety.Export data-&gt;action.social.variety.Phishing</data>
<data key="weight">1.0</data>
<data key="d6">forward</data>
<data key="d5">9</data>
</edge>
<edge id="1587" source="action.malware.variety.Export data" target="action.malware.variety.Spyware/Keylogger">
<data key="edgelabel">action.malware.variety.Export data-&gt;action.malware.variety.Spyware/Keylogger</data>
<data key="weight">1.0</data>
<data key="d6">forward</data>
<data key="d5">10</data>
</edge>
<edge id="1588" source="action.malware.variety.Export data" target="action.malware.vector.Web drive-by">
<data key="edgelabel">action.malware.variety.Export data-&gt;action.malware.vector.Web drive-by</data>
<data key="weight">1.0</data>
<data key="d6">forward</data>
<data key="d5">1</data>
</edge>
<edge id="1589" source="action.malware.variety.Export data" target="action.malware.variety.Backdoor">
<data key="edgelabel">action.malware.variety.Export data-&gt;action.malware.variety.Backdoor</data>
<data key="weight">1.0</data>
<data key="d6">forward</data>
<data key="d5">1</data>
</edge>
<edge id="1590" source="action.malware.variety.Export data" target="action.hacking.variety.Use of stolen creds">
<data key="edgelabel">action.malware.variety.Export data-&gt;action.hacking.variety.Use of stolen creds</data>
<data key="weight">1.0</data>
<data key="d6">forward</data>
<data key="d5">10</data>
</edge>
<edge id="1591" source="action.hacking.variety.RFI" target="action.hacking.variety.Use of stolen creds">
<data key="edgelabel">action.hacking.variety.RFI-&gt;action.hacking.variety.Use of stolen creds</data>
<data key="weight">1.0</data>
<data key="d6">forward</data>
<data key="d5">1</data>
</edge>
<edge id="1592" source="action.hacking.variety.RFI" target="action.malware.variety.Ransomware">
<data key="edgelabel">action.hacking.variety.RFI-&gt;action.malware.variety.Ransomware</data>
<data key="weight">1.0</data>
<data key="d6">forward</data>
<data key="d5">1</data>
</edge>
<edge id="1593" source="action.hacking.variety.RFI" target="action.malware.variety.Backdoor">
<data key="edgelabel">action.hacking.variety.RFI-&gt;action.malware.variety.Backdoor</data>
<data key="weight">1.0</data>
<data key="d6">forward</data>
<data key="d5">1</data>
</edge>
<edge id="1594" source="action.malware.variety.Worm" target="action.malware.variety.Spyware/Keylogger">
<data key="edgelabel">action.malware.variety.Worm-&gt;action.malware.variety.Spyware/Keylogger</data>
<data key="weight">1.0</data>
<data key="d6">forward</data>
<data key="d5">1</data>
</edge>
<edge id="1595" source="action.malware.variety.Worm" target="action.malware.vector.Web drive-by">
<data key="edgelabel">action.malware.variety.Worm-&gt;action.malware.vector.Web drive-by</data>
<data key="weight">1.0</data>
<data key="d6">forward</data>
<data key="d5">1</data>
</edge>
<edge id="1596" source="action.malware.variety.Spyware/Keylogger" target="attribute.confidentiality.data.variety.Credentials">
<data key="edgelabel">action.malware.variety.Spyware/Keylogger-&gt;attribute.confidentiality.data.variety.Credentials</data>
<data key="weight">1.0</data>
<data key="d6">forward</data>
<data key="d5">10</data>
</edge>
<edge id="1597" source="action.malware.variety.Spyware/Keylogger" target="attribute.integrity.variety.Software installation">
<data key="edgelabel">action.malware.variety.Spyware/Keylogger-&gt;attribute.integrity.variety.Software installation</data>
<data key="weight">1.0</data>
<data key="d6">forward</data>
<data key="d5">11</data>
</edge>
<edge id="1598" source="action.malware.variety.Spyware/Keylogger" target="attribute.confidentiality.data.variety.Internal">
<data key="edgelabel">action.malware.variety.Spyware/Keylogger-&gt;attribute.confidentiality.data.variety.Internal</data>
<data key="weight">1.0</data>
<data key="d6">forward</data>
<data key="d5">1</data>
</edge>
<edge id="1599" source="action.malware.variety.Rootkit" target="action.hacking.variety.Use of stolen creds">
<data key="edgelabel">action.malware.variety.Rootkit-&gt;action.hacking.variety.Use of stolen creds</data>
<data key="weight">1.0</data>
<data key="d6">forward</data>
<data key="d5">1</data>
</edge>
<edge id="1600" source="action.malware.variety.Rootkit" target="action.malware.variety.Backdoor">
<data key="edgelabel">action.malware.variety.Rootkit-&gt;action.malware.variety.Backdoor</data>
<data key="weight">1.0</data>
<data key="d6">forward</data>
<data key="d5">1</data>
</edge>
<edge id="1601" source="attribute.integrity.variety.Software installation" target="action.social.variety.Pretexting">
<data key="edgelabel">attribute.integrity.variety.Software installation-&gt;action.social.variety.Pretexting</data>
<data key="weight">1.0</data>
<data key="d6">backward</data>
<data key="d5">2</data>
</edge>
<edge id="1602" source="attribute.integrity.variety.Software installation" target="action.malware.variety.Ransomware">
<data key="edgelabel">attribute.integrity.variety.Software installation-&gt;action.malware.variety.Ransomware</data>
<data key="weight">1.0</data>
<data key="d6">backward</data>
<data key="d5">24</data>
</edge>
<edge id="1603" source="attribute.integrity.variety.Software installation" target="action.malware.variety.Spyware/Keylogger">
<data key="edgelabel">attribute.integrity.variety.Software installation-&gt;action.malware.variety.Spyware/Keylogger</data>
<data key="weight">1.0</data>
<data key="d6">backward</data>
<data key="d5">48</data>
</edge>
<edge id="1604" source="attribute.integrity.variety.Software installation" target="action.hacking.variety.DoS">
<data key="edgelabel">attribute.integrity.variety.Software installation-&gt;action.hacking.variety.DoS</data>
<data key="weight">1.0</data>
<data key="d6">backward</data>
<data key="d5">1</data>
</edge>
<edge id="1605" source="attribute.integrity.variety.Software installation" target="action.malware.variety.Backdoor">
<data key="edgelabel">attribute.integrity.variety.Software installation-&gt;action.malware.variety.Backdoor</data>
<data key="weight">1.0</data>
<data key="d6">backward</data>
<data key="d5">13</data>
</edge>
<edge id="1606" source="attribute.integrity.variety.Software installation" target="end">
<data key="edgelabel">attribute.integrity.variety.Software installation-&gt;end</data>
<data key="weight">1.0</data>
<data key="d6">forward</data>
<data key="d5">1</data>
</edge>
<edge id="1607" source="attribute.integrity.variety.Software installation" target="action.social.variety.Phishing">
<data key="edgelabel">attribute.integrity.variety.Software installation-&gt;action.social.variety.Phishing</data>
<data key="weight">1.0</data>
<data key="d6">backward</data>
<data key="d5">136</data>
</edge>
<edge id="1608" source="attribute.integrity.variety.Software installation" target="action.malware.variety.Ram scraper">
<data key="edgelabel">attribute.integrity.variety.Software installation-&gt;action.malware.variety.Ram scraper</data>
<data key="weight">1.0</data>
<data key="d6">backward</data>
<data key="d5">1</data>
</edge>
<edge id="1609" source="attribute.integrity.variety.Software installation" target="action.hacking.variety.Use of stolen creds">
<data key="edgelabel">attribute.integrity.variety.Software installation-&gt;action.hacking.variety.Use of stolen creds</data>
<data key="weight">1.0</data>
<data key="d6">backward</data>
<data key="d5">125</data>
</edge>
<edge id="1610" source="attribute.integrity.variety.Software installation" target="action.malware.vector.Web drive-by">
<data key="edgelabel">attribute.integrity.variety.Software installation-&gt;action.malware.vector.Web drive-by</data>
<data key="weight">1.0</data>
<data key="d6">backward</data>
<data key="d5">3</data>
</edge>
<edge id="1611" source="attribute.integrity.variety.Software installation" target="action.malware.vector.Web download">
<data key="edgelabel">attribute.integrity.variety.Software installation-&gt;action.malware.vector.Web download</data>
<data key="weight">1.0</data>
<data key="d6">backward</data>
<data key="d5">2</data>
</edge>
<edge id="1612" source="action.malware.variety.Exploit vuln" target="action.hacking.variety.Use of stolen creds">
<data key="edgelabel">action.malware.variety.Exploit vuln-&gt;action.hacking.variety.Use of stolen creds</data>
<data key="weight">1.0</data>
<data key="d6">forward</data>
<data key="d5">1</data>
</edge>
<edge id="1613" source="action.malware.variety.Exploit vuln" target="action.malware.variety.Backdoor">
<data key="edgelabel">action.malware.variety.Exploit vuln-&gt;action.malware.variety.Backdoor</data>
<data key="weight">1.0</data>
<data key="d6">forward</data>
<data key="d5">1</data>
</edge>
<edge id="1614" source="attribute.confidentiality.data.variety.Payment" target="end">
<data key="edgelabel">attribute.confidentiality.data.variety.Payment-&gt;end</data>
<data key="weight">1.0</data>
<data key="d6">forward</data>
<data key="d5">1</data>
</edge>
<edge id="1615" source="attribute.confidentiality.data.variety.Payment" target="action.misuse.variety.Privilege abuse">
<data key="edgelabel">attribute.confidentiality.data.variety.Payment-&gt;action.misuse.variety.Privilege abuse</data>
<data key="weight">1.0</data>
<data key="d6">backward</data>
<data key="d5">2</data>
</edge>
<edge id="1616" source="attribute.confidentiality.data.variety.Payment" target="action.malware.variety.Ram scraper">
<data key="edgelabel">attribute.confidentiality.data.variety.Payment-&gt;action.malware.variety.Ram scraper</data>
<data key="weight">1.0</data>
<data key="d6">backward</data>
<data key="d5">1</data>
</edge>
<edge id="1617" source="attribute.availability.variety.Loss" target="action.physical.variety.Theft">
<data key="edgelabel">attribute.availability.variety.Loss-&gt;action.physical.variety.Theft</data>
<data key="weight">1.0</data>
<data key="d6">backward</data>
<data key="d5">19</data>
</edge>
<edge id="1618" source="attribute.availability.variety.Loss" target="end">
<data key="edgelabel">attribute.availability.variety.Loss-&gt;end</data>
<data key="weight">1.0</data>
<data key="d6">forward</data>
<data key="d5">1</data>
</edge>
<edge id="1619" source="attribute.integrity.variety.Modify data" target="end">
<data key="edgelabel">attribute.integrity.variety.Modify data-&gt;end</data>
<data key="weight">1.0</data>
<data key="d6">forward</data>
<data key="d5">1</data>
</edge>
<edge id="1620" source="attribute.integrity.variety.Modify data" target="action.misuse.variety.Privilege abuse">
<data key="edgelabel">attribute.integrity.variety.Modify data-&gt;action.misuse.variety.Privilege abuse</data>
<data key="weight">1.0</data>
<data key="d6">backward</data>
<data key="d5">2</data>
</edge>
<edge id="1621" source="action.malware.variety.Backdoor" target="attribute.integrity.variety.Software installation">
<data key="edgelabel">action.malware.variety.Backdoor-&gt;attribute.integrity.variety.Software installation</data>
<data key="weight">1.0</data>
<data key="d6">forward</data>
<data key="d5">17</data>
</edge>
<edge id="1622" source="action.malware.variety.Backdoor" target="attribute.confidentiality.data.variety.Personal">
<data key="edgelabel">action.malware.variety.Backdoor-&gt;attribute.confidentiality.data.variety.Personal</data>
<data key="weight">1.0</data>
<data key="d6">forward</data>
<data key="d5">2</data>
</edge>
<edge id="1623" source="action.hacking.variety.Abuse of functionality" target="attribute.integrity.variety.Modify configuration">
<data key="edgelabel">action.hacking.variety.Abuse of functionality-&gt;attribute.integrity.variety.Modify configuration</data>
<data key="weight">1.0</data>
<data key="d6">forward</data>
<data key="d5">1</data>
</edge>
<edge id="1624" source="action.hacking.variety.Abuse of functionality" target="attribute.confidentiality.data.variety.Personal">
<data key="edgelabel">action.hacking.variety.Abuse of functionality-&gt;attribute.confidentiality.data.variety.Personal</data>
<data key="weight">1.0</data>
<data key="d6">forward</data>
<data key="d5">1</data>
</edge>
<edge id="1625" source="action.hacking.variety.Abuse of functionality" target="attribute.confidentiality.data.variety.Internal">
<data key="edgelabel">action.hacking.variety.Abuse of functionality-&gt;attribute.confidentiality.data.variety.Internal</data>
<data key="weight">1.0</data>
<data key="d6">forward</data>
<data key="d5">1</data>
</edge>
<edge id="1626" source="attribute.confidentiality.data.variety.Bank" target="action.hacking.variety.Use of stolen creds">
<data key="edgelabel">attribute.confidentiality.data.variety.Bank-&gt;action.hacking.variety.Use of stolen creds</data>
<data key="weight">1.0</data>
<data key="d6">backward</data>
<data key="d5">2</data>
</edge>
<edge id="1627" source="attribute.confidentiality.data.variety.Bank" target="end">
<data key="edgelabel">attribute.confidentiality.data.variety.Bank-&gt;end</data>
<data key="weight">1.0</data>
<data key="d6">forward</data>
<data key="d5">1</data>
</edge>
<edge id="1628" source="attribute.confidentiality.data.variety.Bank" target="action.misuse.variety.Privilege abuse">
<data key="edgelabel">attribute.confidentiality.data.variety.Bank-&gt;action.misuse.variety.Privilege abuse</data>
<data key="weight">1.0</data>
<data key="d6">backward</data>
<data key="d5">2</data>
</edge>
<edge id="1629" source="attribute.confidentiality.data.variety.Personal" target="action.social.variety.Pretexting">
<data key="edgelabel">attribute.confidentiality.data.variety.Personal-&gt;action.social.variety.Pretexting</data>
<data key="weight">1.0</data>
<data key="d6">backward</data>
<data key="d5">8</data>
</edge>
<edge id="1630" source="attribute.confidentiality.data.variety.Personal" target="action.malware.variety.Ransomware">
<data key="edgelabel">attribute.confidentiality.data.variety.Personal-&gt;action.malware.variety.Ransomware</data>
<data key="weight">1.0</data>
<data key="d6">backward</data>
<data key="d5">1</data>
</edge>
<edge id="1631" source="attribute.confidentiality.data.variety.Personal" target="end">
<data key="edgelabel">attribute.confidentiality.data.variety.Personal-&gt;end</data>
<data key="weight">1.0</data>
<data key="d6">forward</data>
<data key="d5">1</data>
</edge>
<edge id="1632" source="attribute.confidentiality.data.variety.Personal" target="action.physical.variety.Theft">
<data key="edgelabel">attribute.confidentiality.data.variety.Personal-&gt;action.physical.variety.Theft</data>
<data key="weight">1.0</data>
<data key="d6">backward</data>
<data key="d5">15</data>
</edge>
<edge id="1633" source="attribute.confidentiality.data.variety.Personal" target="action.social.variety.Phishing">
<data key="edgelabel">attribute.confidentiality.data.variety.Personal-&gt;action.social.variety.Phishing</data>
<data key="weight">1.0</data>
<data key="d6">backward</data>
<data key="d5">1</data>
</edge>
<edge id="1634" source="attribute.confidentiality.data.variety.Personal" target="action.hacking.variety.Use of stolen creds">
<data key="edgelabel">attribute.confidentiality.data.variety.Personal-&gt;action.hacking.variety.Use of stolen creds</data>
<data key="weight">1.0</data>
<data key="d6">backward</data>
<data key="d5">2</data>
</edge>
<edge id="1635" source="attribute.confidentiality.data.variety.Personal" target="action.misuse.variety.Data mishandling">
<data key="edgelabel">attribute.confidentiality.data.variety.Personal-&gt;action.misuse.variety.Data mishandling</data>
<data key="weight">1.0</data>
<data key="d6">backward</data>
<data key="d5">3</data>
</edge>
<edge id="1636" source="attribute.confidentiality.data.variety.Personal" target="action.malware.variety.Backdoor">
<data key="edgelabel">attribute.confidentiality.data.variety.Personal-&gt;action.malware.variety.Backdoor</data>
<data key="weight">1.0</data>
<data key="d6">backward</data>
<data key="d5">2</data>
</edge>
<edge id="1637" source="attribute.confidentiality.data.variety.Personal" target="action.malware.vector.Web download">
<data key="edgelabel">attribute.confidentiality.data.variety.Personal-&gt;action.malware.vector.Web download</data>
<data key="weight">1.0</data>
<data key="d6">backward</data>
<data key="d5">2</data>
</edge>
<edge id="1638" source="action.social.variety.Extortion" target="action.malware.variety.Ransomware">
<data key="edgelabel">action.social.variety.Extortion-&gt;action.malware.variety.Ransomware</data>
<data key="weight">1.0</data>
<data key="d6">forward</data>
<data key="d5">1</data>
</edge>
<edge id="1639" source="start" target="action.hacking.variety.SQLi">
<data key="edgelabel">start-&gt;action.hacking.variety.SQLi</data>
<data key="weight">1.0</data>
<data key="d6">forward</data>
<data key="d5">1</data>
</edge>
<edge id="1640" source="start" target="action.misuse.variety.Privilege abuse">
<data key="edgelabel">start-&gt;action.misuse.variety.Privilege abuse</data>
<data key="weight">1.0</data>
<data key="d6">forward</data>
<data key="d5">1</data>
</edge>
<edge id="1641" source="start" target="action.malware.variety.Capture app data">
<data key="edgelabel">start-&gt;action.malware.variety.Capture app data</data>
<data key="weight">1.0</data>
<data key="d6">forward</data>
<data key="d5">1</data>
</edge>
<edge id="1642" source="start" target="action.malware.variety.Rootkit">
<data key="edgelabel">start-&gt;action.malware.variety.Rootkit</data>
<data key="weight">1.0</data>
<data key="d6">forward</data>
<data key="d5">1</data>
</edge>
<edge id="1643" source="start" target="action.hacking.variety.Buffer overflow">
<data key="edgelabel">start-&gt;action.hacking.variety.Buffer overflow</data>
<data key="weight">1.0</data>
<data key="d6">forward</data>
<data key="d5">1</data>
</edge>
<edge id="1644" source="start" target="action.social.variety.Phishing">
<data key="edgelabel">start-&gt;action.social.variety.Phishing</data>
<data key="weight">1.0</data>
<data key="d6">forward</data>
<data key="d5">1</data>
</edge>
<edge id="1645" source="start" target="action.hacking.variety.RFI">
<data key="edgelabel">start-&gt;action.hacking.variety.RFI</data>
<data key="weight">1.0</data>
<data key="d6">forward</data>
<data key="d5">1</data>
</edge>
<edge id="1646" source="start" target="action.hacking.variety.Use of stolen creds">
<data key="edgelabel">start-&gt;action.hacking.variety.Use of stolen creds</data>
<data key="weight">1.0</data>
<data key="d6">forward</data>
<data key="d5">1</data>
</edge>
<edge id="1647" source="start" target="action.malware.vector.Email link">
<data key="edgelabel">start-&gt;action.malware.vector.Email link</data>
<data key="weight">1.0</data>
<data key="d6">forward</data>
<data key="d5">1</data>
</edge>
<edge id="1648" source="start" target="action.malware.variety.Export data">
<data key="edgelabel">start-&gt;action.malware.variety.Export data</data>
<data key="weight">1.0</data>
<data key="d6">forward</data>
<data key="d5">1</data>
</edge>
<edge id="1649" source="start" target="action.social.variety.Extortion">
<data key="edgelabel">start-&gt;action.social.variety.Extortion</data>
<data key="weight">1.0</data>
<data key="d6">forward</data>
<data key="d5">1</data>
</edge>
<edge id="1650" source="start" target="action.social.variety.Elicitation">
<data key="edgelabel">start-&gt;action.social.variety.Elicitation</data>
<data key="weight">1.0</data>
<data key="d6">forward</data>
<data key="d5">1</data>
</edge>
<edge id="1651" source="start" target="action.malware.variety.Worm">
<data key="edgelabel">start-&gt;action.malware.variety.Worm</data>
<data key="weight">1.0</data>
<data key="d6">forward</data>
<data key="d5">1</data>
</edge>
<edge id="1652" source="start" target="action.malware.vector.Web drive-by">
<data key="edgelabel">start-&gt;action.malware.vector.Web drive-by</data>
<data key="weight">1.0</data>
<data key="d6">forward</data>
<data key="d5">1</data>
</edge>
<edge id="1653" source="start" target="action.malware.variety.Backdoor">
<data key="edgelabel">start-&gt;action.malware.variety.Backdoor</data>
<data key="weight">1.0</data>
<data key="d6">forward</data>
<data key="d5">1</data>
</edge>
<edge id="1654" source="start" target="action.hacking.variety.Abuse of functionality">
<data key="edgelabel">start-&gt;action.hacking.variety.Abuse of functionality</data>
<data key="weight">1.0</data>
<data key="d6">forward</data>
<data key="d5">1</data>
</edge>
<edge id="1655" source="start" target="action.misuse.variety.Data mishandling">
<data key="edgelabel">start-&gt;action.misuse.variety.Data mishandling</data>
<data key="weight">1.0</data>
<data key="d6">forward</data>
<data key="d5">1</data>
</edge>
<edge id="1656" source="start" target="action.malware.vector.Web download">
<data key="edgelabel">start-&gt;action.malware.vector.Web download</data>
<data key="weight">1.0</data>
<data key="d6">forward</data>
<data key="d5">1</data>
</edge>
<edge id="1657" source="start" target="action.malware.variety.Downloader">
<data key="edgelabel">start-&gt;action.malware.variety.Downloader</data>
<data key="weight">1.0</data>
<data key="d6">forward</data>
<data key="d5">1</data>
</edge>
<edge id="1658" source="start" target="action.malware.vector.Remote injection">
<data key="edgelabel">start-&gt;action.malware.vector.Remote injection</data>
<data key="weight">1.0</data>
<data key="d6">forward</data>
<data key="d5">1</data>
</edge>
<edge id="1659" source="start" target="action.malware.variety.C2">
<data key="edgelabel">start-&gt;action.malware.variety.C2</data>
<data key="weight">1.0</data>
<data key="d6">forward</data>
<data key="d5">1</data>
</edge>
<edge id="1660" source="start" target="action.malware.variety.Adminware">
<data key="edgelabel">start-&gt;action.malware.variety.Adminware</data>
<data key="weight">1.0</data>
<data key="d6">forward</data>
<data key="d5">1</data>
</edge>
<edge id="1661" source="start" target="action.social.variety.Pretexting">
<data key="edgelabel">start-&gt;action.social.variety.Pretexting</data>
<data key="weight">1.0</data>
<data key="d6">forward</data>
<data key="d5">1</data>
</edge>
<edge id="1662" source="start" target="action.malware.variety.Ransomware">
<data key="edgelabel">start-&gt;action.malware.variety.Ransomware</data>
<data key="weight">1.0</data>
<data key="d6">forward</data>
<data key="d5">1</data>
</edge>
<edge id="1663" source="start" target="action.malware.variety.Spyware/Keylogger">
<data key="edgelabel">start-&gt;action.malware.variety.Spyware/Keylogger</data>
<data key="weight">1.0</data>
<data key="d6">forward</data>
<data key="d5">1</data>
</edge>
<edge id="1664" source="start" target="action.misuse.variety.Knowledge abuse">
<data key="edgelabel">start-&gt;action.misuse.variety.Knowledge abuse</data>
<data key="weight">1.0</data>
<data key="d6">forward</data>
<data key="d5">1</data>
</edge>
<edge id="1665" source="start" target="action.misuse.variety.Possession abuse">
<data key="edgelabel">start-&gt;action.misuse.variety.Possession abuse</data>
<data key="weight">1.0</data>
<data key="d6">forward</data>
<data key="d5">1</data>
</edge>
<edge id="1666" source="start" target="action.malware.variety.Ram scraper">
<data key="edgelabel">start-&gt;action.malware.variety.Ram scraper</data>
<data key="weight">1.0</data>
<data key="d6">forward</data>
<data key="d5">1</data>
</edge>
<edge id="1667" source="start" target="action.hacking.variety.Brute force">
<data key="edgelabel">start-&gt;action.hacking.variety.Brute force</data>
<data key="weight">1.0</data>
<data key="d6">forward</data>
<data key="d5">1</data>
</edge>
<edge id="1668" source="start" target="action.hacking.variety.DoS">
<data key="edgelabel">start-&gt;action.hacking.variety.DoS</data>
<data key="weight">1.0</data>
<data key="d6">forward</data>
<data key="d5">1</data>
</edge>
<edge id="1669" source="start" target="action.malware.vector.Direct install">
<data key="edgelabel">start-&gt;action.malware.vector.Direct install</data>
<data key="weight">1.0</data>
<data key="d6">forward</data>
<data key="d5">1</data>
</edge>
<edge id="1670" source="start" target="action.malware.variety.Exploit vuln">
<data key="edgelabel">start-&gt;action.malware.variety.Exploit vuln</data>
<data key="weight">1.0</data>
<data key="d6">forward</data>
<data key="d5">1</data>
</edge>
<edge id="1671" source="start" target="action.hacking.variety.Use of backdoor or C2">
<data key="edgelabel">start-&gt;action.hacking.variety.Use of backdoor or C2</data>
<data key="weight">1.0</data>
<data key="d6">forward</data>
<data key="d5">1</data>
</edge>
<edge id="1672" source="start" target="action.malware.vector.Email attachment">
<data key="edgelabel">start-&gt;action.malware.vector.Email attachment</data>
<data key="weight">1.0</data>
<data key="d6">forward</data>
<data key="d5">1</data>
</edge>
<edge id="1673" source="start" target="action.hacking.variety.Footprinting">
<data key="edgelabel">start-&gt;action.hacking.variety.Footprinting</data>
<data key="weight">1.0</data>
<data key="d6">forward</data>
<data key="d5">1</data>
</edge>
<edge id="1674" source="start" target="action.physical.variety.Theft">
<data key="edgelabel">start-&gt;action.physical.variety.Theft</data>
<data key="weight">1.0</data>
<data key="d6">forward</data>
<data key="d5">1</data>
</edge>
<edge id="1675" source="start" target="action.hacking.variety.Other">
<data key="edgelabel">start-&gt;action.hacking.variety.Other</data>
<data key="weight">1.0</data>
<data key="d6">forward</data>
<data key="d5">1</data>
</edge>
<edge id="1676" source="start" target="action.hacking.variety.XSS">
<data key="edgelabel">start-&gt;action.hacking.variety.XSS</data>
<data key="weight">1.0</data>
<data key="d6">forward</data>
<data key="d5">1</data>
</edge>
<edge id="1677" source="action.misuse.variety.Data mishandling" target="attribute.confidentiality.data.variety.Medical">
<data key="edgelabel">action.misuse.variety.Data mishandling-&gt;attribute.confidentiality.data.variety.Medical</data>
<data key="weight">1.0</data>
<data key="d6">forward</data>
<data key="d5">3</data>
</edge>
<edge id="1678" source="action.misuse.variety.Data mishandling" target="attribute.integrity.variety.Fraudulent transaction">
<data key="edgelabel">action.misuse.variety.Data mishandling-&gt;attribute.integrity.variety.Fraudulent transaction</data>
<data key="weight">1.0</data>
<data key="d6">forward</data>
<data key="d5">1</data>
</edge>
<edge id="1679" source="action.misuse.variety.Data mishandling" target="attribute.integrity.variety.Misrepresentation">
<data key="edgelabel">action.misuse.variety.Data mishandling-&gt;attribute.integrity.variety.Misrepresentation</data>
<data key="weight">1.0</data>
<data key="d6">forward</data>
<data key="d5">1</data>
</edge>
<edge id="1680" source="action.misuse.variety.Data mishandling" target="attribute.confidentiality.data.variety.Personal">
<data key="edgelabel">action.misuse.variety.Data mishandling-&gt;attribute.confidentiality.data.variety.Personal</data>
<data key="weight">1.0</data>
<data key="d6">forward</data>
<data key="d5">1</data>
</edge>
<edge id="1681" source="action.misuse.variety.Data mishandling" target="attribute.confidentiality.data.variety.Internal">
<data key="edgelabel">action.misuse.variety.Data mishandling-&gt;attribute.confidentiality.data.variety.Internal</data>
<data key="weight">1.0</data>
<data key="d6">forward</data>
<data key="d5">1</data>
</edge>
<edge id="1682" source="action.malware.vector.Web download" target="attribute.integrity.variety.Software installation">
<data key="edgelabel">action.malware.vector.Web download-&gt;attribute.integrity.variety.Software installation</data>
<data key="weight">1.0</data>
<data key="d6">forward</data>
<data key="d5">2</data>
</edge>
<edge id="1683" source="action.malware.vector.Web download" target="attribute.confidentiality.data.variety.Personal">
<data key="edgelabel">action.malware.vector.Web download-&gt;attribute.confidentiality.data.variety.Personal</data>
<data key="weight">1.0</data>
<data key="d6">forward</data>
<data key="d5">2</data>
</edge>
<edge id="1684" source="action.malware.variety.Downloader" target="action.malware.variety.Backdoor">
<data key="edgelabel">action.malware.variety.Downloader-&gt;action.malware.variety.Backdoor</data>
<data key="weight">1.0</data>
<data key="d6">forward</data>
<data key="d5">1</data>
</edge>
<edge id="1685" source="action.malware.variety.Downloader" target="action.malware.vector.Web download">
<data key="edgelabel">action.malware.variety.Downloader-&gt;action.malware.vector.Web download</data>
<data key="weight">1.0</data>
<data key="d6">forward</data>
<data key="d5">1</data>
</edge>
<edge id="1686" source="action.malware.variety.Downloader" target="action.social.variety.Phishing">
<data key="edgelabel">action.malware.variety.Downloader-&gt;action.social.variety.Phishing</data>
<data key="weight">1.0</data>
<data key="d6">forward</data>
<data key="d5">2</data>
</edge>
<edge id="1687" source="action.malware.vector.Remote injection" target="action.hacking.variety.Use of stolen creds">
<data key="edgelabel">action.malware.vector.Remote injection-&gt;action.hacking.variety.Use of stolen creds</data>
<data key="weight">1.0</data>
<data key="d6">forward</data>
<data key="d5">1</data>
</edge>
<edge id="1688" source="action.malware.vector.Remote injection" target="action.malware.variety.Ransomware">
<data key="edgelabel">action.malware.vector.Remote injection-&gt;action.malware.variety.Ransomware</data>
<data key="weight">1.0</data>
<data key="d6">forward</data>
<data key="d5">1</data>
</edge>
<edge id="1689" source="action.malware.vector.Remote injection" target="action.malware.variety.Backdoor">
<data key="edgelabel">action.malware.vector.Remote injection-&gt;action.malware.variety.Backdoor</data>
<data key="weight">1.0</data>
<data key="d6">forward</data>
<data key="d5">1</data>
</edge>
<edge id="1690" source="action.malware.variety.C2" target="action.malware.variety.Spyware/Keylogger">
<data key="edgelabel">action.malware.variety.C2-&gt;action.malware.variety.Spyware/Keylogger</data>
<data key="weight">1.0</data>
<data key="d6">forward</data>
<data key="d5">10</data>
</edge>
<edge id="1691" source="action.malware.variety.C2" target="action.malware.variety.Backdoor">
<data key="edgelabel">action.malware.variety.C2-&gt;action.malware.variety.Backdoor</data>
<data key="weight">1.0</data>
<data key="d6">forward</data>
<data key="d5">7</data>
</edge>
<edge id="1692" source="action.malware.variety.C2" target="action.malware.vector.Web drive-by">
<data key="edgelabel">action.malware.variety.C2-&gt;action.malware.vector.Web drive-by</data>
<data key="weight">1.0</data>
<data key="d6">forward</data>
<data key="d5">1</data>
</edge>
<edge id="1693" source="action.malware.variety.C2" target="action.social.variety.Phishing">
<data key="edgelabel">action.malware.variety.C2-&gt;action.social.variety.Phishing</data>
<data key="weight">1.0</data>
<data key="d6">forward</data>
<data key="d5">15</data>
</edge>
<edge id="1694" source="action.malware.variety.C2" target="action.hacking.variety.Use of stolen creds">
<data key="edgelabel">action.malware.variety.C2-&gt;action.hacking.variety.Use of stolen creds</data>
<data key="weight">1.0</data>
<data key="d6">forward</data>
<data key="d5">10</data>
</edge>
<edge id="1695" source="action.malware.variety.Adminware" target="action.hacking.variety.Use of stolen creds">
<data key="edgelabel">action.malware.variety.Adminware-&gt;action.hacking.variety.Use of stolen creds</data>
<data key="weight">1.0</data>
<data key="d6">forward</data>
<data key="d5">1</data>
</edge>
<edge id="1696" source="action.malware.variety.Adminware" target="action.malware.variety.Ransomware">
<data key="edgelabel">action.malware.variety.Adminware-&gt;action.malware.variety.Ransomware</data>
<data key="weight">1.0</data>
<data key="d6">forward</data>
<data key="d5">1</data>
</edge>
<edge id="1697" source="action.malware.variety.Adminware" target="action.social.variety.Phishing">
<data key="edgelabel">action.malware.variety.Adminware-&gt;action.social.variety.Phishing</data>
<data key="weight">1.0</data>
<data key="d6">forward</data>
<data key="d5">6</data>
</edge>
<edge id="1698" source="action.malware.variety.Adminware" target="action.malware.variety.Backdoor">
<data key="edgelabel">action.malware.variety.Adminware-&gt;action.malware.variety.Backdoor</data>
<data key="weight">1.0</data>
<data key="d6">forward</data>
<data key="d5">7</data>
</edge>
<edge id="1699" source="action.social.variety.Pretexting" target="attribute.confidentiality.data.variety.Credentials">
<data key="edgelabel">action.social.variety.Pretexting-&gt;attribute.confidentiality.data.variety.Credentials</data>
<data key="weight">1.0</data>
<data key="d6">forward</data>
<data key="d5">3</data>
</edge>
<edge id="1700" source="action.social.variety.Pretexting" target="attribute.integrity.variety.Fraudulent transaction">
<data key="edgelabel">action.social.variety.Pretexting-&gt;attribute.integrity.variety.Fraudulent transaction</data>
<data key="weight">1.0</data>
<data key="d6">forward</data>
<data key="d5">4</data>
</edge>
<edge id="1701" source="action.social.variety.Pretexting" target="attribute.integrity.variety.Alter behavior">
<data key="edgelabel">action.social.variety.Pretexting-&gt;attribute.integrity.variety.Alter behavior</data>
<data key="weight">1.0</data>
<data key="d6">forward</data>
<data key="d5">14</data>
</edge>
<edge id="1702" source="action.social.variety.Pretexting" target="attribute.confidentiality.data.variety.Personal">
<data key="edgelabel">action.social.variety.Pretexting-&gt;attribute.confidentiality.data.variety.Personal</data>
<data key="weight">1.0</data>
<data key="d6">forward</data>
<data key="d5">8</data>
</edge>
<edge id="1703" source="action.malware.variety.Ransomware" target="attribute.availability.variety.Obscuration">
<data key="edgelabel">action.malware.variety.Ransomware-&gt;attribute.availability.variety.Obscuration</data>
<data key="weight">1.0</data>
<data key="d6">forward</data>
<data key="d5">10</data>
</edge>
<edge id="1704" source="action.malware.variety.Ransomware" target="attribute.integrity.variety.Software installation">
<data key="edgelabel">action.malware.variety.Ransomware-&gt;attribute.integrity.variety.Software installation</data>
<data key="weight">1.0</data>
<data key="d6">forward</data>
<data key="d5">12</data>
</edge>
<edge id="1705" source="action.malware.variety.Ransomware" target="attribute.confidentiality.data.variety.Personal">
<data key="edgelabel">action.malware.variety.Ransomware-&gt;attribute.confidentiality.data.variety.Personal</data>
<data key="weight">1.0</data>
<data key="d6">forward</data>
<data key="d5">1</data>
</edge>
<edge id="1706" source="action.malware.vector.Web drive-by" target="attribute.confidentiality.data.variety.Secrets">
<data key="edgelabel">action.malware.vector.Web drive-by-&gt;attribute.confidentiality.data.variety.Secrets</data>
<data key="weight">1.0</data>
<data key="d6">forward</data>
<data key="d5">1</data>
</edge>
<edge id="1707" source="action.malware.vector.Web drive-by" target="attribute.integrity.variety.Software installation">
<data key="edgelabel">action.malware.vector.Web drive-by-&gt;attribute.integrity.variety.Software installation</data>
<data key="weight">1.0</data>
<data key="d6">forward</data>
<data key="d5">2</data>
</edge>
<edge id="1708" source="action.malware.vector.Web drive-by" target="attribute.integrity.variety.Alter behavior">
<data key="edgelabel">action.malware.vector.Web drive-by-&gt;attribute.integrity.variety.Alter behavior</data>
<data key="weight">1.0</data>
<data key="d6">forward</data>
<data key="d5">1</data>
</edge>
<edge id="1709" source="attribute.integrity.variety.Repurpose" target="action.hacking.variety.Use of stolen creds">
<data key="edgelabel">attribute.integrity.variety.Repurpose-&gt;action.hacking.variety.Use of stolen creds</data>
<data key="weight">1.0</data>
<data key="d6">backward</data>
<data key="d5">2</data>
</edge>
<edge id="1710" source="attribute.integrity.variety.Repurpose" target="end">
<data key="edgelabel">attribute.integrity.variety.Repurpose-&gt;end</data>
<data key="weight">1.0</data>
<data key="d6">forward</data>
<data key="d5">1</data>
</edge>
<edge id="1711" source="attribute.availability.variety.Obscuration" target="action.hacking.variety.Use of stolen creds">
<data key="edgelabel">attribute.availability.variety.Obscuration-&gt;action.hacking.variety.Use of stolen creds</data>
<data key="weight">1.0</data>
<data key="d6">backward</data>
<data key="d5">5</data>
</edge>
<edge id="1712" source="attribute.availability.variety.Obscuration" target="action.malware.variety.Ransomware">
<data key="edgelabel">attribute.availability.variety.Obscuration-&gt;action.malware.variety.Ransomware</data>
<data key="weight">1.0</data>
<data key="d6">backward</data>
<data key="d5">10</data>
</edge>
<edge id="1713" source="attribute.availability.variety.Obscuration" target="end">
<data key="edgelabel">attribute.availability.variety.Obscuration-&gt;end</data>
<data key="weight">1.0</data>
<data key="d6">forward</data>
<data key="d5">1</data>
</edge>
<edge id="1714" source="attribute.availability.variety.Obscuration" target="action.social.variety.Phishing">
<data key="edgelabel">attribute.availability.variety.Obscuration-&gt;action.social.variety.Phishing</data>
<data key="weight">1.0</data>
<data key="d6">backward</data>
<data key="d5">6</data>
</edge>
<edge id="1715" source="attribute.availability.variety.Obscuration" target="action.malware.variety.Backdoor">
<data key="edgelabel">attribute.availability.variety.Obscuration-&gt;action.malware.variety.Backdoor</data>
<data key="weight">1.0</data>
<data key="d6">backward</data>
<data key="d5">1</data>
</edge>
<edge id="1716" source="action.hacking.variety.XSS" target="action.hacking.variety.Use of stolen creds">
<data key="edgelabel">action.hacking.variety.XSS-&gt;action.hacking.variety.Use of stolen creds</data>
<data key="weight">1.0</data>
<data key="d6">forward</data>
<data key="d5">1</data>
</edge>
<edge id="1717" source="action.misuse.variety.Possession abuse" target="action.physical.variety.Theft">
<data key="edgelabel">action.misuse.variety.Possession abuse-&gt;action.physical.variety.Theft</data>
<data key="weight">1.0</data>
<data key="d6">forward</data>
<data key="d5">1</data>
</edge>
<edge id="1718" source="action.malware.variety.Ram scraper" target="attribute.confidentiality.data.variety.Payment">
<data key="edgelabel">action.malware.variety.Ram scraper-&gt;attribute.confidentiality.data.variety.Payment</data>
<data key="weight">1.0</data>
<data key="d6">forward</data>
<data key="d5">1</data>
</edge>
<edge id="1719" source="action.malware.variety.Ram scraper" target="attribute.integrity.variety.Software installation">
<data key="edgelabel">action.malware.variety.Ram scraper-&gt;attribute.integrity.variety.Software installation</data>
<data key="weight">1.0</data>
<data key="d6">forward</data>
<data key="d5">1</data>
</edge>
<edge id="1720" source="attribute.integrity.variety.Log tampering" target="end">
<data key="edgelabel">attribute.integrity.variety.Log tampering-&gt;end</data>
<data key="weight">1.0</data>
<data key="d6">forward</data>
<data key="d5">1</data>
</edge>
<edge id="1721" source="attribute.confidentiality.data.variety.Other" target="action.physical.variety.Theft">
<data key="edgelabel">attribute.confidentiality.data.variety.Other-&gt;action.physical.variety.Theft</data>
<data key="weight">1.0</data>
<data key="d6">backward</data>
<data key="d5">3</data>
</edge>
<edge id="1722" source="attribute.confidentiality.data.variety.Other" target="end">
<data key="edgelabel">attribute.confidentiality.data.variety.Other-&gt;end</data>
<data key="weight">1.0</data>
<data key="d6">forward</data>
<data key="d5">1</data>
</edge>
<edge id="1723" source="action.hacking.variety.DoS" target="attribute.availability.variety.Degradation">
<data key="edgelabel">action.hacking.variety.DoS-&gt;attribute.availability.variety.Degradation</data>
<data key="weight">1.0</data>
<data key="d6">forward</data>
<data key="d5">2822</data>
</edge>
<edge id="1724" source="action.hacking.variety.DoS" target="attribute.integrity.variety.Software installation">
<data key="edgelabel">action.hacking.variety.DoS-&gt;attribute.integrity.variety.Software installation</data>
<data key="weight">1.0</data>
<data key="d6">forward</data>
<data key="d5">1</data>
</edge>
<edge id="1725" source="action.hacking.variety.DoS" target="attribute.availability.variety.Interruption">
<data key="edgelabel">action.hacking.variety.DoS-&gt;attribute.availability.variety.Interruption</data>
<data key="weight">1.0</data>
<data key="d6">forward</data>
<data key="d5">1</data>
</edge>
<edge id="1726" source="attribute.confidentiality.data.variety.Credentials" target="action.social.variety.Pretexting">
<data key="edgelabel">attribute.confidentiality.data.variety.Credentials-&gt;action.social.variety.Pretexting</data>
<data key="weight">1.0</data>
<data key="d6">backward</data>
<data key="d5">5</data>
</edge>
<edge id="1727" source="attribute.confidentiality.data.variety.Credentials" target="action.malware.variety.Ransomware">
<data key="edgelabel">attribute.confidentiality.data.variety.Credentials-&gt;action.malware.variety.Ransomware</data>
<data key="weight">1.0</data>
<data key="d6">backward</data>
<data key="d5">4</data>
</edge>
<edge id="1728" source="attribute.confidentiality.data.variety.Credentials" target="action.malware.variety.Spyware/Keylogger">
<data key="edgelabel">attribute.confidentiality.data.variety.Credentials-&gt;action.malware.variety.Spyware/Keylogger</data>
<data key="weight">1.0</data>
<data key="d6">backward</data>
<data key="d5">29</data>
</edge>
<edge id="1729" source="attribute.confidentiality.data.variety.Credentials" target="action.malware.variety.Backdoor">
<data key="edgelabel">attribute.confidentiality.data.variety.Credentials-&gt;action.malware.variety.Backdoor</data>
<data key="weight">1.0</data>
<data key="d6">backward</data>
<data key="d5">4</data>
</edge>
<edge id="1730" source="attribute.confidentiality.data.variety.Credentials" target="action.social.variety.Phishing">
<data key="edgelabel">attribute.confidentiality.data.variety.Credentials-&gt;action.social.variety.Phishing</data>
<data key="weight">1.0</data>
<data key="d6">backward</data>
<data key="d5">56</data>
</edge>
<edge id="1731" source="attribute.confidentiality.data.variety.Credentials" target="action.hacking.variety.Use of stolen creds">
<data key="edgelabel">attribute.confidentiality.data.variety.Credentials-&gt;action.hacking.variety.Use of stolen creds</data>
<data key="weight">1.0</data>
<data key="d6">backward</data>
<data key="d5">74</data>
</edge>
<edge id="1732" source="attribute.confidentiality.data.variety.Credentials" target="end">
<data key="edgelabel">attribute.confidentiality.data.variety.Credentials-&gt;end</data>
<data key="weight">1.0</data>
<data key="d6">forward</data>
<data key="d5">1</data>
</edge>
<edge id="1733" source="attribute.integrity.variety.Fraudulent transaction" target="action.social.variety.Pretexting">
<data key="edgelabel">attribute.integrity.variety.Fraudulent transaction-&gt;action.social.variety.Pretexting</data>
<data key="weight">1.0</data>
<data key="d6">backward</data>
<data key="d5">6</data>
</edge>
<edge id="1734" source="attribute.integrity.variety.Fraudulent transaction" target="action.misuse.variety.Privilege abuse">
<data key="edgelabel">attribute.integrity.variety.Fraudulent transaction-&gt;action.misuse.variety.Privilege abuse</data>
<data key="weight">1.0</data>
<data key="d6">backward</data>
<data key="d5">1</data>
</edge>
<edge id="1735" source="attribute.integrity.variety.Fraudulent transaction" target="end">
<data key="edgelabel">attribute.integrity.variety.Fraudulent transaction-&gt;end</data>
<data key="weight">1.0</data>
<data key="d6">forward</data>
<data key="d5">1</data>
</edge>
<edge id="1736" source="attribute.integrity.variety.Fraudulent transaction" target="action.social.variety.Phishing">
<data key="edgelabel">attribute.integrity.variety.Fraudulent transaction-&gt;action.social.variety.Phishing</data>
<data key="weight">1.0</data>
<data key="d6">backward</data>
<data key="d5">47</data>
</edge>
<edge id="1737" source="attribute.integrity.variety.Fraudulent transaction" target="action.hacking.variety.Use of stolen creds">
<data key="edgelabel">attribute.integrity.variety.Fraudulent transaction-&gt;action.hacking.variety.Use of stolen creds</data>
<data key="weight">1.0</data>
<data key="d6">backward</data>
<data key="d5">68</data>
</edge>
<edge id="1738" source="attribute.integrity.variety.Fraudulent transaction" target="action.misuse.variety.Data mishandling">
<data key="edgelabel">attribute.integrity.variety.Fraudulent transaction-&gt;action.misuse.variety.Data mishandling</data>
<data key="weight">1.0</data>
<data key="d6">backward</data>
<data key="d5">3</data>
</edge>
<edge id="1739" source="attribute.integrity.variety.Fraudulent transaction" target="action.malware.variety.Spyware/Keylogger">
<data key="edgelabel">attribute.integrity.variety.Fraudulent transaction-&gt;action.malware.variety.Spyware/Keylogger</data>
<data key="weight">1.0</data>
<data key="d6">backward</data>
<data key="d5">36</data>
</edge>
<edge id="1740" source="action.malware.vector.Direct install" target="action.hacking.variety.Use of stolen creds">
<data key="edgelabel">action.malware.vector.Direct install-&gt;action.hacking.variety.Use of stolen creds</data>
<data key="weight">1.0</data>
<data key="d6">forward</data>
<data key="d5">3</data>
</edge>
<edge id="1741" source="action.malware.vector.Direct install" target="action.malware.variety.Ransomware">
<data key="edgelabel">action.malware.vector.Direct install-&gt;action.malware.variety.Ransomware</data>
<data key="weight">1.0</data>
<data key="d6">forward</data>
<data key="d5">2</data>
</edge>
<edge id="1742" source="action.malware.vector.Direct install" target="action.social.variety.Phishing">
<data key="edgelabel">action.malware.vector.Direct install-&gt;action.social.variety.Phishing</data>
<data key="weight">1.0</data>
<data key="d6">forward</data>
<data key="d5">1</data>
</edge>
<edge id="1743" source="action.malware.vector.Direct install" target="action.social.variety.Pretexting">
<data key="edgelabel">action.malware.vector.Direct install-&gt;action.social.variety.Pretexting</data>
<data key="weight">1.0</data>
<data key="d6">forward</data>
<data key="d5">1</data>
</edge>
<edge id="1744" source="action.malware.vector.Direct install" target="action.malware.variety.Backdoor">
<data key="edgelabel">action.malware.vector.Direct install-&gt;action.malware.variety.Backdoor</data>
<data key="weight">1.0</data>
<data key="d6">forward</data>
<data key="d5">3</data>
</edge>
<edge id="1745" source="attribute.integrity.variety.Alter behavior" target="action.social.variety.Pretexting">
<data key="edgelabel">attribute.integrity.variety.Alter behavior-&gt;action.social.variety.Pretexting</data>
<data key="weight">1.0</data>
<data key="d6">backward</data>
<data key="d5">15</data>
</edge>
<edge id="1746" source="attribute.integrity.variety.Alter behavior" target="action.malware.variety.Ransomware">
<data key="edgelabel">attribute.integrity.variety.Alter behavior-&gt;action.malware.variety.Ransomware</data>
<data key="weight">1.0</data>
<data key="d6">backward</data>
<data key="d5">9</data>
</edge>
<edge id="1747" source="attribute.integrity.variety.Alter behavior" target="action.malware.vector.Web drive-by">
<data key="edgelabel">attribute.integrity.variety.Alter behavior-&gt;action.malware.vector.Web drive-by</data>
<data key="weight">1.0</data>
<data key="d6">backward</data>
<data key="d5">2</data>
</edge>
<edge id="1748" source="attribute.integrity.variety.Alter behavior" target="action.malware.variety.Backdoor">
<data key="edgelabel">attribute.integrity.variety.Alter behavior-&gt;action.malware.variety.Backdoor</data>
<data key="weight">1.0</data>
<data key="d6">backward</data>
<data key="d5">8</data>
</edge>
<edge id="1749" source="attribute.integrity.variety.Alter behavior" target="end">
<data key="edgelabel">attribute.integrity.variety.Alter behavior-&gt;end</data>
<data key="weight">1.0</data>
<data key="d6">forward</data>
<data key="d5">1</data>
</edge>
<edge id="1750" source="attribute.integrity.variety.Alter behavior" target="action.social.variety.Phishing">
<data key="edgelabel">attribute.integrity.variety.Alter behavior-&gt;action.social.variety.Phishing</data>
<data key="weight">1.0</data>
<data key="d6">backward</data>
<data key="d5">88</data>
</edge>
<edge id="1751" source="attribute.integrity.variety.Alter behavior" target="action.hacking.variety.Use of stolen creds">
<data key="edgelabel">attribute.integrity.variety.Alter behavior-&gt;action.hacking.variety.Use of stolen creds</data>
<data key="weight">1.0</data>
<data key="d6">backward</data>
<data key="d5">72</data>
</edge>
<edge id="1752" source="attribute.integrity.variety.Alter behavior" target="action.malware.variety.Spyware/Keylogger">
<data key="edgelabel">attribute.integrity.variety.Alter behavior-&gt;action.malware.variety.Spyware/Keylogger</data>
<data key="weight">1.0</data>
<data key="d6">backward</data>
<data key="d5">36</data>
</edge>
<edge id="1753" source="attribute.integrity.variety.Alter behavior" target="action.hacking.variety.Footprinting">
<data key="edgelabel">attribute.integrity.variety.Alter behavior-&gt;action.hacking.variety.Footprinting</data>
<data key="weight">1.0</data>
<data key="d6">backward</data>
<data key="d5">2</data>
</edge>
<edge id="1754" source="action.hacking.variety.Brute force" target="attribute.availability.variety.Degradation">
<data key="edgelabel">action.hacking.variety.Brute force-&gt;attribute.availability.variety.Degradation</data>
<data key="weight">1.0</data>
<data key="d6">forward</data>
<data key="d5">1</data>
</edge>
<edge id="1755" source="action.hacking.variety.Brute force" target="action.hacking.variety.Use of stolen creds">
<data key="edgelabel">action.hacking.variety.Brute force-&gt;action.hacking.variety.Use of stolen creds</data>
<data key="weight">1.0</data>
<data key="d6">forward</data>
<data key="d5">1</data>
</edge>
<edge id="1756" source="action.hacking.variety.Brute force" target="attribute.confidentiality.data.variety.Personal">
<data key="edgelabel">action.hacking.variety.Brute force-&gt;attribute.confidentiality.data.variety.Personal</data>
<data key="weight">1.0</data>
<data key="d6">forward</data>
<data key="d5">1</data>
</edge>
<edge id="1757" source="action.hacking.variety.Brute force" target="action.social.variety.Pretexting">
<data key="edgelabel">action.hacking.variety.Brute force-&gt;action.social.variety.Pretexting</data>
<data key="weight">1.0</data>
<data key="d6">forward</data>
<data key="d5">1</data>
</edge>
<edge id="1758" source="attribute.integrity.variety.Modify privileges" target="end">
<data key="edgelabel">attribute.integrity.variety.Modify privileges-&gt;end</data>
<data key="weight">1.0</data>
<data key="d6">forward</data>
<data key="d5">1</data>
</edge>
<edge id="1759" source="action.hacking.variety.Use of backdoor or C2" target="action.malware.variety.Ransomware">
<data key="edgelabel">action.hacking.variety.Use of backdoor or C2-&gt;action.malware.variety.Ransomware</data>
<data key="weight">1.0</data>
<data key="d6">forward</data>
<data key="d5">1</data>
</edge>
<edge id="1760" source="action.hacking.variety.Use of backdoor or C2" target="action.malware.variety.Spyware/Keylogger">
<data key="edgelabel">action.hacking.variety.Use of backdoor or C2-&gt;action.malware.variety.Spyware/Keylogger</data>
<data key="weight">1.0</data>
<data key="d6">forward</data>
<data key="d5">10</data>
</edge>
<edge id="1761" source="action.hacking.variety.Use of backdoor or C2" target="action.malware.variety.Backdoor">
<data key="edgelabel">action.hacking.variety.Use of backdoor or C2-&gt;action.malware.variety.Backdoor</data>
<data key="weight">1.0</data>
<data key="d6">forward</data>
<data key="d5">7</data>
</edge>
<edge id="1762" source="action.hacking.variety.Use of backdoor or C2" target="action.social.variety.Phishing">
<data key="edgelabel">action.hacking.variety.Use of backdoor or C2-&gt;action.social.variety.Phishing</data>
<data key="weight">1.0</data>
<data key="d6">forward</data>
<data key="d5">11</data>
</edge>
<edge id="1763" source="action.hacking.variety.Use of backdoor or C2" target="action.hacking.variety.Use of stolen creds">
<data key="edgelabel">action.hacking.variety.Use of backdoor or C2-&gt;action.hacking.variety.Use of stolen creds</data>
<data key="weight">1.0</data>
<data key="d6">forward</data>
<data key="d5">10</data>
</edge>
<edge id="1764" source="action.hacking.variety.Use of backdoor or C2" target="action.malware.vector.Web drive-by">
<data key="edgelabel">action.hacking.variety.Use of backdoor or C2-&gt;action.malware.vector.Web drive-by</data>
<data key="weight">1.0</data>
<data key="d6">forward</data>
<data key="d5">1</data>
</edge>
<edge id="1765" source="action.malware.vector.Email attachment" target="action.malware.variety.Backdoor">
<data key="edgelabel">action.malware.vector.Email attachment-&gt;action.malware.variety.Backdoor</data>
<data key="weight">1.0</data>
<data key="d6">forward</data>
<data key="d5">5</data>
</edge>
<edge id="1766" source="action.malware.vector.Email attachment" target="action.malware.variety.Ransomware">
<data key="edgelabel">action.malware.vector.Email attachment-&gt;action.malware.variety.Ransomware</data>
<data key="weight">1.0</data>
<data key="d6">forward</data>
<data key="d5">3</data>
</edge>
<edge id="1767" source="action.malware.vector.Email attachment" target="action.malware.variety.Spyware/Keylogger">
<data key="edgelabel">action.malware.vector.Email attachment-&gt;action.malware.variety.Spyware/Keylogger</data>
<data key="weight">1.0</data>
<data key="d6">forward</data>
<data key="d5">9</data>
</edge>
<edge id="1768" source="action.malware.vector.Email attachment" target="action.social.variety.Phishing">
<data key="edgelabel">action.malware.vector.Email attachment-&gt;action.social.variety.Phishing</data>
<data key="weight">1.0</data>
<data key="d6">forward</data>
<data key="d5">24</data>
</edge>
<edge id="1769" source="action.malware.vector.Email attachment" target="action.hacking.variety.Use of stolen creds">
<data key="edgelabel">action.malware.vector.Email attachment-&gt;action.hacking.variety.Use of stolen creds</data>
<data key="weight">1.0</data>
<data key="d6">forward</data>
<data key="d5">9</data>
</edge>
<edge id="1770" source="action.hacking.variety.Buffer overflow" target="attribute.confidentiality.data.variety.Personal">
<data key="edgelabel">action.hacking.variety.Buffer overflow-&gt;attribute.confidentiality.data.variety.Personal</data>
<data key="weight">1.0</data>
<data key="d6">forward</data>
<data key="d5">1</data>
</edge>
<edge id="1771" source="attribute.confidentiality.data.variety.Secrets" target="end">
<data key="edgelabel">attribute.confidentiality.data.variety.Secrets-&gt;end</data>
<data key="weight">1.0</data>
<data key="d6">forward</data>
<data key="d5">1</data>
</edge>
<edge id="1772" source="attribute.confidentiality.data.variety.Secrets" target="action.hacking.variety.Footprinting">
<data key="edgelabel">attribute.confidentiality.data.variety.Secrets-&gt;action.hacking.variety.Footprinting</data>
<data key="weight">1.0</data>
<data key="d6">backward</data>
<data key="d5">2</data>
</edge>
<edge id="1773" source="attribute.confidentiality.data.variety.Secrets" target="action.malware.vector.Web drive-by">
<data key="edgelabel">attribute.confidentiality.data.variety.Secrets-&gt;action.malware.vector.Web drive-by</data>
<data key="weight">1.0</data>
<data key="d6">backward</data>
<data key="d5">2</data>
</edge>
<edge id="1774" source="action.hacking.variety.SQLi" target="action.hacking.variety.Use of stolen creds">
<data key="edgelabel">action.hacking.variety.SQLi-&gt;action.hacking.variety.Use of stolen creds</data>
<data key="weight">1.0</data>
<data key="d6">forward</data>
<data key="d5">1</data>
</edge>
<edge id="1775" source="attribute.integrity.variety.Modify configuration" target="action.hacking.variety.Abuse of functionality">
<data key="edgelabel">attribute.integrity.variety.Modify configuration-&gt;action.hacking.variety.Abuse of functionality</data>
<data key="weight">1.0</data>
<data key="d6">backward</data>
<data key="d5">1</data>
</edge>
<edge id="1776" source="attribute.integrity.variety.Modify configuration" target="end">
<data key="edgelabel">attribute.integrity.variety.Modify configuration-&gt;end</data>
<data key="weight">1.0</data>
<data key="d6">forward</data>
<data key="d5">1</data>
</edge>
<edge id="1777" source="attribute.availability.variety.Degradation" target="end">
<data key="edgelabel">attribute.availability.variety.Degradation-&gt;end</data>
<data key="weight">1.0</data>
<data key="d6">forward</data>
<data key="d5">1</data>
</edge>
<edge id="1778" source="action.physical.variety.Theft" target="attribute.confidentiality.data.variety.Other">
<data key="edgelabel">action.physical.variety.Theft-&gt;attribute.confidentiality.data.variety.Other</data>
<data key="weight">1.0</data>
<data key="d6">forward</data>
<data key="d5">1</data>
</edge>
<edge id="1779" source="action.physical.variety.Theft" target="attribute.confidentiality.data.variety.Medical">
<data key="edgelabel">action.physical.variety.Theft-&gt;attribute.confidentiality.data.variety.Medical</data>
<data key="weight">1.0</data>
<data key="d6">forward</data>
<data key="d5">2</data>
</edge>
<edge id="1780" source="action.physical.variety.Theft" target="attribute.availability.variety.Loss">
<data key="edgelabel">action.physical.variety.Theft-&gt;attribute.availability.variety.Loss</data>
<data key="weight">1.0</data>
<data key="d6">forward</data>
<data key="d5">24</data>
</edge>
<edge id="1781" source="action.physical.variety.Theft" target="attribute.confidentiality.data.variety.Personal">
<data key="edgelabel">action.physical.variety.Theft-&gt;attribute.confidentiality.data.variety.Personal</data>
<data key="weight">1.0</data>
<data key="d6">forward</data>
<data key="d5">13</data>
</edge>
<edge id="1782" source="action.physical.variety.Theft" target="attribute.confidentiality.data.variety.Internal">
<data key="edgelabel">action.physical.variety.Theft-&gt;attribute.confidentiality.data.variety.Internal</data>
<data key="weight">1.0</data>
<data key="d6">forward</data>
<data key="d5">3</data>
</edge>
<edge id="1783" source="attribute.confidentiality.data.variety.Source code" target="end">
<data key="edgelabel">attribute.confidentiality.data.variety.Source code-&gt;end</data>
<data key="weight">1.0</data>
<data key="d6">forward</data>
<data key="d5">1</data>
</edge>
<edge id="1784" source="attribute.integrity.variety.Misrepresentation" target="end">
<data key="edgelabel">attribute.integrity.variety.Misrepresentation-&gt;end</data>
<data key="weight">1.0</data>
<data key="d6">forward</data>
<data key="d5">1</data>
</edge>
<edge id="1785" source="attribute.integrity.variety.Misrepresentation" target="action.misuse.variety.Data mishandling">
<data key="edgelabel">attribute.integrity.variety.Misrepresentation-&gt;action.misuse.variety.Data mishandling</data>
<data key="weight">1.0</data>
<data key="d6">backward</data>
<data key="d5">3</data>
</edge>
<edge id="1786" source="action.hacking.variety.Footprinting" target="attribute.confidentiality.data.variety.Secrets">
<data key="edgelabel">action.hacking.variety.Footprinting-&gt;attribute.confidentiality.data.variety.Secrets</data>
<data key="weight">1.0</data>
<data key="d6">forward</data>
<data key="d5">2</data>
</edge>
<edge id="1787" source="action.hacking.variety.Footprinting" target="attribute.integrity.variety.Alter behavior">
<data key="edgelabel">action.hacking.variety.Footprinting-&gt;attribute.integrity.variety.Alter behavior</data>
<data key="weight">1.0</data>
<data key="d6">forward</data>
<data key="d5">2</data>
</edge>
<edge id="1788" source="attribute.availability.variety.Interruption" target="action.hacking.variety.DoS">
<data key="edgelabel">attribute.availability.variety.Interruption-&gt;action.hacking.variety.DoS</data>
<data key="weight">1.0</data>
<data key="d6">backward</data>
<data key="d5">1</data>
</edge>
<edge id="1789" source="attribute.availability.variety.Interruption" target="end">
<data key="edgelabel">attribute.availability.variety.Interruption-&gt;end</data>
<data key="weight">1.0</data>
<data key="d6">forward</data>
<data key="d5">1</data>
</edge>
</graph>
</graphml>
