<?xml version="1.0" encoding="UTF-8"?>
<gexf xmlns="http://www.gexf.net/1.3" version="1.3" xmlns:viz="http://www.gexf.net/1.3/viz" xmlns:xsi="http://www.w3.org/2001/XMLSchema-instance" xsi:schemaLocation="http://www.gexf.net/1.3 http://www.gexf.net/1.3/gexf.xsd">
  <meta lastmodifieddate="2017-05-03">
    <creator>Gephi 0.9</creator>
    <description></description>
  </meta>
  <graph defaultedgetype="directed" mode="static">
    <attributes class="node" mode="static">
      <attribute id="3" title="weight" type="double"></attribute>
      <attribute id="2" title="sub_type" type="string"></attribute>
      <attribute id="1" title="type" type="string"></attribute>
      <attribute id="0" title="count" type="integer"></attribute>
      <attribute id="4" title="Label" type="string"></attribute>
    </attributes>
    <attributes class="edge" mode="static">
      <attribute id="6" title="direction" type="string"></attribute>
      <attribute id="7" title="Label" type="string"></attribute>
      <attribute id="5" title="count" type="integer"></attribute>
    </attributes>
    <nodes>
      <node id="attribute.confidentiality.data.variety.System" label="attribute.confidentiality.data.variety.System">
        <attvalues>
          <attvalue for="3" value="0.999822079886"></attvalue>
          <attvalue for="2" value="attribute.confidentiality"></attvalue>
          <attvalue for="1" value="attribute"></attvalue>
          <attvalue for="0" value="2"></attvalue>
          <attvalue for="4" value="attribute.confidentiality.data.variety.System"></attvalue>
        </attvalues>
        <viz:size value="10.946834"></viz:size>
        <viz:position x="-104.31671" y="25.513704"></viz:position>
        <viz:color r="223" g="137" b="255"></viz:color>
      </node>
      <node id="attribute.availability.variety.Loss" label="attribute.availability.variety.Loss">
        <attvalues>
          <attvalue for="3" value="0.999911039943"></attvalue>
          <attvalue for="2" value="attribute.availability"></attvalue>
          <attvalue for="1" value="attribute"></attvalue>
          <attvalue for="0" value="1"></attvalue>
          <attvalue for="4" value="attribute.availability.variety.Loss"></attvalue>
        </attvalues>
        <viz:size value="10.721022"></viz:size>
        <viz:position x="-35.92313" y="-101.20501"></viz:position>
        <viz:color r="115" g="192" b="0"></viz:color>
      </node>
      <node id="end" label="end">
        <attvalues>
          <attvalue for="3" value="1.0"></attvalue>
          <attvalue for="2" value="end"></attvalue>
          <attvalue for="1" value="end"></attvalue>
          <attvalue for="0" value="0"></attvalue>
          <attvalue for="4" value="end"></attvalue>
        </attvalues>
        <viz:size value="10.0"></viz:size>
        <viz:position x="-192.77124" y="94.31112"></viz:position>
        <viz:color r="76" g="70" b="62"></viz:color>
      </node>
      <node id="attribute.integrity.variety.Defacement" label="attribute.integrity.variety.Defacement">
        <attvalues>
          <attvalue for="3" value="0.999822079886"></attvalue>
          <attvalue for="2" value="attribute.integrity"></attvalue>
          <attvalue for="1" value="attribute"></attvalue>
          <attvalue for="0" value="2"></attvalue>
          <attvalue for="4" value="attribute.integrity.variety.Defacement"></attvalue>
        </attvalues>
        <viz:size value="10.946834"></viz:size>
        <viz:position x="-79.51246" y="72.185135"></viz:position>
        <viz:color r="0" g="196" b="255"></viz:color>
      </node>
      <node id="attribute.confidentiality.data.variety.Internal" label="attribute.confidentiality.data.variety.Internal">
        <attvalues>
          <attvalue for="3" value="0.999822079886"></attvalue>
          <attvalue for="2" value="attribute.confidentiality"></attvalue>
          <attvalue for="1" value="attribute"></attvalue>
          <attvalue for="0" value="2"></attvalue>
          <attvalue for="4" value="attribute.confidentiality.data.variety.Internal"></attvalue>
        </attvalues>
        <viz:size value="10.946834"></viz:size>
        <viz:position x="-94.33155" y="-51.32722"></viz:position>
        <viz:color r="223" g="137" b="255"></viz:color>
      </node>
      <node id="start" label="start">
        <attvalues>
          <attvalue for="3" value="1.0"></attvalue>
          <attvalue for="2" value="start"></attvalue>
          <attvalue for="1" value="start"></attvalue>
          <attvalue for="0" value="0"></attvalue>
          <attvalue for="4" value="start"></attvalue>
        </attvalues>
        <viz:size value="10.0"></viz:size>
        <viz:position x="208.7985" y="-95.70333"></viz:position>
        <viz:color r="255" g="136" b="5"></viz:color>
      </node>
      <node id="attribute.availability.variety.Degradation" label="attribute.availability.variety.Degradation">
        <attvalues>
          <attvalue for="3" value="0.0119206476292"></attvalue>
          <attvalue for="2" value="attribute.availability"></attvalue>
          <attvalue for="1" value="attribute"></attvalue>
          <attvalue for="0" value="11107"></attvalue>
          <attvalue for="4" value="attribute.availability.variety.Degradation"></attvalue>
        </attvalues>
        <viz:size value="49.98942"></viz:size>
        <viz:position x="70.84191" y="-80.71152"></viz:position>
        <viz:color r="115" g="192" b="0"></viz:color>
      </node>
      <node id="attribute.confidentiality.data.variety.Bank" label="attribute.confidentiality.data.variety.Bank">
        <attvalues>
          <attvalue for="3" value="0.999822079886"></attvalue>
          <attvalue for="2" value="attribute.confidentiality"></attvalue>
          <attvalue for="1" value="attribute"></attvalue>
          <attvalue for="0" value="2"></attvalue>
          <attvalue for="4" value="attribute.confidentiality.data.variety.Bank"></attvalue>
        </attvalues>
        <viz:size value="10.946834"></viz:size>
        <viz:position x="-59.140205" y="-89.640175"></viz:position>
        <viz:color r="223" g="137" b="255"></viz:color>
      </node>
      <node id="action.social.variety.Phishing" label="action.social.variety.Phishing">
        <attvalues>
          <attvalue for="3" value="0.999555199715"></attvalue>
          <attvalue for="2" value="action.social"></attvalue>
          <attvalue for="1" value="action"></attvalue>
          <attvalue for="0" value="5"></attvalue>
          <attvalue for="4" value="action.social.variety.Phishing"></attvalue>
        </attvalues>
        <viz:size value="11.452848"></viz:size>
        <viz:position x="105.95279" y="-17.519459"></viz:position>
        <viz:color r="0" g="189" b="148"></viz:color>
      </node>
      <node id="action.physical.variety.Assault" label="action.physical.variety.Assault">
        <attvalues>
          <attvalue for="3" value="0.999822079886"></attvalue>
          <attvalue for="2" value="action.physical"></attvalue>
          <attvalue for="1" value="action"></attvalue>
          <attvalue for="0" value="2"></attvalue>
          <attvalue for="4" value="action.physical.variety.Assault"></attvalue>
        </attvalues>
        <viz:size value="10.946834"></viz:size>
        <viz:position x="106.99062" y="9.269954"></viz:position>
        <viz:color r="255" g="85" b="132"></viz:color>
      </node>
      <node id="attribute.confidentiality.data.variety.Other" label="attribute.confidentiality.data.variety.Other">
        <attvalues>
          <attvalue for="3" value="0.999822079886"></attvalue>
          <attvalue for="2" value="attribute.confidentiality"></attvalue>
          <attvalue for="1" value="attribute"></attvalue>
          <attvalue for="0" value="2"></attvalue>
          <attvalue for="4" value="attribute.confidentiality.data.variety.Other"></attvalue>
        </attvalues>
        <viz:size value="10.946834"></viz:size>
        <viz:position x="-103.95464" y="-26.951015"></viz:position>
        <viz:color r="223" g="137" b="255"></viz:color>
      </node>
      <node id="action.hacking.variety.DoS" label="action.hacking.variety.DoS">
        <attvalues>
          <attvalue for="3" value="8.89600569344E-5"></attvalue>
          <attvalue for="2" value="action.hacking"></attvalue>
          <attvalue for="1" value="action"></attvalue>
          <attvalue for="0" value="11240"></attvalue>
          <attvalue for="4" value="action.hacking.variety.DoS"></attvalue>
        </attvalues>
        <viz:size value="50.0"></viz:size>
        <viz:position x="56.92686" y="91.06184"></viz:position>
        <viz:color r="211" g="179" b="176"></viz:color>
      </node>
      <node id="attribute.confidentiality.data.variety.Credentials" label="attribute.confidentiality.data.variety.Credentials">
        <attvalues>
          <attvalue for="3" value="0.999822079886"></attvalue>
          <attvalue for="2" value="attribute.confidentiality"></attvalue>
          <attvalue for="1" value="attribute"></attvalue>
          <attvalue for="0" value="2"></attvalue>
          <attvalue for="4" value="attribute.confidentiality.data.variety.Credentials"></attvalue>
        </attvalues>
        <viz:size value="10.946834"></viz:size>
        <viz:position x="-79.090866" y="-72.64681"></viz:position>
        <viz:color r="223" g="137" b="255"></viz:color>
      </node>
      <node id="attribute.integrity.variety.Alter behavior" label="attribute.integrity.variety.Alter behavior">
        <attvalues>
          <attvalue for="3" value="0.999644159772"></attvalue>
          <attvalue for="2" value="attribute.integrity"></attvalue>
          <attvalue for="1" value="attribute"></attvalue>
          <attvalue for="0" value="4"></attvalue>
          <attvalue for="4" value="attribute.integrity.variety.Alter behavior"></attvalue>
        </attvalues>
        <viz:size value="11.303923"></viz:size>
        <viz:position x="-94.83062" y="50.39919"></viz:position>
        <viz:color r="0" g="196" b="255"></viz:color>
      </node>
      <node id="action.malware.variety.Exploit vuln" label="action.malware.variety.Exploit vuln">
        <attvalues>
          <attvalue for="3" value="0.999822079886"></attvalue>
          <attvalue for="2" value="action.malware"></attvalue>
          <attvalue for="1" value="action"></attvalue>
          <attvalue for="0" value="2"></attvalue>
          <attvalue for="4" value="action.malware.variety.Exploit vuln"></attvalue>
        </attvalues>
        <viz:size value="10.946834"></viz:size>
        <viz:position x="101.55963" y="34.907967"></viz:position>
        <viz:color r="192" g="192" b="192"></viz:color>
      </node>
      <node id="attribute.integrity.variety.Software installation" label="attribute.integrity.variety.Software installation">
        <attvalues>
          <attvalue for="3" value="0.999288319545"></attvalue>
          <attvalue for="2" value="attribute.integrity"></attvalue>
          <attvalue for="1" value="attribute"></attvalue>
          <attvalue for="0" value="8"></attvalue>
          <attvalue for="4" value="attribute.integrity.variety.Software installation"></attvalue>
        </attvalues>
        <viz:size value="11.830028"></viz:size>
        <viz:position x="-58.77694" y="89.878784"></viz:position>
        <viz:color r="0" g="196" b="255"></viz:color>
      </node>
      <node id="attribute.confidentiality.data.variety.Personal" label="attribute.confidentiality.data.variety.Personal">
        <attvalues>
          <attvalue for="3" value="0.999733119829"></attvalue>
          <attvalue for="2" value="attribute.confidentiality"></attvalue>
          <attvalue for="1" value="attribute"></attvalue>
          <attvalue for="0" value="3"></attvalue>
          <attvalue for="4" value="attribute.confidentiality.data.variety.Personal"></attvalue>
        </attvalues>
        <viz:size value="11.137446"></viz:size>
        <viz:position x="-107.3889" y="-0.7411066"></viz:position>
        <viz:color r="223" g="137" b="255"></viz:color>
      </node>
      <node id="attribute.availability.variety.Interruption" label="attribute.availability.variety.Interruption">
        <attvalues>
          <attvalue for="3" value="0.988435192599"></attvalue>
          <attvalue for="2" value="attribute.availability"></attvalue>
          <attvalue for="1" value="attribute"></attvalue>
          <attvalue for="0" value="130"></attvalue>
          <attvalue for="4" value="attribute.availability.variety.Interruption"></attvalue>
        </attvalues>
        <viz:size value="17.140818"></viz:size>
        <viz:position x="-3.1945498" y="-107.34393"></viz:position>
        <viz:color r="115" g="192" b="0"></viz:color>
      </node>
    </nodes>
    <edges>
      <edge id="0" source="attribute.confidentiality.data.variety.System" target="action.hacking.variety.DoS" weight="0.9998199343681335">
        <attvalues>
          <attvalue for="6" value="backward"></attvalue>
          <attvalue for="7" value="attribute.confidentiality.data.variety.System-&gt;action.hacking.variety.DoS"></attvalue>
          <attvalue for="5" value="3"></attvalue>
        </attvalues>
      </edge>
      <edge id="1" source="attribute.confidentiality.data.variety.System" target="end">
        <attvalues>
          <attvalue for="6" value="forward"></attvalue>
          <attvalue for="7" value="attribute.confidentiality.data.variety.System-&gt;end"></attvalue>
          <attvalue for="5" value="1"></attvalue>
        </attvalues>
      </edge>
      <edge id="2" source="attribute.availability.variety.Loss" target="end">
        <attvalues>
          <attvalue for="6" value="forward"></attvalue>
          <attvalue for="7" value="attribute.availability.variety.Loss-&gt;end"></attvalue>
          <attvalue for="5" value="1"></attvalue>
        </attvalues>
      </edge>
      <edge id="3" source="attribute.integrity.variety.Defacement" target="action.hacking.variety.DoS">
        <attvalues>
          <attvalue for="6" value="backward"></attvalue>
          <attvalue for="7" value="attribute.integrity.variety.Defacement-&gt;action.hacking.variety.DoS"></attvalue>
          <attvalue for="5" value="1"></attvalue>
        </attvalues>
      </edge>
      <edge id="4" source="attribute.integrity.variety.Defacement" target="end">
        <attvalues>
          <attvalue for="6" value="forward"></attvalue>
          <attvalue for="7" value="attribute.integrity.variety.Defacement-&gt;end"></attvalue>
          <attvalue for="5" value="1"></attvalue>
        </attvalues>
      </edge>
      <edge id="5" source="attribute.confidentiality.data.variety.Internal" target="action.hacking.variety.DoS" weight="0.9999099373817444">
        <attvalues>
          <attvalue for="6" value="backward"></attvalue>
          <attvalue for="7" value="attribute.confidentiality.data.variety.Internal-&gt;action.hacking.variety.DoS"></attvalue>
          <attvalue for="5" value="2"></attvalue>
        </attvalues>
      </edge>
      <edge id="6" source="attribute.confidentiality.data.variety.Internal" target="end">
        <attvalues>
          <attvalue for="6" value="forward"></attvalue>
          <attvalue for="7" value="attribute.confidentiality.data.variety.Internal-&gt;end"></attvalue>
          <attvalue for="5" value="1"></attvalue>
        </attvalues>
      </edge>
      <edge id="7" source="start" target="action.hacking.variety.DoS">
        <attvalues>
          <attvalue for="6" value="forward"></attvalue>
          <attvalue for="7" value="start-&gt;action.hacking.variety.DoS"></attvalue>
          <attvalue for="5" value="1"></attvalue>
        </attvalues>
      </edge>
      <edge id="8" source="start" target="action.social.variety.Phishing">
        <attvalues>
          <attvalue for="6" value="forward"></attvalue>
          <attvalue for="7" value="start-&gt;action.social.variety.Phishing"></attvalue>
          <attvalue for="5" value="1"></attvalue>
        </attvalues>
      </edge>
      <edge id="9" source="start" target="action.malware.variety.Exploit vuln">
        <attvalues>
          <attvalue for="6" value="forward"></attvalue>
          <attvalue for="7" value="start-&gt;action.malware.variety.Exploit vuln"></attvalue>
          <attvalue for="5" value="1"></attvalue>
        </attvalues>
      </edge>
      <edge id="10" source="start" target="action.physical.variety.Assault">
        <attvalues>
          <attvalue for="6" value="forward"></attvalue>
          <attvalue for="7" value="start-&gt;action.physical.variety.Assault"></attvalue>
          <attvalue for="5" value="1"></attvalue>
        </attvalues>
      </edge>
      <edge id="11" source="attribute.availability.variety.Degradation" target="action.hacking.variety.DoS">
        <attvalues>
          <attvalue for="6" value="backward"></attvalue>
          <attvalue for="7" value="attribute.availability.variety.Degradation-&gt;action.hacking.variety.DoS"></attvalue>
          <attvalue for="5" value="1"></attvalue>
        </attvalues>
      </edge>
      <edge id="12" source="attribute.availability.variety.Degradation" target="end">
        <attvalues>
          <attvalue for="6" value="forward"></attvalue>
          <attvalue for="7" value="attribute.availability.variety.Degradation-&gt;end"></attvalue>
          <attvalue for="5" value="1"></attvalue>
        </attvalues>
      </edge>
      <edge id="13" source="attribute.confidentiality.data.variety.Bank" target="action.hacking.variety.DoS" weight="0.9998199343681335">
        <attvalues>
          <attvalue for="6" value="backward"></attvalue>
          <attvalue for="7" value="attribute.confidentiality.data.variety.Bank-&gt;action.hacking.variety.DoS"></attvalue>
          <attvalue for="5" value="3"></attvalue>
        </attvalues>
      </edge>
      <edge id="14" source="attribute.confidentiality.data.variety.Bank" target="end">
        <attvalues>
          <attvalue for="6" value="forward"></attvalue>
          <attvalue for="7" value="attribute.confidentiality.data.variety.Bank-&gt;end"></attvalue>
          <attvalue for="5" value="1"></attvalue>
        </attvalues>
      </edge>
      <edge id="15" source="action.social.variety.Phishing" target="action.hacking.variety.DoS" weight="0.9997298717498779">
        <attvalues>
          <attvalue for="6" value="forward"></attvalue>
          <attvalue for="7" value="action.social.variety.Phishing-&gt;action.hacking.variety.DoS"></attvalue>
          <attvalue for="5" value="4"></attvalue>
        </attvalues>
      </edge>
      <edge id="16" source="action.physical.variety.Assault" target="action.hacking.variety.DoS">
        <attvalues>
          <attvalue for="6" value="forward"></attvalue>
          <attvalue for="7" value="action.physical.variety.Assault-&gt;action.hacking.variety.DoS"></attvalue>
          <attvalue for="5" value="1"></attvalue>
        </attvalues>
      </edge>
      <edge id="17" source="attribute.confidentiality.data.variety.Other" target="action.hacking.variety.DoS" weight="0.9998199343681335">
        <attvalues>
          <attvalue for="6" value="backward"></attvalue>
          <attvalue for="7" value="attribute.confidentiality.data.variety.Other-&gt;action.hacking.variety.DoS"></attvalue>
          <attvalue for="5" value="3"></attvalue>
        </attvalues>
      </edge>
      <edge id="18" source="attribute.confidentiality.data.variety.Other" target="end">
        <attvalues>
          <attvalue for="6" value="forward"></attvalue>
          <attvalue for="7" value="attribute.confidentiality.data.variety.Other-&gt;end"></attvalue>
          <attvalue for="5" value="1"></attvalue>
        </attvalues>
      </edge>
      <edge id="19" source="action.hacking.variety.DoS" target="attribute.confidentiality.data.variety.System">
        <attvalues>
          <attvalue for="6" value="forward"></attvalue>
          <attvalue for="7" value="action.hacking.variety.DoS-&gt;attribute.confidentiality.data.variety.System"></attvalue>
          <attvalue for="5" value="1"></attvalue>
        </attvalues>
      </edge>
      <edge id="20" source="action.hacking.variety.DoS" target="attribute.integrity.variety.Defacement">
        <attvalues>
          <attvalue for="6" value="forward"></attvalue>
          <attvalue for="7" value="action.hacking.variety.DoS-&gt;attribute.integrity.variety.Defacement"></attvalue>
          <attvalue for="5" value="1"></attvalue>
        </attvalues>
      </edge>
      <edge id="21" source="action.hacking.variety.DoS" target="attribute.confidentiality.data.variety.Internal">
        <attvalues>
          <attvalue for="6" value="forward"></attvalue>
          <attvalue for="7" value="action.hacking.variety.DoS-&gt;attribute.confidentiality.data.variety.Internal"></attvalue>
          <attvalue for="5" value="1"></attvalue>
        </attvalues>
      </edge>
      <edge id="22" source="action.hacking.variety.DoS" target="attribute.availability.variety.Degradation" weight="9.00414161151275E-5">
        <attvalues>
          <attvalue for="6" value="forward"></attvalue>
          <attvalue for="7" value="action.hacking.variety.DoS-&gt;attribute.availability.variety.Degradation"></attvalue>
          <attvalue for="5" value="11106"></attvalue>
        </attvalues>
      </edge>
      <edge id="23" source="action.hacking.variety.DoS" target="attribute.confidentiality.data.variety.Bank">
        <attvalues>
          <attvalue for="6" value="forward"></attvalue>
          <attvalue for="7" value="action.hacking.variety.DoS-&gt;attribute.confidentiality.data.variety.Bank"></attvalue>
          <attvalue for="5" value="1"></attvalue>
        </attvalues>
      </edge>
      <edge id="24" source="action.hacking.variety.DoS" target="attribute.confidentiality.data.variety.Personal" weight="0.9999099373817444">
        <attvalues>
          <attvalue for="6" value="forward"></attvalue>
          <attvalue for="7" value="action.hacking.variety.DoS-&gt;attribute.confidentiality.data.variety.Personal"></attvalue>
          <attvalue for="5" value="2"></attvalue>
        </attvalues>
      </edge>
      <edge id="25" source="action.hacking.variety.DoS" target="attribute.confidentiality.data.variety.Other">
        <attvalues>
          <attvalue for="6" value="forward"></attvalue>
          <attvalue for="7" value="action.hacking.variety.DoS-&gt;attribute.confidentiality.data.variety.Other"></attvalue>
          <attvalue for="5" value="1"></attvalue>
        </attvalues>
      </edge>
      <edge id="26" source="action.hacking.variety.DoS" target="attribute.confidentiality.data.variety.Credentials">
        <attvalues>
          <attvalue for="6" value="forward"></attvalue>
          <attvalue for="7" value="action.hacking.variety.DoS-&gt;attribute.confidentiality.data.variety.Credentials"></attvalue>
          <attvalue for="5" value="1"></attvalue>
        </attvalues>
      </edge>
      <edge id="27" source="action.hacking.variety.DoS" target="attribute.integrity.variety.Software installation" weight="0.9994597434997559">
        <attvalues>
          <attvalue for="6" value="forward"></attvalue>
          <attvalue for="7" value="action.hacking.variety.DoS-&gt;attribute.integrity.variety.Software installation"></attvalue>
          <attvalue for="5" value="7"></attvalue>
        </attvalues>
      </edge>
      <edge id="28" source="action.hacking.variety.DoS" target="attribute.availability.variety.Interruption" weight="0.9884747266769409">
        <attvalues>
          <attvalue for="6" value="forward"></attvalue>
          <attvalue for="7" value="action.hacking.variety.DoS-&gt;attribute.availability.variety.Interruption"></attvalue>
          <attvalue for="5" value="129"></attvalue>
        </attvalues>
      </edge>
      <edge id="29" source="attribute.confidentiality.data.variety.Credentials" target="action.hacking.variety.DoS" weight="0.9999099373817444">
        <attvalues>
          <attvalue for="6" value="backward"></attvalue>
          <attvalue for="7" value="attribute.confidentiality.data.variety.Credentials-&gt;action.hacking.variety.DoS"></attvalue>
          <attvalue for="5" value="2"></attvalue>
        </attvalues>
      </edge>
      <edge id="30" source="attribute.confidentiality.data.variety.Credentials" target="end">
        <attvalues>
          <attvalue for="6" value="forward"></attvalue>
          <attvalue for="7" value="attribute.confidentiality.data.variety.Credentials-&gt;end"></attvalue>
          <attvalue for="5" value="1"></attvalue>
        </attvalues>
      </edge>
      <edge id="31" source="attribute.integrity.variety.Alter behavior" target="end">
        <attvalues>
          <attvalue for="6" value="forward"></attvalue>
          <attvalue for="7" value="attribute.integrity.variety.Alter behavior-&gt;end"></attvalue>
          <attvalue for="5" value="1"></attvalue>
        </attvalues>
      </edge>
      <edge id="32" source="action.malware.variety.Exploit vuln" target="action.hacking.variety.DoS">
        <attvalues>
          <attvalue for="6" value="forward"></attvalue>
          <attvalue for="7" value="action.malware.variety.Exploit vuln-&gt;action.hacking.variety.DoS"></attvalue>
          <attvalue for="5" value="1"></attvalue>
        </attvalues>
      </edge>
      <edge id="33" source="attribute.integrity.variety.Software installation" target="action.hacking.variety.DoS" weight="0.9998199343681335">
        <attvalues>
          <attvalue for="6" value="backward"></attvalue>
          <attvalue for="7" value="attribute.integrity.variety.Software installation-&gt;action.hacking.variety.DoS"></attvalue>
          <attvalue for="5" value="3"></attvalue>
        </attvalues>
      </edge>
      <edge id="34" source="attribute.integrity.variety.Software installation" target="end">
        <attvalues>
          <attvalue for="6" value="forward"></attvalue>
          <attvalue for="7" value="attribute.integrity.variety.Software installation-&gt;end"></attvalue>
          <attvalue for="5" value="1"></attvalue>
        </attvalues>
      </edge>
      <edge id="35" source="attribute.confidentiality.data.variety.Personal" target="action.hacking.variety.DoS" weight="0.9997298717498779">
        <attvalues>
          <attvalue for="6" value="backward"></attvalue>
          <attvalue for="7" value="attribute.confidentiality.data.variety.Personal-&gt;action.hacking.variety.DoS"></attvalue>
          <attvalue for="5" value="4"></attvalue>
        </attvalues>
      </edge>
      <edge id="36" source="attribute.confidentiality.data.variety.Personal" target="end">
        <attvalues>
          <attvalue for="6" value="forward"></attvalue>
          <attvalue for="7" value="attribute.confidentiality.data.variety.Personal-&gt;end"></attvalue>
          <attvalue for="5" value="1"></attvalue>
        </attvalues>
      </edge>
      <edge id="37" source="attribute.availability.variety.Interruption" target="action.hacking.variety.DoS" weight="0.9993696808815002">
        <attvalues>
          <attvalue for="6" value="backward"></attvalue>
          <attvalue for="7" value="attribute.availability.variety.Interruption-&gt;action.hacking.variety.DoS"></attvalue>
          <attvalue for="5" value="8"></attvalue>
        </attvalues>
      </edge>
      <edge id="38" source="attribute.availability.variety.Interruption" target="end">
        <attvalues>
          <attvalue for="6" value="forward"></attvalue>
          <attvalue for="7" value="attribute.availability.variety.Interruption-&gt;end"></attvalue>
          <attvalue for="5" value="1"></attvalue>
        </attvalues>
      </edge>
    </edges>
  </graph>
</gexf>
