<?xml version="1.0" encoding="UTF-8"?>
<graphml xmlns="http://graphml.graphdrawing.org/xmlns">
<key attr.name="label" attr.type="string" for="node" id="label"/>
<key attr.name="Edge Label" attr.type="string" for="edge" id="edgelabel"/>
<key attr.name="weight" attr.type="double" for="edge" id="weight"/>
<key attr.name="r" attr.type="int" for="node" id="r"/>
<key attr.name="g" attr.type="int" for="node" id="g"/>
<key attr.name="b" attr.type="int" for="node" id="b"/>
<key attr.name="x" attr.type="float" for="node" id="x"/>
<key attr.name="y" attr.type="float" for="node" id="y"/>
<key attr.name="size" attr.type="float" for="node" id="size"/>
<key attr.name="sub_type" attr.type="string" for="node" id="d2"/>
<key attr.name="type" attr.type="string" for="node" id="d1"/>
<key attr.name="count" attr.type="int" for="node" id="d0"/>
<key attr.name="direction" attr.type="string" for="edge" id="d6"/>
<key attr.name="count" attr.type="int" for="edge" id="d5"/>
<graph edgedefault="directed">
<node id="attribute.confidentiality.data.variety.Classified">
<data key="label">attribute.confidentiality.data.variety.Classified</data>
<data key="d2">attribute.confidentiality</data>
<data key="d1">attribute</data>
<data key="d0">4</data>
<data key="size">18.136122</data>
<data key="r">115</data>
<data key="g">192</data>
<data key="b">0</data>
<data key="x">-608.7602</data>
<data key="y">-129.8967</data>
</node>
<node id="attribute.confidentiality.data.variety.Bank">
<data key="label">attribute.confidentiality.data.variety.Bank</data>
<data key="d2">attribute.confidentiality</data>
<data key="d1">attribute</data>
<data key="d0">2</data>
<data key="size">15.838012</data>
<data key="r">115</data>
<data key="g">192</data>
<data key="b">0</data>
<data key="x">-598.9533</data>
<data key="y">-169.46106</data>
</node>
<node id="action.misuse.variety.Privilege abuse">
<data key="label">action.misuse.variety.Privilege abuse</data>
<data key="d2">action.misuse</data>
<data key="d1">action</data>
<data key="d0">4</data>
<data key="size">18.136122</data>
<data key="r">0</data>
<data key="g">189</data>
<data key="b">148</data>
<data key="x">-221.80196</data>
<data key="y">-581.60645</data>
</node>
<node id="action.malware.variety.Capture app data">
<data key="label">action.malware.variety.Capture app data</data>
<data key="d2">action.malware</data>
<data key="d1">action</data>
<data key="d0">15</data>
<data key="size">25.005604</data>
<data key="r">223</data>
<data key="g">137</data>
<data key="b">255</data>
<data key="x">619.53534</data>
<data key="y">60.3168</data>
</node>
<node id="attribute.confidentiality.data.variety.Internal">
<data key="label">attribute.confidentiality.data.variety.Internal</data>
<data key="d2">attribute.confidentiality</data>
<data key="d1">attribute</data>
<data key="d0">11</data>
<data key="size">23.04172</data>
<data key="r">115</data>
<data key="g">192</data>
<data key="b">0</data>
<data key="x">-622.4455</data>
<data key="y">-4.870506</data>
</node>
<node id="action.social.variety.Pretexting">
<data key="label">action.social.variety.Pretexting</data>
<data key="d2">action.social</data>
<data key="d1">action</data>
<data key="d0">1</data>
<data key="size">14.170411</data>
<data key="r">255</data>
<data key="g">136</data>
<data key="b">5</data>
<data key="x">-523.5806</data>
<data key="y">-336.6385</data>
</node>
<node id="action.social.variety.Bribery">
<data key="label">action.social.variety.Bribery</data>
<data key="d2">action.social</data>
<data key="d1">action</data>
<data key="d0">1</data>
<data key="size">14.170411</data>
<data key="r">255</data>
<data key="g">136</data>
<data key="b">5</data>
<data key="x">-324.68976</data>
<data key="y">-531.0732</data>
</node>
<node id="action.social.variety.Phishing">
<data key="label">action.social.variety.Phishing</data>
<data key="d2">action.social</data>
<data key="d1">action</data>
<data key="d0">182</data>
<data key="size">47.9904</data>
<data key="r">255</data>
<data key="g">136</data>
<data key="b">5</data>
<data key="x">-479.58115</data>
<data key="y">-396.8174</data>
</node>
<node id="attribute.confidentiality.data.variety.System">
<data key="label">attribute.confidentiality.data.variety.System</data>
<data key="d2">attribute.confidentiality</data>
<data key="d1">attribute</data>
<data key="d0">5</data>
<data key="size">19.04221</data>
<data key="r">115</data>
<data key="g">192</data>
<data key="b">0</data>
<data key="x">-516.74097</data>
<data key="y">347.04593</data>
</node>
<node id="action.hacking.variety.Use of stolen creds">
<data key="label">action.hacking.variety.Use of stolen creds</data>
<data key="d2">action.hacking</data>
<data key="d1">action</data>
<data key="d0">28</data>
<data key="size">29.715548</data>
<data key="r">0</data>
<data key="g">196</data>
<data key="b">255</data>
<data key="x">442.78967</data>
<data key="y">437.49222</data>
</node>
<node id="action.malware.vector.Email link">
<data key="label">action.malware.vector.Email link</data>
<data key="d2">action.malware</data>
<data key="d1">action</data>
<data key="d0">24</data>
<data key="size">28.455288</data>
<data key="r">223</data>
<data key="g">137</data>
<data key="b">255</data>
<data key="x">76.572655</data>
<data key="y">-617.7368</data>
</node>
<node id="action.social.variety.Other">
<data key="label">action.social.variety.Other</data>
<data key="d2">action.social</data>
<data key="d1">action</data>
<data key="d0">2</data>
<data key="size">15.838012</data>
<data key="r">255</data>
<data key="g">136</data>
<data key="b">5</data>
<data key="x">-427.24985</data>
<data key="y">-452.68057</data>
</node>
<node id="action.malware.variety.Export data">
<data key="label">action.malware.variety.Export data</data>
<data key="d2">action.malware</data>
<data key="d1">action</data>
<data key="d0">60</data>
<data key="size">36.833744</data>
<data key="r">223</data>
<data key="g">137</data>
<data key="b">255</data>
<data key="x">548.0449</data>
<data key="y">-295.1422</data>
</node>
<node id="action.hacking.variety.Buffer overflow">
<data key="label">action.hacking.variety.Buffer overflow</data>
<data key="d2">action.hacking</data>
<data key="d1">action</data>
<data key="d0">11</data>
<data key="size">23.04172</data>
<data key="r">0</data>
<data key="g">196</data>
<data key="b">255</data>
<data key="x">68.53572</data>
<data key="y">618.68005</data>
</node>
<node id="action.malware.vector.Web drive-by">
<data key="label">action.malware.vector.Web drive-by</data>
<data key="d2">action.malware</data>
<data key="d1">action</data>
<data key="d0">39</data>
<data key="size">32.638092</data>
<data key="r">223</data>
<data key="g">137</data>
<data key="b">255</data>
<data key="x">-88.025246</data>
<data key="y">-616.2091</data>
</node>
<node id="action.social.variety.Forgery">
<data key="label">action.social.variety.Forgery</data>
<data key="d2">action.social</data>
<data key="d1">action</data>
<data key="d0">11</data>
<data key="size">23.04172</data>
<data key="r">255</data>
<data key="g">136</data>
<data key="b">5</data>
<data key="x">-361.92026</data>
<data key="y">-506.43445</data>
</node>
<node id="attribute.integrity.variety.Software installation">
<data key="label">attribute.integrity.variety.Software installation</data>
<data key="d2">attribute.integrity</data>
<data key="d1">attribute</data>
<data key="d0">256</data>
<data key="size">49.96303</data>
<data key="r">76</data>
<data key="g">70</data>
<data key="b">62</data>
<data key="x">-107.41525</data>
<data key="y">613.12646</data>
</node>
<node id="attribute.confidentiality.data.variety.Medical">
<data key="label">attribute.confidentiality.data.variety.Medical</data>
<data key="d2">attribute.confidentiality</data>
<data key="d1">attribute</data>
<data key="d0">2</data>
<data key="size">15.838012</data>
<data key="r">115</data>
<data key="g">192</data>
<data key="b">0</data>
<data key="x">-621.0626</data>
<data key="y">41.753746</data>
</node>
<node id="attribute.integrity.variety.Defacement">
<data key="label">attribute.integrity.variety.Defacement</data>
<data key="d2">attribute.integrity</data>
<data key="d1">attribute</data>
<data key="d0">2</data>
<data key="size">15.838012</data>
<data key="r">76</data>
<data key="g">70</data>
<data key="b">62</data>
<data key="x">-383.9611</data>
<data key="y">489.93472</data>
</node>
<node id="action.malware.variety.Exploit vuln">
<data key="label">action.malware.variety.Exploit vuln</data>
<data key="d2">action.malware</data>
<data key="d1">action</data>
<data key="d0">17</data>
<data key="size">25.867214</data>
<data key="r">223</data>
<data key="g">137</data>
<data key="b">255</data>
<data key="x">579.6349</data>
<data key="y">-226.90428</data>
</node>
<node id="attribute.confidentiality.data.variety.Payment">
<data key="label">attribute.confidentiality.data.variety.Payment</data>
<data key="d2">attribute.confidentiality</data>
<data key="d1">attribute</data>
<data key="d0">2</data>
<data key="size">15.838012</data>
<data key="r">115</data>
<data key="g">192</data>
<data key="b">0</data>
<data key="x">-612.08997</data>
<data key="y">113.17237</data>
</node>
<node id="attribute.availability.variety.Loss">
<data key="label">attribute.availability.variety.Loss</data>
<data key="d2">attribute.availability</data>
<data key="d1">attribute</data>
<data key="d0">2</data>
<data key="size">15.838012</data>
<data key="r">255</data>
<data key="g">85</data>
<data key="b">132</data>
<data key="x">-587.4951</data>
<data key="y">-205.69797</data>
</node>
<node id="end">
<data key="label">end</data>
<data key="d2">end</data>
<data key="d1">end</data>
<data key="d0">0</data>
<data key="size">10.0</data>
<data key="r">192</data>
<data key="g">192</data>
<data key="b">192</data>
<data key="x">-684.0812</data>
<data key="y">613.6472</data>
</node>
<node id="attribute.integrity.variety.Modify data">
<data key="label">attribute.integrity.variety.Modify data</data>
<data key="d2">attribute.integrity</data>
<data key="d1">attribute</data>
<data key="d0">12</data>
<data key="size">23.568645</data>
<data key="r">76</data>
<data key="g">70</data>
<data key="b">62</data>
<data key="x">-266.958</data>
<data key="y">562.3127</data>
</node>
<node id="action.malware.variety.Backdoor">
<data key="label">action.malware.variety.Backdoor</data>
<data key="d2">action.malware</data>
<data key="d1">action</data>
<data key="d0">118</data>
<data key="size">43.89968</data>
<data key="r">223</data>
<data key="g">137</data>
<data key="b">255</data>
<data key="x">572.1864</data>
<data key="y">245.0813</data>
</node>
<node id="action.malware.variety.Client-side attack">
<data key="label">action.malware.variety.Client-side attack</data>
<data key="d2">action.malware</data>
<data key="d1">action</data>
<data key="d0">12</data>
<data key="size">23.568645</data>
<data key="r">223</data>
<data key="g">137</data>
<data key="b">255</data>
<data key="x">616.38324</data>
<data key="y">-86.79778</data>
</node>
<node id="attribute.confidentiality.data.variety.Personal">
<data key="label">attribute.confidentiality.data.variety.Personal</data>
<data key="d2">attribute.confidentiality</data>
<data key="d1">attribute</data>
<data key="d0">7</data>
<data key="size">20.587236</data>
<data key="r">115</data>
<data key="g">192</data>
<data key="b">0</data>
<data key="x">-602.64087</data>
<data key="y">155.83992</data>
</node>
<node id="action.malware.variety.Capture stored data">
<data key="label">action.malware.variety.Capture stored data</data>
<data key="d2">action.malware</data>
<data key="d1">action</data>
<data key="d0">62</data>
<data key="size">37.168354</data>
<data key="r">223</data>
<data key="g">137</data>
<data key="b">255</data>
<data key="x">622.3027</data>
<data key="y">-14.195926</data>
</node>
<node id="attribute.integrity.variety.Created account">
<data key="label">attribute.integrity.variety.Created account</data>
<data key="d2">attribute.integrity</data>
<data key="d1">attribute</data>
<data key="d0">1</data>
<data key="size">14.170411</data>
<data key="r">76</data>
<data key="g">70</data>
<data key="b">62</data>
<data key="x">-411.6461</data>
<data key="y">466.915</data>
</node>
<node id="start">
<data key="label">start</data>
<data key="d2">start</data>
<data key="d1">start</data>
<data key="d0">0</data>
<data key="size">10.0</data>
<data key="r">192</data>
<data key="g">192</data>
<data key="b">192</data>
<data key="x">662.026</data>
<data key="y">-603.7617</data>
</node>
<node id="action.misuse.variety.Data mishandling">
<data key="label">action.misuse.variety.Data mishandling</data>
<data key="d2">action.misuse</data>
<data key="d1">action</data>
<data key="d0">4</data>
<data key="size">18.136122</data>
<data key="r">0</data>
<data key="g">189</data>
<data key="b">148</data>
<data key="x">-147.82437</data>
<data key="y">-604.657</data>
</node>
<node id="action.malware.vector.Web download">
<data key="label">action.malware.vector.Web download</data>
<data key="d2">action.malware</data>
<data key="d1">action</data>
<data key="d0">13</data>
<data key="size">24.069736</data>
<data key="r">223</data>
<data key="g">137</data>
<data key="b">255</data>
<data key="x">-20.268326</data>
<data key="y">-622.1345</data>
</node>
<node id="action.malware.variety.Downloader">
<data key="label">action.malware.variety.Downloader</data>
<data key="d2">action.malware</data>
<data key="d1">action</data>
<data key="d0">54</data>
<data key="size">35.771442</data>
<data key="r">223</data>
<data key="g">137</data>
<data key="b">255</data>
<data key="x">602.44666</data>
<data key="y">-156.58917</data>
</node>
<node id="action.malware.vector.Remote injection">
<data key="label">action.malware.vector.Remote injection</data>
<data key="d2">action.malware</data>
<data key="d1">action</data>
<data key="d0">1</data>
<data key="size">14.170411</data>
<data key="r">223</data>
<data key="g">137</data>
<data key="b">255</data>
<data key="x">25.609037</data>
<data key="y">-621.93756</data>
</node>
<node id="action.malware.variety.C2">
<data key="label">action.malware.variety.C2</data>
<data key="d2">action.malware</data>
<data key="d1">action</data>
<data key="d0">136</data>
<data key="size">45.334515</data>
<data key="r">223</data>
<data key="g">137</data>
<data key="b">255</data>
<data key="x">605.69385</data>
<data key="y">143.51678</data>
</node>
<node id="action.malware.variety.Adminware">
<data key="label">action.malware.variety.Adminware</data>
<data key="d2">action.malware</data>
<data key="d1">action</data>
<data key="d0">63</data>
<data key="size">37.33227</data>
<data key="r">223</data>
<data key="g">137</data>
<data key="b">255</data>
<data key="x">526.9614</data>
<data key="y">331.32123</data>
</node>
<node id="action.malware.variety.Password dumper">
<data key="label">action.malware.variety.Password dumper</data>
<data key="d2">action.malware</data>
<data key="d1">action</data>
<data key="d0">13</data>
<data key="size">24.069736</data>
<data key="r">223</data>
<data key="g">137</data>
<data key="b">255</data>
<data key="x">509.69836</data>
<data key="y">-357.309</data>
</node>
<node id="action.malware.variety.Spyware/Keylogger">
<data key="label">action.malware.variety.Spyware/Keylogger</data>
<data key="d2">action.malware</data>
<data key="d1">action</data>
<data key="d0">51</data>
<data key="size">35.20412</data>
<data key="r">223</data>
<data key="g">137</data>
<data key="b">255</data>
<data key="x">439.55545</data>
<data key="y">-440.74158</data>
</node>
<node id="action.misuse.variety.Knowledge abuse">
<data key="label">action.misuse.variety.Knowledge abuse</data>
<data key="d2">action.misuse</data>
<data key="d1">action</data>
<data key="d0">1</data>
<data key="size">14.170411</data>
<data key="r">0</data>
<data key="g">189</data>
<data key="b">148</data>
<data key="x">-185.17218</data>
<data key="y">-594.28394</data>
</node>
<node id="attribute.availability.variety.Destruction">
<data key="label">attribute.availability.variety.Destruction</data>
<data key="d2">attribute.availability</data>
<data key="d1">attribute</data>
<data key="d0">1</data>
<data key="size">14.170411</data>
<data key="r">255</data>
<data key="g">85</data>
<data key="b">132</data>
<data key="x">-558.94275</data>
<data key="y">-273.94363</data>
</node>
<node id="action.hacking.variety.URL redirector abuse">
<data key="label">action.hacking.variety.URL redirector abuse</data>
<data key="d2">action.hacking</data>
<data key="d1">action</data>
<data key="d0">11</data>
<data key="size">23.04172</data>
<data key="r">0</data>
<data key="g">196</data>
<data key="b">255</data>
<data key="x">306.2394</data>
<data key="y">541.9221</data>
</node>
<node id="attribute.integrity.variety.Log tampering">
<data key="label">attribute.integrity.variety.Log tampering</data>
<data key="d2">attribute.integrity</data>
<data key="d1">attribute</data>
<data key="d0">1</data>
<data key="size">14.170411</data>
<data key="r">76</data>
<data key="g">70</data>
<data key="b">62</data>
<data key="x">-354.99142</data>
<data key="y">511.3152</data>
</node>
<node id="action.physical.variety.Assault">
<data key="label">action.physical.variety.Assault</data>
<data key="d2">action.physical</data>
<data key="d1">action</data>
<data key="d0">2</data>
<data key="size">15.838012</data>
<data key="r">211</data>
<data key="g">179</data>
<data key="b">176</data>
<data key="x">-259.39206</data>
<data key="y">-565.84265</data>
</node>
<node id="action.social.variety.Influence">
<data key="label">action.social.variety.Influence</data>
<data key="d2">action.social</data>
<data key="d1">action</data>
<data key="d0">2</data>
<data key="size">15.838012</data>
<data key="r">255</data>
<data key="g">136</data>
<data key="b">5</data>
<data key="x">-398.82742</data>
<data key="y">-477.9109</data>
</node>
<node id="attribute.confidentiality.data.variety.Other">
<data key="label">attribute.confidentiality.data.variety.Other</data>
<data key="d2">attribute.confidentiality</data>
<data key="d1">attribute</data>
<data key="d0">1</data>
<data key="size">14.170411</data>
<data key="r">115</data>
<data key="g">192</data>
<data key="b">0</data>
<data key="x">-617.6095</data>
<data key="y">77.592865</data>
</node>
<node id="action.hacking.variety.DoS">
<data key="label">action.hacking.variety.DoS</data>
<data key="d2">action.hacking</data>
<data key="d1">action</data>
<data key="d0">4</data>
<data key="size">18.136122</data>
<data key="r">0</data>
<data key="g">196</data>
<data key="b">255</data>
<data key="x">117.381294</data>
<data key="y">611.2968</data>
</node>
<node id="attribute.confidentiality.data.variety.Credentials">
<data key="label">attribute.confidentiality.data.variety.Credentials</data>
<data key="d2">attribute.confidentiality</data>
<data key="d1">attribute</data>
<data key="d0">36</data>
<data key="size">31.906034</data>
<data key="r">115</data>
<data key="g">192</data>
<data key="b">0</data>
<data key="x">-618.4416</data>
<data key="y">-70.65525</data>
</node>
<node id="action.malware.vector.Direct install">
<data key="label">action.malware.vector.Direct install</data>
<data key="d2">action.malware</data>
<data key="d1">action</data>
<data key="d0">14</data>
<data key="size">24.54792</data>
<data key="r">223</data>
<data key="g">137</data>
<data key="b">255</data>
<data key="x">352.98514</data>
<data key="y">-512.7023</data>
</node>
<node id="attribute.integrity.variety.Alter behavior">
<data key="label">attribute.integrity.variety.Alter behavior</data>
<data key="d2">attribute.integrity</data>
<data key="d1">attribute</data>
<data key="d0">263</data>
<data key="size">50.0</data>
<data key="r">76</data>
<data key="g">70</data>
<data key="b">62</data>
<data key="x">-466.1146</data>
<data key="y">412.5522</data>
</node>
<node id="action.hacking.variety.Brute force">
<data key="label">action.hacking.variety.Brute force</data>
<data key="d2">action.hacking</data>
<data key="d1">action</data>
<data key="d0">3</data>
<data key="size">17.093704</data>
<data key="r">0</data>
<data key="g">196</data>
<data key="b">255</data>
<data key="x">20.508732</data>
<data key="y">622.1266</data>
</node>
<node id="action.malware.vector.Email autoexecute">
<data key="label">action.malware.vector.Email autoexecute</data>
<data key="d2">action.malware</data>
<data key="d1">action</data>
<data key="d0">11</data>
<data key="size">23.04172</data>
<data key="r">223</data>
<data key="g">137</data>
<data key="b">255</data>
<data key="x">137.42198</data>
<data key="y">-607.1057</data>
</node>
<node id="attribute.integrity.variety.Modify privileges">
<data key="label">attribute.integrity.variety.Modify privileges</data>
<data key="d2">attribute.integrity</data>
<data key="d1">attribute</data>
<data key="d0">1</data>
<data key="size">14.170411</data>
<data key="r">76</data>
<data key="g">70</data>
<data key="b">62</data>
<data key="x">-225.3773</data>
<data key="y">580.2303</data>
</node>
<node id="action.hacking.variety.Use of backdoor or C2">
<data key="label">action.hacking.variety.Use of backdoor or C2</data>
<data key="d2">action.hacking</data>
<data key="d1">action</data>
<data key="d0">138</data>
<data key="size">45.478355</data>
<data key="r">0</data>
<data key="g">196</data>
<data key="b">255</data>
<data key="x">374.9484</data>
<data key="y">496.86603</data>
</node>
<node id="action.malware.vector.Email attachment">
<data key="label">action.malware.vector.Email attachment</data>
<data key="d2">action.malware</data>
<data key="d1">action</data>
<data key="d0">116</data>
<data key="size">43.7234</data>
<data key="r">223</data>
<data key="g">137</data>
<data key="b">255</data>
<data key="x">214.21095</data>
<data key="y">-584.4449</data>
</node>
<node id="attribute.confidentiality.data.variety.Secrets">
<data key="label">attribute.confidentiality.data.variety.Secrets</data>
<data key="d2">attribute.confidentiality</data>
<data key="d1">attribute</data>
<data key="d0">243</data>
<data key="size">49.80686</data>
<data key="r">115</data>
<data key="g">192</data>
<data key="b">0</data>
<data key="x">-576.0164</data>
<data key="y">235.93903</data>
</node>
<node id="action.malware.variety.Worm">
<data key="label">action.malware.variety.Worm</data>
<data key="d2">action.malware</data>
<data key="d1">action</data>
<data key="d0">3</data>
<data key="size">17.093704</data>
<data key="r">223</data>
<data key="g">137</data>
<data key="b">255</data>
<data key="x">392.96265</data>
<data key="y">-482.74475</data>
</node>
<node id="action.physical.variety.Theft">
<data key="label">action.physical.variety.Theft</data>
<data key="d2">action.physical</data>
<data key="d1">action</data>
<data key="d0">2</data>
<data key="size">15.838012</data>
<data key="r">211</data>
<data key="g">179</data>
<data key="b">176</data>
<data key="x">-293.44067</data>
<data key="y">-548.9578</data>
</node>
<node id="action.hacking.variety.SQLi">
<data key="label">action.hacking.variety.SQLi</data>
<data key="d2">action.hacking</data>
<data key="d1">action</data>
<data key="d0">6</data>
<data key="size">19.851433</data>
<data key="r">0</data>
<data key="g">196</data>
<data key="b">255</data>
<data key="x">222.63231</data>
<data key="y">581.28906</data>
</node>
<node id="attribute.integrity.variety.Modify configuration">
<data key="label">attribute.integrity.variety.Modify configuration</data>
<data key="d2">attribute.integrity</data>
<data key="d1">attribute</data>
<data key="d0">12</data>
<data key="size">23.568645</data>
<data key="r">76</data>
<data key="g">70</data>
<data key="b">62</data>
<data key="x">-316.88483</data>
<data key="y">535.76685</data>
</node>
<node id="attribute.availability.variety.Degradation">
<data key="label">attribute.availability.variety.Degradation</data>
<data key="d2">attribute.availability</data>
<data key="d1">attribute</data>
<data key="d0">2</data>
<data key="size">15.838012</data>
<data key="r">255</data>
<data key="g">85</data>
<data key="b">132</data>
<data key="x">-542.1687</data>
<data key="y">-305.80264</data>
</node>
<node id="attribute.integrity.variety.Repurpose">
<data key="label">attribute.integrity.variety.Repurpose</data>
<data key="d2">attribute.integrity</data>
<data key="d1">attribute</data>
<data key="d0">5</data>
<data key="size">19.04221</data>
<data key="r">76</data>
<data key="g">70</data>
<data key="b">62</data>
<data key="x">-187.78989</data>
<data key="y">593.462</data>
</node>
<node id="action.hacking.variety.Session prediction">
<data key="label">action.hacking.variety.Session prediction</data>
<data key="d2">action.hacking</data>
<data key="d1">action</data>
<data key="d0">3</data>
<data key="size">17.093704</data>
<data key="r">0</data>
<data key="g">196</data>
<data key="b">255</data>
<data key="x">263.4344</data>
<data key="y">563.97205</data>
</node>
<node id="action.malware.variety.Rootkit">
<data key="label">action.malware.variety.Rootkit</data>
<data key="d2">action.malware</data>
<data key="d1">action</data>
<data key="d0">2</data>
<data key="size">15.838012</data>
<data key="r">223</data>
<data key="g">137</data>
<data key="b">255</data>
<data key="x">480.7282</data>
<data key="y">-395.427</data>
</node>
<node id="action.malware.vector.Download by malware">
<data key="label">action.malware.vector.Download by malware</data>
<data key="d2">action.malware</data>
<data key="d1">action</data>
<data key="d0">33</data>
<data key="size">31.128847</data>
<data key="r">223</data>
<data key="g">137</data>
<data key="b">255</data>
<data key="x">296.02856</data>
<data key="y">-547.56665</data>
</node>
<node id="action.hacking.variety.XSS">
<data key="label">action.hacking.variety.XSS</data>
<data key="d2">action.hacking</data>
<data key="d1">action</data>
<data key="d0">11</data>
<data key="size">23.04172</data>
<data key="r">0</data>
<data key="g">196</data>
<data key="b">255</data>
<data key="x">484.92065</data>
<data key="y">390.27438</data>
</node>
<node id="attribute.confidentiality.data.variety.Source code">
<data key="label">attribute.confidentiality.data.variety.Source code</data>
<data key="d2">attribute.confidentiality</data>
<data key="d1">attribute</data>
<data key="d0">4</data>
<data key="size">18.136122</data>
<data key="r">115</data>
<data key="g">192</data>
<data key="b">0</data>
<data key="x">-540.2669</data>
<data key="y">309.15018</data>
</node>
<node id="action.hacking.variety.Footprinting">
<data key="label">action.hacking.variety.Footprinting</data>
<data key="d2">action.hacking</data>
<data key="d1">action</data>
<data key="d0">19</data>
<data key="size">26.667313</data>
<data key="r">0</data>
<data key="g">196</data>
<data key="b">255</data>
<data key="x">169.67763</data>
<data key="y">598.892</data>
</node>
<node id="attribute.availability.variety.Interruption">
<data key="label">attribute.availability.variety.Interruption</data>
<data key="d2">attribute.availability</data>
<data key="d1">attribute</data>
<data key="d0">2</data>
<data key="size">15.838012</data>
<data key="r">255</data>
<data key="g">85</data>
<data key="b">132</data>
<data key="x">-573.84674</data>
<data key="y">-241.16806</data>
</node>
<edge id="4472" source="attribute.confidentiality.data.variety.Classified" target="end">
<data key="edgelabel">attribute.confidentiality.data.variety.Classified-&gt;end</data>
<data key="weight">1.0</data>
<data key="d6">forward</data>
<data key="d5">1</data>
</edge>
<edge id="4473" source="attribute.confidentiality.data.variety.Bank" target="end">
<data key="edgelabel">attribute.confidentiality.data.variety.Bank-&gt;end</data>
<data key="weight">1.0</data>
<data key="d6">forward</data>
<data key="d5">1</data>
</edge>
<edge id="4474" source="action.misuse.variety.Privilege abuse" target="attribute.confidentiality.data.variety.Secrets">
<data key="edgelabel">action.misuse.variety.Privilege abuse-&gt;attribute.confidentiality.data.variety.Secrets</data>
<data key="weight">1.0</data>
<data key="d6">forward</data>
<data key="d5">1</data>
</edge>
<edge id="4475" source="action.misuse.variety.Privilege abuse" target="attribute.confidentiality.data.variety.Internal">
<data key="edgelabel">action.misuse.variety.Privilege abuse-&gt;attribute.confidentiality.data.variety.Internal</data>
<data key="weight">1.0</data>
<data key="d6">forward</data>
<data key="d5">2</data>
</edge>
<edge id="4476" source="action.malware.variety.Capture app data" target="action.hacking.variety.Session prediction">
<data key="edgelabel">action.malware.variety.Capture app data-&gt;action.hacking.variety.Session prediction</data>
<data key="weight">1.0</data>
<data key="d6">forward</data>
<data key="d5">1</data>
</edge>
<edge id="4477" source="action.malware.variety.Capture app data" target="action.malware.vector.Web drive-by">
<data key="edgelabel">action.malware.variety.Capture app data-&gt;action.malware.vector.Web drive-by</data>
<data key="weight">1.0</data>
<data key="d6">forward</data>
<data key="d5">12</data>
</edge>
<edge id="4478" source="action.malware.variety.Capture app data" target="action.social.variety.Phishing">
<data key="edgelabel">action.malware.variety.Capture app data-&gt;action.social.variety.Phishing</data>
<data key="weight">1.0</data>
<data key="d6">forward</data>
<data key="d5">11</data>
</edge>
<edge id="4479" source="action.malware.variety.Capture app data" target="action.hacking.variety.Use of stolen creds">
<data key="edgelabel">action.malware.variety.Capture app data-&gt;action.hacking.variety.Use of stolen creds</data>
<data key="weight">1.0</data>
<data key="d6">forward</data>
<data key="d5">1</data>
</edge>
<edge id="4480" source="attribute.confidentiality.data.variety.Internal" target="end">
<data key="edgelabel">attribute.confidentiality.data.variety.Internal-&gt;end</data>
<data key="weight">1.0</data>
<data key="d6">forward</data>
<data key="d5">1</data>
</edge>
<edge id="4481" source="action.social.variety.Phishing" target="attribute.confidentiality.data.variety.Secrets">
<data key="edgelabel">action.social.variety.Phishing-&gt;attribute.confidentiality.data.variety.Secrets</data>
<data key="weight">1.0</data>
<data key="d6">forward</data>
<data key="d5">159</data>
</edge>
<edge id="4482" source="action.social.variety.Phishing" target="attribute.integrity.variety.Software installation">
<data key="edgelabel">action.social.variety.Phishing-&gt;attribute.integrity.variety.Software installation</data>
<data key="weight">1.0</data>
<data key="d6">forward</data>
<data key="d5">180</data>
</edge>
<edge id="4483" source="action.social.variety.Phishing" target="attribute.integrity.variety.Alter behavior">
<data key="edgelabel">action.social.variety.Phishing-&gt;attribute.integrity.variety.Alter behavior</data>
<data key="weight">1.0</data>
<data key="d6">forward</data>
<data key="d5">181</data>
</edge>
<edge id="4484" source="attribute.confidentiality.data.variety.System" target="end">
<data key="edgelabel">attribute.confidentiality.data.variety.System-&gt;end</data>
<data key="weight">1.0</data>
<data key="d6">forward</data>
<data key="d5">1</data>
</edge>
<edge id="4485" source="action.hacking.variety.Use of stolen creds" target="attribute.confidentiality.data.variety.Secrets">
<data key="edgelabel">action.hacking.variety.Use of stolen creds-&gt;attribute.confidentiality.data.variety.Secrets</data>
<data key="weight">1.0</data>
<data key="d6">forward</data>
<data key="d5">23</data>
</edge>
<edge id="4486" source="action.hacking.variety.Use of stolen creds" target="attribute.integrity.variety.Software installation">
<data key="edgelabel">action.hacking.variety.Use of stolen creds-&gt;attribute.integrity.variety.Software installation</data>
<data key="weight">1.0</data>
<data key="d6">forward</data>
<data key="d5">24</data>
</edge>
<edge id="4487" source="action.hacking.variety.Use of stolen creds" target="attribute.integrity.variety.Alter behavior">
<data key="edgelabel">action.hacking.variety.Use of stolen creds-&gt;attribute.integrity.variety.Alter behavior</data>
<data key="weight">1.0</data>
<data key="d6">forward</data>
<data key="d5">24</data>
</edge>
<edge id="4488" source="action.malware.vector.Email link" target="action.social.variety.Phishing">
<data key="edgelabel">action.malware.vector.Email link-&gt;action.social.variety.Phishing</data>
<data key="weight">1.0</data>
<data key="d6">forward</data>
<data key="d5">23</data>
</edge>
<edge id="4489" source="action.social.variety.Other" target="action.hacking.variety.Session prediction">
<data key="edgelabel">action.social.variety.Other-&gt;action.hacking.variety.Session prediction</data>
<data key="weight">1.0</data>
<data key="d6">forward</data>
<data key="d5">1</data>
</edge>
<edge id="4490" source="action.social.variety.Other" target="action.social.variety.Phishing">
<data key="edgelabel">action.social.variety.Other-&gt;action.social.variety.Phishing</data>
<data key="weight">1.0</data>
<data key="d6">forward</data>
<data key="d5">1</data>
</edge>
<edge id="4491" source="action.social.variety.Other" target="action.hacking.variety.Use of stolen creds">
<data key="edgelabel">action.social.variety.Other-&gt;action.hacking.variety.Use of stolen creds</data>
<data key="weight">1.0</data>
<data key="d6">forward</data>
<data key="d5">1</data>
</edge>
<edge id="4492" source="action.malware.variety.Export data" target="action.hacking.variety.Use of stolen creds">
<data key="edgelabel">action.malware.variety.Export data-&gt;action.hacking.variety.Use of stolen creds</data>
<data key="weight">1.0</data>
<data key="d6">forward</data>
<data key="d5">13</data>
</edge>
<edge id="4493" source="action.malware.variety.Export data" target="action.malware.vector.Web drive-by">
<data key="edgelabel">action.malware.variety.Export data-&gt;action.malware.vector.Web drive-by</data>
<data key="weight">1.0</data>
<data key="d6">forward</data>
<data key="d5">11</data>
</edge>
<edge id="4494" source="action.malware.variety.Export data" target="action.social.variety.Phishing">
<data key="edgelabel">action.malware.variety.Export data-&gt;action.social.variety.Phishing</data>
<data key="weight">1.0</data>
<data key="d6">forward</data>
<data key="d5">28</data>
</edge>
<edge id="4495" source="action.hacking.variety.Buffer overflow" target="action.malware.vector.Web drive-by">
<data key="edgelabel">action.hacking.variety.Buffer overflow-&gt;action.malware.vector.Web drive-by</data>
<data key="weight">1.0</data>
<data key="d6">forward</data>
<data key="d5">10</data>
</edge>
<edge id="4496" source="action.hacking.variety.Buffer overflow" target="action.social.variety.Phishing">
<data key="edgelabel">action.hacking.variety.Buffer overflow-&gt;action.social.variety.Phishing</data>
<data key="weight">1.0</data>
<data key="d6">forward</data>
<data key="d5">10</data>
</edge>
<edge id="4497" source="action.malware.vector.Web drive-by" target="attribute.confidentiality.data.variety.Secrets">
<data key="edgelabel">action.malware.vector.Web drive-by-&gt;attribute.confidentiality.data.variety.Secrets</data>
<data key="weight">1.0</data>
<data key="d6">forward</data>
<data key="d5">36</data>
</edge>
<edge id="4498" source="action.malware.vector.Web drive-by" target="attribute.integrity.variety.Software installation">
<data key="edgelabel">action.malware.vector.Web drive-by-&gt;attribute.integrity.variety.Software installation</data>
<data key="weight">1.0</data>
<data key="d6">forward</data>
<data key="d5">38</data>
</edge>
<edge id="4499" source="action.malware.vector.Web drive-by" target="attribute.integrity.variety.Alter behavior">
<data key="edgelabel">action.malware.vector.Web drive-by-&gt;attribute.integrity.variety.Alter behavior</data>
<data key="weight">1.0</data>
<data key="d6">forward</data>
<data key="d5">35</data>
</edge>
<edge id="4500" source="action.social.variety.Forgery" target="action.malware.vector.Web drive-by">
<data key="edgelabel">action.social.variety.Forgery-&gt;action.malware.vector.Web drive-by</data>
<data key="weight">1.0</data>
<data key="d6">forward</data>
<data key="d5">10</data>
</edge>
<edge id="4501" source="action.social.variety.Forgery" target="action.social.variety.Phishing">
<data key="edgelabel">action.social.variety.Forgery-&gt;action.social.variety.Phishing</data>
<data key="weight">1.0</data>
<data key="d6">forward</data>
<data key="d5">10</data>
</edge>
<edge id="4502" source="attribute.integrity.variety.Software installation" target="end">
<data key="edgelabel">attribute.integrity.variety.Software installation-&gt;end</data>
<data key="weight">1.0</data>
<data key="d6">forward</data>
<data key="d5">1</data>
</edge>
<edge id="4503" source="attribute.integrity.variety.Software installation" target="action.hacking.variety.Session prediction">
<data key="edgelabel">attribute.integrity.variety.Software installation-&gt;action.hacking.variety.Session prediction</data>
<data key="weight">1.0</data>
<data key="d6">backward</data>
<data key="d5">2</data>
</edge>
<edge id="4504" source="attribute.integrity.variety.Software installation" target="action.social.variety.Phishing">
<data key="edgelabel">attribute.integrity.variety.Software installation-&gt;action.social.variety.Phishing</data>
<data key="weight">1.0</data>
<data key="d6">backward</data>
<data key="d5">431</data>
</edge>
<edge id="4505" source="attribute.integrity.variety.Software installation" target="action.hacking.variety.Use of stolen creds">
<data key="edgelabel">attribute.integrity.variety.Software installation-&gt;action.hacking.variety.Use of stolen creds</data>
<data key="weight">1.0</data>
<data key="d6">backward</data>
<data key="d5">87</data>
</edge>
<edge id="4506" source="attribute.integrity.variety.Software installation" target="action.hacking.variety.Brute force">
<data key="edgelabel">attribute.integrity.variety.Software installation-&gt;action.hacking.variety.Brute force</data>
<data key="weight">1.0</data>
<data key="d6">backward</data>
<data key="d5">4</data>
</edge>
<edge id="4507" source="attribute.integrity.variety.Software installation" target="action.malware.vector.Web drive-by">
<data key="edgelabel">attribute.integrity.variety.Software installation-&gt;action.malware.vector.Web drive-by</data>
<data key="weight">1.0</data>
<data key="d6">backward</data>
<data key="d5">122</data>
</edge>
<edge id="4508" source="attribute.confidentiality.data.variety.Medical" target="action.physical.variety.Theft">
<data key="edgelabel">attribute.confidentiality.data.variety.Medical-&gt;action.physical.variety.Theft</data>
<data key="weight">1.0</data>
<data key="d6">backward</data>
<data key="d5">2</data>
</edge>
<edge id="4509" source="attribute.confidentiality.data.variety.Medical" target="end">
<data key="edgelabel">attribute.confidentiality.data.variety.Medical-&gt;end</data>
<data key="weight">1.0</data>
<data key="d6">forward</data>
<data key="d5">1</data>
</edge>
<edge id="4510" source="attribute.integrity.variety.Defacement" target="end">
<data key="edgelabel">attribute.integrity.variety.Defacement-&gt;end</data>
<data key="weight">1.0</data>
<data key="d6">forward</data>
<data key="d5">1</data>
</edge>
<edge id="4511" source="attribute.integrity.variety.Defacement" target="action.physical.variety.Assault">
<data key="edgelabel">attribute.integrity.variety.Defacement-&gt;action.physical.variety.Assault</data>
<data key="weight">1.0</data>
<data key="d6">backward</data>
<data key="d5">2</data>
</edge>
<edge id="4512" source="action.malware.variety.Exploit vuln" target="action.hacking.variety.Use of stolen creds">
<data key="edgelabel">action.malware.variety.Exploit vuln-&gt;action.hacking.variety.Use of stolen creds</data>
<data key="weight">1.0</data>
<data key="d6">forward</data>
<data key="d5">1</data>
</edge>
<edge id="4513" source="action.malware.variety.Exploit vuln" target="action.malware.vector.Web drive-by">
<data key="edgelabel">action.malware.variety.Exploit vuln-&gt;action.malware.vector.Web drive-by</data>
<data key="weight">1.0</data>
<data key="d6">forward</data>
<data key="d5">10</data>
</edge>
<edge id="4514" source="action.malware.variety.Exploit vuln" target="action.social.variety.Phishing">
<data key="edgelabel">action.malware.variety.Exploit vuln-&gt;action.social.variety.Phishing</data>
<data key="weight">1.0</data>
<data key="d6">forward</data>
<data key="d5">15</data>
</edge>
<edge id="4515" source="attribute.confidentiality.data.variety.Payment" target="end">
<data key="edgelabel">attribute.confidentiality.data.variety.Payment-&gt;end</data>
<data key="weight">1.0</data>
<data key="d6">forward</data>
<data key="d5">1</data>
</edge>
<edge id="4516" source="attribute.availability.variety.Loss" target="action.physical.variety.Theft">
<data key="edgelabel">attribute.availability.variety.Loss-&gt;action.physical.variety.Theft</data>
<data key="weight">1.0</data>
<data key="d6">backward</data>
<data key="d5">2</data>
</edge>
<edge id="4517" source="attribute.availability.variety.Loss" target="end">
<data key="edgelabel">attribute.availability.variety.Loss-&gt;end</data>
<data key="weight">1.0</data>
<data key="d6">forward</data>
<data key="d5">1</data>
</edge>
<edge id="4518" source="attribute.integrity.variety.Modify data" target="end">
<data key="edgelabel">attribute.integrity.variety.Modify data-&gt;end</data>
<data key="weight">1.0</data>
<data key="d6">forward</data>
<data key="d5">1</data>
</edge>
<edge id="4519" source="action.malware.variety.Backdoor" target="action.hacking.variety.Use of stolen creds">
<data key="edgelabel">action.malware.variety.Backdoor-&gt;action.hacking.variety.Use of stolen creds</data>
<data key="weight">1.0</data>
<data key="d6">forward</data>
<data key="d5">14</data>
</edge>
<edge id="4520" source="action.malware.variety.Backdoor" target="action.malware.vector.Web drive-by">
<data key="edgelabel">action.malware.variety.Backdoor-&gt;action.malware.vector.Web drive-by</data>
<data key="weight">1.0</data>
<data key="d6">forward</data>
<data key="d5">1</data>
</edge>
<edge id="4521" source="action.malware.variety.Backdoor" target="action.social.variety.Phishing">
<data key="edgelabel">action.malware.variety.Backdoor-&gt;action.social.variety.Phishing</data>
<data key="weight">1.0</data>
<data key="d6">forward</data>
<data key="d5">81</data>
</edge>
<edge id="4522" source="action.malware.variety.Client-side attack" target="action.malware.vector.Web drive-by">
<data key="edgelabel">action.malware.variety.Client-side attack-&gt;action.malware.vector.Web drive-by</data>
<data key="weight">1.0</data>
<data key="d6">forward</data>
<data key="d5">10</data>
</edge>
<edge id="4523" source="action.malware.variety.Client-side attack" target="action.social.variety.Phishing">
<data key="edgelabel">action.malware.variety.Client-side attack-&gt;action.social.variety.Phishing</data>
<data key="weight">1.0</data>
<data key="d6">forward</data>
<data key="d5">10</data>
</edge>
<edge id="4524" source="attribute.confidentiality.data.variety.Personal" target="action.physical.variety.Theft">
<data key="edgelabel">attribute.confidentiality.data.variety.Personal-&gt;action.physical.variety.Theft</data>
<data key="weight">1.0</data>
<data key="d6">backward</data>
<data key="d5">2</data>
</edge>
<edge id="4525" source="attribute.confidentiality.data.variety.Personal" target="end">
<data key="edgelabel">attribute.confidentiality.data.variety.Personal-&gt;end</data>
<data key="weight">1.0</data>
<data key="d6">forward</data>
<data key="d5">1</data>
</edge>
<edge id="4526" source="action.malware.variety.Capture stored data" target="action.hacking.variety.Session prediction">
<data key="edgelabel">action.malware.variety.Capture stored data-&gt;action.hacking.variety.Session prediction</data>
<data key="weight">1.0</data>
<data key="d6">forward</data>
<data key="d5">1</data>
</edge>
<edge id="4527" source="action.malware.variety.Capture stored data" target="action.malware.vector.Web drive-by">
<data key="edgelabel">action.malware.variety.Capture stored data-&gt;action.malware.vector.Web drive-by</data>
<data key="weight">1.0</data>
<data key="d6">forward</data>
<data key="d5">11</data>
</edge>
<edge id="4528" source="action.malware.variety.Capture stored data" target="action.social.variety.Phishing">
<data key="edgelabel">action.malware.variety.Capture stored data-&gt;action.social.variety.Phishing</data>
<data key="weight">1.0</data>
<data key="d6">forward</data>
<data key="d5">29</data>
</edge>
<edge id="4529" source="action.malware.variety.Capture stored data" target="action.hacking.variety.Use of stolen creds">
<data key="edgelabel">action.malware.variety.Capture stored data-&gt;action.hacking.variety.Use of stolen creds</data>
<data key="weight">1.0</data>
<data key="d6">forward</data>
<data key="d5">14</data>
</edge>
<edge id="4530" source="attribute.integrity.variety.Created account" target="end">
<data key="edgelabel">attribute.integrity.variety.Created account-&gt;end</data>
<data key="weight">1.0</data>
<data key="d6">forward</data>
<data key="d5">1</data>
</edge>
<edge id="4531" source="start" target="action.hacking.variety.SQLi">
<data key="edgelabel">start-&gt;action.hacking.variety.SQLi</data>
<data key="weight">1.0</data>
<data key="d6">forward</data>
<data key="d5">1</data>
</edge>
<edge id="4532" source="start" target="action.misuse.variety.Privilege abuse">
<data key="edgelabel">start-&gt;action.misuse.variety.Privilege abuse</data>
<data key="weight">1.0</data>
<data key="d6">forward</data>
<data key="d5">1</data>
</edge>
<edge id="4533" source="start" target="action.malware.variety.Capture app data">
<data key="edgelabel">start-&gt;action.malware.variety.Capture app data</data>
<data key="weight">1.0</data>
<data key="d6">forward</data>
<data key="d5">1</data>
</edge>
<edge id="4534" source="start" target="action.malware.variety.Password dumper">
<data key="edgelabel">start-&gt;action.malware.variety.Password dumper</data>
<data key="weight">1.0</data>
<data key="d6">forward</data>
<data key="d5">1</data>
</edge>
<edge id="4535" source="start" target="action.social.variety.Bribery">
<data key="edgelabel">start-&gt;action.social.variety.Bribery</data>
<data key="weight">1.0</data>
<data key="d6">forward</data>
<data key="d5">1</data>
</edge>
<edge id="4536" source="start" target="action.social.variety.Phishing">
<data key="edgelabel">start-&gt;action.social.variety.Phishing</data>
<data key="weight">1.0</data>
<data key="d6">forward</data>
<data key="d5">1</data>
</edge>
<edge id="4537" source="start" target="action.hacking.variety.Use of stolen creds">
<data key="edgelabel">start-&gt;action.hacking.variety.Use of stolen creds</data>
<data key="weight">1.0</data>
<data key="d6">forward</data>
<data key="d5">1</data>
</edge>
<edge id="4538" source="start" target="action.malware.vector.Email link">
<data key="edgelabel">start-&gt;action.malware.vector.Email link</data>
<data key="weight">1.0</data>
<data key="d6">forward</data>
<data key="d5">1</data>
</edge>
<edge id="4539" source="start" target="action.social.variety.Other">
<data key="edgelabel">start-&gt;action.social.variety.Other</data>
<data key="weight">1.0</data>
<data key="d6">forward</data>
<data key="d5">1</data>
</edge>
<edge id="4540" source="start" target="action.malware.variety.Export data">
<data key="edgelabel">start-&gt;action.malware.variety.Export data</data>
<data key="weight">1.0</data>
<data key="d6">forward</data>
<data key="d5">1</data>
</edge>
<edge id="4541" source="start" target="action.hacking.variety.Buffer overflow">
<data key="edgelabel">start-&gt;action.hacking.variety.Buffer overflow</data>
<data key="weight">1.0</data>
<data key="d6">forward</data>
<data key="d5">1</data>
</edge>
<edge id="4542" source="start" target="action.malware.vector.Remote injection">
<data key="edgelabel">start-&gt;action.malware.vector.Remote injection</data>
<data key="weight">1.0</data>
<data key="d6">forward</data>
<data key="d5">1</data>
</edge>
<edge id="4543" source="start" target="action.social.variety.Forgery">
<data key="edgelabel">start-&gt;action.social.variety.Forgery</data>
<data key="weight">1.0</data>
<data key="d6">forward</data>
<data key="d5">1</data>
</edge>
<edge id="4544" source="start" target="action.malware.variety.Rootkit">
<data key="edgelabel">start-&gt;action.malware.variety.Rootkit</data>
<data key="weight">1.0</data>
<data key="d6">forward</data>
<data key="d5">1</data>
</edge>
<edge id="4545" source="start" target="action.malware.variety.Backdoor">
<data key="edgelabel">start-&gt;action.malware.variety.Backdoor</data>
<data key="weight">1.0</data>
<data key="d6">forward</data>
<data key="d5">1</data>
</edge>
<edge id="4546" source="start" target="action.malware.variety.Client-side attack">
<data key="edgelabel">start-&gt;action.malware.variety.Client-side attack</data>
<data key="weight">1.0</data>
<data key="d6">forward</data>
<data key="d5">1</data>
</edge>
<edge id="4547" source="start" target="action.malware.variety.Capture stored data">
<data key="edgelabel">start-&gt;action.malware.variety.Capture stored data</data>
<data key="weight">1.0</data>
<data key="d6">forward</data>
<data key="d5">1</data>
</edge>
<edge id="4548" source="start" target="action.malware.variety.Spyware/Keylogger">
<data key="edgelabel">start-&gt;action.malware.variety.Spyware/Keylogger</data>
<data key="weight">1.0</data>
<data key="d6">forward</data>
<data key="d5">1</data>
</edge>
<edge id="4549" source="start" target="action.misuse.variety.Data mishandling">
<data key="edgelabel">start-&gt;action.misuse.variety.Data mishandling</data>
<data key="weight">1.0</data>
<data key="d6">forward</data>
<data key="d5">1</data>
</edge>
<edge id="4550" source="start" target="action.malware.vector.Web download">
<data key="edgelabel">start-&gt;action.malware.vector.Web download</data>
<data key="weight">1.0</data>
<data key="d6">forward</data>
<data key="d5">1</data>
</edge>
<edge id="4551" source="start" target="action.malware.variety.Downloader">
<data key="edgelabel">start-&gt;action.malware.variety.Downloader</data>
<data key="weight">1.0</data>
<data key="d6">forward</data>
<data key="d5">1</data>
</edge>
<edge id="4552" source="start" target="action.malware.variety.C2">
<data key="edgelabel">start-&gt;action.malware.variety.C2</data>
<data key="weight">1.0</data>
<data key="d6">forward</data>
<data key="d5">1</data>
</edge>
<edge id="4553" source="start" target="action.malware.variety.Adminware">
<data key="edgelabel">start-&gt;action.malware.variety.Adminware</data>
<data key="weight">1.0</data>
<data key="d6">forward</data>
<data key="d5">1</data>
</edge>
<edge id="4554" source="start" target="action.social.variety.Pretexting">
<data key="edgelabel">start-&gt;action.social.variety.Pretexting</data>
<data key="weight">1.0</data>
<data key="d6">forward</data>
<data key="d5">1</data>
</edge>
<edge id="4555" source="start" target="action.malware.vector.Web drive-by">
<data key="edgelabel">start-&gt;action.malware.vector.Web drive-by</data>
<data key="weight">1.0</data>
<data key="d6">forward</data>
<data key="d5">1</data>
</edge>
<edge id="4556" source="start" target="action.misuse.variety.Knowledge abuse">
<data key="edgelabel">start-&gt;action.misuse.variety.Knowledge abuse</data>
<data key="weight">1.0</data>
<data key="d6">forward</data>
<data key="d5">1</data>
</edge>
<edge id="4557" source="start" target="action.hacking.variety.XSS">
<data key="edgelabel">start-&gt;action.hacking.variety.XSS</data>
<data key="weight">1.0</data>
<data key="d6">forward</data>
<data key="d5">1</data>
</edge>
<edge id="4558" source="start" target="action.hacking.variety.URL redirector abuse">
<data key="edgelabel">start-&gt;action.hacking.variety.URL redirector abuse</data>
<data key="weight">1.0</data>
<data key="d6">forward</data>
<data key="d5">1</data>
</edge>
<edge id="4559" source="start" target="action.physical.variety.Assault">
<data key="edgelabel">start-&gt;action.physical.variety.Assault</data>
<data key="weight">1.0</data>
<data key="d6">forward</data>
<data key="d5">1</data>
</edge>
<edge id="4560" source="start" target="action.social.variety.Influence">
<data key="edgelabel">start-&gt;action.social.variety.Influence</data>
<data key="weight">1.0</data>
<data key="d6">forward</data>
<data key="d5">1</data>
</edge>
<edge id="4561" source="start" target="action.hacking.variety.Brute force">
<data key="edgelabel">start-&gt;action.hacking.variety.Brute force</data>
<data key="weight">1.0</data>
<data key="d6">forward</data>
<data key="d5">1</data>
</edge>
<edge id="4562" source="start" target="action.hacking.variety.DoS">
<data key="edgelabel">start-&gt;action.hacking.variety.DoS</data>
<data key="weight">1.0</data>
<data key="d6">forward</data>
<data key="d5">1</data>
</edge>
<edge id="4563" source="start" target="action.malware.vector.Direct install">
<data key="edgelabel">start-&gt;action.malware.vector.Direct install</data>
<data key="weight">1.0</data>
<data key="d6">forward</data>
<data key="d5">1</data>
</edge>
<edge id="4564" source="start" target="action.malware.variety.Exploit vuln">
<data key="edgelabel">start-&gt;action.malware.variety.Exploit vuln</data>
<data key="weight">1.0</data>
<data key="d6">forward</data>
<data key="d5">1</data>
</edge>
<edge id="4565" source="start" target="action.malware.vector.Email autoexecute">
<data key="edgelabel">start-&gt;action.malware.vector.Email autoexecute</data>
<data key="weight">1.0</data>
<data key="d6">forward</data>
<data key="d5">1</data>
</edge>
<edge id="4566" source="start" target="action.hacking.variety.Use of backdoor or C2">
<data key="edgelabel">start-&gt;action.hacking.variety.Use of backdoor or C2</data>
<data key="weight">1.0</data>
<data key="d6">forward</data>
<data key="d5">1</data>
</edge>
<edge id="4567" source="start" target="action.malware.vector.Email attachment">
<data key="edgelabel">start-&gt;action.malware.vector.Email attachment</data>
<data key="weight">1.0</data>
<data key="d6">forward</data>
<data key="d5">1</data>
</edge>
<edge id="4568" source="start" target="action.hacking.variety.Footprinting">
<data key="edgelabel">start-&gt;action.hacking.variety.Footprinting</data>
<data key="weight">1.0</data>
<data key="d6">forward</data>
<data key="d5">1</data>
</edge>
<edge id="4569" source="start" target="action.malware.variety.Worm">
<data key="edgelabel">start-&gt;action.malware.variety.Worm</data>
<data key="weight">1.0</data>
<data key="d6">forward</data>
<data key="d5">1</data>
</edge>
<edge id="4570" source="start" target="action.hacking.variety.Session prediction">
<data key="edgelabel">start-&gt;action.hacking.variety.Session prediction</data>
<data key="weight">1.0</data>
<data key="d6">forward</data>
<data key="d5">1</data>
</edge>
<edge id="4571" source="start" target="action.malware.vector.Download by malware">
<data key="edgelabel">start-&gt;action.malware.vector.Download by malware</data>
<data key="weight">1.0</data>
<data key="d6">forward</data>
<data key="d5">1</data>
</edge>
<edge id="4572" source="start" target="action.physical.variety.Theft">
<data key="edgelabel">start-&gt;action.physical.variety.Theft</data>
<data key="weight">1.0</data>
<data key="d6">forward</data>
<data key="d5">1</data>
</edge>
<edge id="4573" source="action.malware.vector.Web download" target="action.malware.vector.Web drive-by">
<data key="edgelabel">action.malware.vector.Web download-&gt;action.malware.vector.Web drive-by</data>
<data key="weight">1.0</data>
<data key="d6">forward</data>
<data key="d5">10</data>
</edge>
<edge id="4574" source="action.malware.vector.Web download" target="action.social.variety.Phishing">
<data key="edgelabel">action.malware.vector.Web download-&gt;action.social.variety.Phishing</data>
<data key="weight">1.0</data>
<data key="d6">forward</data>
<data key="d5">11</data>
</edge>
<edge id="4575" source="action.malware.variety.Downloader" target="action.malware.vector.Web drive-by">
<data key="edgelabel">action.malware.variety.Downloader-&gt;action.malware.vector.Web drive-by</data>
<data key="weight">1.0</data>
<data key="d6">forward</data>
<data key="d5">10</data>
</edge>
<edge id="4576" source="action.malware.variety.Downloader" target="action.social.variety.Phishing">
<data key="edgelabel">action.malware.variety.Downloader-&gt;action.social.variety.Phishing</data>
<data key="weight">1.0</data>
<data key="d6">forward</data>
<data key="d5">23</data>
</edge>
<edge id="4577" source="action.malware.variety.C2" target="action.hacking.variety.Session prediction">
<data key="edgelabel">action.malware.variety.C2-&gt;action.hacking.variety.Session prediction</data>
<data key="weight">1.0</data>
<data key="d6">forward</data>
<data key="d5">1</data>
</edge>
<edge id="4578" source="action.malware.variety.C2" target="action.malware.vector.Web drive-by">
<data key="edgelabel">action.malware.variety.C2-&gt;action.malware.vector.Web drive-by</data>
<data key="weight">1.0</data>
<data key="d6">forward</data>
<data key="d5">20</data>
</edge>
<edge id="4579" source="action.malware.variety.C2" target="action.social.variety.Phishing">
<data key="edgelabel">action.malware.variety.C2-&gt;action.social.variety.Phishing</data>
<data key="weight">1.0</data>
<data key="d6">forward</data>
<data key="d5">95</data>
</edge>
<edge id="4580" source="action.malware.variety.C2" target="action.hacking.variety.Use of stolen creds">
<data key="edgelabel">action.malware.variety.C2-&gt;action.hacking.variety.Use of stolen creds</data>
<data key="weight">1.0</data>
<data key="d6">forward</data>
<data key="d5">14</data>
</edge>
<edge id="4581" source="action.malware.variety.Adminware" target="action.malware.vector.Web drive-by">
<data key="edgelabel">action.malware.variety.Adminware-&gt;action.malware.vector.Web drive-by</data>
<data key="weight">1.0</data>
<data key="d6">forward</data>
<data key="d5">10</data>
</edge>
<edge id="4582" source="action.malware.variety.Adminware" target="action.social.variety.Phishing">
<data key="edgelabel">action.malware.variety.Adminware-&gt;action.social.variety.Phishing</data>
<data key="weight">1.0</data>
<data key="d6">forward</data>
<data key="d5">33</data>
</edge>
<edge id="4583" source="action.malware.variety.Password dumper" target="action.hacking.variety.Session prediction">
<data key="edgelabel">action.malware.variety.Password dumper-&gt;action.hacking.variety.Session prediction</data>
<data key="weight">1.0</data>
<data key="d6">forward</data>
<data key="d5">1</data>
</edge>
<edge id="4584" source="action.malware.variety.Password dumper" target="action.malware.vector.Web drive-by">
<data key="edgelabel">action.malware.variety.Password dumper-&gt;action.malware.vector.Web drive-by</data>
<data key="weight">1.0</data>
<data key="d6">forward</data>
<data key="d5">10</data>
</edge>
<edge id="4585" source="action.malware.variety.Password dumper" target="action.social.variety.Phishing">
<data key="edgelabel">action.malware.variety.Password dumper-&gt;action.social.variety.Phishing</data>
<data key="weight">1.0</data>
<data key="d6">forward</data>
<data key="d5">12</data>
</edge>
<edge id="4586" source="action.malware.variety.Password dumper" target="action.hacking.variety.Use of stolen creds">
<data key="edgelabel">action.malware.variety.Password dumper-&gt;action.hacking.variety.Use of stolen creds</data>
<data key="weight">1.0</data>
<data key="d6">forward</data>
<data key="d5">1</data>
</edge>
<edge id="4587" source="action.malware.variety.Spyware/Keylogger" target="action.hacking.variety.Session prediction">
<data key="edgelabel">action.malware.variety.Spyware/Keylogger-&gt;action.hacking.variety.Session prediction</data>
<data key="weight">1.0</data>
<data key="d6">forward</data>
<data key="d5">1</data>
</edge>
<edge id="4588" source="action.malware.variety.Spyware/Keylogger" target="action.malware.vector.Web drive-by">
<data key="edgelabel">action.malware.variety.Spyware/Keylogger-&gt;action.malware.vector.Web drive-by</data>
<data key="weight">1.0</data>
<data key="d6">forward</data>
<data key="d5">12</data>
</edge>
<edge id="4589" source="action.malware.variety.Spyware/Keylogger" target="action.social.variety.Phishing">
<data key="edgelabel">action.malware.variety.Spyware/Keylogger-&gt;action.social.variety.Phishing</data>
<data key="weight">1.0</data>
<data key="d6">forward</data>
<data key="d5">18</data>
</edge>
<edge id="4590" source="action.malware.variety.Spyware/Keylogger" target="action.hacking.variety.Use of stolen creds">
<data key="edgelabel">action.malware.variety.Spyware/Keylogger-&gt;action.hacking.variety.Use of stolen creds</data>
<data key="weight">1.0</data>
<data key="d6">forward</data>
<data key="d5">1</data>
</edge>
<edge id="4591" source="attribute.availability.variety.Destruction" target="end">
<data key="edgelabel">attribute.availability.variety.Destruction-&gt;end</data>
<data key="weight">1.0</data>
<data key="d6">forward</data>
<data key="d5">1</data>
</edge>
<edge id="4592" source="action.hacking.variety.URL redirector abuse" target="action.malware.vector.Web drive-by">
<data key="edgelabel">action.hacking.variety.URL redirector abuse-&gt;action.malware.vector.Web drive-by</data>
<data key="weight">1.0</data>
<data key="d6">forward</data>
<data key="d5">10</data>
</edge>
<edge id="4593" source="action.hacking.variety.URL redirector abuse" target="action.social.variety.Phishing">
<data key="edgelabel">action.hacking.variety.URL redirector abuse-&gt;action.social.variety.Phishing</data>
<data key="weight">1.0</data>
<data key="d6">forward</data>
<data key="d5">10</data>
</edge>
<edge id="4594" source="attribute.integrity.variety.Log tampering" target="end">
<data key="edgelabel">attribute.integrity.variety.Log tampering-&gt;end</data>
<data key="weight">1.0</data>
<data key="d6">forward</data>
<data key="d5">1</data>
</edge>
<edge id="4595" source="action.physical.variety.Assault" target="attribute.integrity.variety.Defacement">
<data key="edgelabel">action.physical.variety.Assault-&gt;attribute.integrity.variety.Defacement</data>
<data key="weight">1.0</data>
<data key="d6">forward</data>
<data key="d5">1</data>
</edge>
<edge id="4596" source="action.physical.variety.Assault" target="attribute.integrity.variety.Alter behavior">
<data key="edgelabel">action.physical.variety.Assault-&gt;attribute.integrity.variety.Alter behavior</data>
<data key="weight">1.0</data>
<data key="d6">forward</data>
<data key="d5">1</data>
</edge>
<edge id="4597" source="action.physical.variety.Assault" target="attribute.availability.variety.Interruption">
<data key="edgelabel">action.physical.variety.Assault-&gt;attribute.availability.variety.Interruption</data>
<data key="weight">1.0</data>
<data key="d6">forward</data>
<data key="d5">1</data>
</edge>
<edge id="4598" source="action.social.variety.Influence" target="action.misuse.variety.Privilege abuse">
<data key="edgelabel">action.social.variety.Influence-&gt;action.misuse.variety.Privilege abuse</data>
<data key="weight">1.0</data>
<data key="d6">forward</data>
<data key="d5">1</data>
</edge>
<edge id="4599" source="attribute.confidentiality.data.variety.Other" target="end">
<data key="edgelabel">attribute.confidentiality.data.variety.Other-&gt;end</data>
<data key="weight">1.0</data>
<data key="d6">forward</data>
<data key="d5">1</data>
</edge>
<edge id="4600" source="action.hacking.variety.DoS" target="action.social.variety.Phishing">
<data key="edgelabel">action.hacking.variety.DoS-&gt;action.social.variety.Phishing</data>
<data key="weight">1.0</data>
<data key="d6">forward</data>
<data key="d5">3</data>
</edge>
<edge id="4601" source="attribute.confidentiality.data.variety.Credentials" target="end">
<data key="edgelabel">attribute.confidentiality.data.variety.Credentials-&gt;end</data>
<data key="weight">1.0</data>
<data key="d6">forward</data>
<data key="d5">1</data>
</edge>
<edge id="4602" source="action.malware.vector.Direct install" target="action.hacking.variety.Use of stolen creds">
<data key="edgelabel">action.malware.vector.Direct install-&gt;action.hacking.variety.Use of stolen creds</data>
<data key="weight">1.0</data>
<data key="d6">forward</data>
<data key="d5">1</data>
</edge>
<edge id="4603" source="action.malware.vector.Direct install" target="action.malware.vector.Web drive-by">
<data key="edgelabel">action.malware.vector.Direct install-&gt;action.malware.vector.Web drive-by</data>
<data key="weight">1.0</data>
<data key="d6">forward</data>
<data key="d5">10</data>
</edge>
<edge id="4604" source="action.malware.vector.Direct install" target="action.social.variety.Phishing">
<data key="edgelabel">action.malware.vector.Direct install-&gt;action.social.variety.Phishing</data>
<data key="weight">1.0</data>
<data key="d6">forward</data>
<data key="d5">10</data>
</edge>
<edge id="4605" source="attribute.integrity.variety.Alter behavior" target="action.malware.vector.Web drive-by">
<data key="edgelabel">attribute.integrity.variety.Alter behavior-&gt;action.malware.vector.Web drive-by</data>
<data key="weight">1.0</data>
<data key="d6">backward</data>
<data key="d5">121</data>
</edge>
<edge id="4606" source="attribute.integrity.variety.Alter behavior" target="action.hacking.variety.Session prediction">
<data key="edgelabel">attribute.integrity.variety.Alter behavior-&gt;action.hacking.variety.Session prediction</data>
<data key="weight">1.0</data>
<data key="d6">backward</data>
<data key="d5">2</data>
</edge>
<edge id="4607" source="attribute.integrity.variety.Alter behavior" target="action.social.variety.Phishing">
<data key="edgelabel">attribute.integrity.variety.Alter behavior-&gt;action.social.variety.Phishing</data>
<data key="weight">1.0</data>
<data key="d6">backward</data>
<data key="d5">432</data>
</edge>
<edge id="4608" source="attribute.integrity.variety.Alter behavior" target="action.physical.variety.Assault">
<data key="edgelabel">attribute.integrity.variety.Alter behavior-&gt;action.physical.variety.Assault</data>
<data key="weight">1.0</data>
<data key="d6">backward</data>
<data key="d5">2</data>
</edge>
<edge id="4609" source="attribute.integrity.variety.Alter behavior" target="action.hacking.variety.Use of stolen creds">
<data key="edgelabel">attribute.integrity.variety.Alter behavior-&gt;action.hacking.variety.Use of stolen creds</data>
<data key="weight">1.0</data>
<data key="d6">backward</data>
<data key="d5">87</data>
</edge>
<edge id="4610" source="attribute.integrity.variety.Alter behavior" target="action.hacking.variety.Brute force">
<data key="edgelabel">attribute.integrity.variety.Alter behavior-&gt;action.hacking.variety.Brute force</data>
<data key="weight">1.0</data>
<data key="d6">backward</data>
<data key="d5">4</data>
</edge>
<edge id="4611" source="attribute.integrity.variety.Alter behavior" target="end">
<data key="edgelabel">attribute.integrity.variety.Alter behavior-&gt;end</data>
<data key="weight">1.0</data>
<data key="d6">forward</data>
<data key="d5">1</data>
</edge>
<edge id="4612" source="attribute.integrity.variety.Alter behavior" target="action.hacking.variety.Footprinting">
<data key="edgelabel">attribute.integrity.variety.Alter behavior-&gt;action.hacking.variety.Footprinting</data>
<data key="weight">1.0</data>
<data key="d6">backward</data>
<data key="d5">18</data>
</edge>
<edge id="4613" source="action.hacking.variety.Brute force" target="attribute.confidentiality.data.variety.Secrets">
<data key="edgelabel">action.hacking.variety.Brute force-&gt;attribute.confidentiality.data.variety.Secrets</data>
<data key="weight">1.0</data>
<data key="d6">forward</data>
<data key="d5">2</data>
</edge>
<edge id="4614" source="action.hacking.variety.Brute force" target="attribute.integrity.variety.Software installation">
<data key="edgelabel">action.hacking.variety.Brute force-&gt;attribute.integrity.variety.Software installation</data>
<data key="weight">1.0</data>
<data key="d6">forward</data>
<data key="d5">2</data>
</edge>
<edge id="4615" source="action.hacking.variety.Brute force" target="attribute.integrity.variety.Alter behavior">
<data key="edgelabel">action.hacking.variety.Brute force-&gt;attribute.integrity.variety.Alter behavior</data>
<data key="weight">1.0</data>
<data key="d6">forward</data>
<data key="d5">2</data>
</edge>
<edge id="4616" source="action.malware.vector.Email autoexecute" target="action.malware.vector.Web drive-by">
<data key="edgelabel">action.malware.vector.Email autoexecute-&gt;action.malware.vector.Web drive-by</data>
<data key="weight">1.0</data>
<data key="d6">forward</data>
<data key="d5">10</data>
</edge>
<edge id="4617" source="action.malware.vector.Email autoexecute" target="action.social.variety.Phishing">
<data key="edgelabel">action.malware.vector.Email autoexecute-&gt;action.social.variety.Phishing</data>
<data key="weight">1.0</data>
<data key="d6">forward</data>
<data key="d5">10</data>
</edge>
<edge id="4618" source="attribute.integrity.variety.Modify privileges" target="end">
<data key="edgelabel">attribute.integrity.variety.Modify privileges-&gt;end</data>
<data key="weight">1.0</data>
<data key="d6">forward</data>
<data key="d5">1</data>
</edge>
<edge id="4619" source="action.hacking.variety.Use of backdoor or C2" target="action.hacking.variety.Session prediction">
<data key="edgelabel">action.hacking.variety.Use of backdoor or C2-&gt;action.hacking.variety.Session prediction</data>
<data key="weight">1.0</data>
<data key="d6">forward</data>
<data key="d5">1</data>
</edge>
<edge id="4620" source="action.hacking.variety.Use of backdoor or C2" target="action.malware.vector.Web drive-by">
<data key="edgelabel">action.hacking.variety.Use of backdoor or C2-&gt;action.malware.vector.Web drive-by</data>
<data key="weight">1.0</data>
<data key="d6">forward</data>
<data key="d5">20</data>
</edge>
<edge id="4621" source="action.hacking.variety.Use of backdoor or C2" target="action.social.variety.Phishing">
<data key="edgelabel">action.hacking.variety.Use of backdoor or C2-&gt;action.social.variety.Phishing</data>
<data key="weight">1.0</data>
<data key="d6">forward</data>
<data key="d5">100</data>
</edge>
<edge id="4622" source="action.hacking.variety.Use of backdoor or C2" target="action.hacking.variety.Use of stolen creds">
<data key="edgelabel">action.hacking.variety.Use of backdoor or C2-&gt;action.hacking.variety.Use of stolen creds</data>
<data key="weight">1.0</data>
<data key="d6">forward</data>
<data key="d5">14</data>
</edge>
<edge id="4623" source="action.malware.vector.Email attachment" target="action.hacking.variety.Session prediction">
<data key="edgelabel">action.malware.vector.Email attachment-&gt;action.hacking.variety.Session prediction</data>
<data key="weight">1.0</data>
<data key="d6">forward</data>
<data key="d5">1</data>
</edge>
<edge id="4624" source="action.malware.vector.Email attachment" target="action.malware.vector.Web drive-by">
<data key="edgelabel">action.malware.vector.Email attachment-&gt;action.malware.vector.Web drive-by</data>
<data key="weight">1.0</data>
<data key="d6">forward</data>
<data key="d5">7</data>
</edge>
<edge id="4625" source="action.malware.vector.Email attachment" target="action.social.variety.Phishing">
<data key="edgelabel">action.malware.vector.Email attachment-&gt;action.social.variety.Phishing</data>
<data key="weight">1.0</data>
<data key="d6">forward</data>
<data key="d5">115</data>
</edge>
<edge id="4626" source="action.malware.vector.Email attachment" target="action.hacking.variety.Use of stolen creds">
<data key="edgelabel">action.malware.vector.Email attachment-&gt;action.hacking.variety.Use of stolen creds</data>
<data key="weight">1.0</data>
<data key="d6">forward</data>
<data key="d5">14</data>
</edge>
<edge id="4627" source="attribute.confidentiality.data.variety.Secrets" target="end">
<data key="edgelabel">attribute.confidentiality.data.variety.Secrets-&gt;end</data>
<data key="weight">1.0</data>
<data key="d6">forward</data>
<data key="d5">1</data>
</edge>
<edge id="4628" source="attribute.confidentiality.data.variety.Secrets" target="action.social.variety.Phishing">
<data key="edgelabel">attribute.confidentiality.data.variety.Secrets-&gt;action.social.variety.Phishing</data>
<data key="weight">1.0</data>
<data key="d6">backward</data>
<data key="d5">408</data>
</edge>
<edge id="4629" source="attribute.confidentiality.data.variety.Secrets" target="action.hacking.variety.Use of stolen creds">
<data key="edgelabel">attribute.confidentiality.data.variety.Secrets-&gt;action.hacking.variety.Use of stolen creds</data>
<data key="weight">1.0</data>
<data key="d6">backward</data>
<data key="d5">84</data>
</edge>
<edge id="4630" source="attribute.confidentiality.data.variety.Secrets" target="action.hacking.variety.Brute force">
<data key="edgelabel">attribute.confidentiality.data.variety.Secrets-&gt;action.hacking.variety.Brute force</data>
<data key="weight">1.0</data>
<data key="d6">backward</data>
<data key="d5">4</data>
</edge>
<edge id="4631" source="attribute.confidentiality.data.variety.Secrets" target="action.malware.vector.Web drive-by">
<data key="edgelabel">attribute.confidentiality.data.variety.Secrets-&gt;action.malware.vector.Web drive-by</data>
<data key="weight">1.0</data>
<data key="d6">backward</data>
<data key="d5">122</data>
</edge>
<edge id="4632" source="attribute.confidentiality.data.variety.Secrets" target="action.hacking.variety.Footprinting">
<data key="edgelabel">attribute.confidentiality.data.variety.Secrets-&gt;action.hacking.variety.Footprinting</data>
<data key="weight">1.0</data>
<data key="d6">backward</data>
<data key="d5">18</data>
</edge>
<edge id="4633" source="action.malware.variety.Worm" target="action.malware.vector.Web drive-by">
<data key="edgelabel">action.malware.variety.Worm-&gt;action.malware.vector.Web drive-by</data>
<data key="weight">1.0</data>
<data key="d6">forward</data>
<data key="d5">2</data>
</edge>
<edge id="4634" source="action.physical.variety.Theft" target="attribute.confidentiality.data.variety.Medical">
<data key="edgelabel">action.physical.variety.Theft-&gt;attribute.confidentiality.data.variety.Medical</data>
<data key="weight">1.0</data>
<data key="d6">forward</data>
<data key="d5">1</data>
</edge>
<edge id="4635" source="action.physical.variety.Theft" target="attribute.availability.variety.Loss">
<data key="edgelabel">action.physical.variety.Theft-&gt;attribute.availability.variety.Loss</data>
<data key="weight">1.0</data>
<data key="d6">forward</data>
<data key="d5">1</data>
</edge>
<edge id="4636" source="action.physical.variety.Theft" target="attribute.confidentiality.data.variety.Personal">
<data key="edgelabel">action.physical.variety.Theft-&gt;attribute.confidentiality.data.variety.Personal</data>
<data key="weight">1.0</data>
<data key="d6">forward</data>
<data key="d5">1</data>
</edge>
<edge id="4637" source="action.hacking.variety.SQLi" target="action.hacking.variety.Session prediction">
<data key="edgelabel">action.hacking.variety.SQLi-&gt;action.hacking.variety.Session prediction</data>
<data key="weight">1.0</data>
<data key="d6">forward</data>
<data key="d5">1</data>
</edge>
<edge id="4638" source="action.hacking.variety.SQLi" target="action.social.variety.Phishing">
<data key="edgelabel">action.hacking.variety.SQLi-&gt;action.social.variety.Phishing</data>
<data key="weight">1.0</data>
<data key="d6">forward</data>
<data key="d5">4</data>
</edge>
<edge id="4639" source="action.hacking.variety.SQLi" target="action.hacking.variety.Use of stolen creds">
<data key="edgelabel">action.hacking.variety.SQLi-&gt;action.hacking.variety.Use of stolen creds</data>
<data key="weight">1.0</data>
<data key="d6">forward</data>
<data key="d5">1</data>
</edge>
<edge id="4640" source="attribute.integrity.variety.Modify configuration" target="end">
<data key="edgelabel">attribute.integrity.variety.Modify configuration-&gt;end</data>
<data key="weight">1.0</data>
<data key="d6">forward</data>
<data key="d5">1</data>
</edge>
<edge id="4641" source="attribute.availability.variety.Degradation" target="end">
<data key="edgelabel">attribute.availability.variety.Degradation-&gt;end</data>
<data key="weight">1.0</data>
<data key="d6">forward</data>
<data key="d5">1</data>
</edge>
<edge id="4642" source="attribute.integrity.variety.Repurpose" target="end">
<data key="edgelabel">attribute.integrity.variety.Repurpose-&gt;end</data>
<data key="weight">1.0</data>
<data key="d6">forward</data>
<data key="d5">1</data>
</edge>
<edge id="4643" source="action.hacking.variety.Session prediction" target="attribute.confidentiality.data.variety.Source code">
<data key="edgelabel">action.hacking.variety.Session prediction-&gt;attribute.confidentiality.data.variety.Source code</data>
<data key="weight">1.0</data>
<data key="d6">forward</data>
<data key="d5">2</data>
</edge>
<edge id="4644" source="action.malware.variety.Rootkit" target="action.hacking.variety.Session prediction">
<data key="edgelabel">action.malware.variety.Rootkit-&gt;action.hacking.variety.Session prediction</data>
<data key="weight">1.0</data>
<data key="d6">forward</data>
<data key="d5">1</data>
</edge>
<edge id="4645" source="action.malware.variety.Rootkit" target="action.social.variety.Phishing">
<data key="edgelabel">action.malware.variety.Rootkit-&gt;action.social.variety.Phishing</data>
<data key="weight">1.0</data>
<data key="d6">forward</data>
<data key="d5">1</data>
</edge>
<edge id="4646" source="action.malware.variety.Rootkit" target="action.hacking.variety.Use of stolen creds">
<data key="edgelabel">action.malware.variety.Rootkit-&gt;action.hacking.variety.Use of stolen creds</data>
<data key="weight">1.0</data>
<data key="d6">forward</data>
<data key="d5">1</data>
</edge>
<edge id="4647" source="action.hacking.variety.XSS" target="action.malware.vector.Web drive-by">
<data key="edgelabel">action.hacking.variety.XSS-&gt;action.malware.vector.Web drive-by</data>
<data key="weight">1.0</data>
<data key="d6">forward</data>
<data key="d5">10</data>
</edge>
<edge id="4648" source="action.hacking.variety.XSS" target="action.social.variety.Phishing">
<data key="edgelabel">action.hacking.variety.XSS-&gt;action.social.variety.Phishing</data>
<data key="weight">1.0</data>
<data key="d6">forward</data>
<data key="d5">10</data>
</edge>
<edge id="4649" source="attribute.confidentiality.data.variety.Source code" target="action.hacking.variety.Use of stolen creds">
<data key="edgelabel">attribute.confidentiality.data.variety.Source code-&gt;action.hacking.variety.Use of stolen creds</data>
<data key="weight">1.0</data>
<data key="d6">backward</data>
<data key="d5">2</data>
</edge>
<edge id="4650" source="attribute.confidentiality.data.variety.Source code" target="end">
<data key="edgelabel">attribute.confidentiality.data.variety.Source code-&gt;end</data>
<data key="weight">1.0</data>
<data key="d6">forward</data>
<data key="d5">1</data>
</edge>
<edge id="4651" source="attribute.confidentiality.data.variety.Source code" target="action.social.variety.Phishing">
<data key="edgelabel">attribute.confidentiality.data.variety.Source code-&gt;action.social.variety.Phishing</data>
<data key="weight">1.0</data>
<data key="d6">backward</data>
<data key="d5">2</data>
</edge>
<edge id="4652" source="action.hacking.variety.Footprinting" target="attribute.confidentiality.data.variety.Secrets">
<data key="edgelabel">action.hacking.variety.Footprinting-&gt;attribute.confidentiality.data.variety.Secrets</data>
<data key="weight">1.0</data>
<data key="d6">forward</data>
<data key="d5">18</data>
</edge>
<edge id="4653" source="action.hacking.variety.Footprinting" target="attribute.integrity.variety.Alter behavior">
<data key="edgelabel">action.hacking.variety.Footprinting-&gt;attribute.integrity.variety.Alter behavior</data>
<data key="weight">1.0</data>
<data key="d6">forward</data>
<data key="d5">18</data>
</edge>
<edge id="4654" source="attribute.availability.variety.Interruption" target="end">
<data key="edgelabel">attribute.availability.variety.Interruption-&gt;end</data>
<data key="weight">1.0</data>
<data key="d6">forward</data>
<data key="d5">1</data>
</edge>
<edge id="4655" source="attribute.availability.variety.Interruption" target="action.physical.variety.Assault">
<data key="edgelabel">attribute.availability.variety.Interruption-&gt;action.physical.variety.Assault</data>
<data key="weight">1.0</data>
<data key="d6">backward</data>
<data key="d5">2</data>
</edge>
</graph>
</graphml>
