<?xml version='1.0' encoding='utf-8'?>
<graphml xmlns="http://graphml.graphdrawing.org/xmlns" xmlns:xsi="http://www.w3.org/2001/XMLSchema-instance" xsi:schemaLocation="http://graphml.graphdrawing.org/xmlns http://graphml.graphdrawing.org/xmlns/1.0/graphml.xsd">
  <key attr.name="Label" attr.type="string" for="edge" id="d8" />
  <key attr.name="weight" attr.type="double" for="edge" id="d7" />
  <key attr.name="direction" attr.type="string" for="edge" id="d6" />
  <key attr.name="count" attr.type="int" for="edge" id="d5" />
  <key attr.name="Label" attr.type="string" for="node" id="d4" />
  <key attr.name="weight" attr.type="double" for="node" id="d3" />
  <key attr.name="sub_type" attr.type="string" for="node" id="d2" />
  <key attr.name="type" attr.type="string" for="node" id="d1" />
  <key attr.name="count" attr.type="int" for="node" id="d0" />
  <graph edgedefault="directed">
    <node id="action.malware.variety.Capture app data">
      <data key="d0">1</data>
      <data key="d1">action</data>
      <data key="d2">action.malware</data>
      <data key="d3">0.666666666667</data>
      <data key="d4">action.malware.variety.Capture app data</data>
    </node>
    <node id="attribute.confidentiality.data.variety.Internal">
      <data key="d0">1</data>
      <data key="d1">attribute</data>
      <data key="d2">attribute.confidentiality</data>
      <data key="d3">0.666666666667</data>
      <data key="d4">attribute.confidentiality.data.variety.Internal</data>
    </node>
    <node id="action.social.variety.Phishing">
      <data key="d0">1</data>
      <data key="d1">action</data>
      <data key="d2">action.social</data>
      <data key="d3">0.666666666667</data>
      <data key="d4">action.social.variety.Phishing</data>
    </node>
    <node id="attribute.confidentiality.data.variety.System">
      <data key="d0">1</data>
      <data key="d1">attribute</data>
      <data key="d2">attribute.confidentiality</data>
      <data key="d3">0.666666666667</data>
      <data key="d4">attribute.confidentiality.data.variety.System</data>
    </node>
    <node id="action.hacking.variety.Use of stolen creds">
      <data key="d0">1</data>
      <data key="d1">action</data>
      <data key="d2">action.hacking</data>
      <data key="d3">0.666666666667</data>
      <data key="d4">action.hacking.variety.Use of stolen creds</data>
    </node>
    <node id="action.hacking.variety.Buffer overflow">
      <data key="d0">1</data>
      <data key="d1">action</data>
      <data key="d2">action.hacking</data>
      <data key="d3">0.666666666667</data>
      <data key="d4">action.hacking.variety.Buffer overflow</data>
    </node>
    <node id="attribute.integrity.variety.Software installation">
      <data key="d0">1</data>
      <data key="d1">attribute</data>
      <data key="d2">attribute.integrity</data>
      <data key="d3">0.666666666667</data>
      <data key="d4">attribute.integrity.variety.Software installation</data>
    </node>
    <node id="end">
      <data key="d0">0</data>
      <data key="d1">end</data>
      <data key="d2">end</data>
      <data key="d3">1.0</data>
      <data key="d4">end</data>
    </node>
    <node id="attribute.integrity.variety.Modify data">
      <data key="d0">2</data>
      <data key="d1">attribute</data>
      <data key="d2">attribute.integrity</data>
      <data key="d3">0.333333333333</data>
      <data key="d4">attribute.integrity.variety.Modify data</data>
    </node>
    <node id="action.malware.variety.Backdoor">
      <data key="d0">1</data>
      <data key="d1">action</data>
      <data key="d2">action.malware</data>
      <data key="d3">0.666666666667</data>
      <data key="d4">action.malware.variety.Backdoor</data>
    </node>
    <node id="action.malware.variety.Client-side attack">
      <data key="d0">1</data>
      <data key="d1">action</data>
      <data key="d2">action.malware</data>
      <data key="d3">0.666666666667</data>
      <data key="d4">action.malware.variety.Client-side attack</data>
    </node>
    <node id="attribute.confidentiality.data.variety.Personal">
      <data key="d0">1</data>
      <data key="d1">attribute</data>
      <data key="d2">attribute.confidentiality</data>
      <data key="d3">0.666666666667</data>
      <data key="d4">attribute.confidentiality.data.variety.Personal</data>
    </node>
    <node id="action.malware.variety.Capture stored data">
      <data key="d0">1</data>
      <data key="d1">action</data>
      <data key="d2">action.malware</data>
      <data key="d3">0.666666666667</data>
      <data key="d4">action.malware.variety.Capture stored data</data>
    </node>
    <node id="start">
      <data key="d0">0</data>
      <data key="d1">start</data>
      <data key="d2">start</data>
      <data key="d3">1.0</data>
      <data key="d4">start</data>
    </node>
    <node id="action.malware.variety.Disable controls">
      <data key="d0">1</data>
      <data key="d1">action</data>
      <data key="d2">action.malware</data>
      <data key="d3">0.666666666667</data>
      <data key="d4">action.malware.variety.Disable controls</data>
    </node>
    <node id="action.malware.variety.Downloader">
      <data key="d0">1</data>
      <data key="d1">action</data>
      <data key="d2">action.malware</data>
      <data key="d3">0.666666666667</data>
      <data key="d4">action.malware.variety.Downloader</data>
    </node>
    <node id="action.hacking.variety.SQLi">
      <data key="d0">2</data>
      <data key="d1">action</data>
      <data key="d2">action.hacking</data>
      <data key="d3">0.333333333333</data>
      <data key="d4">action.hacking.variety.SQLi</data>
    </node>
    <node id="action.malware.variety.Spyware/Keylogger">
      <data key="d0">1</data>
      <data key="d1">action</data>
      <data key="d2">action.malware</data>
      <data key="d3">0.666666666667</data>
      <data key="d4">action.malware.variety.Spyware/Keylogger</data>
    </node>
    <node id="attribute.integrity.variety.Repurpose">
      <data key="d0">2</data>
      <data key="d1">attribute</data>
      <data key="d2">attribute.integrity</data>
      <data key="d3">0.333333333333</data>
      <data key="d4">attribute.integrity.variety.Repurpose</data>
    </node>
    <node id="action.hacking.variety.OS commanding">
      <data key="d0">1</data>
      <data key="d1">action</data>
      <data key="d2">action.hacking</data>
      <data key="d3">0.666666666667</data>
      <data key="d4">action.hacking.variety.OS commanding</data>
    </node>
    <node id="attribute.integrity.variety.Alter behavior">
      <data key="d0">1</data>
      <data key="d1">attribute</data>
      <data key="d2">attribute.integrity</data>
      <data key="d3">0.666666666667</data>
      <data key="d4">attribute.integrity.variety.Alter behavior</data>
    </node>
    <node id="action.malware.variety.Exploit vuln">
      <data key="d0">1</data>
      <data key="d1">action</data>
      <data key="d2">action.malware</data>
      <data key="d3">0.666666666667</data>
      <data key="d4">action.malware.variety.Exploit vuln</data>
    </node>
    <node id="action.hacking.variety.Use of backdoor or C2">
      <data key="d0">1</data>
      <data key="d1">action</data>
      <data key="d2">action.hacking</data>
      <data key="d3">0.666666666667</data>
      <data key="d4">action.hacking.variety.Use of backdoor or C2</data>
    </node>
    <node id="action.hacking.variety.Other">
      <data key="d0">1</data>
      <data key="d1">action</data>
      <data key="d2">action.hacking</data>
      <data key="d3">0.666666666667</data>
      <data key="d4">action.hacking.variety.Other</data>
    </node>
    <node id="action.hacking.variety.Session prediction">
      <data key="d0">1</data>
      <data key="d1">action</data>
      <data key="d2">action.hacking</data>
      <data key="d3">0.666666666667</data>
      <data key="d4">action.hacking.variety.Session prediction</data>
    </node>
    <edge source="attribute.confidentiality.data.variety.Internal" target="end">
      <data key="d5">1</data>
      <data key="d6">forward</data>
      <data key="d7">1.0</data>
      <data key="d8">attribute.confidentiality.data.variety.Internal-&gt;end</data>
    </edge>
    <edge source="attribute.confidentiality.data.variety.System" target="end">
      <data key="d5">1</data>
      <data key="d6">forward</data>
      <data key="d7">1.0</data>
      <data key="d8">attribute.confidentiality.data.variety.System-&gt;end</data>
    </edge>
    <edge source="attribute.integrity.variety.Software installation" target="end">
      <data key="d5">1</data>
      <data key="d6">forward</data>
      <data key="d7">1.0</data>
      <data key="d8">attribute.integrity.variety.Software installation-&gt;end</data>
    </edge>
    <edge source="attribute.integrity.variety.Modify data" target="action.hacking.variety.SQLi">
      <data key="d5">1</data>
      <data key="d6">backward</data>
      <data key="d7">1.0</data>
      <data key="d8">attribute.integrity.variety.Modify data-&gt;action.hacking.variety.SQLi</data>
    </edge>
    <edge source="attribute.integrity.variety.Modify data" target="end">
      <data key="d5">1</data>
      <data key="d6">forward</data>
      <data key="d7">1.0</data>
      <data key="d8">attribute.integrity.variety.Modify data-&gt;end</data>
    </edge>
    <edge source="attribute.confidentiality.data.variety.Personal" target="end">
      <data key="d5">1</data>
      <data key="d6">forward</data>
      <data key="d7">1.0</data>
      <data key="d8">attribute.confidentiality.data.variety.Personal-&gt;end</data>
    </edge>
    <edge source="start" target="action.hacking.variety.SQLi">
      <data key="d5">1</data>
      <data key="d6">forward</data>
      <data key="d7">1.0</data>
      <data key="d8">start-&gt;action.hacking.variety.SQLi</data>
    </edge>
    <edge source="start" target="action.malware.variety.Spyware/Keylogger">
      <data key="d5">1</data>
      <data key="d6">forward</data>
      <data key="d7">1.0</data>
      <data key="d8">start-&gt;action.malware.variety.Spyware/Keylogger</data>
    </edge>
    <edge source="start" target="action.malware.variety.Capture app data">
      <data key="d5">1</data>
      <data key="d6">forward</data>
      <data key="d7">1.0</data>
      <data key="d8">start-&gt;action.malware.variety.Capture app data</data>
    </edge>
    <edge source="start" target="action.hacking.variety.Session prediction">
      <data key="d5">1</data>
      <data key="d6">forward</data>
      <data key="d7">1.0</data>
      <data key="d8">start-&gt;action.hacking.variety.Session prediction</data>
    </edge>
    <edge source="start" target="action.malware.variety.Backdoor">
      <data key="d5">1</data>
      <data key="d6">forward</data>
      <data key="d7">1.0</data>
      <data key="d8">start-&gt;action.malware.variety.Backdoor</data>
    </edge>
    <edge source="start" target="action.hacking.variety.OS commanding">
      <data key="d5">1</data>
      <data key="d6">forward</data>
      <data key="d7">1.0</data>
      <data key="d8">start-&gt;action.hacking.variety.OS commanding</data>
    </edge>
    <edge source="start" target="action.malware.variety.Client-side attack">
      <data key="d5">1</data>
      <data key="d6">forward</data>
      <data key="d7">1.0</data>
      <data key="d8">start-&gt;action.malware.variety.Client-side attack</data>
    </edge>
    <edge source="start" target="action.social.variety.Phishing">
      <data key="d5">1</data>
      <data key="d6">forward</data>
      <data key="d7">1.0</data>
      <data key="d8">start-&gt;action.social.variety.Phishing</data>
    </edge>
    <edge source="start" target="action.malware.variety.Capture stored data">
      <data key="d5">1</data>
      <data key="d6">forward</data>
      <data key="d7">1.0</data>
      <data key="d8">start-&gt;action.malware.variety.Capture stored data</data>
    </edge>
    <edge source="start" target="action.hacking.variety.Other">
      <data key="d5">1</data>
      <data key="d6">forward</data>
      <data key="d7">1.0</data>
      <data key="d8">start-&gt;action.hacking.variety.Other</data>
    </edge>
    <edge source="start" target="action.hacking.variety.Use of stolen creds">
      <data key="d5">1</data>
      <data key="d6">forward</data>
      <data key="d7">1.0</data>
      <data key="d8">start-&gt;action.hacking.variety.Use of stolen creds</data>
    </edge>
    <edge source="start" target="action.malware.variety.Disable controls">
      <data key="d5">1</data>
      <data key="d6">forward</data>
      <data key="d7">1.0</data>
      <data key="d8">start-&gt;action.malware.variety.Disable controls</data>
    </edge>
    <edge source="start" target="action.malware.variety.Exploit vuln">
      <data key="d5">1</data>
      <data key="d6">forward</data>
      <data key="d7">1.0</data>
      <data key="d8">start-&gt;action.malware.variety.Exploit vuln</data>
    </edge>
    <edge source="start" target="action.hacking.variety.Buffer overflow">
      <data key="d5">1</data>
      <data key="d6">forward</data>
      <data key="d7">1.0</data>
      <data key="d8">start-&gt;action.hacking.variety.Buffer overflow</data>
    </edge>
    <edge source="start" target="action.malware.variety.Downloader">
      <data key="d5">1</data>
      <data key="d6">forward</data>
      <data key="d7">1.0</data>
      <data key="d8">start-&gt;action.malware.variety.Downloader</data>
    </edge>
    <edge source="start" target="action.hacking.variety.Use of backdoor or C2">
      <data key="d5">1</data>
      <data key="d6">forward</data>
      <data key="d7">1.0</data>
      <data key="d8">start-&gt;action.hacking.variety.Use of backdoor or C2</data>
    </edge>
    <edge source="action.hacking.variety.SQLi" target="attribute.integrity.variety.Repurpose">
      <data key="d5">1</data>
      <data key="d6">forward</data>
      <data key="d7">1.0</data>
      <data key="d8">action.hacking.variety.SQLi-&gt;attribute.integrity.variety.Repurpose</data>
    </edge>
    <edge source="action.hacking.variety.SQLi" target="attribute.integrity.variety.Modify data">
      <data key="d5">1</data>
      <data key="d6">forward</data>
      <data key="d7">1.0</data>
      <data key="d8">action.hacking.variety.SQLi-&gt;attribute.integrity.variety.Modify data</data>
    </edge>
    <edge source="attribute.integrity.variety.Repurpose" target="action.hacking.variety.SQLi">
      <data key="d5">1</data>
      <data key="d6">backward</data>
      <data key="d7">1.0</data>
      <data key="d8">attribute.integrity.variety.Repurpose-&gt;action.hacking.variety.SQLi</data>
    </edge>
    <edge source="attribute.integrity.variety.Repurpose" target="end">
      <data key="d5">1</data>
      <data key="d6">forward</data>
      <data key="d7">1.0</data>
      <data key="d8">attribute.integrity.variety.Repurpose-&gt;end</data>
    </edge>
    <edge source="attribute.integrity.variety.Alter behavior" target="end">
      <data key="d5">1</data>
      <data key="d6">forward</data>
      <data key="d7">1.0</data>
      <data key="d8">attribute.integrity.variety.Alter behavior-&gt;end</data>
    </edge>
  </graph>
</graphml>
