<?xml version='1.0' encoding='utf-8'?>
<gexf xmlns:ns0="http://www.gexf.net/1.1draft/viz" version="1.1" xmlns="http://www.gexf.net/1.1draft" xmlns:viz="http://www.gexf.net/1.1draft/viz" xmlns:xsi="http://www.w3.org/2001/XMLSchema-instance" xsi:schemaLocation="http://www.w3.org/2001/XMLSchema-instance">
  <graph defaultedgetype="directed" mode="static">
    <attributes class="edge" mode="static">
      <attribute id="4" title="count" type="integer" />
      <attribute id="5" title="direction" type="string" />
      <attribute id="6" title="label" type="string" />
    </attributes>
    <attributes class="node" mode="static">
      <attribute id="0" title="count" type="integer" />
      <attribute id="1" title="weight" type="double" />
      <attribute id="2" title="type" type="string" />
      <attribute id="3" title="sub_type" type="string" />
    </attributes>
    <nodes>
      <node id="action.misuse.variety.Privilege abuse" label="action.misuse.variety.Privilege abuse">
        <ns0:color b="138" g="12" r="223" />
        <ns0:size value="50.0" />
        <ns0:position x="267.1863" y="-355.01395" z="0.0" />
        <attvalues>
          <attvalue for="0" value="4" />
          <attvalue for="1" value="0.2" />
          <attvalue for="2" value="action" />
          <attvalue for="3" value="action.misuse" />
        </attvalues>
      </node>
      <node id="attribute.integrity.variety.Defacement" label="attribute.integrity.variety.Defacement">
        <ns0:color b="12" g="223" r="180" />
        <ns0:size value="37.77189" />
        <ns0:position x="-392.84958" y="207.58763" z="0.0" />
        <attvalues>
          <attvalue for="0" value="1" />
          <attvalue for="1" value="0.8" />
          <attvalue for="2" value="attribute" />
          <attvalue for="3" value="attribute.integrity" />
        </attvalues>
      </node>
      <node id="attribute.confidentiality.data.variety.Internal" label="attribute.confidentiality.data.variety.Internal">
        <ns0:color b="12" g="12" r="223" />
        <ns0:size value="50.0" />
        <ns0:position x="-325.06036" y="-302.9178" z="0.0" />
        <attvalues>
          <attvalue for="0" value="4" />
          <attvalue for="1" value="0.2" />
          <attvalue for="2" value="attribute" />
          <attvalue for="3" value="attribute.confidentiality" />
        </attvalues>
      </node>
      <node id="action.social.variety.Phishing" label="action.social.variety.Phishing">
        <ns0:color b="223" g="96" r="12" />
        <ns0:size value="48.609673" />
        <ns0:position x="51.552185" y="-441.32278" z="0.0" />
        <attvalues>
          <attvalue for="0" value="3" />
          <attvalue for="1" value="0.4" />
          <attvalue for="2" value="action" />
          <attvalue for="3" value="action.social" />
        </attvalues>
      </node>
      <node id="attribute.confidentiality.data.variety.System" label="attribute.confidentiality.data.variety.System">
        <ns0:color b="12" g="12" r="223" />
        <ns0:size value="37.77189" />
        <ns0:position x="-444.2388" y="8.678441" z="0.0" />
        <attvalues>
          <attvalue for="0" value="1" />
          <attvalue for="1" value="0.8" />
          <attvalue for="2" value="attribute" />
          <attvalue for="3" value="attribute.confidentiality" />
        </attvalues>
      </node>
      <node id="action.malware.variety.Export data" label="action.malware.variety.Export data">
        <ns0:color b="223" g="12" r="54" />
        <ns0:size value="37.77189" />
        <ns0:position x="438.1747" y="73.66373" z="0.0" />
        <attvalues>
          <attvalue for="0" value="1" />
          <attvalue for="1" value="0.8" />
          <attvalue for="2" value="action" />
          <attvalue for="3" value="action.malware" />
        </attvalues>
      </node>
      <node id="attribute.integrity.variety.Software installation" label="attribute.integrity.variety.Software installation">
        <ns0:color b="12" g="223" r="180" />
        <ns0:size value="48.609673" />
        <ns0:position x="-105.31958" y="431.66098" z="0.0" />
        <attvalues>
          <attvalue for="0" value="3" />
          <attvalue for="1" value="0.4" />
          <attvalue for="2" value="attribute" />
          <attvalue for="3" value="attribute.integrity" />
        </attvalues>
      </node>
      <node id="action.hacking.variety.SSI injection" label="action.hacking.variety.SSI injection">
        <ns0:color b="12" g="223" r="54" />
        <ns0:size value="37.77189" />
        <ns0:position x="133.86613" y="423.67828" z="0.0" />
        <attvalues>
          <attvalue for="0" value="1" />
          <attvalue for="1" value="0.8" />
          <attvalue for="2" value="action" />
          <attvalue for="3" value="action.hacking" />
        </attvalues>
      </node>
      <node id="attribute.availability.variety.Loss" label="attribute.availability.variety.Loss">
        <ns0:color b="223" g="223" r="12" />
        <ns0:size value="48.609673" />
        <ns0:position x="-233.87843" y="-377.7887" z="0.0" />
        <attvalues>
          <attvalue for="0" value="3" />
          <attvalue for="1" value="0.4" />
          <attvalue for="2" value="attribute" />
          <attvalue for="3" value="attribute.availability" />
        </attvalues>
      </node>
      <node id="end" label="end">
        <ns0:color b="12" g="138" r="223" />
        <ns0:size value="10.0" />
        <ns0:position x="-516.5934" y="435.35608" z="0.0" />
        <attvalues>
          <attvalue for="0" value="0" />
          <attvalue for="1" value="1.0" />
          <attvalue for="2" value="end" />
          <attvalue for="3" value="end" />
        </attvalues>
      </node>
      <node id="action.misuse.variety.Email misuse" label="action.misuse.variety.Email misuse">
        <ns0:color b="138" g="12" r="223" />
        <ns0:size value="45.0" />
        <ns0:position x="397.13904" y="-199.25864" z="0.0" />
        <attvalues>
          <attvalue for="0" value="2" />
          <attvalue for="1" value="0.6" />
          <attvalue for="2" value="action" />
          <attvalue for="3" value="action.misuse" />
        </attvalues>
      </node>
      <node id="action.physical.variety.Theft" label="action.physical.variety.Theft">
        <ns0:color b="96" g="223" r="12" />
        <ns0:size value="48.609673" />
        <ns0:position x="164.33388" y="-412.81693" z="0.0" />
        <attvalues>
          <attvalue for="0" value="3" />
          <attvalue for="1" value="0.4" />
          <attvalue for="2" value="action" />
          <attvalue for="3" value="action.physical" />
        </attvalues>
      </node>
      <node id="attribute.confidentiality.data.variety.Personal" label="attribute.confidentiality.data.variety.Personal">
        <ns0:color b="12" g="12" r="223" />
        <ns0:size value="48.609673" />
        <ns0:position x="-393.32318" y="-206.68892" z="0.0" />
        <attvalues>
          <attvalue for="0" value="3" />
          <attvalue for="1" value="0.4" />
          <attvalue for="2" value="attribute" />
          <attvalue for="3" value="attribute.confidentiality" />
        </attvalues>
      </node>
      <node id="start" label="start">
        <ns0:color b="223" g="12" r="180" />
        <ns0:size value="10.0" />
        <ns0:position x="471.13748" y="-444.50833" z="0.0" />
        <attvalues>
          <attvalue for="0" value="0" />
          <attvalue for="1" value="1.0" />
          <attvalue for="2" value="start" />
          <attvalue for="3" value="start" />
        </attvalues>
      </node>
      <node id="action.malware.variety.C2" label="action.malware.variety.C2">
        <ns0:color b="223" g="12" r="54" />
        <ns0:size value="45.0" />
        <ns0:position x="368.1834" y="248.72559" z="0.0" />
        <attvalues>
          <attvalue for="0" value="2" />
          <attvalue for="1" value="0.6" />
          <attvalue for="2" value="action" />
          <attvalue for="3" value="action.malware" />
        </attvalues>
      </node>
      <node id="action.malware.variety.Spyware/Keylogger" label="action.malware.variety.Spyware/Keylogger">
        <ns0:color b="223" g="12" r="54" />
        <ns0:size value="37.77189" />
        <ns0:position x="431.4305" y="-106.25977" z="0.0" />
        <attvalues>
          <attvalue for="0" value="1" />
          <attvalue for="1" value="0.8" />
          <attvalue for="2" value="action" />
          <attvalue for="3" value="action.malware" />
        </attvalues>
      </node>
      <node id="action.misuse.variety.Possession abuse" label="action.misuse.variety.Possession abuse">
        <ns0:color b="138" g="12" r="223" />
        <ns0:size value="37.77189" />
        <ns0:position x="343.08414" y="-282.34146" z="0.0" />
        <attvalues>
          <attvalue for="0" value="1" />
          <attvalue for="1" value="0.8" />
          <attvalue for="2" value="action" />
          <attvalue for="3" value="action.misuse" />
        </attvalues>
      </node>
      <node id="action.hacking.variety.Brute force" label="action.hacking.variety.Brute force">
        <ns0:color b="12" g="223" r="54" />
        <ns0:size value="37.77189" />
        <ns0:position x="45.247692" y="442.01367" z="0.0" />
        <attvalues>
          <attvalue for="0" value="1" />
          <attvalue for="1" value="0.8" />
          <attvalue for="2" value="action" />
          <attvalue for="3" value="action.hacking" />
        </attvalues>
      </node>
      <node id="attribute.integrity.variety.Fraudulent transaction" label="attribute.integrity.variety.Fraudulent transaction">
        <ns0:color b="12" g="223" r="180" />
        <ns0:size value="37.77189" />
        <ns0:position x="-342.64203" y="282.87784" z="0.0" />
        <attvalues>
          <attvalue for="0" value="1" />
          <attvalue for="1" value="0.8" />
          <attvalue for="2" value="attribute" />
          <attvalue for="3" value="attribute.integrity" />
        </attvalues>
      </node>
      <node id="attribute.integrity.variety.Alter behavior" label="attribute.integrity.variety.Alter behavior">
        <ns0:color b="12" g="223" r="180" />
        <ns0:size value="48.609673" />
        <ns0:position x="-430.19815" y="111.1439" z="0.0" />
        <attvalues>
          <attvalue for="0" value="3" />
          <attvalue for="1" value="0.4" />
          <attvalue for="2" value="attribute" />
          <attvalue for="3" value="attribute.integrity" />
        </attvalues>
      </node>
      <node id="action.malware.variety.Exploit vuln" label="action.malware.variety.Exploit vuln">
        <ns0:color b="223" g="12" r="54" />
        <ns0:size value="37.77189" />
        <ns0:position x="414.16156" y="160.915" z="0.0" />
        <attvalues>
          <attvalue for="0" value="1" />
          <attvalue for="1" value="0.8" />
          <attvalue for="2" value="action" />
          <attvalue for="3" value="action.malware" />
        </attvalues>
      </node>
      <node id="attribute.integrity.variety.Misrepresentation" label="attribute.integrity.variety.Misrepresentation">
        <ns0:color b="12" g="223" r="180" />
        <ns0:size value="37.77189" />
        <ns0:position x="-278.22116" y="346.43384" z="0.0" />
        <attvalues>
          <attvalue for="0" value="1" />
          <attvalue for="1" value="0.8" />
          <attvalue for="2" value="attribute" />
          <attvalue for="3" value="attribute.integrity" />
        </attvalues>
      </node>
      <node id="action.hacking.variety.Use of backdoor or C2" label="action.hacking.variety.Use of backdoor or C2">
        <ns0:color b="12" g="223" r="54" />
        <ns0:size value="45.0" />
        <ns0:position x="224.4595" y="383.45972" z="0.0" />
        <attvalues>
          <attvalue for="0" value="2" />
          <attvalue for="1" value="0.6" />
          <attvalue for="2" value="action" />
          <attvalue for="3" value="action.hacking" />
        </attvalues>
      </node>
      <node id="attribute.confidentiality.data.variety.Secrets" label="attribute.confidentiality.data.variety.Secrets">
        <ns0:color b="12" g="12" r="223" />
        <ns0:size value="50.0" />
        <ns0:position x="-433.8538" y="-95.88696" z="0.0" />
        <attvalues>
          <attvalue for="0" value="4" />
          <attvalue for="1" value="0.2" />
          <attvalue for="2" value="attribute" />
          <attvalue for="3" value="attribute.confidentiality" />
        </attvalues>
      </node>
      <node id="attribute.availability.variety.Destruction" label="attribute.availability.variety.Destruction">
        <ns0:color b="223" g="223" r="12" />
        <ns0:size value="37.77189" />
        <ns0:position x="-51.87077" y="-441.28546" z="0.0" />
        <attvalues>
          <attvalue for="0" value="1" />
          <attvalue for="1" value="0.8" />
          <attvalue for="2" value="attribute" />
          <attvalue for="3" value="attribute.availability" />
        </attvalues>
      </node>
      <node id="attribute.integrity.variety.Modify data" label="attribute.integrity.variety.Modify data">
        <ns0:color b="12" g="223" r="180" />
        <ns0:size value="37.77189" />
        <ns0:position x="-202.25928" y="395.6193" z="0.0" />
        <attvalues>
          <attvalue for="0" value="1" />
          <attvalue for="1" value="0.8" />
          <attvalue for="2" value="attribute" />
          <attvalue for="3" value="attribute.integrity" />
        </attvalues>
      </node>
      <node id="action.malware.variety.Scan network" label="action.malware.variety.Scan network">
        <ns0:color b="223" g="12" r="54" />
        <ns0:size value="37.77189" />
        <ns0:position x="444.01175" y="-16.643217" z="0.0" />
        <attvalues>
          <attvalue for="0" value="1" />
          <attvalue for="1" value="0.8" />
          <attvalue for="2" value="action" />
          <attvalue for="3" value="action.malware" />
        </attvalues>
      </node>
      <node id="action.malware.variety.Backdoor" label="action.malware.variety.Backdoor">
        <ns0:color b="223" g="12" r="54" />
        <ns0:size value="37.77189" />
        <ns0:position x="303.88275" y="324.15845" z="0.0" />
        <attvalues>
          <attvalue for="0" value="1" />
          <attvalue for="1" value="0.8" />
          <attvalue for="2" value="action" />
          <attvalue for="3" value="action.malware" />
        </attvalues>
      </node>
      <node id="attribute.availability.variety.Interruption" label="attribute.availability.variety.Interruption">
        <ns0:color b="223" g="223" r="12" />
        <ns0:size value="37.77189" />
        <ns0:position x="-140.2043" y="-421.62326" z="0.0" />
        <attvalues>
          <attvalue for="0" value="1" />
          <attvalue for="1" value="0.8" />
          <attvalue for="2" value="attribute" />
          <attvalue for="3" value="attribute.availability" />
        </attvalues>
      </node>
    </nodes>
    <edges>
      <edge id="0" source="action.misuse.variety.Privilege abuse" target="attribute.confidentiality.data.variety.Secrets" weight="1.0">
        <attvalues>
          <attvalue for="4" value="1" />
          <attvalue for="5" value="forward" />
          <attvalue for="6" value="action.misuse.variety.Privilege abuse-&gt;attribute.confidentiality.data.variety.Secrets" />
        </attvalues>
      </edge>
      <edge id="1" source="action.misuse.variety.Privilege abuse" target="attribute.confidentiality.data.variety.Internal" weight="0.5">
        <attvalues>
          <attvalue for="4" value="2" />
          <attvalue for="5" value="forward" />
          <attvalue for="6" value="action.misuse.variety.Privilege abuse-&gt;attribute.confidentiality.data.variety.Internal" />
        </attvalues>
      </edge>
      <edge id="2" source="attribute.integrity.variety.Defacement" target="end" weight="1.0">
        <attvalues>
          <attvalue for="4" value="1" />
          <attvalue for="5" value="forward" />
          <attvalue for="6" value="attribute.integrity.variety.Defacement-&gt;end" />
        </attvalues>
      </edge>
      <edge id="3" source="attribute.confidentiality.data.variety.Internal" target="action.misuse.variety.Privilege abuse" weight="1.0">
        <attvalues>
          <attvalue for="4" value="1" />
          <attvalue for="5" value="backward" />
          <attvalue for="6" value="attribute.confidentiality.data.variety.Internal-&gt;action.misuse.variety.Privilege abuse" />
        </attvalues>
      </edge>
      <edge id="4" source="attribute.confidentiality.data.variety.Internal" target="end" weight="1.0">
        <attvalues>
          <attvalue for="4" value="1" />
          <attvalue for="5" value="forward" />
          <attvalue for="6" value="attribute.confidentiality.data.variety.Internal-&gt;end" />
        </attvalues>
      </edge>
      <edge id="5" source="attribute.confidentiality.data.variety.System" target="end" weight="1.0">
        <attvalues>
          <attvalue for="4" value="1" />
          <attvalue for="5" value="forward" />
          <attvalue for="6" value="attribute.confidentiality.data.variety.System-&gt;end" />
        </attvalues>
      </edge>
      <edge id="6" source="attribute.integrity.variety.Software installation" target="end" weight="1.0">
        <attvalues>
          <attvalue for="4" value="1" />
          <attvalue for="5" value="forward" />
          <attvalue for="6" value="attribute.integrity.variety.Software installation-&gt;end" />
        </attvalues>
      </edge>
      <edge id="7" source="attribute.availability.variety.Loss" target="action.physical.variety.Theft" weight="0.5">
        <attvalues>
          <attvalue for="4" value="2" />
          <attvalue for="5" value="backward" />
          <attvalue for="6" value="attribute.availability.variety.Loss-&gt;action.physical.variety.Theft" />
        </attvalues>
      </edge>
      <edge id="8" source="attribute.availability.variety.Loss" target="end" weight="1.0">
        <attvalues>
          <attvalue for="4" value="1" />
          <attvalue for="5" value="forward" />
          <attvalue for="6" value="attribute.availability.variety.Loss-&gt;end" />
        </attvalues>
      </edge>
      <edge id="9" source="action.misuse.variety.Email misuse" target="action.misuse.variety.Privilege abuse" weight="1.0">
        <attvalues>
          <attvalue for="4" value="1" />
          <attvalue for="5" value="forward" />
          <attvalue for="6" value="action.misuse.variety.Email misuse-&gt;action.misuse.variety.Privilege abuse" />
        </attvalues>
      </edge>
      <edge id="10" source="action.physical.variety.Theft" target="attribute.availability.variety.Loss" weight="0.5">
        <attvalues>
          <attvalue for="4" value="2" />
          <attvalue for="5" value="forward" />
          <attvalue for="6" value="action.physical.variety.Theft-&gt;attribute.availability.variety.Loss" />
        </attvalues>
      </edge>
      <edge id="11" source="action.physical.variety.Theft" target="attribute.confidentiality.data.variety.Personal" weight="0.5">
        <attvalues>
          <attvalue for="4" value="2" />
          <attvalue for="5" value="forward" />
          <attvalue for="6" value="action.physical.variety.Theft-&gt;attribute.confidentiality.data.variety.Personal" />
        </attvalues>
      </edge>
      <edge id="12" source="attribute.confidentiality.data.variety.Personal" target="action.physical.variety.Theft" weight="0.5">
        <attvalues>
          <attvalue for="4" value="2" />
          <attvalue for="5" value="backward" />
          <attvalue for="6" value="attribute.confidentiality.data.variety.Personal-&gt;action.physical.variety.Theft" />
        </attvalues>
      </edge>
      <edge id="13" source="attribute.confidentiality.data.variety.Personal" target="end" weight="1.0">
        <attvalues>
          <attvalue for="4" value="1" />
          <attvalue for="5" value="forward" />
          <attvalue for="6" value="attribute.confidentiality.data.variety.Personal-&gt;end" />
        </attvalues>
      </edge>
      <edge id="14" source="start" target="action.hacking.variety.SSI injection" weight="1.0">
        <attvalues>
          <attvalue for="4" value="1" />
          <attvalue for="5" value="forward" />
          <attvalue for="6" value="start-&gt;action.hacking.variety.SSI injection" />
        </attvalues>
      </edge>
      <edge id="15" source="start" target="action.misuse.variety.Privilege abuse" weight="1.0">
        <attvalues>
          <attvalue for="4" value="1" />
          <attvalue for="5" value="forward" />
          <attvalue for="6" value="start-&gt;action.misuse.variety.Privilege abuse" />
        </attvalues>
      </edge>
      <edge id="16" source="start" target="action.hacking.variety.Brute force" weight="1.0">
        <attvalues>
          <attvalue for="4" value="1" />
          <attvalue for="5" value="forward" />
          <attvalue for="6" value="start-&gt;action.hacking.variety.Brute force" />
        </attvalues>
      </edge>
      <edge id="17" source="start" target="action.misuse.variety.Email misuse" weight="1.0">
        <attvalues>
          <attvalue for="4" value="1" />
          <attvalue for="5" value="forward" />
          <attvalue for="6" value="start-&gt;action.misuse.variety.Email misuse" />
        </attvalues>
      </edge>
      <edge id="18" source="start" target="action.physical.variety.Theft" weight="1.0">
        <attvalues>
          <attvalue for="4" value="1" />
          <attvalue for="5" value="forward" />
          <attvalue for="6" value="start-&gt;action.physical.variety.Theft" />
        </attvalues>
      </edge>
      <edge id="19" source="start" target="action.misuse.variety.Possession abuse" weight="1.0">
        <attvalues>
          <attvalue for="4" value="1" />
          <attvalue for="5" value="forward" />
          <attvalue for="6" value="start-&gt;action.misuse.variety.Possession abuse" />
        </attvalues>
      </edge>
      <edge id="20" source="start" target="action.social.variety.Phishing" weight="1.0">
        <attvalues>
          <attvalue for="4" value="1" />
          <attvalue for="5" value="forward" />
          <attvalue for="6" value="start-&gt;action.social.variety.Phishing" />
        </attvalues>
      </edge>
      <edge id="21" source="start" target="action.malware.variety.C2" weight="1.0">
        <attvalues>
          <attvalue for="4" value="1" />
          <attvalue for="5" value="forward" />
          <attvalue for="6" value="start-&gt;action.malware.variety.C2" />
        </attvalues>
      </edge>
      <edge id="22" source="start" target="action.malware.variety.Export data" weight="1.0">
        <attvalues>
          <attvalue for="4" value="1" />
          <attvalue for="5" value="forward" />
          <attvalue for="6" value="start-&gt;action.malware.variety.Export data" />
        </attvalues>
      </edge>
      <edge id="23" source="start" target="action.malware.variety.Exploit vuln" weight="1.0">
        <attvalues>
          <attvalue for="4" value="1" />
          <attvalue for="5" value="forward" />
          <attvalue for="6" value="start-&gt;action.malware.variety.Exploit vuln" />
        </attvalues>
      </edge>
      <edge id="24" source="start" target="action.malware.variety.Backdoor" weight="1.0">
        <attvalues>
          <attvalue for="4" value="1" />
          <attvalue for="5" value="forward" />
          <attvalue for="6" value="start-&gt;action.malware.variety.Backdoor" />
        </attvalues>
      </edge>
      <edge id="25" source="start" target="action.malware.variety.Spyware/Keylogger" weight="1.0">
        <attvalues>
          <attvalue for="4" value="1" />
          <attvalue for="5" value="forward" />
          <attvalue for="6" value="start-&gt;action.malware.variety.Spyware/Keylogger" />
        </attvalues>
      </edge>
      <edge id="26" source="start" target="action.malware.variety.Scan network" weight="1.0">
        <attvalues>
          <attvalue for="4" value="1" />
          <attvalue for="5" value="forward" />
          <attvalue for="6" value="start-&gt;action.malware.variety.Scan network" />
        </attvalues>
      </edge>
      <edge id="27" source="start" target="action.hacking.variety.Use of backdoor or C2" weight="1.0">
        <attvalues>
          <attvalue for="4" value="1" />
          <attvalue for="5" value="forward" />
          <attvalue for="6" value="start-&gt;action.hacking.variety.Use of backdoor or C2" />
        </attvalues>
      </edge>
      <edge id="28" source="attribute.integrity.variety.Fraudulent transaction" target="end" weight="1.0">
        <attvalues>
          <attvalue for="4" value="1" />
          <attvalue for="5" value="forward" />
          <attvalue for="6" value="attribute.integrity.variety.Fraudulent transaction-&gt;end" />
        </attvalues>
      </edge>
      <edge id="29" source="attribute.integrity.variety.Alter behavior" target="end" weight="1.0">
        <attvalues>
          <attvalue for="4" value="1" />
          <attvalue for="5" value="forward" />
          <attvalue for="6" value="attribute.integrity.variety.Alter behavior-&gt;end" />
        </attvalues>
      </edge>
      <edge id="30" source="attribute.integrity.variety.Misrepresentation" target="end" weight="1.0">
        <attvalues>
          <attvalue for="4" value="1" />
          <attvalue for="5" value="forward" />
          <attvalue for="6" value="attribute.integrity.variety.Misrepresentation-&gt;end" />
        </attvalues>
      </edge>
      <edge id="31" source="attribute.confidentiality.data.variety.Secrets" target="action.misuse.variety.Privilege abuse" weight="1.0">
        <attvalues>
          <attvalue for="4" value="1" />
          <attvalue for="5" value="backward" />
          <attvalue for="6" value="attribute.confidentiality.data.variety.Secrets-&gt;action.misuse.variety.Privilege abuse" />
        </attvalues>
      </edge>
      <edge id="32" source="attribute.confidentiality.data.variety.Secrets" target="end" weight="1.0">
        <attvalues>
          <attvalue for="4" value="1" />
          <attvalue for="5" value="forward" />
          <attvalue for="6" value="attribute.confidentiality.data.variety.Secrets-&gt;end" />
        </attvalues>
      </edge>
      <edge id="33" source="attribute.availability.variety.Destruction" target="end" weight="1.0">
        <attvalues>
          <attvalue for="4" value="1" />
          <attvalue for="5" value="forward" />
          <attvalue for="6" value="attribute.availability.variety.Destruction-&gt;end" />
        </attvalues>
      </edge>
      <edge id="34" source="attribute.integrity.variety.Modify data" target="end" weight="1.0">
        <attvalues>
          <attvalue for="4" value="1" />
          <attvalue for="5" value="forward" />
          <attvalue for="6" value="attribute.integrity.variety.Modify data-&gt;end" />
        </attvalues>
      </edge>
      <edge id="35" source="attribute.availability.variety.Interruption" target="end" weight="1.0">
        <attvalues>
          <attvalue for="4" value="1" />
          <attvalue for="5" value="forward" />
          <attvalue for="6" value="attribute.availability.variety.Interruption-&gt;end" />
        </attvalues>
      </edge>
    </edges>
  </graph>
</gexf>
