<?xml version='1.0' encoding='utf-8'?>
<graphml xmlns="http://graphml.graphdrawing.org/xmlns" xmlns:xsi="http://www.w3.org/2001/XMLSchema-instance" xsi:schemaLocation="http://graphml.graphdrawing.org/xmlns http://graphml.graphdrawing.org/xmlns/1.0/graphml.xsd">
  <key attr.name="Label" attr.type="string" for="edge" id="d8" />
  <key attr.name="weight" attr.type="double" for="edge" id="d7" />
  <key attr.name="direction" attr.type="string" for="edge" id="d6" />
  <key attr.name="count" attr.type="int" for="edge" id="d5" />
  <key attr.name="Label" attr.type="string" for="node" id="d4" />
  <key attr.name="weight" attr.type="double" for="node" id="d3" />
  <key attr.name="sub_type" attr.type="string" for="node" id="d2" />
  <key attr.name="type" attr.type="string" for="node" id="d1" />
  <key attr.name="count" attr.type="int" for="node" id="d0" />
  <graph edgedefault="directed">
    <node id="action.misuse.variety.Privilege abuse">
      <data key="d0">1</data>
      <data key="d1">action</data>
      <data key="d2">action.misuse</data>
      <data key="d3">0.9375</data>
      <data key="d4">action.misuse.variety.Privilege abuse</data>
    </node>
    <node id="action.malware.variety.Capture app data">
      <data key="d0">2</data>
      <data key="d1">action</data>
      <data key="d2">action.malware</data>
      <data key="d3">0.875</data>
      <data key="d4">action.malware.variety.Capture app data</data>
    </node>
    <node id="attribute.confidentiality.data.variety.Internal">
      <data key="d0">1</data>
      <data key="d1">attribute</data>
      <data key="d2">attribute.confidentiality</data>
      <data key="d3">0.9375</data>
      <data key="d4">attribute.confidentiality.data.variety.Internal</data>
    </node>
    <node id="action.social.variety.Phishing">
      <data key="d0">12</data>
      <data key="d1">action</data>
      <data key="d2">action.social</data>
      <data key="d3">0.25</data>
      <data key="d4">action.social.variety.Phishing</data>
    </node>
    <node id="action.hacking.variety.Use of stolen creds">
      <data key="d0">7</data>
      <data key="d1">action</data>
      <data key="d2">action.hacking</data>
      <data key="d3">0.5625</data>
      <data key="d4">action.hacking.variety.Use of stolen creds</data>
    </node>
    <node id="action.malware.variety.Export data">
      <data key="d0">9</data>
      <data key="d1">action</data>
      <data key="d2">action.malware</data>
      <data key="d3">0.4375</data>
      <data key="d4">action.malware.variety.Export data</data>
    </node>
    <node id="action.social.variety.Extortion">
      <data key="d0">1</data>
      <data key="d1">action</data>
      <data key="d2">action.social</data>
      <data key="d3">0.9375</data>
      <data key="d4">action.social.variety.Extortion</data>
    </node>
    <node id="attribute.integrity.variety.Software installation">
      <data key="d0">15</data>
      <data key="d1">attribute</data>
      <data key="d2">attribute.integrity</data>
      <data key="d3">0.0625</data>
      <data key="d4">attribute.integrity.variety.Software installation</data>
    </node>
    <node id="attribute.confidentiality.data.variety.Payment">
      <data key="d0">1</data>
      <data key="d1">attribute</data>
      <data key="d2">attribute.confidentiality</data>
      <data key="d3">0.9375</data>
      <data key="d4">attribute.confidentiality.data.variety.Payment</data>
    </node>
    <node id="end">
      <data key="d0">0</data>
      <data key="d1">end</data>
      <data key="d2">end</data>
      <data key="d3">1.0</data>
      <data key="d4">end</data>
    </node>
    <node id="attribute.integrity.variety.Modify data">
      <data key="d0">3</data>
      <data key="d1">attribute</data>
      <data key="d2">attribute.integrity</data>
      <data key="d3">0.8125</data>
      <data key="d4">attribute.integrity.variety.Modify data</data>
    </node>
    <node id="action.malware.variety.Backdoor">
      <data key="d0">4</data>
      <data key="d1">action</data>
      <data key="d2">action.malware</data>
      <data key="d3">0.75</data>
      <data key="d4">action.malware.variety.Backdoor</data>
    </node>
    <node id="start">
      <data key="d0">0</data>
      <data key="d1">start</data>
      <data key="d2">start</data>
      <data key="d3">1.0</data>
      <data key="d4">start</data>
    </node>
    <node id="action.malware.variety.Downloader">
      <data key="d0">1</data>
      <data key="d1">action</data>
      <data key="d2">action.malware</data>
      <data key="d3">0.9375</data>
      <data key="d4">action.malware.variety.Downloader</data>
    </node>
    <node id="action.malware.variety.C2">
      <data key="d0">12</data>
      <data key="d1">action</data>
      <data key="d2">action.malware</data>
      <data key="d3">0.25</data>
      <data key="d4">action.malware.variety.C2</data>
    </node>
    <node id="action.hacking.variety.SQLi">
      <data key="d0">3</data>
      <data key="d1">action</data>
      <data key="d2">action.hacking</data>
      <data key="d3">0.8125</data>
      <data key="d4">action.hacking.variety.SQLi</data>
    </node>
    <node id="action.malware.variety.Ransomware">
      <data key="d0">1</data>
      <data key="d1">action</data>
      <data key="d2">action.malware</data>
      <data key="d3">0.9375</data>
      <data key="d4">action.malware.variety.Ransomware</data>
    </node>
    <node id="action.malware.variety.Spyware/Keylogger">
      <data key="d0">7</data>
      <data key="d1">action</data>
      <data key="d2">action.malware</data>
      <data key="d3">0.5625</data>
      <data key="d4">action.malware.variety.Spyware/Keylogger</data>
    </node>
    <node id="attribute.integrity.variety.Repurpose">
      <data key="d0">4</data>
      <data key="d1">attribute</data>
      <data key="d2">attribute.integrity</data>
      <data key="d3">0.75</data>
      <data key="d4">attribute.integrity.variety.Repurpose</data>
    </node>
    <node id="action.misuse.variety.Possession abuse">
      <data key="d0">1</data>
      <data key="d1">action</data>
      <data key="d2">action.misuse</data>
      <data key="d3">0.9375</data>
      <data key="d4">action.misuse.variety.Possession abuse</data>
    </node>
    <node id="action.hacking.variety.DoS">
      <data key="d0">9</data>
      <data key="d1">action</data>
      <data key="d2">action.hacking</data>
      <data key="d3">0.4375</data>
      <data key="d4">action.hacking.variety.DoS</data>
    </node>
    <node id="attribute.confidentiality.data.variety.Credentials">
      <data key="d0">6</data>
      <data key="d1">attribute</data>
      <data key="d2">attribute.confidentiality</data>
      <data key="d3">0.625</data>
      <data key="d4">attribute.confidentiality.data.variety.Credentials</data>
    </node>
    <node id="attribute.confidentiality.data.variety.Secrets">
      <data key="d0">4</data>
      <data key="d1">attribute</data>
      <data key="d2">attribute.confidentiality</data>
      <data key="d3">0.75</data>
      <data key="d4">attribute.confidentiality.data.variety.Secrets</data>
    </node>
    <node id="attribute.integrity.variety.Alter behavior">
      <data key="d0">11</data>
      <data key="d1">attribute</data>
      <data key="d2">attribute.integrity</data>
      <data key="d3">0.3125</data>
      <data key="d4">attribute.integrity.variety.Alter behavior</data>
    </node>
    <node id="action.hacking.variety.Use of backdoor or C2">
      <data key="d0">13</data>
      <data key="d1">action</data>
      <data key="d2">action.hacking</data>
      <data key="d3">0.1875</data>
      <data key="d4">action.hacking.variety.Use of backdoor or C2</data>
    </node>
    <node id="attribute.integrity.variety.Fraudulent transaction">
      <data key="d0">6</data>
      <data key="d1">attribute</data>
      <data key="d2">attribute.integrity</data>
      <data key="d3">0.625</data>
      <data key="d4">attribute.integrity.variety.Fraudulent transaction</data>
    </node>
    <node id="action.misuse.variety.Email misuse">
      <data key="d0">1</data>
      <data key="d1">action</data>
      <data key="d2">action.misuse</data>
      <data key="d3">0.9375</data>
      <data key="d4">action.misuse.variety.Email misuse</data>
    </node>
    <node id="attribute.availability.variety.Degradation">
      <data key="d0">7</data>
      <data key="d1">attribute</data>
      <data key="d2">attribute.availability</data>
      <data key="d3">0.5625</data>
      <data key="d4">attribute.availability.variety.Degradation</data>
    </node>
    <node id="action.misuse.variety.Illicit content">
      <data key="d0">1</data>
      <data key="d1">action</data>
      <data key="d2">action.misuse</data>
      <data key="d3">0.9375</data>
      <data key="d4">action.misuse.variety.Illicit content</data>
    </node>
    <node id="action.hacking.variety.XSS">
      <data key="d0">2</data>
      <data key="d1">action</data>
      <data key="d2">action.hacking</data>
      <data key="d3">0.875</data>
      <data key="d4">action.hacking.variety.XSS</data>
    </node>
    <node id="action.hacking.variety.Footprinting">
      <data key="d0">3</data>
      <data key="d1">action</data>
      <data key="d2">action.hacking</data>
      <data key="d3">0.8125</data>
      <data key="d4">action.hacking.variety.Footprinting</data>
    </node>
    <node id="attribute.availability.variety.Interruption">
      <data key="d0">3</data>
      <data key="d1">attribute</data>
      <data key="d2">attribute.availability</data>
      <data key="d3">0.8125</data>
      <data key="d4">attribute.availability.variety.Interruption</data>
    </node>
    <edge source="action.malware.variety.Capture app data" target="action.hacking.variety.SQLi">
      <data key="d5">1</data>
      <data key="d6">forward</data>
      <data key="d7">1.0</data>
      <data key="d8">action.malware.variety.Capture app data-&gt;action.hacking.variety.SQLi</data>
    </edge>
    <edge source="attribute.confidentiality.data.variety.Internal" target="end">
      <data key="d5">1</data>
      <data key="d6">forward</data>
      <data key="d7">1.0</data>
      <data key="d8">attribute.confidentiality.data.variety.Internal-&gt;end</data>
    </edge>
    <edge source="action.social.variety.Phishing" target="action.malware.variety.C2">
      <data key="d5">10</data>
      <data key="d6">forward</data>
      <data key="d7">0.181818181818</data>
      <data key="d8">action.social.variety.Phishing-&gt;action.malware.variety.C2</data>
    </edge>
    <edge source="action.hacking.variety.Use of stolen creds" target="action.malware.variety.C2">
      <data key="d5">6</data>
      <data key="d6">forward</data>
      <data key="d7">0.545454545455</data>
      <data key="d8">action.hacking.variety.Use of stolen creds-&gt;action.malware.variety.C2</data>
    </edge>
    <edge source="action.malware.variety.Export data" target="action.malware.variety.C2">
      <data key="d5">8</data>
      <data key="d6">forward</data>
      <data key="d7">0.363636363636</data>
      <data key="d8">action.malware.variety.Export data-&gt;action.malware.variety.C2</data>
    </edge>
    <edge source="attribute.integrity.variety.Software installation" target="end">
      <data key="d5">1</data>
      <data key="d6">forward</data>
      <data key="d7">1.0</data>
      <data key="d8">attribute.integrity.variety.Software installation-&gt;end</data>
    </edge>
    <edge source="attribute.confidentiality.data.variety.Payment" target="end">
      <data key="d5">1</data>
      <data key="d6">forward</data>
      <data key="d7">1.0</data>
      <data key="d8">attribute.confidentiality.data.variety.Payment-&gt;end</data>
    </edge>
    <edge source="attribute.integrity.variety.Modify data" target="action.hacking.variety.SQLi">
      <data key="d5">1</data>
      <data key="d6">backward</data>
      <data key="d7">1.0</data>
      <data key="d8">attribute.integrity.variety.Modify data-&gt;action.hacking.variety.SQLi</data>
    </edge>
    <edge source="attribute.integrity.variety.Modify data" target="end">
      <data key="d5">1</data>
      <data key="d6">forward</data>
      <data key="d7">1.0</data>
      <data key="d8">attribute.integrity.variety.Modify data-&gt;end</data>
    </edge>
    <edge source="action.malware.variety.Backdoor" target="action.hacking.variety.SQLi">
      <data key="d5">1</data>
      <data key="d6">forward</data>
      <data key="d7">1.0</data>
      <data key="d8">action.malware.variety.Backdoor-&gt;action.hacking.variety.SQLi</data>
    </edge>
    <edge source="action.malware.variety.Backdoor" target="action.malware.variety.C2">
      <data key="d5">2</data>
      <data key="d6">forward</data>
      <data key="d7">0.909090909091</data>
      <data key="d8">action.malware.variety.Backdoor-&gt;action.malware.variety.C2</data>
    </edge>
    <edge source="start" target="action.hacking.variety.SQLi">
      <data key="d5">1</data>
      <data key="d6">forward</data>
      <data key="d7">1.0</data>
      <data key="d8">start-&gt;action.hacking.variety.SQLi</data>
    </edge>
    <edge source="start" target="action.malware.variety.Ransomware">
      <data key="d5">1</data>
      <data key="d6">forward</data>
      <data key="d7">1.0</data>
      <data key="d8">start-&gt;action.malware.variety.Ransomware</data>
    </edge>
    <edge source="start" target="action.misuse.variety.Privilege abuse">
      <data key="d5">1</data>
      <data key="d6">forward</data>
      <data key="d7">1.0</data>
      <data key="d8">start-&gt;action.misuse.variety.Privilege abuse</data>
    </edge>
    <edge source="start" target="action.malware.variety.Capture app data">
      <data key="d5">1</data>
      <data key="d6">forward</data>
      <data key="d7">1.0</data>
      <data key="d8">start-&gt;action.malware.variety.Capture app data</data>
    </edge>
    <edge source="start" target="action.misuse.variety.Email misuse">
      <data key="d5">1</data>
      <data key="d6">forward</data>
      <data key="d7">1.0</data>
      <data key="d8">start-&gt;action.misuse.variety.Email misuse</data>
    </edge>
    <edge source="start" target="action.hacking.variety.DoS">
      <data key="d5">1</data>
      <data key="d6">forward</data>
      <data key="d7">1.0</data>
      <data key="d8">start-&gt;action.hacking.variety.DoS</data>
    </edge>
    <edge source="start" target="action.malware.variety.Backdoor">
      <data key="d5">1</data>
      <data key="d6">forward</data>
      <data key="d7">1.0</data>
      <data key="d8">start-&gt;action.malware.variety.Backdoor</data>
    </edge>
    <edge source="start" target="action.misuse.variety.Possession abuse">
      <data key="d5">1</data>
      <data key="d6">forward</data>
      <data key="d7">1.0</data>
      <data key="d8">start-&gt;action.misuse.variety.Possession abuse</data>
    </edge>
    <edge source="start" target="action.social.variety.Phishing">
      <data key="d5">1</data>
      <data key="d6">forward</data>
      <data key="d7">1.0</data>
      <data key="d8">start-&gt;action.social.variety.Phishing</data>
    </edge>
    <edge source="start" target="action.misuse.variety.Illicit content">
      <data key="d5">1</data>
      <data key="d6">forward</data>
      <data key="d7">1.0</data>
      <data key="d8">start-&gt;action.misuse.variety.Illicit content</data>
    </edge>
    <edge source="start" target="action.hacking.variety.Use of stolen creds">
      <data key="d5">1</data>
      <data key="d6">forward</data>
      <data key="d7">1.0</data>
      <data key="d8">start-&gt;action.hacking.variety.Use of stolen creds</data>
    </edge>
    <edge source="start" target="action.hacking.variety.Footprinting">
      <data key="d5">1</data>
      <data key="d6">forward</data>
      <data key="d7">1.0</data>
      <data key="d8">start-&gt;action.hacking.variety.Footprinting</data>
    </edge>
    <edge source="start" target="action.malware.variety.Export data">
      <data key="d5">1</data>
      <data key="d6">forward</data>
      <data key="d7">1.0</data>
      <data key="d8">start-&gt;action.malware.variety.Export data</data>
    </edge>
    <edge source="start" target="action.social.variety.Extortion">
      <data key="d5">1</data>
      <data key="d6">forward</data>
      <data key="d7">1.0</data>
      <data key="d8">start-&gt;action.social.variety.Extortion</data>
    </edge>
    <edge source="start" target="action.hacking.variety.XSS">
      <data key="d5">1</data>
      <data key="d6">forward</data>
      <data key="d7">1.0</data>
      <data key="d8">start-&gt;action.hacking.variety.XSS</data>
    </edge>
    <edge source="start" target="action.malware.variety.Spyware/Keylogger">
      <data key="d5">1</data>
      <data key="d6">forward</data>
      <data key="d7">1.0</data>
      <data key="d8">start-&gt;action.malware.variety.Spyware/Keylogger</data>
    </edge>
    <edge source="start" target="action.malware.variety.Downloader">
      <data key="d5">1</data>
      <data key="d6">forward</data>
      <data key="d7">1.0</data>
      <data key="d8">start-&gt;action.malware.variety.Downloader</data>
    </edge>
    <edge source="start" target="action.malware.variety.C2">
      <data key="d5">1</data>
      <data key="d6">forward</data>
      <data key="d7">1.0</data>
      <data key="d8">start-&gt;action.malware.variety.C2</data>
    </edge>
    <edge source="start" target="action.hacking.variety.Use of backdoor or C2">
      <data key="d5">1</data>
      <data key="d6">forward</data>
      <data key="d7">1.0</data>
      <data key="d8">start-&gt;action.hacking.variety.Use of backdoor or C2</data>
    </edge>
    <edge source="action.malware.variety.C2" target="attribute.integrity.variety.Software installation">
      <data key="d5">11</data>
      <data key="d6">forward</data>
      <data key="d7">0.0909090909091</data>
      <data key="d8">action.malware.variety.C2-&gt;attribute.integrity.variety.Software installation</data>
    </edge>
    <edge source="action.hacking.variety.SQLi" target="attribute.integrity.variety.Repurpose">
      <data key="d5">2</data>
      <data key="d6">forward</data>
      <data key="d7">0.909090909091</data>
      <data key="d8">action.hacking.variety.SQLi-&gt;attribute.integrity.variety.Repurpose</data>
    </edge>
    <edge source="action.hacking.variety.SQLi" target="attribute.integrity.variety.Modify data">
      <data key="d5">1</data>
      <data key="d6">forward</data>
      <data key="d7">1.0</data>
      <data key="d8">action.hacking.variety.SQLi-&gt;attribute.integrity.variety.Modify data</data>
    </edge>
    <edge source="action.malware.variety.Spyware/Keylogger" target="action.malware.variety.C2">
      <data key="d5">6</data>
      <data key="d6">forward</data>
      <data key="d7">0.545454545455</data>
      <data key="d8">action.malware.variety.Spyware/Keylogger-&gt;action.malware.variety.C2</data>
    </edge>
    <edge source="attribute.integrity.variety.Repurpose" target="action.hacking.variety.SQLi">
      <data key="d5">1</data>
      <data key="d6">backward</data>
      <data key="d7">1.0</data>
      <data key="d8">attribute.integrity.variety.Repurpose-&gt;action.hacking.variety.SQLi</data>
    </edge>
    <edge source="attribute.integrity.variety.Repurpose" target="end">
      <data key="d5">1</data>
      <data key="d6">forward</data>
      <data key="d7">1.0</data>
      <data key="d8">attribute.integrity.variety.Repurpose-&gt;end</data>
    </edge>
    <edge source="action.hacking.variety.DoS" target="attribute.availability.variety.Degradation">
      <data key="d5">6</data>
      <data key="d6">forward</data>
      <data key="d7">0.545454545455</data>
      <data key="d8">action.hacking.variety.DoS-&gt;attribute.availability.variety.Degradation</data>
    </edge>
    <edge source="action.hacking.variety.DoS" target="attribute.availability.variety.Interruption">
      <data key="d5">2</data>
      <data key="d6">forward</data>
      <data key="d7">0.909090909091</data>
      <data key="d8">action.hacking.variety.DoS-&gt;attribute.availability.variety.Interruption</data>
    </edge>
    <edge source="attribute.confidentiality.data.variety.Credentials" target="end">
      <data key="d5">1</data>
      <data key="d6">forward</data>
      <data key="d7">1.0</data>
      <data key="d8">attribute.confidentiality.data.variety.Credentials-&gt;end</data>
    </edge>
    <edge source="attribute.confidentiality.data.variety.Secrets" target="end">
      <data key="d5">1</data>
      <data key="d6">forward</data>
      <data key="d7">1.0</data>
      <data key="d8">attribute.confidentiality.data.variety.Secrets-&gt;end</data>
    </edge>
    <edge source="attribute.integrity.variety.Alter behavior" target="end">
      <data key="d5">1</data>
      <data key="d6">forward</data>
      <data key="d7">1.0</data>
      <data key="d8">attribute.integrity.variety.Alter behavior-&gt;end</data>
    </edge>
    <edge source="action.hacking.variety.Use of backdoor or C2" target="action.hacking.variety.SQLi">
      <data key="d5">1</data>
      <data key="d6">forward</data>
      <data key="d7">1.0</data>
      <data key="d8">action.hacking.variety.Use of backdoor or C2-&gt;action.hacking.variety.SQLi</data>
    </edge>
    <edge source="action.hacking.variety.Use of backdoor or C2" target="action.malware.variety.C2">
      <data key="d5">10</data>
      <data key="d6">forward</data>
      <data key="d7">0.181818181818</data>
      <data key="d8">action.hacking.variety.Use of backdoor or C2-&gt;action.malware.variety.C2</data>
    </edge>
    <edge source="attribute.integrity.variety.Fraudulent transaction" target="end">
      <data key="d5">1</data>
      <data key="d6">forward</data>
      <data key="d7">1.0</data>
      <data key="d8">attribute.integrity.variety.Fraudulent transaction-&gt;end</data>
    </edge>
    <edge source="attribute.availability.variety.Degradation" target="end">
      <data key="d5">1</data>
      <data key="d6">forward</data>
      <data key="d7">1.0</data>
      <data key="d8">attribute.availability.variety.Degradation-&gt;end</data>
    </edge>
    <edge source="action.hacking.variety.XSS" target="attribute.integrity.variety.Software installation">
      <data key="d5">1</data>
      <data key="d6">forward</data>
      <data key="d7">1.0</data>
      <data key="d8">action.hacking.variety.XSS-&gt;attribute.integrity.variety.Software installation</data>
    </edge>
    <edge source="action.hacking.variety.Footprinting" target="action.malware.variety.C2">
      <data key="d5">2</data>
      <data key="d6">forward</data>
      <data key="d7">0.909090909091</data>
      <data key="d8">action.hacking.variety.Footprinting-&gt;action.malware.variety.C2</data>
    </edge>
    <edge source="attribute.availability.variety.Interruption" target="end">
      <data key="d5">1</data>
      <data key="d6">forward</data>
      <data key="d7">1.0</data>
      <data key="d8">attribute.availability.variety.Interruption-&gt;end</data>
    </edge>
  </graph>
</graphml>
