<?xml version='1.0' encoding='utf-8'?>
<graphml xmlns="http://graphml.graphdrawing.org/xmlns" xmlns:xsi="http://www.w3.org/2001/XMLSchema-instance" xsi:schemaLocation="http://graphml.graphdrawing.org/xmlns http://graphml.graphdrawing.org/xmlns/1.0/graphml.xsd">
  <key attr.name="Label" attr.type="string" for="edge" id="d8" />
  <key attr.name="weight" attr.type="double" for="edge" id="d7" />
  <key attr.name="direction" attr.type="string" for="edge" id="d6" />
  <key attr.name="count" attr.type="int" for="edge" id="d5" />
  <key attr.name="Label" attr.type="string" for="node" id="d4" />
  <key attr.name="weight" attr.type="double" for="node" id="d3" />
  <key attr.name="sub_type" attr.type="string" for="node" id="d2" />
  <key attr.name="type" attr.type="string" for="node" id="d1" />
  <key attr.name="count" attr.type="int" for="node" id="d0" />
  <graph edgedefault="directed">
    <node id="action.hacking.variety.SQLi">
      <data key="d0">3</data>
      <data key="d1">action</data>
      <data key="d2">action.hacking</data>
      <data key="d3">0.996350364964</data>
      <data key="d4">action.hacking.variety.SQLi</data>
    </node>
    <node id="action.misuse.variety.Unapproved hardware">
      <data key="d0">2</data>
      <data key="d1">action</data>
      <data key="d2">action.misuse</data>
      <data key="d3">0.997566909976</data>
      <data key="d4">action.misuse.variety.Unapproved hardware</data>
    </node>
    <node id="action.misuse.variety.Privilege abuse">
      <data key="d0">11</data>
      <data key="d1">action</data>
      <data key="d2">action.misuse</data>
      <data key="d3">0.986618004866</data>
      <data key="d4">action.misuse.variety.Privilege abuse</data>
    </node>
    <node id="action.malware.variety.Capture app data">
      <data key="d0">3</data>
      <data key="d1">action</data>
      <data key="d2">action.malware</data>
      <data key="d3">0.996350364964</data>
      <data key="d4">action.malware.variety.Capture app data</data>
    </node>
    <node id="attribute.confidentiality.data.variety.Internal">
      <data key="d0">17</data>
      <data key="d1">attribute</data>
      <data key="d2">attribute.confidentiality</data>
      <data key="d3">0.979318734793</data>
      <data key="d4">attribute.confidentiality.data.variety.Internal</data>
    </node>
    <node id="action.malware.variety.Rootkit">
      <data key="d0">10</data>
      <data key="d1">action</data>
      <data key="d2">action.malware</data>
      <data key="d3">0.987834549878</data>
      <data key="d4">action.malware.variety.Rootkit</data>
    </node>
    <node id="action.social.variety.Phishing">
      <data key="d0">35</data>
      <data key="d1">action</data>
      <data key="d2">action.social</data>
      <data key="d3">0.957420924574</data>
      <data key="d4">action.social.variety.Phishing</data>
    </node>
    <node id="attribute.confidentiality.data.variety.System">
      <data key="d0">8</data>
      <data key="d1">attribute</data>
      <data key="d2">attribute.confidentiality</data>
      <data key="d3">0.990267639903</data>
      <data key="d4">attribute.confidentiality.data.variety.System</data>
    </node>
    <node id="action.hacking.variety.Use of stolen creds">
      <data key="d0">13</data>
      <data key="d1">action</data>
      <data key="d2">action.hacking</data>
      <data key="d3">0.984184914842</data>
      <data key="d4">action.hacking.variety.Use of stolen creds</data>
    </node>
    <node id="action.malware.variety.Export data">
      <data key="d0">15</data>
      <data key="d1">action</data>
      <data key="d2">action.malware</data>
      <data key="d3">0.981751824818</data>
      <data key="d4">action.malware.variety.Export data</data>
    </node>
    <node id="action.hacking.variety.RFI">
      <data key="d0">2</data>
      <data key="d1">action</data>
      <data key="d2">action.hacking</data>
      <data key="d3">0.997566909976</data>
      <data key="d4">action.hacking.variety.RFI</data>
    </node>
    <node id="action.malware.variety.Worm">
      <data key="d0">1</data>
      <data key="d1">action</data>
      <data key="d2">action.malware</data>
      <data key="d3">0.998783454988</data>
      <data key="d4">action.malware.variety.Worm</data>
    </node>
    <node id="attribute.integrity.variety.Software installation">
      <data key="d0">44</data>
      <data key="d1">attribute</data>
      <data key="d2">attribute.integrity</data>
      <data key="d3">0.946472019465</data>
      <data key="d4">attribute.integrity.variety.Software installation</data>
    </node>
    <node id="action.social.variety.Pretexting">
      <data key="d0">3</data>
      <data key="d1">action</data>
      <data key="d2">action.social</data>
      <data key="d3">0.996350364964</data>
      <data key="d4">action.social.variety.Pretexting</data>
    </node>
    <node id="attribute.integrity.variety.Defacement">
      <data key="d0">2</data>
      <data key="d1">attribute</data>
      <data key="d2">attribute.integrity</data>
      <data key="d3">0.997566909976</data>
      <data key="d4">attribute.integrity.variety.Defacement</data>
    </node>
    <node id="attribute.confidentiality.data.variety.Payment">
      <data key="d0">6</data>
      <data key="d1">attribute</data>
      <data key="d2">attribute.confidentiality</data>
      <data key="d3">0.992700729927</data>
      <data key="d4">attribute.confidentiality.data.variety.Payment</data>
    </node>
    <node id="attribute.availability.variety.Loss">
      <data key="d0">12</data>
      <data key="d1">attribute</data>
      <data key="d2">attribute.availability</data>
      <data key="d3">0.985401459854</data>
      <data key="d4">attribute.availability.variety.Loss</data>
    </node>
    <node id="end">
      <data key="d0">0</data>
      <data key="d1">end</data>
      <data key="d2">end</data>
      <data key="d3">1.0</data>
      <data key="d4">end</data>
    </node>
    <node id="attribute.confidentiality.data.variety.Medical">
      <data key="d0">3</data>
      <data key="d1">attribute</data>
      <data key="d2">attribute.confidentiality</data>
      <data key="d3">0.996350364964</data>
      <data key="d4">attribute.confidentiality.data.variety.Medical</data>
    </node>
    <node id="action.misuse.variety.Email misuse">
      <data key="d0">4</data>
      <data key="d1">action</data>
      <data key="d2">action.misuse</data>
      <data key="d3">0.995133819951</data>
      <data key="d4">action.misuse.variety.Email misuse</data>
    </node>
    <node id="action.hacking.variety.Brute force">
      <data key="d0">4</data>
      <data key="d1">action</data>
      <data key="d2">action.hacking</data>
      <data key="d3">0.995133819951</data>
      <data key="d4">action.hacking.variety.Brute force</data>
    </node>
    <node id="action.malware.variety.Backdoor">
      <data key="d0">14</data>
      <data key="d1">action</data>
      <data key="d2">action.malware</data>
      <data key="d3">0.98296836983</data>
      <data key="d4">action.malware.variety.Backdoor</data>
    </node>
    <node id="attribute.confidentiality.data.variety.Bank">
      <data key="d0">4</data>
      <data key="d1">attribute</data>
      <data key="d2">attribute.confidentiality</data>
      <data key="d3">0.995133819951</data>
      <data key="d4">attribute.confidentiality.data.variety.Bank</data>
    </node>
    <node id="attribute.confidentiality.data.variety.Personal">
      <data key="d0">17</data>
      <data key="d1">attribute</data>
      <data key="d2">attribute.confidentiality</data>
      <data key="d3">0.979318734793</data>
      <data key="d4">attribute.confidentiality.data.variety.Personal</data>
    </node>
    <node id="action.malware.variety.Capture stored data">
      <data key="d0">9</data>
      <data key="d1">action</data>
      <data key="d2">action.malware</data>
      <data key="d3">0.989051094891</data>
      <data key="d4">action.malware.variety.Capture stored data</data>
    </node>
    <node id="start">
      <data key="d0">0</data>
      <data key="d1">start</data>
      <data key="d2">start</data>
      <data key="d3">1.0</data>
      <data key="d4">start</data>
    </node>
    <node id="action.misuse.variety.Data mishandling">
      <data key="d0">1</data>
      <data key="d1">action</data>
      <data key="d2">action.misuse</data>
      <data key="d3">0.998783454988</data>
      <data key="d4">action.misuse.variety.Data mishandling</data>
    </node>
    <node id="action.malware.variety.Downloader">
      <data key="d0">11</data>
      <data key="d1">action</data>
      <data key="d2">action.malware</data>
      <data key="d3">0.986618004866</data>
      <data key="d4">action.malware.variety.Downloader</data>
    </node>
    <node id="action.hacking.variety.OS commanding">
      <data key="d0">2</data>
      <data key="d1">action</data>
      <data key="d2">action.hacking</data>
      <data key="d3">0.997566909976</data>
      <data key="d4">action.hacking.variety.OS commanding</data>
    </node>
    <node id="action.malware.variety.Destroy data">
      <data key="d0">1</data>
      <data key="d1">action</data>
      <data key="d2">action.malware</data>
      <data key="d3">0.998783454988</data>
      <data key="d4">action.malware.variety.Destroy data</data>
    </node>
    <node id="action.malware.variety.Adminware">
      <data key="d0">7</data>
      <data key="d1">action</data>
      <data key="d2">action.malware</data>
      <data key="d3">0.991484184915</data>
      <data key="d4">action.malware.variety.Adminware</data>
    </node>
    <node id="action.malware.variety.Password dumper">
      <data key="d0">8</data>
      <data key="d1">action</data>
      <data key="d2">action.malware</data>
      <data key="d3">0.990267639903</data>
      <data key="d4">action.malware.variety.Password dumper</data>
    </node>
    <node id="action.malware.variety.Ransomware">
      <data key="d0">7</data>
      <data key="d1">action</data>
      <data key="d2">action.malware</data>
      <data key="d3">0.991484184915</data>
      <data key="d4">action.malware.variety.Ransomware</data>
    </node>
    <node id="action.malware.variety.Spyware/Keylogger">
      <data key="d0">17</data>
      <data key="d1">action</data>
      <data key="d2">action.malware</data>
      <data key="d3">0.979318734793</data>
      <data key="d4">action.malware.variety.Spyware/Keylogger</data>
    </node>
    <node id="attribute.integrity.variety.Repurpose">
      <data key="d0">6</data>
      <data key="d1">attribute</data>
      <data key="d2">attribute.integrity</data>
      <data key="d3">0.992700729927</data>
      <data key="d4">attribute.integrity.variety.Repurpose</data>
    </node>
    <node id="action.hacking.variety.Other">
      <data key="d0">2</data>
      <data key="d1">action</data>
      <data key="d2">action.hacking</data>
      <data key="d3">0.997566909976</data>
      <data key="d4">action.hacking.variety.Other</data>
    </node>
    <node id="action.misuse.variety.Unapproved software">
      <data key="d0">2</data>
      <data key="d1">action</data>
      <data key="d2">action.misuse</data>
      <data key="d3">0.997566909976</data>
      <data key="d4">action.misuse.variety.Unapproved software</data>
    </node>
    <node id="attribute.availability.variety.Obscuration">
      <data key="d0">5</data>
      <data key="d1">attribute</data>
      <data key="d2">attribute.availability</data>
      <data key="d3">0.993917274939</data>
      <data key="d4">attribute.availability.variety.Obscuration</data>
    </node>
    <node id="action.hacking.variety.XSS">
      <data key="d0">1</data>
      <data key="d1">action</data>
      <data key="d2">action.hacking</data>
      <data key="d3">0.998783454988</data>
      <data key="d4">action.hacking.variety.XSS</data>
    </node>
    <node id="action.misuse.variety.Possession abuse">
      <data key="d0">3</data>
      <data key="d1">action</data>
      <data key="d2">action.misuse</data>
      <data key="d3">0.996350364964</data>
      <data key="d4">action.misuse.variety.Possession abuse</data>
    </node>
    <node id="attribute.integrity.variety.Log tampering">
      <data key="d0">2</data>
      <data key="d1">attribute</data>
      <data key="d2">attribute.integrity</data>
      <data key="d3">0.997566909976</data>
      <data key="d4">attribute.integrity.variety.Log tampering</data>
    </node>
    <node id="action.malware.variety.SQL injection">
      <data key="d0">3</data>
      <data key="d1">action</data>
      <data key="d2">action.malware</data>
      <data key="d3">0.996350364964</data>
      <data key="d4">action.malware.variety.SQL injection</data>
    </node>
    <node id="attribute.confidentiality.data.variety.Other">
      <data key="d0">3</data>
      <data key="d1">attribute</data>
      <data key="d2">attribute.confidentiality</data>
      <data key="d3">0.996350364964</data>
      <data key="d4">attribute.confidentiality.data.variety.Other</data>
    </node>
    <node id="action.hacking.variety.DoS">
      <data key="d0">821</data>
      <data key="d1">action</data>
      <data key="d2">action.hacking</data>
      <data key="d3">0.00121654501217</data>
      <data key="d4">action.hacking.variety.DoS</data>
    </node>
    <node id="attribute.confidentiality.data.variety.Credentials">
      <data key="d0">11</data>
      <data key="d1">attribute</data>
      <data key="d2">attribute.confidentiality</data>
      <data key="d3">0.986618004866</data>
      <data key="d4">attribute.confidentiality.data.variety.Credentials</data>
    </node>
    <node id="attribute.integrity.variety.Fraudulent transaction">
      <data key="d0">9</data>
      <data key="d1">attribute</data>
      <data key="d2">attribute.integrity</data>
      <data key="d3">0.989051094891</data>
      <data key="d4">attribute.integrity.variety.Fraudulent transaction</data>
    </node>
    <node id="attribute.integrity.variety.Alter behavior">
      <data key="d0">37</data>
      <data key="d1">attribute</data>
      <data key="d2">attribute.integrity</data>
      <data key="d3">0.95498783455</data>
      <data key="d4">attribute.integrity.variety.Alter behavior</data>
    </node>
    <node id="action.malware.variety.Exploit vuln">
      <data key="d0">10</data>
      <data key="d1">action</data>
      <data key="d2">action.malware</data>
      <data key="d3">0.987834549878</data>
      <data key="d4">action.malware.variety.Exploit vuln</data>
    </node>
    <node id="action.social.variety.Spam">
      <data key="d0">2</data>
      <data key="d1">action</data>
      <data key="d2">action.social</data>
      <data key="d3">0.997566909976</data>
      <data key="d4">action.social.variety.Spam</data>
    </node>
    <node id="action.malware.variety.DoS">
      <data key="d0">2</data>
      <data key="d1">action</data>
      <data key="d2">action.malware</data>
      <data key="d3">0.997566909976</data>
      <data key="d4">action.malware.variety.DoS</data>
    </node>
    <node id="attribute.integrity.variety.Modify privileges">
      <data key="d0">1</data>
      <data key="d1">attribute</data>
      <data key="d2">attribute.integrity</data>
      <data key="d3">0.998783454988</data>
      <data key="d4">attribute.integrity.variety.Modify privileges</data>
    </node>
    <node id="action.hacking.variety.Use of backdoor or C2">
      <data key="d0">19</data>
      <data key="d1">action</data>
      <data key="d2">action.hacking</data>
      <data key="d3">0.976885644769</data>
      <data key="d4">action.hacking.variety.Use of backdoor or C2</data>
    </node>
    <node id="attribute.confidentiality.data.variety.Secrets">
      <data key="d0">18</data>
      <data key="d1">attribute</data>
      <data key="d2">attribute.confidentiality</data>
      <data key="d3">0.978102189781</data>
      <data key="d4">attribute.confidentiality.data.variety.Secrets</data>
    </node>
    <node id="attribute.availability.variety.Destruction">
      <data key="d0">1</data>
      <data key="d1">attribute</data>
      <data key="d2">attribute.availability</data>
      <data key="d3">0.998783454988</data>
      <data key="d4">attribute.availability.variety.Destruction</data>
    </node>
    <node id="attribute.integrity.variety.Modify configuration">
      <data key="d0">2</data>
      <data key="d1">attribute</data>
      <data key="d2">attribute.integrity</data>
      <data key="d3">0.997566909976</data>
      <data key="d4">attribute.integrity.variety.Modify configuration</data>
    </node>
    <node id="attribute.availability.variety.Degradation">
      <data key="d0">821</data>
      <data key="d1">attribute</data>
      <data key="d2">attribute.availability</data>
      <data key="d3">0.00121654501217</data>
      <data key="d4">attribute.availability.variety.Degradation</data>
    </node>
    <node id="action.misuse.variety.Net misuse">
      <data key="d0">1</data>
      <data key="d1">action</data>
      <data key="d2">action.misuse</data>
      <data key="d3">0.998783454988</data>
      <data key="d4">action.misuse.variety.Net misuse</data>
    </node>
    <node id="attribute.confidentiality.data.variety.Digital certificate">
      <data key="d0">8</data>
      <data key="d1">attribute</data>
      <data key="d2">attribute.confidentiality</data>
      <data key="d3">0.990267639903</data>
      <data key="d4">attribute.confidentiality.data.variety.Digital certificate</data>
    </node>
    <node id="action.malware.variety.Brute force">
      <data key="d0">2</data>
      <data key="d1">action</data>
      <data key="d2">action.malware</data>
      <data key="d3">0.997566909976</data>
      <data key="d4">action.malware.variety.Brute force</data>
    </node>
    <node id="action.malware.variety.C2">
      <data key="d0">16</data>
      <data key="d1">action</data>
      <data key="d2">action.malware</data>
      <data key="d3">0.980535279805</data>
      <data key="d4">action.malware.variety.C2</data>
    </node>
    <node id="action.misuse.variety.Unapproved workaround">
      <data key="d0">1</data>
      <data key="d1">action</data>
      <data key="d2">action.misuse</data>
      <data key="d3">0.998783454988</data>
      <data key="d4">action.misuse.variety.Unapproved workaround</data>
    </node>
    <node id="action.physical.variety.Theft">
      <data key="d0">10</data>
      <data key="d1">action</data>
      <data key="d2">action.physical</data>
      <data key="d3">0.987834549878</data>
      <data key="d4">action.physical.variety.Theft</data>
    </node>
    <node id="attribute.confidentiality.data.variety.Source code">
      <data key="d0">10</data>
      <data key="d1">attribute</data>
      <data key="d2">attribute.confidentiality</data>
      <data key="d3">0.987834549878</data>
      <data key="d4">attribute.confidentiality.data.variety.Source code</data>
    </node>
    <node id="attribute.integrity.variety.Modify data">
      <data key="d0">2</data>
      <data key="d1">attribute</data>
      <data key="d2">attribute.integrity</data>
      <data key="d3">0.997566909976</data>
      <data key="d4">attribute.integrity.variety.Modify data</data>
    </node>
    <node id="action.hacking.variety.Footprinting">
      <data key="d0">1</data>
      <data key="d1">action</data>
      <data key="d2">action.hacking</data>
      <data key="d3">0.998783454988</data>
      <data key="d4">action.hacking.variety.Footprinting</data>
    </node>
    <edge source="action.hacking.variety.SQLi" target="attribute.confidentiality.data.variety.Personal">
      <data key="d5">1</data>
      <data key="d6">forward</data>
      <data key="d7">1.0</data>
      <data key="d8">action.hacking.variety.SQLi-&gt;attribute.confidentiality.data.variety.Personal</data>
    </edge>
    <edge source="action.hacking.variety.SQLi" target="attribute.confidentiality.data.variety.Internal">
      <data key="d5">2</data>
      <data key="d6">forward</data>
      <data key="d7">0.998780487805</data>
      <data key="d8">action.hacking.variety.SQLi-&gt;attribute.confidentiality.data.variety.Internal</data>
    </edge>
    <edge source="action.hacking.variety.SQLi" target="attribute.integrity.variety.Repurpose">
      <data key="d5">2</data>
      <data key="d6">forward</data>
      <data key="d7">0.998780487805</data>
      <data key="d8">action.hacking.variety.SQLi-&gt;attribute.integrity.variety.Repurpose</data>
    </edge>
    <edge source="action.misuse.variety.Unapproved hardware" target="action.misuse.variety.Privilege abuse">
      <data key="d5">1</data>
      <data key="d6">forward</data>
      <data key="d7">1.0</data>
      <data key="d8">action.misuse.variety.Unapproved hardware-&gt;action.misuse.variety.Privilege abuse</data>
    </edge>
    <edge source="action.misuse.variety.Privilege abuse" target="attribute.confidentiality.data.variety.Medical">
      <data key="d5">1</data>
      <data key="d6">forward</data>
      <data key="d7">1.0</data>
      <data key="d8">action.misuse.variety.Privilege abuse-&gt;attribute.confidentiality.data.variety.Medical</data>
    </edge>
    <edge source="action.misuse.variety.Privilege abuse" target="attribute.confidentiality.data.variety.Source code">
      <data key="d5">2</data>
      <data key="d6">forward</data>
      <data key="d7">0.998780487805</data>
      <data key="d8">action.misuse.variety.Privilege abuse-&gt;attribute.confidentiality.data.variety.Source code</data>
    </edge>
    <edge source="action.misuse.variety.Privilege abuse" target="action.misuse.variety.Possession abuse">
      <data key="d5">1</data>
      <data key="d6">forward</data>
      <data key="d7">1.0</data>
      <data key="d8">action.misuse.variety.Privilege abuse-&gt;action.misuse.variety.Possession abuse</data>
    </edge>
    <edge source="action.misuse.variety.Privilege abuse" target="attribute.confidentiality.data.variety.Personal">
      <data key="d5">3</data>
      <data key="d6">forward</data>
      <data key="d7">0.99756097561</data>
      <data key="d8">action.misuse.variety.Privilege abuse-&gt;attribute.confidentiality.data.variety.Personal</data>
    </edge>
    <edge source="action.malware.variety.Capture app data" target="attribute.confidentiality.data.variety.Payment">
      <data key="d5">2</data>
      <data key="d6">forward</data>
      <data key="d7">0.998780487805</data>
      <data key="d8">action.malware.variety.Capture app data-&gt;attribute.confidentiality.data.variety.Payment</data>
    </edge>
    <edge source="action.malware.variety.Capture app data" target="attribute.integrity.variety.Software installation">
      <data key="d5">2</data>
      <data key="d6">forward</data>
      <data key="d7">0.998780487805</data>
      <data key="d8">action.malware.variety.Capture app data-&gt;attribute.integrity.variety.Software installation</data>
    </edge>
    <edge source="attribute.confidentiality.data.variety.Internal" target="action.hacking.variety.SQLi">
      <data key="d5">3</data>
      <data key="d6">backward</data>
      <data key="d7">0.99756097561</data>
      <data key="d8">attribute.confidentiality.data.variety.Internal-&gt;action.hacking.variety.SQLi</data>
    </edge>
    <edge source="attribute.confidentiality.data.variety.Internal" target="end">
      <data key="d5">1</data>
      <data key="d6">forward</data>
      <data key="d7">1.0</data>
      <data key="d8">attribute.confidentiality.data.variety.Internal-&gt;end</data>
    </edge>
    <edge source="attribute.confidentiality.data.variety.Internal" target="action.misuse.variety.Possession abuse">
      <data key="d5">1</data>
      <data key="d6">backward</data>
      <data key="d7">1.0</data>
      <data key="d8">attribute.confidentiality.data.variety.Internal-&gt;action.misuse.variety.Possession abuse</data>
    </edge>
    <edge source="attribute.confidentiality.data.variety.Internal" target="action.hacking.variety.Brute force">
      <data key="d5">4</data>
      <data key="d6">backward</data>
      <data key="d7">0.996341463415</data>
      <data key="d8">attribute.confidentiality.data.variety.Internal-&gt;action.hacking.variety.Brute force</data>
    </edge>
    <edge source="action.malware.variety.Rootkit" target="action.social.variety.Phishing">
      <data key="d5">8</data>
      <data key="d6">forward</data>
      <data key="d7">0.991463414634</data>
      <data key="d8">action.malware.variety.Rootkit-&gt;action.social.variety.Phishing</data>
    </edge>
    <edge source="action.malware.variety.Rootkit" target="action.malware.variety.Exploit vuln">
      <data key="d5">8</data>
      <data key="d6">forward</data>
      <data key="d7">0.991463414634</data>
      <data key="d8">action.malware.variety.Rootkit-&gt;action.malware.variety.Exploit vuln</data>
    </edge>
    <edge source="action.social.variety.Phishing" target="attribute.integrity.variety.Fraudulent transaction">
      <data key="d5">6</data>
      <data key="d6">forward</data>
      <data key="d7">0.993902439024</data>
      <data key="d8">action.social.variety.Phishing-&gt;attribute.integrity.variety.Fraudulent transaction</data>
    </edge>
    <edge source="action.social.variety.Phishing" target="attribute.integrity.variety.Software installation">
      <data key="d5">31</data>
      <data key="d6">forward</data>
      <data key="d7">0.963414634146</data>
      <data key="d8">action.social.variety.Phishing-&gt;attribute.integrity.variety.Software installation</data>
    </edge>
    <edge source="action.social.variety.Phishing" target="attribute.integrity.variety.Alter behavior">
      <data key="d5">34</data>
      <data key="d6">forward</data>
      <data key="d7">0.959756097561</data>
      <data key="d8">action.social.variety.Phishing-&gt;attribute.integrity.variety.Alter behavior</data>
    </edge>
    <edge source="action.social.variety.Phishing" target="attribute.confidentiality.data.variety.Personal">
      <data key="d5">2</data>
      <data key="d6">forward</data>
      <data key="d7">0.998780487805</data>
      <data key="d8">action.social.variety.Phishing-&gt;attribute.confidentiality.data.variety.Personal</data>
    </edge>
    <edge source="attribute.confidentiality.data.variety.System" target="end">
      <data key="d5">1</data>
      <data key="d6">forward</data>
      <data key="d7">1.0</data>
      <data key="d8">attribute.confidentiality.data.variety.System-&gt;end</data>
    </edge>
    <edge source="action.hacking.variety.Use of stolen creds" target="action.malware.variety.Capture app data">
      <data key="d5">1</data>
      <data key="d6">forward</data>
      <data key="d7">1.0</data>
      <data key="d8">action.hacking.variety.Use of stolen creds-&gt;action.malware.variety.Capture app data</data>
    </edge>
    <edge source="action.hacking.variety.Use of stolen creds" target="attribute.confidentiality.data.variety.Bank">
      <data key="d5">1</data>
      <data key="d6">forward</data>
      <data key="d7">1.0</data>
      <data key="d8">action.hacking.variety.Use of stolen creds-&gt;attribute.confidentiality.data.variety.Bank</data>
    </edge>
    <edge source="action.hacking.variety.Use of stolen creds" target="action.social.variety.Phishing">
      <data key="d5">6</data>
      <data key="d6">forward</data>
      <data key="d7">0.993902439024</data>
      <data key="d8">action.hacking.variety.Use of stolen creds-&gt;action.social.variety.Phishing</data>
    </edge>
    <edge source="action.hacking.variety.Use of stolen creds" target="attribute.confidentiality.data.variety.Personal">
      <data key="d5">2</data>
      <data key="d6">forward</data>
      <data key="d7">0.998780487805</data>
      <data key="d8">action.hacking.variety.Use of stolen creds-&gt;attribute.confidentiality.data.variety.Personal</data>
    </edge>
    <edge source="action.hacking.variety.Use of stolen creds" target="attribute.integrity.variety.Modify configuration">
      <data key="d5">1</data>
      <data key="d6">forward</data>
      <data key="d7">1.0</data>
      <data key="d8">action.hacking.variety.Use of stolen creds-&gt;attribute.integrity.variety.Modify configuration</data>
    </edge>
    <edge source="action.hacking.variety.Use of stolen creds" target="action.hacking.variety.Brute force">
      <data key="d5">1</data>
      <data key="d6">forward</data>
      <data key="d7">1.0</data>
      <data key="d8">action.hacking.variety.Use of stolen creds-&gt;action.hacking.variety.Brute force</data>
    </edge>
    <edge source="action.malware.variety.Export data" target="action.social.variety.Phishing">
      <data key="d5">12</data>
      <data key="d6">forward</data>
      <data key="d7">0.986585365854</data>
      <data key="d8">action.malware.variety.Export data-&gt;action.social.variety.Phishing</data>
    </edge>
    <edge source="action.malware.variety.Export data" target="action.malware.variety.Exploit vuln">
      <data key="d5">8</data>
      <data key="d6">forward</data>
      <data key="d7">0.991463414634</data>
      <data key="d8">action.malware.variety.Export data-&gt;action.malware.variety.Exploit vuln</data>
    </edge>
    <edge source="action.hacking.variety.RFI" target="action.social.variety.Phishing">
      <data key="d5">1</data>
      <data key="d6">forward</data>
      <data key="d7">1.0</data>
      <data key="d8">action.hacking.variety.RFI-&gt;action.social.variety.Phishing</data>
    </edge>
    <edge source="attribute.integrity.variety.Software installation" target="action.malware.variety.Ransomware">
      <data key="d5">6</data>
      <data key="d6">backward</data>
      <data key="d7">0.993902439024</data>
      <data key="d8">attribute.integrity.variety.Software installation-&gt;action.malware.variety.Ransomware</data>
    </edge>
    <edge source="attribute.integrity.variety.Software installation" target="end">
      <data key="d5">1</data>
      <data key="d6">forward</data>
      <data key="d7">1.0</data>
      <data key="d8">attribute.integrity.variety.Software installation-&gt;end</data>
    </edge>
    <edge source="attribute.integrity.variety.Software installation" target="action.malware.variety.Capture app data">
      <data key="d5">4</data>
      <data key="d6">backward</data>
      <data key="d7">0.996341463415</data>
      <data key="d8">attribute.integrity.variety.Software installation-&gt;action.malware.variety.Capture app data</data>
    </edge>
    <edge source="attribute.integrity.variety.Software installation" target="action.social.variety.Phishing">
      <data key="d5">61</data>
      <data key="d6">backward</data>
      <data key="d7">0.926829268293</data>
      <data key="d8">attribute.integrity.variety.Software installation-&gt;action.social.variety.Phishing</data>
    </edge>
    <edge source="attribute.integrity.variety.Software installation" target="action.hacking.variety.Brute force">
      <data key="d5">7</data>
      <data key="d6">backward</data>
      <data key="d7">0.992682926829</data>
      <data key="d8">attribute.integrity.variety.Software installation-&gt;action.hacking.variety.Brute force</data>
    </edge>
    <edge source="attribute.integrity.variety.Software installation" target="action.hacking.variety.Use of stolen creds">
      <data key="d5">1</data>
      <data key="d6">backward</data>
      <data key="d7">1.0</data>
      <data key="d8">attribute.integrity.variety.Software installation-&gt;action.hacking.variety.Use of stolen creds</data>
    </edge>
    <edge source="attribute.integrity.variety.Software installation" target="action.malware.variety.Exploit vuln">
      <data key="d5">7</data>
      <data key="d6">backward</data>
      <data key="d7">0.992682926829</data>
      <data key="d8">attribute.integrity.variety.Software installation-&gt;action.malware.variety.Exploit vuln</data>
    </edge>
    <edge source="attribute.integrity.variety.Software installation" target="action.malware.variety.DoS">
      <data key="d5">1</data>
      <data key="d6">backward</data>
      <data key="d7">1.0</data>
      <data key="d8">attribute.integrity.variety.Software installation-&gt;action.malware.variety.DoS</data>
    </edge>
    <edge source="action.social.variety.Pretexting" target="attribute.confidentiality.data.variety.Bank">
      <data key="d5">1</data>
      <data key="d6">forward</data>
      <data key="d7">1.0</data>
      <data key="d8">action.social.variety.Pretexting-&gt;attribute.confidentiality.data.variety.Bank</data>
    </edge>
    <edge source="action.social.variety.Pretexting" target="attribute.integrity.variety.Fraudulent transaction">
      <data key="d5">2</data>
      <data key="d6">forward</data>
      <data key="d7">0.998780487805</data>
      <data key="d8">action.social.variety.Pretexting-&gt;attribute.integrity.variety.Fraudulent transaction</data>
    </edge>
    <edge source="action.social.variety.Pretexting" target="attribute.integrity.variety.Alter behavior">
      <data key="d5">2</data>
      <data key="d6">forward</data>
      <data key="d7">0.998780487805</data>
      <data key="d8">action.social.variety.Pretexting-&gt;attribute.integrity.variety.Alter behavior</data>
    </edge>
    <edge source="attribute.integrity.variety.Defacement" target="end">
      <data key="d5">1</data>
      <data key="d6">forward</data>
      <data key="d7">1.0</data>
      <data key="d8">attribute.integrity.variety.Defacement-&gt;end</data>
    </edge>
    <edge source="attribute.integrity.variety.Defacement" target="action.hacking.variety.Other">
      <data key="d5">1</data>
      <data key="d6">backward</data>
      <data key="d7">1.0</data>
      <data key="d8">attribute.integrity.variety.Defacement-&gt;action.hacking.variety.Other</data>
    </edge>
    <edge source="attribute.confidentiality.data.variety.Payment" target="end">
      <data key="d5">1</data>
      <data key="d6">forward</data>
      <data key="d7">1.0</data>
      <data key="d8">attribute.confidentiality.data.variety.Payment-&gt;end</data>
    </edge>
    <edge source="attribute.confidentiality.data.variety.Payment" target="action.malware.variety.Capture app data">
      <data key="d5">4</data>
      <data key="d6">backward</data>
      <data key="d7">0.996341463415</data>
      <data key="d8">attribute.confidentiality.data.variety.Payment-&gt;action.malware.variety.Capture app data</data>
    </edge>
    <edge source="attribute.confidentiality.data.variety.Payment" target="action.hacking.variety.Brute force">
      <data key="d5">11</data>
      <data key="d6">backward</data>
      <data key="d7">0.987804878049</data>
      <data key="d8">attribute.confidentiality.data.variety.Payment-&gt;action.hacking.variety.Brute force</data>
    </edge>
    <edge source="attribute.availability.variety.Loss" target="action.physical.variety.Theft">
      <data key="d5">10</data>
      <data key="d6">backward</data>
      <data key="d7">0.989024390244</data>
      <data key="d8">attribute.availability.variety.Loss-&gt;action.physical.variety.Theft</data>
    </edge>
    <edge source="attribute.availability.variety.Loss" target="action.malware.variety.Ransomware">
      <data key="d5">1</data>
      <data key="d6">backward</data>
      <data key="d7">1.0</data>
      <data key="d8">attribute.availability.variety.Loss-&gt;action.malware.variety.Ransomware</data>
    </edge>
    <edge source="attribute.availability.variety.Loss" target="end">
      <data key="d5">1</data>
      <data key="d6">forward</data>
      <data key="d7">1.0</data>
      <data key="d8">attribute.availability.variety.Loss-&gt;end</data>
    </edge>
    <edge source="attribute.availability.variety.Loss" target="action.hacking.variety.Other">
      <data key="d5">1</data>
      <data key="d6">backward</data>
      <data key="d7">1.0</data>
      <data key="d8">attribute.availability.variety.Loss-&gt;action.hacking.variety.Other</data>
    </edge>
    <edge source="attribute.confidentiality.data.variety.Medical" target="action.physical.variety.Theft">
      <data key="d5">1</data>
      <data key="d6">backward</data>
      <data key="d7">1.0</data>
      <data key="d8">attribute.confidentiality.data.variety.Medical-&gt;action.physical.variety.Theft</data>
    </edge>
    <edge source="attribute.confidentiality.data.variety.Medical" target="end">
      <data key="d5">1</data>
      <data key="d6">forward</data>
      <data key="d7">1.0</data>
      <data key="d8">attribute.confidentiality.data.variety.Medical-&gt;end</data>
    </edge>
    <edge source="action.misuse.variety.Email misuse" target="action.misuse.variety.Privilege abuse">
      <data key="d5">1</data>
      <data key="d6">forward</data>
      <data key="d7">1.0</data>
      <data key="d8">action.misuse.variety.Email misuse-&gt;action.misuse.variety.Privilege abuse</data>
    </edge>
    <edge source="action.hacking.variety.Brute force" target="attribute.confidentiality.data.variety.Payment">
      <data key="d5">3</data>
      <data key="d6">forward</data>
      <data key="d7">0.99756097561</data>
      <data key="d8">action.hacking.variety.Brute force-&gt;attribute.confidentiality.data.variety.Payment</data>
    </edge>
    <edge source="action.hacking.variety.Brute force" target="attribute.confidentiality.data.variety.Internal">
      <data key="d5">1</data>
      <data key="d6">forward</data>
      <data key="d7">1.0</data>
      <data key="d8">action.hacking.variety.Brute force-&gt;attribute.confidentiality.data.variety.Internal</data>
    </edge>
    <edge source="action.hacking.variety.Brute force" target="attribute.confidentiality.data.variety.Personal">
      <data key="d5">1</data>
      <data key="d6">forward</data>
      <data key="d7">1.0</data>
      <data key="d8">action.hacking.variety.Brute force-&gt;attribute.confidentiality.data.variety.Personal</data>
    </edge>
    <edge source="action.hacking.variety.Brute force" target="attribute.confidentiality.data.variety.Other">
      <data key="d5">1</data>
      <data key="d6">forward</data>
      <data key="d7">1.0</data>
      <data key="d8">action.hacking.variety.Brute force-&gt;attribute.confidentiality.data.variety.Other</data>
    </edge>
    <edge source="action.hacking.variety.Brute force" target="attribute.confidentiality.data.variety.Credentials">
      <data key="d5">3</data>
      <data key="d6">forward</data>
      <data key="d7">0.99756097561</data>
      <data key="d8">action.hacking.variety.Brute force-&gt;attribute.confidentiality.data.variety.Credentials</data>
    </edge>
    <edge source="action.hacking.variety.Brute force" target="attribute.integrity.variety.Software installation">
      <data key="d5">2</data>
      <data key="d6">forward</data>
      <data key="d7">0.998780487805</data>
      <data key="d8">action.hacking.variety.Brute force-&gt;attribute.integrity.variety.Software installation</data>
    </edge>
    <edge source="action.malware.variety.Backdoor" target="action.hacking.variety.Brute force">
      <data key="d5">1</data>
      <data key="d6">forward</data>
      <data key="d7">1.0</data>
      <data key="d8">action.malware.variety.Backdoor-&gt;action.hacking.variety.Brute force</data>
    </edge>
    <edge source="action.malware.variety.Backdoor" target="action.social.variety.Phishing">
      <data key="d5">9</data>
      <data key="d6">forward</data>
      <data key="d7">0.990243902439</data>
      <data key="d8">action.malware.variety.Backdoor-&gt;action.social.variety.Phishing</data>
    </edge>
    <edge source="action.malware.variety.Backdoor" target="action.malware.variety.Exploit vuln">
      <data key="d5">8</data>
      <data key="d6">forward</data>
      <data key="d7">0.991463414634</data>
      <data key="d8">action.malware.variety.Backdoor-&gt;action.malware.variety.Exploit vuln</data>
    </edge>
    <edge source="action.malware.variety.Backdoor" target="action.malware.variety.Capture app data">
      <data key="d5">1</data>
      <data key="d6">forward</data>
      <data key="d7">1.0</data>
      <data key="d8">action.malware.variety.Backdoor-&gt;action.malware.variety.Capture app data</data>
    </edge>
    <edge source="attribute.confidentiality.data.variety.Bank" target="action.physical.variety.Theft">
      <data key="d5">2</data>
      <data key="d6">backward</data>
      <data key="d7">0.998780487805</data>
      <data key="d8">attribute.confidentiality.data.variety.Bank-&gt;action.physical.variety.Theft</data>
    </edge>
    <edge source="attribute.confidentiality.data.variety.Bank" target="end">
      <data key="d5">1</data>
      <data key="d6">forward</data>
      <data key="d7">1.0</data>
      <data key="d8">attribute.confidentiality.data.variety.Bank-&gt;end</data>
    </edge>
    <edge source="attribute.confidentiality.data.variety.Bank" target="action.social.variety.Pretexting">
      <data key="d5">2</data>
      <data key="d6">backward</data>
      <data key="d7">0.998780487805</data>
      <data key="d8">attribute.confidentiality.data.variety.Bank-&gt;action.social.variety.Pretexting</data>
    </edge>
    <edge source="attribute.confidentiality.data.variety.Personal" target="action.hacking.variety.SQLi">
      <data key="d5">2</data>
      <data key="d6">backward</data>
      <data key="d7">0.998780487805</data>
      <data key="d8">attribute.confidentiality.data.variety.Personal-&gt;action.hacking.variety.SQLi</data>
    </edge>
    <edge source="attribute.confidentiality.data.variety.Personal" target="end">
      <data key="d5">1</data>
      <data key="d6">forward</data>
      <data key="d7">1.0</data>
      <data key="d8">attribute.confidentiality.data.variety.Personal-&gt;end</data>
    </edge>
    <edge source="attribute.confidentiality.data.variety.Personal" target="action.physical.variety.Theft">
      <data key="d5">9</data>
      <data key="d6">backward</data>
      <data key="d7">0.990243902439</data>
      <data key="d8">attribute.confidentiality.data.variety.Personal-&gt;action.physical.variety.Theft</data>
    </edge>
    <edge source="attribute.confidentiality.data.variety.Personal" target="action.social.variety.Phishing">
      <data key="d5">6</data>
      <data key="d6">backward</data>
      <data key="d7">0.993902439024</data>
      <data key="d8">attribute.confidentiality.data.variety.Personal-&gt;action.social.variety.Phishing</data>
    </edge>
    <edge source="attribute.confidentiality.data.variety.Personal" target="action.hacking.variety.Use of stolen creds">
      <data key="d5">2</data>
      <data key="d6">backward</data>
      <data key="d7">0.998780487805</data>
      <data key="d8">attribute.confidentiality.data.variety.Personal-&gt;action.hacking.variety.Use of stolen creds</data>
    </edge>
    <edge source="attribute.confidentiality.data.variety.Personal" target="action.hacking.variety.Brute force">
      <data key="d5">4</data>
      <data key="d6">backward</data>
      <data key="d7">0.996341463415</data>
      <data key="d8">attribute.confidentiality.data.variety.Personal-&gt;action.hacking.variety.Brute force</data>
    </edge>
    <edge source="action.malware.variety.Capture stored data" target="action.social.variety.Phishing">
      <data key="d5">7</data>
      <data key="d6">forward</data>
      <data key="d7">0.992682926829</data>
      <data key="d8">action.malware.variety.Capture stored data-&gt;action.social.variety.Phishing</data>
    </edge>
    <edge source="action.malware.variety.Capture stored data" target="action.malware.variety.Exploit vuln">
      <data key="d5">8</data>
      <data key="d6">forward</data>
      <data key="d7">0.991463414634</data>
      <data key="d8">action.malware.variety.Capture stored data-&gt;action.malware.variety.Exploit vuln</data>
    </edge>
    <edge source="start" target="action.malware.variety.Destroy data">
      <data key="d5">1</data>
      <data key="d6">forward</data>
      <data key="d7">1.0</data>
      <data key="d8">start-&gt;action.malware.variety.Destroy data</data>
    </edge>
    <edge source="start" target="action.misuse.variety.Unapproved hardware">
      <data key="d5">1</data>
      <data key="d6">forward</data>
      <data key="d7">1.0</data>
      <data key="d8">start-&gt;action.misuse.variety.Unapproved hardware</data>
    </edge>
    <edge source="start" target="action.misuse.variety.Privilege abuse">
      <data key="d5">1</data>
      <data key="d6">forward</data>
      <data key="d7">1.0</data>
      <data key="d8">start-&gt;action.misuse.variety.Privilege abuse</data>
    </edge>
    <edge source="start" target="action.malware.variety.Capture app data">
      <data key="d5">1</data>
      <data key="d6">forward</data>
      <data key="d7">1.0</data>
      <data key="d8">start-&gt;action.malware.variety.Capture app data</data>
    </edge>
    <edge source="start" target="action.malware.variety.Rootkit">
      <data key="d5">1</data>
      <data key="d6">forward</data>
      <data key="d7">1.0</data>
      <data key="d8">start-&gt;action.malware.variety.Rootkit</data>
    </edge>
    <edge source="start" target="action.social.variety.Phishing">
      <data key="d5">1</data>
      <data key="d6">forward</data>
      <data key="d7">1.0</data>
      <data key="d8">start-&gt;action.social.variety.Phishing</data>
    </edge>
    <edge source="start" target="action.hacking.variety.Use of stolen creds">
      <data key="d5">1</data>
      <data key="d6">forward</data>
      <data key="d7">1.0</data>
      <data key="d8">start-&gt;action.hacking.variety.Use of stolen creds</data>
    </edge>
    <edge source="start" target="action.malware.variety.Password dumper">
      <data key="d5">1</data>
      <data key="d6">forward</data>
      <data key="d7">1.0</data>
      <data key="d8">start-&gt;action.malware.variety.Password dumper</data>
    </edge>
    <edge source="start" target="action.malware.variety.Export data">
      <data key="d5">1</data>
      <data key="d6">forward</data>
      <data key="d7">1.0</data>
      <data key="d8">start-&gt;action.malware.variety.Export data</data>
    </edge>
    <edge source="start" target="action.hacking.variety.RFI">
      <data key="d5">1</data>
      <data key="d6">forward</data>
      <data key="d7">1.0</data>
      <data key="d8">start-&gt;action.hacking.variety.RFI</data>
    </edge>
    <edge source="start" target="action.malware.variety.Worm">
      <data key="d5">1</data>
      <data key="d6">forward</data>
      <data key="d7">1.0</data>
      <data key="d8">start-&gt;action.malware.variety.Worm</data>
    </edge>
    <edge source="start" target="action.social.variety.Pretexting">
      <data key="d5">1</data>
      <data key="d6">forward</data>
      <data key="d7">1.0</data>
      <data key="d8">start-&gt;action.social.variety.Pretexting</data>
    </edge>
    <edge source="start" target="action.malware.variety.Exploit vuln">
      <data key="d5">1</data>
      <data key="d6">forward</data>
      <data key="d7">1.0</data>
      <data key="d8">start-&gt;action.malware.variety.Exploit vuln</data>
    </edge>
    <edge source="start" target="action.misuse.variety.Email misuse">
      <data key="d5">1</data>
      <data key="d6">forward</data>
      <data key="d7">1.0</data>
      <data key="d8">start-&gt;action.misuse.variety.Email misuse</data>
    </edge>
    <edge source="start" target="action.misuse.variety.Net misuse">
      <data key="d5">1</data>
      <data key="d6">forward</data>
      <data key="d7">1.0</data>
      <data key="d8">start-&gt;action.misuse.variety.Net misuse</data>
    </edge>
    <edge source="start" target="action.malware.variety.Backdoor">
      <data key="d5">1</data>
      <data key="d6">forward</data>
      <data key="d7">1.0</data>
      <data key="d8">start-&gt;action.malware.variety.Backdoor</data>
    </edge>
    <edge source="start" target="action.malware.variety.Capture stored data">
      <data key="d5">1</data>
      <data key="d6">forward</data>
      <data key="d7">1.0</data>
      <data key="d8">start-&gt;action.malware.variety.Capture stored data</data>
    </edge>
    <edge source="start" target="action.misuse.variety.Data mishandling">
      <data key="d5">1</data>
      <data key="d6">forward</data>
      <data key="d7">1.0</data>
      <data key="d8">start-&gt;action.misuse.variety.Data mishandling</data>
    </edge>
    <edge source="start" target="action.malware.variety.Downloader">
      <data key="d5">1</data>
      <data key="d6">forward</data>
      <data key="d7">1.0</data>
      <data key="d8">start-&gt;action.malware.variety.Downloader</data>
    </edge>
    <edge source="start" target="action.social.variety.Spam">
      <data key="d5">1</data>
      <data key="d6">forward</data>
      <data key="d7">1.0</data>
      <data key="d8">start-&gt;action.social.variety.Spam</data>
    </edge>
    <edge source="start" target="action.malware.variety.Adminware">
      <data key="d5">1</data>
      <data key="d6">forward</data>
      <data key="d7">1.0</data>
      <data key="d8">start-&gt;action.malware.variety.Adminware</data>
    </edge>
    <edge source="start" target="action.hacking.variety.SQLi">
      <data key="d5">1</data>
      <data key="d6">forward</data>
      <data key="d7">1.0</data>
      <data key="d8">start-&gt;action.hacking.variety.SQLi</data>
    </edge>
    <edge source="start" target="action.malware.variety.Ransomware">
      <data key="d5">1</data>
      <data key="d6">forward</data>
      <data key="d7">1.0</data>
      <data key="d8">start-&gt;action.malware.variety.Ransomware</data>
    </edge>
    <edge source="start" target="action.malware.variety.Spyware/Keylogger">
      <data key="d5">1</data>
      <data key="d6">forward</data>
      <data key="d7">1.0</data>
      <data key="d8">start-&gt;action.malware.variety.Spyware/Keylogger</data>
    </edge>
    <edge source="start" target="action.misuse.variety.Unapproved software">
      <data key="d5">1</data>
      <data key="d6">forward</data>
      <data key="d7">1.0</data>
      <data key="d8">start-&gt;action.misuse.variety.Unapproved software</data>
    </edge>
    <edge source="start" target="action.hacking.variety.OS commanding">
      <data key="d5">1</data>
      <data key="d6">forward</data>
      <data key="d7">1.0</data>
      <data key="d8">start-&gt;action.hacking.variety.OS commanding</data>
    </edge>
    <edge source="start" target="action.misuse.variety.Possession abuse">
      <data key="d5">1</data>
      <data key="d6">forward</data>
      <data key="d7">1.0</data>
      <data key="d8">start-&gt;action.misuse.variety.Possession abuse</data>
    </edge>
    <edge source="start" target="action.malware.variety.SQL injection">
      <data key="d5">1</data>
      <data key="d6">forward</data>
      <data key="d7">1.0</data>
      <data key="d8">start-&gt;action.malware.variety.SQL injection</data>
    </edge>
    <edge source="start" target="action.hacking.variety.DoS">
      <data key="d5">1</data>
      <data key="d6">forward</data>
      <data key="d7">1.0</data>
      <data key="d8">start-&gt;action.hacking.variety.DoS</data>
    </edge>
    <edge source="start" target="action.malware.variety.C2">
      <data key="d5">1</data>
      <data key="d6">forward</data>
      <data key="d7">1.0</data>
      <data key="d8">start-&gt;action.malware.variety.C2</data>
    </edge>
    <edge source="start" target="action.hacking.variety.Brute force">
      <data key="d5">1</data>
      <data key="d6">forward</data>
      <data key="d7">1.0</data>
      <data key="d8">start-&gt;action.hacking.variety.Brute force</data>
    </edge>
    <edge source="start" target="action.malware.variety.DoS">
      <data key="d5">1</data>
      <data key="d6">forward</data>
      <data key="d7">1.0</data>
      <data key="d8">start-&gt;action.malware.variety.DoS</data>
    </edge>
    <edge source="start" target="action.hacking.variety.Use of backdoor or C2">
      <data key="d5">1</data>
      <data key="d6">forward</data>
      <data key="d7">1.0</data>
      <data key="d8">start-&gt;action.hacking.variety.Use of backdoor or C2</data>
    </edge>
    <edge source="start" target="action.hacking.variety.Footprinting">
      <data key="d5">1</data>
      <data key="d6">forward</data>
      <data key="d7">1.0</data>
      <data key="d8">start-&gt;action.hacking.variety.Footprinting</data>
    </edge>
    <edge source="start" target="action.physical.variety.Theft">
      <data key="d5">1</data>
      <data key="d6">forward</data>
      <data key="d7">1.0</data>
      <data key="d8">start-&gt;action.physical.variety.Theft</data>
    </edge>
    <edge source="start" target="action.malware.variety.Brute force">
      <data key="d5">1</data>
      <data key="d6">forward</data>
      <data key="d7">1.0</data>
      <data key="d8">start-&gt;action.malware.variety.Brute force</data>
    </edge>
    <edge source="start" target="action.hacking.variety.Other">
      <data key="d5">1</data>
      <data key="d6">forward</data>
      <data key="d7">1.0</data>
      <data key="d8">start-&gt;action.hacking.variety.Other</data>
    </edge>
    <edge source="start" target="action.misuse.variety.Unapproved workaround">
      <data key="d5">1</data>
      <data key="d6">forward</data>
      <data key="d7">1.0</data>
      <data key="d8">start-&gt;action.misuse.variety.Unapproved workaround</data>
    </edge>
    <edge source="start" target="action.hacking.variety.XSS">
      <data key="d5">1</data>
      <data key="d6">forward</data>
      <data key="d7">1.0</data>
      <data key="d8">start-&gt;action.hacking.variety.XSS</data>
    </edge>
    <edge source="action.malware.variety.Downloader" target="action.social.variety.Phishing">
      <data key="d5">7</data>
      <data key="d6">forward</data>
      <data key="d7">0.992682926829</data>
      <data key="d8">action.malware.variety.Downloader-&gt;action.social.variety.Phishing</data>
    </edge>
    <edge source="action.malware.variety.Downloader" target="action.malware.variety.Exploit vuln">
      <data key="d5">8</data>
      <data key="d6">forward</data>
      <data key="d7">0.991463414634</data>
      <data key="d8">action.malware.variety.Downloader-&gt;action.malware.variety.Exploit vuln</data>
    </edge>
    <edge source="action.hacking.variety.OS commanding" target="action.social.variety.Phishing">
      <data key="d5">1</data>
      <data key="d6">forward</data>
      <data key="d7">1.0</data>
      <data key="d8">action.hacking.variety.OS commanding-&gt;action.social.variety.Phishing</data>
    </edge>
    <edge source="action.malware.variety.Adminware" target="action.social.variety.Phishing">
      <data key="d5">5</data>
      <data key="d6">forward</data>
      <data key="d7">0.99512195122</data>
      <data key="d8">action.malware.variety.Adminware-&gt;action.social.variety.Phishing</data>
    </edge>
    <edge source="action.malware.variety.Adminware" target="action.malware.variety.Exploit vuln">
      <data key="d5">4</data>
      <data key="d6">forward</data>
      <data key="d7">0.996341463415</data>
      <data key="d8">action.malware.variety.Adminware-&gt;action.malware.variety.Exploit vuln</data>
    </edge>
    <edge source="action.malware.variety.Password dumper" target="action.social.variety.Phishing">
      <data key="d5">6</data>
      <data key="d6">forward</data>
      <data key="d7">0.993902439024</data>
      <data key="d8">action.malware.variety.Password dumper-&gt;action.social.variety.Phishing</data>
    </edge>
    <edge source="action.malware.variety.Password dumper" target="action.malware.variety.Exploit vuln">
      <data key="d5">7</data>
      <data key="d6">forward</data>
      <data key="d7">0.992682926829</data>
      <data key="d8">action.malware.variety.Password dumper-&gt;action.malware.variety.Exploit vuln</data>
    </edge>
    <edge source="action.malware.variety.Ransomware" target="attribute.availability.variety.Loss">
      <data key="d5">1</data>
      <data key="d6">forward</data>
      <data key="d7">1.0</data>
      <data key="d8">action.malware.variety.Ransomware-&gt;attribute.availability.variety.Loss</data>
    </edge>
    <edge source="action.malware.variety.Ransomware" target="attribute.integrity.variety.Software installation">
      <data key="d5">6</data>
      <data key="d6">forward</data>
      <data key="d7">0.993902439024</data>
      <data key="d8">action.malware.variety.Ransomware-&gt;attribute.integrity.variety.Software installation</data>
    </edge>
    <edge source="action.malware.variety.Spyware/Keylogger" target="action.hacking.variety.Use of stolen creds">
      <data key="d5">1</data>
      <data key="d6">forward</data>
      <data key="d7">1.0</data>
      <data key="d8">action.malware.variety.Spyware/Keylogger-&gt;action.hacking.variety.Use of stolen creds</data>
    </edge>
    <edge source="action.malware.variety.Spyware/Keylogger" target="action.social.variety.Phishing">
      <data key="d5">14</data>
      <data key="d6">forward</data>
      <data key="d7">0.984146341463</data>
      <data key="d8">action.malware.variety.Spyware/Keylogger-&gt;action.social.variety.Phishing</data>
    </edge>
    <edge source="action.malware.variety.Spyware/Keylogger" target="action.malware.variety.Exploit vuln">
      <data key="d5">7</data>
      <data key="d6">forward</data>
      <data key="d7">0.992682926829</data>
      <data key="d8">action.malware.variety.Spyware/Keylogger-&gt;action.malware.variety.Exploit vuln</data>
    </edge>
    <edge source="attribute.integrity.variety.Repurpose" target="action.malware.variety.DoS">
      <data key="d5">1</data>
      <data key="d6">backward</data>
      <data key="d7">1.0</data>
      <data key="d8">attribute.integrity.variety.Repurpose-&gt;action.malware.variety.DoS</data>
    </edge>
    <edge source="attribute.integrity.variety.Repurpose" target="end">
      <data key="d5">1</data>
      <data key="d6">forward</data>
      <data key="d7">1.0</data>
      <data key="d8">attribute.integrity.variety.Repurpose-&gt;end</data>
    </edge>
    <edge source="attribute.integrity.variety.Repurpose" target="action.hacking.variety.SQLi">
      <data key="d5">3</data>
      <data key="d6">backward</data>
      <data key="d7">0.99756097561</data>
      <data key="d8">attribute.integrity.variety.Repurpose-&gt;action.hacking.variety.SQLi</data>
    </edge>
    <edge source="action.hacking.variety.Other" target="attribute.availability.variety.Loss">
      <data key="d5">1</data>
      <data key="d6">forward</data>
      <data key="d7">1.0</data>
      <data key="d8">action.hacking.variety.Other-&gt;attribute.availability.variety.Loss</data>
    </edge>
    <edge source="action.hacking.variety.Other" target="attribute.integrity.variety.Defacement">
      <data key="d5">1</data>
      <data key="d6">forward</data>
      <data key="d7">1.0</data>
      <data key="d8">action.hacking.variety.Other-&gt;attribute.integrity.variety.Defacement</data>
    </edge>
    <edge source="attribute.availability.variety.Obscuration" target="end">
      <data key="d5">1</data>
      <data key="d6">forward</data>
      <data key="d7">1.0</data>
      <data key="d8">attribute.availability.variety.Obscuration-&gt;end</data>
    </edge>
    <edge source="action.misuse.variety.Possession abuse" target="attribute.confidentiality.data.variety.Other">
      <data key="d5">1</data>
      <data key="d6">forward</data>
      <data key="d7">1.0</data>
      <data key="d8">action.misuse.variety.Possession abuse-&gt;attribute.confidentiality.data.variety.Other</data>
    </edge>
    <edge source="action.misuse.variety.Possession abuse" target="attribute.confidentiality.data.variety.Internal">
      <data key="d5">2</data>
      <data key="d6">forward</data>
      <data key="d7">0.998780487805</data>
      <data key="d8">action.misuse.variety.Possession abuse-&gt;attribute.confidentiality.data.variety.Internal</data>
    </edge>
    <edge source="attribute.integrity.variety.Log tampering" target="end">
      <data key="d5">1</data>
      <data key="d6">forward</data>
      <data key="d7">1.0</data>
      <data key="d8">attribute.integrity.variety.Log tampering-&gt;end</data>
    </edge>
    <edge source="action.malware.variety.SQL injection" target="action.social.variety.Phishing">
      <data key="d5">1</data>
      <data key="d6">forward</data>
      <data key="d7">1.0</data>
      <data key="d8">action.malware.variety.SQL injection-&gt;action.social.variety.Phishing</data>
    </edge>
    <edge source="action.malware.variety.SQL injection" target="action.malware.variety.Exploit vuln">
      <data key="d5">2</data>
      <data key="d6">forward</data>
      <data key="d7">0.998780487805</data>
      <data key="d8">action.malware.variety.SQL injection-&gt;action.malware.variety.Exploit vuln</data>
    </edge>
    <edge source="attribute.confidentiality.data.variety.Other" target="end">
      <data key="d5">1</data>
      <data key="d6">forward</data>
      <data key="d7">1.0</data>
      <data key="d8">attribute.confidentiality.data.variety.Other-&gt;end</data>
    </edge>
    <edge source="attribute.confidentiality.data.variety.Other" target="action.misuse.variety.Possession abuse">
      <data key="d5">1</data>
      <data key="d6">backward</data>
      <data key="d7">1.0</data>
      <data key="d8">attribute.confidentiality.data.variety.Other-&gt;action.misuse.variety.Possession abuse</data>
    </edge>
    <edge source="attribute.confidentiality.data.variety.Other" target="action.hacking.variety.Brute force">
      <data key="d5">4</data>
      <data key="d6">backward</data>
      <data key="d7">0.996341463415</data>
      <data key="d8">attribute.confidentiality.data.variety.Other-&gt;action.hacking.variety.Brute force</data>
    </edge>
    <edge source="action.hacking.variety.DoS" target="attribute.availability.variety.Degradation">
      <data key="d5">820</data>
      <data key="d6">forward</data>
      <data key="d7">0.00121951219512</data>
      <data key="d8">action.hacking.variety.DoS-&gt;attribute.availability.variety.Degradation</data>
    </edge>
    <edge source="attribute.confidentiality.data.variety.Credentials" target="end">
      <data key="d5">1</data>
      <data key="d6">forward</data>
      <data key="d7">1.0</data>
      <data key="d8">attribute.confidentiality.data.variety.Credentials-&gt;end</data>
    </edge>
    <edge source="attribute.confidentiality.data.variety.Credentials" target="action.malware.variety.Capture app data">
      <data key="d5">2</data>
      <data key="d6">backward</data>
      <data key="d7">0.998780487805</data>
      <data key="d8">attribute.confidentiality.data.variety.Credentials-&gt;action.malware.variety.Capture app data</data>
    </edge>
    <edge source="attribute.confidentiality.data.variety.Credentials" target="action.hacking.variety.Brute force">
      <data key="d5">8</data>
      <data key="d6">backward</data>
      <data key="d7">0.991463414634</data>
      <data key="d8">attribute.confidentiality.data.variety.Credentials-&gt;action.hacking.variety.Brute force</data>
    </edge>
    <edge source="attribute.integrity.variety.Fraudulent transaction" target="action.social.variety.Pretexting">
      <data key="d5">3</data>
      <data key="d6">backward</data>
      <data key="d7">0.99756097561</data>
      <data key="d8">attribute.integrity.variety.Fraudulent transaction-&gt;action.social.variety.Pretexting</data>
    </edge>
    <edge source="attribute.integrity.variety.Fraudulent transaction" target="end">
      <data key="d5">1</data>
      <data key="d6">forward</data>
      <data key="d7">1.0</data>
      <data key="d8">attribute.integrity.variety.Fraudulent transaction-&gt;end</data>
    </edge>
    <edge source="attribute.integrity.variety.Fraudulent transaction" target="action.social.variety.Phishing">
      <data key="d5">11</data>
      <data key="d6">backward</data>
      <data key="d7">0.987804878049</data>
      <data key="d8">attribute.integrity.variety.Fraudulent transaction-&gt;action.social.variety.Phishing</data>
    </edge>
    <edge source="attribute.integrity.variety.Alter behavior" target="action.social.variety.Pretexting">
      <data key="d5">3</data>
      <data key="d6">backward</data>
      <data key="d7">0.99756097561</data>
      <data key="d8">attribute.integrity.variety.Alter behavior-&gt;action.social.variety.Pretexting</data>
    </edge>
    <edge source="attribute.integrity.variety.Alter behavior" target="action.malware.variety.Ransomware">
      <data key="d5">5</data>
      <data key="d6">backward</data>
      <data key="d7">0.99512195122</data>
      <data key="d8">attribute.integrity.variety.Alter behavior-&gt;action.malware.variety.Ransomware</data>
    </edge>
    <edge source="attribute.integrity.variety.Alter behavior" target="end">
      <data key="d5">1</data>
      <data key="d6">forward</data>
      <data key="d7">1.0</data>
      <data key="d8">attribute.integrity.variety.Alter behavior-&gt;end</data>
    </edge>
    <edge source="attribute.integrity.variety.Alter behavior" target="action.social.variety.Phishing">
      <data key="d5">39</data>
      <data key="d6">backward</data>
      <data key="d7">0.953658536585</data>
      <data key="d8">attribute.integrity.variety.Alter behavior-&gt;action.social.variety.Phishing</data>
    </edge>
    <edge source="attribute.integrity.variety.Alter behavior" target="action.hacking.variety.Use of stolen creds">
      <data key="d5">1</data>
      <data key="d6">backward</data>
      <data key="d7">1.0</data>
      <data key="d8">attribute.integrity.variety.Alter behavior-&gt;action.hacking.variety.Use of stolen creds</data>
    </edge>
    <edge source="attribute.integrity.variety.Alter behavior" target="action.malware.variety.Exploit vuln">
      <data key="d5">7</data>
      <data key="d6">backward</data>
      <data key="d7">0.992682926829</data>
      <data key="d8">attribute.integrity.variety.Alter behavior-&gt;action.malware.variety.Exploit vuln</data>
    </edge>
    <edge source="action.malware.variety.Exploit vuln" target="attribute.integrity.variety.Software installation">
      <data key="d5">9</data>
      <data key="d6">forward</data>
      <data key="d7">0.990243902439</data>
      <data key="d8">action.malware.variety.Exploit vuln-&gt;attribute.integrity.variety.Software installation</data>
    </edge>
    <edge source="action.social.variety.Spam" target="action.social.variety.Phishing">
      <data key="d5">1</data>
      <data key="d6">forward</data>
      <data key="d7">1.0</data>
      <data key="d8">action.social.variety.Spam-&gt;action.social.variety.Phishing</data>
    </edge>
    <edge source="action.malware.variety.DoS" target="attribute.integrity.variety.Software installation">
      <data key="d5">1</data>
      <data key="d6">forward</data>
      <data key="d7">1.0</data>
      <data key="d8">action.malware.variety.DoS-&gt;attribute.integrity.variety.Software installation</data>
    </edge>
    <edge source="action.malware.variety.DoS" target="attribute.integrity.variety.Repurpose">
      <data key="d5">1</data>
      <data key="d6">forward</data>
      <data key="d7">1.0</data>
      <data key="d8">action.malware.variety.DoS-&gt;attribute.integrity.variety.Repurpose</data>
    </edge>
    <edge source="attribute.integrity.variety.Modify privileges" target="end">
      <data key="d5">1</data>
      <data key="d6">forward</data>
      <data key="d7">1.0</data>
      <data key="d8">attribute.integrity.variety.Modify privileges-&gt;end</data>
    </edge>
    <edge source="action.hacking.variety.Use of backdoor or C2" target="action.social.variety.Phishing">
      <data key="d5">16</data>
      <data key="d6">forward</data>
      <data key="d7">0.981707317073</data>
      <data key="d8">action.hacking.variety.Use of backdoor or C2-&gt;action.social.variety.Phishing</data>
    </edge>
    <edge source="action.hacking.variety.Use of backdoor or C2" target="action.hacking.variety.Brute force">
      <data key="d5">1</data>
      <data key="d6">forward</data>
      <data key="d7">1.0</data>
      <data key="d8">action.hacking.variety.Use of backdoor or C2-&gt;action.hacking.variety.Brute force</data>
    </edge>
    <edge source="action.hacking.variety.Use of backdoor or C2" target="action.malware.variety.Capture app data">
      <data key="d5">1</data>
      <data key="d6">forward</data>
      <data key="d7">1.0</data>
      <data key="d8">action.hacking.variety.Use of backdoor or C2-&gt;action.malware.variety.Capture app data</data>
    </edge>
    <edge source="attribute.confidentiality.data.variety.Secrets" target="end">
      <data key="d5">1</data>
      <data key="d6">forward</data>
      <data key="d7">1.0</data>
      <data key="d8">attribute.confidentiality.data.variety.Secrets-&gt;end</data>
    </edge>
    <edge source="attribute.availability.variety.Destruction" target="end">
      <data key="d5">1</data>
      <data key="d6">forward</data>
      <data key="d7">1.0</data>
      <data key="d8">attribute.availability.variety.Destruction-&gt;end</data>
    </edge>
    <edge source="attribute.integrity.variety.Modify configuration" target="action.hacking.variety.Use of stolen creds">
      <data key="d5">1</data>
      <data key="d6">backward</data>
      <data key="d7">1.0</data>
      <data key="d8">attribute.integrity.variety.Modify configuration-&gt;action.hacking.variety.Use of stolen creds</data>
    </edge>
    <edge source="attribute.integrity.variety.Modify configuration" target="end">
      <data key="d5">1</data>
      <data key="d6">forward</data>
      <data key="d7">1.0</data>
      <data key="d8">attribute.integrity.variety.Modify configuration-&gt;end</data>
    </edge>
    <edge source="attribute.availability.variety.Degradation" target="end">
      <data key="d5">1</data>
      <data key="d6">forward</data>
      <data key="d7">1.0</data>
      <data key="d8">attribute.availability.variety.Degradation-&gt;end</data>
    </edge>
    <edge source="attribute.confidentiality.data.variety.Digital certificate" target="end">
      <data key="d5">1</data>
      <data key="d6">forward</data>
      <data key="d7">1.0</data>
      <data key="d8">attribute.confidentiality.data.variety.Digital certificate-&gt;end</data>
    </edge>
    <edge source="action.malware.variety.Brute force" target="action.malware.variety.Exploit vuln">
      <data key="d5">1</data>
      <data key="d6">forward</data>
      <data key="d7">1.0</data>
      <data key="d8">action.malware.variety.Brute force-&gt;action.malware.variety.Exploit vuln</data>
    </edge>
    <edge source="action.malware.variety.C2" target="action.social.variety.Phishing">
      <data key="d5">14</data>
      <data key="d6">forward</data>
      <data key="d7">0.984146341463</data>
      <data key="d8">action.malware.variety.C2-&gt;action.social.variety.Phishing</data>
    </edge>
    <edge source="action.physical.variety.Theft" target="attribute.confidentiality.data.variety.Bank">
      <data key="d5">1</data>
      <data key="d6">forward</data>
      <data key="d7">1.0</data>
      <data key="d8">action.physical.variety.Theft-&gt;attribute.confidentiality.data.variety.Bank</data>
    </edge>
    <edge source="action.physical.variety.Theft" target="attribute.availability.variety.Loss">
      <data key="d5">9</data>
      <data key="d6">forward</data>
      <data key="d7">0.990243902439</data>
      <data key="d8">action.physical.variety.Theft-&gt;attribute.availability.variety.Loss</data>
    </edge>
    <edge source="action.physical.variety.Theft" target="attribute.confidentiality.data.variety.Personal">
      <data key="d5">8</data>
      <data key="d6">forward</data>
      <data key="d7">0.991463414634</data>
      <data key="d8">action.physical.variety.Theft-&gt;attribute.confidentiality.data.variety.Personal</data>
    </edge>
    <edge source="action.physical.variety.Theft" target="attribute.confidentiality.data.variety.Medical">
      <data key="d5">1</data>
      <data key="d6">forward</data>
      <data key="d7">1.0</data>
      <data key="d8">action.physical.variety.Theft-&gt;attribute.confidentiality.data.variety.Medical</data>
    </edge>
    <edge source="attribute.confidentiality.data.variety.Source code" target="end">
      <data key="d5">1</data>
      <data key="d6">forward</data>
      <data key="d7">1.0</data>
      <data key="d8">attribute.confidentiality.data.variety.Source code-&gt;end</data>
    </edge>
    <edge source="attribute.integrity.variety.Modify data" target="end">
      <data key="d5">1</data>
      <data key="d6">forward</data>
      <data key="d7">1.0</data>
      <data key="d8">attribute.integrity.variety.Modify data-&gt;end</data>
    </edge>
  </graph>
</graphml>
