<?xml version='1.0' encoding='utf-8'?>
<gexf xmlns:ns0="http://www.gexf.net/1.1draft/viz" version="1.1" xmlns="http://www.gexf.net/1.1draft" xmlns:viz="http://www.gexf.net/1.1draft/viz" xmlns:xsi="http://www.w3.org/2001/XMLSchema-instance" xsi:schemaLocation="http://www.w3.org/2001/XMLSchema-instance">
  <graph defaultedgetype="directed" mode="static">
    <attributes class="edge" mode="static">
      <attribute id="4" title="count" type="integer" />
      <attribute id="5" title="direction" type="string" />
      <attribute id="6" title="label" type="string" />
    </attributes>
    <attributes class="node" mode="static">
      <attribute id="0" title="count" type="integer" />
      <attribute id="1" title="weight" type="double" />
      <attribute id="2" title="type" type="string" />
      <attribute id="3" title="sub_type" type="string" />
    </attributes>
    <nodes>
      <node id="action.misuse.variety.Unapproved hardware" label="action.misuse.variety.Unapproved hardware">
        <ns0:color b="187" g="148" r="70" />
        <ns0:size value="27.13331" />
        <ns0:position x="150.88069" y="-313.35153" z="0.0" />
        <attvalues>
          <attvalue for="0" value="2" />
          <attvalue for="1" value="0.925925925926" />
          <attvalue for="2" value="action" />
          <attvalue for="3" value="action.misuse" />
        </attvalues>
      </node>
      <node id="action.misuse.variety.Privilege abuse" label="action.misuse.variety.Privilege abuse">
        <ns0:color b="187" g="148" r="70" />
        <ns0:size value="42.294212" />
        <ns0:position x="220.92072" y="-268.6042" z="0.0" />
        <attvalues>
          <attvalue for="0" value="10" />
          <attvalue for="1" value="0.62962962963" />
          <attvalue for="2" value="action" />
          <attvalue for="3" value="action.misuse" />
        </attvalues>
      </node>
      <node id="attribute.confidentiality.data.variety.Internal" label="attribute.confidentiality.data.variety.Internal">
        <ns0:color b="70" g="148" r="187" />
        <ns0:size value="39.94002" />
        <ns0:position x="-265.28528" y="-224.89531" z="0.0" />
        <attvalues>
          <attvalue for="0" value="8" />
          <attvalue for="1" value="0.703703703704" />
          <attvalue for="2" value="attribute" />
          <attvalue for="3" value="attribute.confidentiality" />
        </attvalues>
      </node>
      <node id="action.hacking.variety.SQLi" label="action.hacking.variety.SQLi">
        <ns0:color b="70" g="187" r="148" />
        <ns0:size value="22.551193" />
        <ns0:position x="276.97964" y="210.32465" z="0.0" />
        <attvalues>
          <attvalue for="0" value="1" />
          <attvalue for="1" value="0.962962962963" />
          <attvalue for="2" value="action" />
          <attvalue for="3" value="action.hacking" />
        </attvalues>
      </node>
      <node id="action.social.variety.Phishing" label="action.social.variety.Phishing">
        <ns0:color b="187" g="70" r="70" />
        <ns0:size value="27.13331" />
        <ns0:position x="25.80244" y="-346.8262" z="0.0" />
        <attvalues>
          <attvalue for="0" value="2" />
          <attvalue for="1" value="0.925925925926" />
          <attvalue for="2" value="action" />
          <attvalue for="3" value="action.social" />
        </attvalues>
      </node>
      <node id="action.hacking.variety.RFI" label="action.hacking.variety.RFI">
        <ns0:color b="70" g="187" r="148" />
        <ns0:size value="22.551193" />
        <ns0:position x="241.0333" y="250.71324" z="0.0" />
        <attvalues>
          <attvalue for="0" value="1" />
          <attvalue for="1" value="0.962962962963" />
          <attvalue for="2" value="action" />
          <attvalue for="3" value="action.hacking" />
        </attvalues>
      </node>
      <node id="attribute.integrity.variety.Software installation" label="attribute.integrity.variety.Software installation">
        <ns0:color b="70" g="70" r="187" />
        <ns0:size value="35.122" />
        <ns0:position x="-89.140366" y="336.16687" z="0.0" />
        <attvalues>
          <attvalue for="0" value="5" />
          <attvalue for="1" value="0.814814814815" />
          <attvalue for="2" value="attribute" />
          <attvalue for="3" value="attribute.integrity" />
        </attvalues>
      </node>
      <node id="attribute.confidentiality.data.variety.Payment" label="attribute.confidentiality.data.variety.Payment">
        <ns0:color b="70" g="148" r="187" />
        <ns0:size value="35.122" />
        <ns0:position x="-336.36685" y="-88.38276" z="0.0" />
        <attvalues>
          <attvalue for="0" value="5" />
          <attvalue for="1" value="0.814814814815" />
          <attvalue for="2" value="attribute" />
          <attvalue for="3" value="attribute.confidentiality" />
        </attvalues>
      </node>
      <node id="end" label="end">
        <ns0:color b="187" g="70" r="148" />
        <ns0:size value="10.0" />
        <ns0:position x="-373.28552" y="342.33426" z="0.0" />
        <attvalues>
          <attvalue for="0" value="0" />
          <attvalue for="1" value="1.0" />
          <attvalue for="2" value="end" />
          <attvalue for="3" value="end" />
        </attvalues>
      </node>
      <node id="attribute.integrity.variety.Modify data" label="attribute.integrity.variety.Modify data">
        <ns0:color b="70" g="70" r="187" />
        <ns0:size value="27.13331" />
        <ns0:position x="-245.88487" y="245.95691" z="0.0" />
        <attvalues>
          <attvalue for="0" value="2" />
          <attvalue for="1" value="0.925925925926" />
          <attvalue for="2" value="attribute" />
          <attvalue for="3" value="attribute.integrity" />
        </attvalues>
      </node>
      <node id="attribute.integrity.variety.Modify privileges" label="attribute.integrity.variety.Modify privileges">
        <ns0:color b="70" g="70" r="187" />
        <ns0:size value="22.551193" />
        <ns0:position x="-200.32193" y="284.2979" z="0.0" />
        <attvalues>
          <attvalue for="0" value="1" />
          <attvalue for="1" value="0.962962962963" />
          <attvalue for="2" value="attribute" />
          <attvalue for="3" value="attribute.integrity" />
        </attvalues>
      </node>
      <node id="attribute.confidentiality.data.variety.Personal" label="attribute.confidentiality.data.variety.Personal">
        <ns0:color b="70" g="148" r="187" />
        <ns0:size value="38.54042" />
        <ns0:position x="-347.78333" y="-0.9679389" z="0.0" />
        <attvalues>
          <attvalue for="0" value="7" />
          <attvalue for="1" value="0.740740740741" />
          <attvalue for="2" value="attribute" />
          <attvalue for="3" value="attribute.confidentiality" />
        </attvalues>
      </node>
      <node id="action.malware.variety.Capture stored data" label="action.malware.variety.Capture stored data">
        <ns0:color b="148" g="187" r="70" />
        <ns0:size value="27.13331" />
        <ns0:position x="347.763" y="3.8816948" z="0.0" />
        <attvalues>
          <attvalue for="0" value="2" />
          <attvalue for="1" value="0.925925925926" />
          <attvalue for="2" value="action" />
          <attvalue for="3" value="action.malware" />
        </attvalues>
      </node>
      <node id="start" label="start">
        <ns0:color b="70" g="187" r="70" />
        <ns0:size value="10.0" />
        <ns0:position x="352.26837" y="-352.24368" z="0.0" />
        <attvalues>
          <attvalue for="0" value="0" />
          <attvalue for="1" value="1.0" />
          <attvalue for="2" value="start" />
          <attvalue for="3" value="start" />
        </attvalues>
      </node>
      <node id="action.misuse.variety.Data mishandling" label="action.misuse.variety.Data mishandling">
        <ns0:color b="187" g="148" r="70" />
        <ns0:size value="27.13331" />
        <ns0:position x="278.34354" y="-208.51633" z="0.0" />
        <attvalues>
          <attvalue for="0" value="2" />
          <attvalue for="1" value="0.925925925926" />
          <attvalue for="2" value="action" />
          <attvalue for="3" value="action.misuse" />
        </attvalues>
      </node>
      <node id="action.malware.variety.Downloader" label="action.malware.variety.Downloader">
        <ns0:color b="148" g="187" r="70" />
        <ns0:size value="22.551193" />
        <ns0:position x="343.3275" y="-55.50131" z="0.0" />
        <attvalues>
          <attvalue for="0" value="1" />
          <attvalue for="1" value="0.962962962963" />
          <attvalue for="2" value="action" />
          <attvalue for="3" value="action.malware" />
        </attvalues>
      </node>
      <node id="action.malware.variety.C2" label="action.malware.variety.C2">
        <ns0:color b="148" g="187" r="70" />
        <ns0:size value="22.551193" />
        <ns0:position x="342.0031" y="63.150898" z="0.0" />
        <attvalues>
          <attvalue for="0" value="1" />
          <attvalue for="1" value="0.962962962963" />
          <attvalue for="2" value="action" />
          <attvalue for="3" value="action.malware" />
        </attvalues>
      </node>
      <node id="attribute.confidentiality.data.variety.Medical" label="attribute.confidentiality.data.variety.Medical">
        <ns0:color b="70" g="148" r="187" />
        <ns0:size value="27.13331" />
        <ns0:position x="-309.79684" y="-158.0509" z="0.0" />
        <attvalues>
          <attvalue for="0" value="2" />
          <attvalue for="1" value="0.925925925926" />
          <attvalue for="2" value="attribute" />
          <attvalue for="3" value="attribute.confidentiality" />
        </attvalues>
      </node>
      <node id="action.malware.variety.Spyware/Keylogger" label="action.malware.variety.Spyware/Keylogger">
        <ns0:color b="148" g="187" r="70" />
        <ns0:size value="22.551193" />
        <ns0:position x="309.83496" y="-157.9762" z="0.0" />
        <attvalues>
          <attvalue for="0" value="1" />
          <attvalue for="1" value="0.962962962963" />
          <attvalue for="2" value="action" />
          <attvalue for="3" value="action.malware" />
        </attvalues>
      </node>
      <node id="attribute.integrity.variety.Repurpose" label="attribute.integrity.variety.Repurpose">
        <ns0:color b="70" g="70" r="187" />
        <ns0:size value="22.551193" />
        <ns0:position x="-153.83653" y="311.91104" z="0.0" />
        <attvalues>
          <attvalue for="0" value="1" />
          <attvalue for="1" value="0.962962962963" />
          <attvalue for="2" value="attribute" />
          <attvalue for="3" value="attribute.integrity" />
        </attvalues>
      </node>
      <node id="action.misuse.variety.Unapproved software" label="action.misuse.variety.Unapproved software">
        <ns0:color b="187" g="148" r="70" />
        <ns0:size value="27.13331" />
        <ns0:position x="89.913124" y="-335.96103" z="0.0" />
        <attvalues>
          <attvalue for="0" value="2" />
          <attvalue for="1" value="0.925925925926" />
          <attvalue for="2" value="action" />
          <attvalue for="3" value="action.misuse" />
        </attvalues>
      </node>
      <node id="action.malware.variety.Ram scraper" label="action.malware.variety.Ram scraper">
        <ns0:color b="148" g="187" r="70" />
        <ns0:size value="22.551193" />
        <ns0:position x="330.5761" y="-108.044426" z="0.0" />
        <attvalues>
          <attvalue for="0" value="1" />
          <attvalue for="1" value="0.962962962963" />
          <attvalue for="2" value="action" />
          <attvalue for="3" value="action.malware" />
        </attvalues>
      </node>
      <node id="action.hacking.variety.DoS" label="action.hacking.variety.DoS">
        <ns0:color b="70" g="187" r="148" />
        <ns0:size value="50.0" />
        <ns0:position x="122.43833" y="325.51962" z="0.0" />
        <attvalues>
          <attvalue for="0" value="26" />
          <attvalue for="1" value="0.037037037037" />
          <attvalue for="2" value="action" />
          <attvalue for="3" value="action.hacking" />
        </attvalues>
      </node>
      <node id="attribute.confidentiality.data.variety.Credentials" label="attribute.confidentiality.data.variety.Credentials">
        <ns0:color b="70" g="148" r="187" />
        <ns0:size value="30.398735" />
        <ns0:position x="-203.46332" y="-282.05826" z="0.0" />
        <attvalues>
          <attvalue for="0" value="3" />
          <attvalue for="1" value="0.888888888889" />
          <attvalue for="2" value="attribute" />
          <attvalue for="3" value="attribute.confidentiality" />
        </attvalues>
      </node>
      <node id="attribute.integrity.variety.Alter behavior" label="attribute.integrity.variety.Alter behavior">
        <ns0:color b="70" g="70" r="187" />
        <ns0:size value="27.13331" />
        <ns0:position x="-339.1099" y="77.19226" z="0.0" />
        <attvalues>
          <attvalue for="0" value="2" />
          <attvalue for="1" value="0.925925925926" />
          <attvalue for="2" value="attribute" />
          <attvalue for="3" value="attribute.integrity" />
        </attvalues>
      </node>
      <node id="action.hacking.variety.Brute force" label="action.hacking.variety.Brute force">
        <ns0:color b="70" g="187" r="148" />
        <ns0:size value="27.13331" />
        <ns0:position x="32.51243" y="346.26163" z="0.0" />
        <attvalues>
          <attvalue for="0" value="2" />
          <attvalue for="1" value="0.925925925926" />
          <attvalue for="2" value="action" />
          <attvalue for="3" value="action.hacking" />
        </attvalues>
      </node>
      <node id="attribute.integrity.variety.Misrepresentation" label="attribute.integrity.variety.Misrepresentation">
        <ns0:color b="70" g="70" r="187" />
        <ns0:size value="27.13331" />
        <ns0:position x="-287.372" y="195.88646" z="0.0" />
        <attvalues>
          <attvalue for="0" value="2" />
          <attvalue for="1" value="0.925925925926" />
          <attvalue for="2" value="attribute" />
          <attvalue for="3" value="attribute.integrity" />
        </attvalues>
      </node>
      <node id="action.hacking.variety.Use of backdoor or C2" label="action.hacking.variety.Use of backdoor or C2">
        <ns0:color b="70" g="187" r="148" />
        <ns0:size value="22.551193" />
        <ns0:position x="306.23157" y="164.85266" z="0.0" />
        <attvalues>
          <attvalue for="0" value="1" />
          <attvalue for="1" value="0.962962962963" />
          <attvalue for="2" value="action" />
          <attvalue for="3" value="action.hacking" />
        </attvalues>
      </node>
      <node id="action.hacking.variety.Forced browsing" label="action.hacking.variety.Forced browsing">
        <ns0:color b="70" g="187" r="148" />
        <ns0:size value="22.551193" />
        <ns0:position x="199.26134" y="285.04227" z="0.0" />
        <attvalues>
          <attvalue for="0" value="1" />
          <attvalue for="1" value="0.962962962963" />
          <attvalue for="2" value="action" />
          <attvalue for="3" value="action.hacking" />
        </attvalues>
      </node>
      <node id="attribute.integrity.variety.Fraudulent transaction" label="attribute.integrity.variety.Fraudulent transaction">
        <ns0:color b="70" g="70" r="187" />
        <ns0:size value="27.13331" />
        <ns0:position x="-318.8134" y="138.96834" z="0.0" />
        <attvalues>
          <attvalue for="0" value="2" />
          <attvalue for="1" value="0.925925925926" />
          <attvalue for="2" value="attribute" />
          <attvalue for="3" value="attribute.integrity" />
        </attvalues>
      </node>
      <node id="attribute.availability.variety.Destruction" label="attribute.availability.variety.Destruction">
        <ns0:color b="148" g="70" r="187" />
        <ns0:size value="22.551193" />
        <ns0:position x="-148.8315" y="-314.33002" z="0.0" />
        <attvalues>
          <attvalue for="0" value="1" />
          <attvalue for="1" value="0.962962962963" />
          <attvalue for="2" value="attribute" />
          <attvalue for="3" value="attribute.availability" />
        </attvalues>
      </node>
      <node id="attribute.availability.variety.Degradation" label="attribute.availability.variety.Degradation">
        <ns0:color b="148" g="70" r="187" />
        <ns0:size value="50.0" />
        <ns0:position x="-66.32504" y="-341.40176" z="0.0" />
        <attvalues>
          <attvalue for="0" value="26" />
          <attvalue for="1" value="0.037037037037" />
          <attvalue for="2" value="attribute" />
          <attvalue for="3" value="attribute.availability" />
        </attvalues>
      </node>
      <node id="action.malware.variety.Backdoor" label="action.malware.variety.Backdoor">
        <ns0:color b="148" g="187" r="70" />
        <ns0:size value="22.551193" />
        <ns0:position x="328.0821" y="115.3963" z="0.0" />
        <attvalues>
          <attvalue for="0" value="1" />
          <attvalue for="1" value="0.962962962963" />
          <attvalue for="2" value="action" />
          <attvalue for="3" value="action.malware" />
        </attvalues>
      </node>
    </nodes>
    <edges>
      <edge id="0" source="action.misuse.variety.Unapproved hardware" target="action.misuse.variety.Privilege abuse" weight="1.0">
        <attvalues>
          <attvalue for="4" value="1" />
          <attvalue for="5" value="forward" />
          <attvalue for="6" value="action.misuse.variety.Unapproved hardware-&gt;action.misuse.variety.Privilege abuse" />
        </attvalues>
      </edge>
      <edge id="1" source="action.misuse.variety.Privilege abuse" target="attribute.confidentiality.data.variety.Personal" weight="0.88">
        <attvalues>
          <attvalue for="4" value="4" />
          <attvalue for="5" value="forward" />
          <attvalue for="6" value="action.misuse.variety.Privilege abuse-&gt;attribute.confidentiality.data.variety.Personal" />
        </attvalues>
      </edge>
      <edge id="2" source="action.misuse.variety.Privilege abuse" target="attribute.confidentiality.data.variety.Internal" weight="0.76">
        <attvalues>
          <attvalue for="4" value="7" />
          <attvalue for="5" value="forward" />
          <attvalue for="6" value="action.misuse.variety.Privilege abuse-&gt;attribute.confidentiality.data.variety.Internal" />
        </attvalues>
      </edge>
      <edge id="3" source="attribute.confidentiality.data.variety.Internal" target="action.misuse.variety.Privilege abuse" weight="0.96">
        <attvalues>
          <attvalue for="4" value="2" />
          <attvalue for="5" value="backward" />
          <attvalue for="6" value="attribute.confidentiality.data.variety.Internal-&gt;action.misuse.variety.Privilege abuse" />
        </attvalues>
      </edge>
      <edge id="4" source="attribute.confidentiality.data.variety.Internal" target="end" weight="1.0">
        <attvalues>
          <attvalue for="4" value="1" />
          <attvalue for="5" value="forward" />
          <attvalue for="6" value="attribute.confidentiality.data.variety.Internal-&gt;end" />
        </attvalues>
      </edge>
      <edge id="5" source="action.social.variety.Phishing" target="attribute.confidentiality.data.variety.Medical" weight="1.0">
        <attvalues>
          <attvalue for="4" value="1" />
          <attvalue for="5" value="forward" />
          <attvalue for="6" value="action.social.variety.Phishing-&gt;attribute.confidentiality.data.variety.Medical" />
        </attvalues>
      </edge>
      <edge id="6" source="action.social.variety.Phishing" target="attribute.integrity.variety.Alter behavior" weight="1.0">
        <attvalues>
          <attvalue for="4" value="1" />
          <attvalue for="5" value="forward" />
          <attvalue for="6" value="action.social.variety.Phishing-&gt;attribute.integrity.variety.Alter behavior" />
        </attvalues>
      </edge>
      <edge id="7" source="attribute.integrity.variety.Software installation" target="end" weight="1.0">
        <attvalues>
          <attvalue for="4" value="1" />
          <attvalue for="5" value="forward" />
          <attvalue for="6" value="attribute.integrity.variety.Software installation-&gt;end" />
        </attvalues>
      </edge>
      <edge id="8" source="attribute.integrity.variety.Software installation" target="action.malware.variety.Capture stored data" weight="0.8">
        <attvalues>
          <attvalue for="4" value="6" />
          <attvalue for="5" value="backward" />
          <attvalue for="6" value="attribute.integrity.variety.Software installation-&gt;action.malware.variety.Capture stored data" />
        </attvalues>
      </edge>
      <edge id="9" source="attribute.integrity.variety.Software installation" target="action.hacking.variety.Brute force" weight="1.0">
        <attvalues>
          <attvalue for="4" value="1" />
          <attvalue for="5" value="backward" />
          <attvalue for="6" value="attribute.integrity.variety.Software installation-&gt;action.hacking.variety.Brute force" />
        </attvalues>
      </edge>
      <edge id="10" source="attribute.confidentiality.data.variety.Payment" target="end" weight="1.0">
        <attvalues>
          <attvalue for="4" value="1" />
          <attvalue for="5" value="forward" />
          <attvalue for="6" value="attribute.confidentiality.data.variety.Payment-&gt;end" />
        </attvalues>
      </edge>
      <edge id="11" source="attribute.confidentiality.data.variety.Payment" target="action.malware.variety.Capture stored data" weight="0.8">
        <attvalues>
          <attvalue for="4" value="6" />
          <attvalue for="5" value="backward" />
          <attvalue for="6" value="attribute.confidentiality.data.variety.Payment-&gt;action.malware.variety.Capture stored data" />
        </attvalues>
      </edge>
      <edge id="12" source="attribute.integrity.variety.Modify data" target="end" weight="1.0">
        <attvalues>
          <attvalue for="4" value="1" />
          <attvalue for="5" value="forward" />
          <attvalue for="6" value="attribute.integrity.variety.Modify data-&gt;end" />
        </attvalues>
      </edge>
      <edge id="13" source="attribute.integrity.variety.Modify data" target="action.malware.variety.Capture stored data" weight="0.8">
        <attvalues>
          <attvalue for="4" value="6" />
          <attvalue for="5" value="backward" />
          <attvalue for="6" value="attribute.integrity.variety.Modify data-&gt;action.malware.variety.Capture stored data" />
        </attvalues>
      </edge>
      <edge id="14" source="attribute.integrity.variety.Modify privileges" target="end" weight="1.0">
        <attvalues>
          <attvalue for="4" value="1" />
          <attvalue for="5" value="forward" />
          <attvalue for="6" value="attribute.integrity.variety.Modify privileges-&gt;end" />
        </attvalues>
      </edge>
      <edge id="15" source="attribute.confidentiality.data.variety.Personal" target="action.misuse.variety.Privilege abuse" weight="0.96">
        <attvalues>
          <attvalue for="4" value="2" />
          <attvalue for="5" value="backward" />
          <attvalue for="6" value="attribute.confidentiality.data.variety.Personal-&gt;action.misuse.variety.Privilege abuse" />
        </attvalues>
      </edge>
      <edge id="16" source="attribute.confidentiality.data.variety.Personal" target="end" weight="1.0">
        <attvalues>
          <attvalue for="4" value="1" />
          <attvalue for="5" value="forward" />
          <attvalue for="6" value="attribute.confidentiality.data.variety.Personal-&gt;end" />
        </attvalues>
      </edge>
      <edge id="17" source="attribute.confidentiality.data.variety.Personal" target="action.malware.variety.Capture stored data" weight="0.8">
        <attvalues>
          <attvalue for="4" value="6" />
          <attvalue for="5" value="backward" />
          <attvalue for="6" value="attribute.confidentiality.data.variety.Personal-&gt;action.malware.variety.Capture stored data" />
        </attvalues>
      </edge>
      <edge id="18" source="action.malware.variety.Capture stored data" target="attribute.confidentiality.data.variety.Payment" weight="1.0">
        <attvalues>
          <attvalue for="4" value="1" />
          <attvalue for="5" value="forward" />
          <attvalue for="6" value="action.malware.variety.Capture stored data-&gt;attribute.confidentiality.data.variety.Payment" />
        </attvalues>
      </edge>
      <edge id="19" source="action.malware.variety.Capture stored data" target="attribute.integrity.variety.Fraudulent transaction" weight="1.0">
        <attvalues>
          <attvalue for="4" value="1" />
          <attvalue for="5" value="forward" />
          <attvalue for="6" value="action.malware.variety.Capture stored data-&gt;attribute.integrity.variety.Fraudulent transaction" />
        </attvalues>
      </edge>
      <edge id="20" source="action.malware.variety.Capture stored data" target="attribute.integrity.variety.Modify data" weight="1.0">
        <attvalues>
          <attvalue for="4" value="1" />
          <attvalue for="5" value="forward" />
          <attvalue for="6" value="action.malware.variety.Capture stored data-&gt;attribute.integrity.variety.Modify data" />
        </attvalues>
      </edge>
      <edge id="21" source="action.malware.variety.Capture stored data" target="attribute.confidentiality.data.variety.Personal" weight="1.0">
        <attvalues>
          <attvalue for="4" value="1" />
          <attvalue for="5" value="forward" />
          <attvalue for="6" value="action.malware.variety.Capture stored data-&gt;attribute.confidentiality.data.variety.Personal" />
        </attvalues>
      </edge>
      <edge id="22" source="action.malware.variety.Capture stored data" target="attribute.confidentiality.data.variety.Credentials" weight="1.0">
        <attvalues>
          <attvalue for="4" value="1" />
          <attvalue for="5" value="forward" />
          <attvalue for="6" value="action.malware.variety.Capture stored data-&gt;attribute.confidentiality.data.variety.Credentials" />
        </attvalues>
      </edge>
      <edge id="23" source="action.malware.variety.Capture stored data" target="attribute.integrity.variety.Software installation" weight="1.0">
        <attvalues>
          <attvalue for="4" value="1" />
          <attvalue for="5" value="forward" />
          <attvalue for="6" value="action.malware.variety.Capture stored data-&gt;attribute.integrity.variety.Software installation" />
        </attvalues>
      </edge>
      <edge id="24" source="action.malware.variety.Capture stored data" target="attribute.integrity.variety.Misrepresentation" weight="1.0">
        <attvalues>
          <attvalue for="4" value="1" />
          <attvalue for="5" value="forward" />
          <attvalue for="6" value="action.malware.variety.Capture stored data-&gt;attribute.integrity.variety.Misrepresentation" />
        </attvalues>
      </edge>
      <edge id="25" source="start" target="action.hacking.variety.SQLi" weight="1.0">
        <attvalues>
          <attvalue for="4" value="1" />
          <attvalue for="5" value="forward" />
          <attvalue for="6" value="start-&gt;action.hacking.variety.SQLi" />
        </attvalues>
      </edge>
      <edge id="26" source="start" target="action.misuse.variety.Unapproved hardware" weight="1.0">
        <attvalues>
          <attvalue for="4" value="1" />
          <attvalue for="5" value="forward" />
          <attvalue for="6" value="start-&gt;action.misuse.variety.Unapproved hardware" />
        </attvalues>
      </edge>
      <edge id="27" source="start" target="action.misuse.variety.Privilege abuse" weight="1.0">
        <attvalues>
          <attvalue for="4" value="1" />
          <attvalue for="5" value="forward" />
          <attvalue for="6" value="start-&gt;action.misuse.variety.Privilege abuse" />
        </attvalues>
      </edge>
      <edge id="28" source="start" target="action.hacking.variety.Brute force" weight="1.0">
        <attvalues>
          <attvalue for="4" value="1" />
          <attvalue for="5" value="forward" />
          <attvalue for="6" value="start-&gt;action.hacking.variety.Brute force" />
        </attvalues>
      </edge>
      <edge id="29" source="start" target="action.misuse.variety.Unapproved software" weight="1.0">
        <attvalues>
          <attvalue for="4" value="1" />
          <attvalue for="5" value="forward" />
          <attvalue for="6" value="start-&gt;action.misuse.variety.Unapproved software" />
        </attvalues>
      </edge>
      <edge id="30" source="start" target="action.malware.variety.Backdoor" weight="1.0">
        <attvalues>
          <attvalue for="4" value="1" />
          <attvalue for="5" value="forward" />
          <attvalue for="6" value="start-&gt;action.malware.variety.Backdoor" />
        </attvalues>
      </edge>
      <edge id="31" source="start" target="action.social.variety.Phishing" weight="1.0">
        <attvalues>
          <attvalue for="4" value="1" />
          <attvalue for="5" value="forward" />
          <attvalue for="6" value="start-&gt;action.social.variety.Phishing" />
        </attvalues>
      </edge>
      <edge id="32" source="start" target="action.malware.variety.Capture stored data" weight="1.0">
        <attvalues>
          <attvalue for="4" value="1" />
          <attvalue for="5" value="forward" />
          <attvalue for="6" value="start-&gt;action.malware.variety.Capture stored data" />
        </attvalues>
      </edge>
      <edge id="33" source="start" target="action.malware.variety.Ram scraper" weight="1.0">
        <attvalues>
          <attvalue for="4" value="1" />
          <attvalue for="5" value="forward" />
          <attvalue for="6" value="start-&gt;action.malware.variety.Ram scraper" />
        </attvalues>
      </edge>
      <edge id="34" source="start" target="action.hacking.variety.RFI" weight="1.0">
        <attvalues>
          <attvalue for="4" value="1" />
          <attvalue for="5" value="forward" />
          <attvalue for="6" value="start-&gt;action.hacking.variety.RFI" />
        </attvalues>
      </edge>
      <edge id="35" source="start" target="action.hacking.variety.DoS" weight="1.0">
        <attvalues>
          <attvalue for="4" value="1" />
          <attvalue for="5" value="forward" />
          <attvalue for="6" value="start-&gt;action.hacking.variety.DoS" />
        </attvalues>
      </edge>
      <edge id="36" source="start" target="action.misuse.variety.Data mishandling" weight="1.0">
        <attvalues>
          <attvalue for="4" value="1" />
          <attvalue for="5" value="forward" />
          <attvalue for="6" value="start-&gt;action.misuse.variety.Data mishandling" />
        </attvalues>
      </edge>
      <edge id="37" source="start" target="action.malware.variety.Spyware/Keylogger" weight="1.0">
        <attvalues>
          <attvalue for="4" value="1" />
          <attvalue for="5" value="forward" />
          <attvalue for="6" value="start-&gt;action.malware.variety.Spyware/Keylogger" />
        </attvalues>
      </edge>
      <edge id="38" source="start" target="action.malware.variety.Downloader" weight="1.0">
        <attvalues>
          <attvalue for="4" value="1" />
          <attvalue for="5" value="forward" />
          <attvalue for="6" value="start-&gt;action.malware.variety.Downloader" />
        </attvalues>
      </edge>
      <edge id="39" source="start" target="action.malware.variety.C2" weight="1.0">
        <attvalues>
          <attvalue for="4" value="1" />
          <attvalue for="5" value="forward" />
          <attvalue for="6" value="start-&gt;action.malware.variety.C2" />
        </attvalues>
      </edge>
      <edge id="40" source="start" target="action.hacking.variety.Use of backdoor or C2" weight="1.0">
        <attvalues>
          <attvalue for="4" value="1" />
          <attvalue for="5" value="forward" />
          <attvalue for="6" value="start-&gt;action.hacking.variety.Use of backdoor or C2" />
        </attvalues>
      </edge>
      <edge id="41" source="start" target="action.hacking.variety.Forced browsing" weight="1.0">
        <attvalues>
          <attvalue for="4" value="1" />
          <attvalue for="5" value="forward" />
          <attvalue for="6" value="start-&gt;action.hacking.variety.Forced browsing" />
        </attvalues>
      </edge>
      <edge id="42" source="action.misuse.variety.Data mishandling" target="action.misuse.variety.Privilege abuse" weight="1.0">
        <attvalues>
          <attvalue for="4" value="1" />
          <attvalue for="5" value="forward" />
          <attvalue for="6" value="action.misuse.variety.Data mishandling-&gt;action.misuse.variety.Privilege abuse" />
        </attvalues>
      </edge>
      <edge id="43" source="attribute.confidentiality.data.variety.Medical" target="end" weight="1.0">
        <attvalues>
          <attvalue for="4" value="1" />
          <attvalue for="5" value="forward" />
          <attvalue for="6" value="attribute.confidentiality.data.variety.Medical-&gt;end" />
        </attvalues>
      </edge>
      <edge id="44" source="attribute.confidentiality.data.variety.Medical" target="action.social.variety.Phishing" weight="1.0">
        <attvalues>
          <attvalue for="4" value="1" />
          <attvalue for="5" value="backward" />
          <attvalue for="6" value="attribute.confidentiality.data.variety.Medical-&gt;action.social.variety.Phishing" />
        </attvalues>
      </edge>
      <edge id="45" source="attribute.integrity.variety.Repurpose" target="end" weight="1.0">
        <attvalues>
          <attvalue for="4" value="1" />
          <attvalue for="5" value="forward" />
          <attvalue for="6" value="attribute.integrity.variety.Repurpose-&gt;end" />
        </attvalues>
      </edge>
      <edge id="46" source="action.misuse.variety.Unapproved software" target="action.misuse.variety.Privilege abuse" weight="1.0">
        <attvalues>
          <attvalue for="4" value="1" />
          <attvalue for="5" value="forward" />
          <attvalue for="6" value="action.misuse.variety.Unapproved software-&gt;action.misuse.variety.Privilege abuse" />
        </attvalues>
      </edge>
      <edge id="47" source="action.hacking.variety.DoS" target="attribute.availability.variety.Degradation" weight="0.04">
        <attvalues>
          <attvalue for="4" value="25" />
          <attvalue for="5" value="forward" />
          <attvalue for="6" value="action.hacking.variety.DoS-&gt;attribute.availability.variety.Degradation" />
        </attvalues>
      </edge>
      <edge id="48" source="attribute.confidentiality.data.variety.Credentials" target="end" weight="1.0">
        <attvalues>
          <attvalue for="4" value="1" />
          <attvalue for="5" value="forward" />
          <attvalue for="6" value="attribute.confidentiality.data.variety.Credentials-&gt;end" />
        </attvalues>
      </edge>
      <edge id="49" source="attribute.confidentiality.data.variety.Credentials" target="action.malware.variety.Capture stored data" weight="0.8">
        <attvalues>
          <attvalue for="4" value="6" />
          <attvalue for="5" value="backward" />
          <attvalue for="6" value="attribute.confidentiality.data.variety.Credentials-&gt;action.malware.variety.Capture stored data" />
        </attvalues>
      </edge>
      <edge id="50" source="attribute.confidentiality.data.variety.Credentials" target="action.hacking.variety.Brute force" weight="1.0">
        <attvalues>
          <attvalue for="4" value="1" />
          <attvalue for="5" value="backward" />
          <attvalue for="6" value="attribute.confidentiality.data.variety.Credentials-&gt;action.hacking.variety.Brute force" />
        </attvalues>
      </edge>
      <edge id="51" source="attribute.integrity.variety.Alter behavior" target="end" weight="1.0">
        <attvalues>
          <attvalue for="4" value="1" />
          <attvalue for="5" value="forward" />
          <attvalue for="6" value="attribute.integrity.variety.Alter behavior-&gt;end" />
        </attvalues>
      </edge>
      <edge id="52" source="attribute.integrity.variety.Alter behavior" target="action.social.variety.Phishing" weight="1.0">
        <attvalues>
          <attvalue for="4" value="1" />
          <attvalue for="5" value="backward" />
          <attvalue for="6" value="attribute.integrity.variety.Alter behavior-&gt;action.social.variety.Phishing" />
        </attvalues>
      </edge>
      <edge id="53" source="action.hacking.variety.Brute force" target="attribute.confidentiality.data.variety.Credentials" weight="1.0">
        <attvalues>
          <attvalue for="4" value="1" />
          <attvalue for="5" value="forward" />
          <attvalue for="6" value="action.hacking.variety.Brute force-&gt;attribute.confidentiality.data.variety.Credentials" />
        </attvalues>
      </edge>
      <edge id="54" source="action.hacking.variety.Brute force" target="attribute.integrity.variety.Software installation" weight="1.0">
        <attvalues>
          <attvalue for="4" value="1" />
          <attvalue for="5" value="forward" />
          <attvalue for="6" value="action.hacking.variety.Brute force-&gt;attribute.integrity.variety.Software installation" />
        </attvalues>
      </edge>
      <edge id="55" source="attribute.integrity.variety.Misrepresentation" target="end" weight="1.0">
        <attvalues>
          <attvalue for="4" value="1" />
          <attvalue for="5" value="forward" />
          <attvalue for="6" value="attribute.integrity.variety.Misrepresentation-&gt;end" />
        </attvalues>
      </edge>
      <edge id="56" source="attribute.integrity.variety.Misrepresentation" target="action.malware.variety.Capture stored data" weight="0.8">
        <attvalues>
          <attvalue for="4" value="6" />
          <attvalue for="5" value="backward" />
          <attvalue for="6" value="attribute.integrity.variety.Misrepresentation-&gt;action.malware.variety.Capture stored data" />
        </attvalues>
      </edge>
      <edge id="57" source="attribute.integrity.variety.Fraudulent transaction" target="end" weight="1.0">
        <attvalues>
          <attvalue for="4" value="1" />
          <attvalue for="5" value="forward" />
          <attvalue for="6" value="attribute.integrity.variety.Fraudulent transaction-&gt;end" />
        </attvalues>
      </edge>
      <edge id="58" source="attribute.integrity.variety.Fraudulent transaction" target="action.malware.variety.Capture stored data" weight="0.8">
        <attvalues>
          <attvalue for="4" value="6" />
          <attvalue for="5" value="backward" />
          <attvalue for="6" value="attribute.integrity.variety.Fraudulent transaction-&gt;action.malware.variety.Capture stored data" />
        </attvalues>
      </edge>
      <edge id="59" source="attribute.availability.variety.Destruction" target="end" weight="1.0">
        <attvalues>
          <attvalue for="4" value="1" />
          <attvalue for="5" value="forward" />
          <attvalue for="6" value="attribute.availability.variety.Destruction-&gt;end" />
        </attvalues>
      </edge>
      <edge id="60" source="attribute.availability.variety.Degradation" target="end" weight="1.0">
        <attvalues>
          <attvalue for="4" value="1" />
          <attvalue for="5" value="forward" />
          <attvalue for="6" value="attribute.availability.variety.Degradation-&gt;end" />
        </attvalues>
      </edge>
    </edges>
  </graph>
</gexf>
