<?xml version='1.0' encoding='utf-8'?>
<graphml xmlns="http://graphml.graphdrawing.org/xmlns" xmlns:xsi="http://www.w3.org/2001/XMLSchema-instance" xsi:schemaLocation="http://graphml.graphdrawing.org/xmlns http://graphml.graphdrawing.org/xmlns/1.0/graphml.xsd">
  <key attr.name="Label" attr.type="string" for="edge" id="d8" />
  <key attr.name="weight" attr.type="double" for="edge" id="d7" />
  <key attr.name="direction" attr.type="string" for="edge" id="d6" />
  <key attr.name="count" attr.type="int" for="edge" id="d5" />
  <key attr.name="Label" attr.type="string" for="node" id="d4" />
  <key attr.name="weight" attr.type="double" for="node" id="d3" />
  <key attr.name="sub_type" attr.type="string" for="node" id="d2" />
  <key attr.name="type" attr.type="string" for="node" id="d1" />
  <key attr.name="count" attr.type="int" for="node" id="d0" />
  <graph edgedefault="directed">
    <node id="action.malware.variety.Destroy data">
      <data key="d0">2</data>
      <data key="d1">action</data>
      <data key="d2">action.malware</data>
      <data key="d3">0.99043062201</data>
      <data key="d4">action.malware.variety.Destroy data</data>
    </node>
    <node id="action.malware.variety.Client-side attack">
      <data key="d0">2</data>
      <data key="d1">action</data>
      <data key="d2">action.malware</data>
      <data key="d3">0.99043062201</data>
      <data key="d4">action.malware.variety.Client-side attack</data>
    </node>
    <node id="action.misuse.variety.Privilege abuse">
      <data key="d0">1</data>
      <data key="d1">action</data>
      <data key="d2">action.misuse</data>
      <data key="d3">0.995215311005</data>
      <data key="d4">action.misuse.variety.Privilege abuse</data>
    </node>
    <node id="action.malware.variety.Exploit vuln">
      <data key="d0">3</data>
      <data key="d1">action</data>
      <data key="d2">action.malware</data>
      <data key="d3">0.985645933014</data>
      <data key="d4">action.malware.variety.Exploit vuln</data>
    </node>
    <node id="attribute.confidentiality.data.variety.Internal">
      <data key="d0">1</data>
      <data key="d1">attribute</data>
      <data key="d2">attribute.confidentiality</data>
      <data key="d3">0.995215311005</data>
      <data key="d4">attribute.confidentiality.data.variety.Internal</data>
    </node>
    <node id="attribute.confidentiality.data.variety.Medical">
      <data key="d0">8</data>
      <data key="d1">attribute</data>
      <data key="d2">attribute.confidentiality</data>
      <data key="d3">0.961722488038</data>
      <data key="d4">attribute.confidentiality.data.variety.Medical</data>
    </node>
    <node id="action.social.variety.Phishing">
      <data key="d0">9</data>
      <data key="d1">action</data>
      <data key="d2">action.social</data>
      <data key="d3">0.956937799043</data>
      <data key="d4">action.social.variety.Phishing</data>
    </node>
    <node id="action.malware.variety.Click fraud">
      <data key="d0">2</data>
      <data key="d1">action</data>
      <data key="d2">action.malware</data>
      <data key="d3">0.99043062201</data>
      <data key="d4">action.malware.variety.Click fraud</data>
    </node>
    <node id="attribute.confidentiality.data.variety.System">
      <data key="d0">1</data>
      <data key="d1">attribute</data>
      <data key="d2">attribute.confidentiality</data>
      <data key="d3">0.995215311005</data>
      <data key="d4">attribute.confidentiality.data.variety.System</data>
    </node>
    <node id="action.hacking.variety.Use of stolen creds">
      <data key="d0">9</data>
      <data key="d1">action</data>
      <data key="d2">action.hacking</data>
      <data key="d3">0.956937799043</data>
      <data key="d4">action.hacking.variety.Use of stolen creds</data>
    </node>
    <node id="action.malware.variety.Password dumper">
      <data key="d0">3</data>
      <data key="d1">action</data>
      <data key="d2">action.malware</data>
      <data key="d3">0.985645933014</data>
      <data key="d4">action.malware.variety.Password dumper</data>
    </node>
    <node id="action.malware.variety.Export data">
      <data key="d0">3</data>
      <data key="d1">action</data>
      <data key="d2">action.malware</data>
      <data key="d3">0.985645933014</data>
      <data key="d4">action.malware.variety.Export data</data>
    </node>
    <node id="attribute.integrity.variety.Software installation">
      <data key="d0">15</data>
      <data key="d1">attribute</data>
      <data key="d2">attribute.integrity</data>
      <data key="d3">0.928229665072</data>
      <data key="d4">attribute.integrity.variety.Software installation</data>
    </node>
    <node id="action.malware.variety.Capture app data">
      <data key="d0">2</data>
      <data key="d1">action</data>
      <data key="d2">action.malware</data>
      <data key="d3">0.99043062201</data>
      <data key="d4">action.malware.variety.Capture app data</data>
    </node>
    <node id="action.malware.variety.Rootkit">
      <data key="d0">2</data>
      <data key="d1">action</data>
      <data key="d2">action.malware</data>
      <data key="d3">0.99043062201</data>
      <data key="d4">action.malware.variety.Rootkit</data>
    </node>
    <node id="attribute.availability.variety.Loss">
      <data key="d0">9</data>
      <data key="d1">attribute</data>
      <data key="d2">attribute.availability</data>
      <data key="d3">0.956937799043</data>
      <data key="d4">attribute.availability.variety.Loss</data>
    </node>
    <node id="end">
      <data key="d0">0</data>
      <data key="d1">end</data>
      <data key="d2">end</data>
      <data key="d3">1.0</data>
      <data key="d4">end</data>
    </node>
    <node id="attribute.integrity.variety.Modify data">
      <data key="d0">3</data>
      <data key="d1">attribute</data>
      <data key="d2">attribute.integrity</data>
      <data key="d3">0.985645933014</data>
      <data key="d4">attribute.integrity.variety.Modify data</data>
    </node>
    <node id="action.malware.variety.Backdoor">
      <data key="d0">5</data>
      <data key="d1">action</data>
      <data key="d2">action.malware</data>
      <data key="d3">0.976076555024</data>
      <data key="d4">action.malware.variety.Backdoor</data>
    </node>
    <node id="attribute.confidentiality.data.variety.Bank">
      <data key="d0">4</data>
      <data key="d1">attribute</data>
      <data key="d2">attribute.confidentiality</data>
      <data key="d3">0.980861244019</data>
      <data key="d4">attribute.confidentiality.data.variety.Bank</data>
    </node>
    <node id="action.malware.variety.SQL injection">
      <data key="d0">2</data>
      <data key="d1">action</data>
      <data key="d2">action.malware</data>
      <data key="d3">0.99043062201</data>
      <data key="d4">action.malware.variety.SQL injection</data>
    </node>
    <node id="attribute.confidentiality.data.variety.Personal">
      <data key="d0">5</data>
      <data key="d1">attribute</data>
      <data key="d2">attribute.confidentiality</data>
      <data key="d3">0.976076555024</data>
      <data key="d4">attribute.confidentiality.data.variety.Personal</data>
    </node>
    <node id="action.malware.variety.Capture stored data">
      <data key="d0">2</data>
      <data key="d1">action</data>
      <data key="d2">action.malware</data>
      <data key="d3">0.99043062201</data>
      <data key="d4">action.malware.variety.Capture stored data</data>
    </node>
    <node id="attribute.integrity.variety.Created account">
      <data key="d0">1</data>
      <data key="d1">attribute</data>
      <data key="d2">attribute.integrity</data>
      <data key="d3">0.995215311005</data>
      <data key="d4">attribute.integrity.variety.Created account</data>
    </node>
    <node id="start">
      <data key="d0">0</data>
      <data key="d1">start</data>
      <data key="d2">start</data>
      <data key="d3">1.0</data>
      <data key="d4">start</data>
    </node>
    <node id="action.malware.variety.Disable controls">
      <data key="d0">2</data>
      <data key="d1">action</data>
      <data key="d2">action.malware</data>
      <data key="d3">0.99043062201</data>
      <data key="d4">action.malware.variety.Disable controls</data>
    </node>
    <node id="action.hacking.variety.Offline cracking">
      <data key="d0">1</data>
      <data key="d1">action</data>
      <data key="d2">action.hacking</data>
      <data key="d3">0.995215311005</data>
      <data key="d4">action.hacking.variety.Offline cracking</data>
    </node>
    <node id="action.misuse.variety.Data mishandling">
      <data key="d0">2</data>
      <data key="d1">action</data>
      <data key="d2">action.misuse</data>
      <data key="d3">0.99043062201</data>
      <data key="d4">action.misuse.variety.Data mishandling</data>
    </node>
    <node id="action.malware.variety.Packet sniffer">
      <data key="d0">2</data>
      <data key="d1">action</data>
      <data key="d2">action.malware</data>
      <data key="d3">0.99043062201</data>
      <data key="d4">action.malware.variety.Packet sniffer</data>
    </node>
    <node id="action.malware.variety.Downloader">
      <data key="d0">4</data>
      <data key="d1">action</data>
      <data key="d2">action.malware</data>
      <data key="d3">0.980861244019</data>
      <data key="d4">action.malware.variety.Downloader</data>
    </node>
    <node id="action.malware.variety.C2">
      <data key="d0">5</data>
      <data key="d1">action</data>
      <data key="d2">action.malware</data>
      <data key="d3">0.976076555024</data>
      <data key="d4">action.malware.variety.C2</data>
    </node>
    <node id="action.malware.variety.Adminware">
      <data key="d0">2</data>
      <data key="d1">action</data>
      <data key="d2">action.malware</data>
      <data key="d3">0.99043062201</data>
      <data key="d4">action.malware.variety.Adminware</data>
    </node>
    <node id="action.malware.variety.Other">
      <data key="d0">1</data>
      <data key="d1">action</data>
      <data key="d2">action.malware</data>
      <data key="d3">0.995215311005</data>
      <data key="d4">action.malware.variety.Other</data>
    </node>
    <node id="action.hacking.variety.SQLi">
      <data key="d0">2</data>
      <data key="d1">action</data>
      <data key="d2">action.hacking</data>
      <data key="d3">0.99043062201</data>
      <data key="d4">action.hacking.variety.SQLi</data>
    </node>
    <node id="action.malware.variety.Ransomware">
      <data key="d0">3</data>
      <data key="d1">action</data>
      <data key="d2">action.malware</data>
      <data key="d3">0.985645933014</data>
      <data key="d4">action.malware.variety.Ransomware</data>
    </node>
    <node id="action.malware.variety.Spyware/Keylogger">
      <data key="d0">6</data>
      <data key="d1">action</data>
      <data key="d2">action.malware</data>
      <data key="d3">0.971291866029</data>
      <data key="d4">action.malware.variety.Spyware/Keylogger</data>
    </node>
    <node id="attribute.integrity.variety.Repurpose">
      <data key="d0">5</data>
      <data key="d1">attribute</data>
      <data key="d2">attribute.integrity</data>
      <data key="d3">0.976076555024</data>
      <data key="d4">attribute.integrity.variety.Repurpose</data>
    </node>
    <node id="action.hacking.variety.Path traversal">
      <data key="d0">1</data>
      <data key="d1">action</data>
      <data key="d2">action.hacking</data>
      <data key="d3">0.995215311005</data>
      <data key="d4">action.hacking.variety.Path traversal</data>
    </node>
    <node id="attribute.integrity.variety.Log tampering">
      <data key="d0">3</data>
      <data key="d1">attribute</data>
      <data key="d2">attribute.integrity</data>
      <data key="d3">0.985645933014</data>
      <data key="d4">attribute.integrity.variety.Log tampering</data>
    </node>
    <node id="action.malware.variety.Adware">
      <data key="d0">2</data>
      <data key="d1">action</data>
      <data key="d2">action.malware</data>
      <data key="d3">0.99043062201</data>
      <data key="d4">action.malware.variety.Adware</data>
    </node>
    <node id="action.malware.variety.Ram scraper">
      <data key="d0">2</data>
      <data key="d1">action</data>
      <data key="d2">action.malware</data>
      <data key="d3">0.99043062201</data>
      <data key="d4">action.malware.variety.Ram scraper</data>
    </node>
    <node id="action.hacking.variety.DoS">
      <data key="d0">208</data>
      <data key="d1">action</data>
      <data key="d2">action.hacking</data>
      <data key="d3">0.00478468899522</data>
      <data key="d4">action.hacking.variety.DoS</data>
    </node>
    <node id="attribute.confidentiality.data.variety.Credentials">
      <data key="d0">9</data>
      <data key="d1">attribute</data>
      <data key="d2">attribute.confidentiality</data>
      <data key="d3">0.956937799043</data>
      <data key="d4">attribute.confidentiality.data.variety.Credentials</data>
    </node>
    <node id="attribute.confidentiality.data.variety.Secrets">
      <data key="d0">3</data>
      <data key="d1">attribute</data>
      <data key="d2">attribute.confidentiality</data>
      <data key="d3">0.985645933014</data>
      <data key="d4">attribute.confidentiality.data.variety.Secrets</data>
    </node>
    <node id="attribute.integrity.variety.Alter behavior">
      <data key="d0">9</data>
      <data key="d1">attribute</data>
      <data key="d2">attribute.integrity</data>
      <data key="d3">0.956937799043</data>
      <data key="d4">attribute.integrity.variety.Alter behavior</data>
    </node>
    <node id="action.hacking.variety.Brute force">
      <data key="d0">2</data>
      <data key="d1">action</data>
      <data key="d2">action.hacking</data>
      <data key="d3">0.99043062201</data>
      <data key="d4">action.hacking.variety.Brute force</data>
    </node>
    <node id="action.malware.variety.DoS">
      <data key="d0">2</data>
      <data key="d1">action</data>
      <data key="d2">action.malware</data>
      <data key="d3">0.99043062201</data>
      <data key="d4">action.malware.variety.DoS</data>
    </node>
    <node id="attribute.integrity.variety.Modify privileges">
      <data key="d0">3</data>
      <data key="d1">attribute</data>
      <data key="d2">attribute.integrity</data>
      <data key="d3">0.985645933014</data>
      <data key="d4">attribute.integrity.variety.Modify privileges</data>
    </node>
    <node id="action.malware.variety.Scan network">
      <data key="d0">2</data>
      <data key="d1">action</data>
      <data key="d2">action.malware</data>
      <data key="d3">0.99043062201</data>
      <data key="d4">action.malware.variety.Scan network</data>
    </node>
    <node id="action.hacking.variety.Use of backdoor or C2">
      <data key="d0">6</data>
      <data key="d1">action</data>
      <data key="d2">action.hacking</data>
      <data key="d3">0.971291866029</data>
      <data key="d4">action.hacking.variety.Use of backdoor or C2</data>
    </node>
    <node id="action.malware.variety.Spam">
      <data key="d0">3</data>
      <data key="d1">action</data>
      <data key="d2">action.malware</data>
      <data key="d3">0.985645933014</data>
      <data key="d4">action.malware.variety.Spam</data>
    </node>
    <node id="attribute.integrity.variety.Fraudulent transaction">
      <data key="d0">1</data>
      <data key="d1">attribute</data>
      <data key="d2">attribute.integrity</data>
      <data key="d3">0.995215311005</data>
      <data key="d4">attribute.integrity.variety.Fraudulent transaction</data>
    </node>
    <node id="attribute.integrity.variety.Modify configuration">
      <data key="d0">4</data>
      <data key="d1">attribute</data>
      <data key="d2">attribute.integrity</data>
      <data key="d3">0.980861244019</data>
      <data key="d4">attribute.integrity.variety.Modify configuration</data>
    </node>
    <node id="attribute.availability.variety.Degradation">
      <data key="d0">202</data>
      <data key="d1">attribute</data>
      <data key="d2">attribute.availability</data>
      <data key="d3">0.0334928229665</data>
      <data key="d4">attribute.availability.variety.Degradation</data>
    </node>
    <node id="action.hacking.variety.Other">
      <data key="d0">1</data>
      <data key="d1">action</data>
      <data key="d2">action.hacking</data>
      <data key="d3">0.995215311005</data>
      <data key="d4">action.hacking.variety.Other</data>
    </node>
    <node id="action.physical.variety.Theft">
      <data key="d0">7</data>
      <data key="d1">action</data>
      <data key="d2">action.physical</data>
      <data key="d3">0.966507177033</data>
      <data key="d4">action.physical.variety.Theft</data>
    </node>
    <node id="action.hacking.variety.Null byte injection">
      <data key="d0">1</data>
      <data key="d1">action</data>
      <data key="d2">action.hacking</data>
      <data key="d3">0.995215311005</data>
      <data key="d4">action.hacking.variety.Null byte injection</data>
    </node>
    <node id="attribute.availability.variety.Interruption">
      <data key="d0">8</data>
      <data key="d1">attribute</data>
      <data key="d2">attribute.availability</data>
      <data key="d3">0.961722488038</data>
      <data key="d4">attribute.availability.variety.Interruption</data>
    </node>
    <edge source="action.malware.variety.Destroy data" target="action.malware.variety.Ransomware">
      <data key="d5">1</data>
      <data key="d6">forward</data>
      <data key="d7">1.0</data>
      <data key="d8">action.malware.variety.Destroy data-&gt;action.malware.variety.Ransomware</data>
    </edge>
    <edge source="action.malware.variety.Destroy data" target="action.malware.variety.Spyware/Keylogger">
      <data key="d5">1</data>
      <data key="d6">forward</data>
      <data key="d7">1.0</data>
      <data key="d8">action.malware.variety.Destroy data-&gt;action.malware.variety.Spyware/Keylogger</data>
    </edge>
    <edge source="action.malware.variety.Destroy data" target="action.malware.variety.Exploit vuln">
      <data key="d5">1</data>
      <data key="d6">forward</data>
      <data key="d7">1.0</data>
      <data key="d8">action.malware.variety.Destroy data-&gt;action.malware.variety.Exploit vuln</data>
    </edge>
    <edge source="action.malware.variety.Client-side attack" target="action.malware.variety.Ransomware">
      <data key="d5">1</data>
      <data key="d6">forward</data>
      <data key="d7">1.0</data>
      <data key="d8">action.malware.variety.Client-side attack-&gt;action.malware.variety.Ransomware</data>
    </edge>
    <edge source="action.malware.variety.Client-side attack" target="action.malware.variety.Spyware/Keylogger">
      <data key="d5">1</data>
      <data key="d6">forward</data>
      <data key="d7">1.0</data>
      <data key="d8">action.malware.variety.Client-side attack-&gt;action.malware.variety.Spyware/Keylogger</data>
    </edge>
    <edge source="action.malware.variety.Client-side attack" target="action.malware.variety.Exploit vuln">
      <data key="d5">1</data>
      <data key="d6">forward</data>
      <data key="d7">1.0</data>
      <data key="d8">action.malware.variety.Client-side attack-&gt;action.malware.variety.Exploit vuln</data>
    </edge>
    <edge source="action.malware.variety.Exploit vuln" target="attribute.integrity.variety.Software installation">
      <data key="d5">2</data>
      <data key="d6">forward</data>
      <data key="d7">0.995024875622</data>
      <data key="d8">action.malware.variety.Exploit vuln-&gt;attribute.integrity.variety.Software installation</data>
    </edge>
    <edge source="attribute.confidentiality.data.variety.Internal" target="end">
      <data key="d5">1</data>
      <data key="d6">forward</data>
      <data key="d7">1.0</data>
      <data key="d8">attribute.confidentiality.data.variety.Internal-&gt;end</data>
    </edge>
    <edge source="attribute.confidentiality.data.variety.Medical" target="action.physical.variety.Theft">
      <data key="d5">5</data>
      <data key="d6">backward</data>
      <data key="d7">0.980099502488</data>
      <data key="d8">attribute.confidentiality.data.variety.Medical-&gt;action.physical.variety.Theft</data>
    </edge>
    <edge source="attribute.confidentiality.data.variety.Medical" target="end">
      <data key="d5">1</data>
      <data key="d6">forward</data>
      <data key="d7">1.0</data>
      <data key="d8">attribute.confidentiality.data.variety.Medical-&gt;end</data>
    </edge>
    <edge source="attribute.confidentiality.data.variety.Medical" target="action.malware.variety.Adware">
      <data key="d5">1</data>
      <data key="d6">backward</data>
      <data key="d7">1.0</data>
      <data key="d8">attribute.confidentiality.data.variety.Medical-&gt;action.malware.variety.Adware</data>
    </edge>
    <edge source="action.social.variety.Phishing" target="attribute.integrity.variety.Alter behavior">
      <data key="d5">8</data>
      <data key="d6">forward</data>
      <data key="d7">0.965174129353</data>
      <data key="d8">action.social.variety.Phishing-&gt;attribute.integrity.variety.Alter behavior</data>
    </edge>
    <edge source="action.malware.variety.Click fraud" target="action.malware.variety.Ransomware">
      <data key="d5">1</data>
      <data key="d6">forward</data>
      <data key="d7">1.0</data>
      <data key="d8">action.malware.variety.Click fraud-&gt;action.malware.variety.Ransomware</data>
    </edge>
    <edge source="action.malware.variety.Click fraud" target="action.malware.variety.Spyware/Keylogger">
      <data key="d5">1</data>
      <data key="d6">forward</data>
      <data key="d7">1.0</data>
      <data key="d8">action.malware.variety.Click fraud-&gt;action.malware.variety.Spyware/Keylogger</data>
    </edge>
    <edge source="action.malware.variety.Click fraud" target="action.malware.variety.Exploit vuln">
      <data key="d5">1</data>
      <data key="d6">forward</data>
      <data key="d7">1.0</data>
      <data key="d8">action.malware.variety.Click fraud-&gt;action.malware.variety.Exploit vuln</data>
    </edge>
    <edge source="attribute.confidentiality.data.variety.System" target="end">
      <data key="d5">1</data>
      <data key="d6">forward</data>
      <data key="d7">1.0</data>
      <data key="d8">attribute.confidentiality.data.variety.System-&gt;end</data>
    </edge>
    <edge source="action.hacking.variety.Use of stolen creds" target="action.malware.variety.Ransomware">
      <data key="d5">1</data>
      <data key="d6">forward</data>
      <data key="d7">1.0</data>
      <data key="d8">action.hacking.variety.Use of stolen creds-&gt;action.malware.variety.Ransomware</data>
    </edge>
    <edge source="action.hacking.variety.Use of stolen creds" target="action.malware.variety.Spyware/Keylogger">
      <data key="d5">3</data>
      <data key="d6">forward</data>
      <data key="d7">0.990049751244</data>
      <data key="d8">action.hacking.variety.Use of stolen creds-&gt;action.malware.variety.Spyware/Keylogger</data>
    </edge>
    <edge source="action.hacking.variety.Use of stolen creds" target="action.social.variety.Phishing">
      <data key="d5">4</data>
      <data key="d6">forward</data>
      <data key="d7">0.985074626866</data>
      <data key="d8">action.hacking.variety.Use of stolen creds-&gt;action.social.variety.Phishing</data>
    </edge>
    <edge source="action.hacking.variety.Use of stolen creds" target="action.malware.variety.Exploit vuln">
      <data key="d5">1</data>
      <data key="d6">forward</data>
      <data key="d7">1.0</data>
      <data key="d8">action.hacking.variety.Use of stolen creds-&gt;action.malware.variety.Exploit vuln</data>
    </edge>
    <edge source="action.malware.variety.Password dumper" target="action.malware.variety.Ransomware">
      <data key="d5">1</data>
      <data key="d6">forward</data>
      <data key="d7">1.0</data>
      <data key="d8">action.malware.variety.Password dumper-&gt;action.malware.variety.Ransomware</data>
    </edge>
    <edge source="action.malware.variety.Password dumper" target="action.malware.variety.Spyware/Keylogger">
      <data key="d5">1</data>
      <data key="d6">forward</data>
      <data key="d7">1.0</data>
      <data key="d8">action.malware.variety.Password dumper-&gt;action.malware.variety.Spyware/Keylogger</data>
    </edge>
    <edge source="action.malware.variety.Password dumper" target="action.malware.variety.Exploit vuln">
      <data key="d5">1</data>
      <data key="d6">forward</data>
      <data key="d7">1.0</data>
      <data key="d8">action.malware.variety.Password dumper-&gt;action.malware.variety.Exploit vuln</data>
    </edge>
    <edge source="action.malware.variety.Export data" target="action.malware.variety.Ransomware">
      <data key="d5">1</data>
      <data key="d6">forward</data>
      <data key="d7">1.0</data>
      <data key="d8">action.malware.variety.Export data-&gt;action.malware.variety.Ransomware</data>
    </edge>
    <edge source="action.malware.variety.Export data" target="action.malware.variety.Spyware/Keylogger">
      <data key="d5">2</data>
      <data key="d6">forward</data>
      <data key="d7">0.995024875622</data>
      <data key="d8">action.malware.variety.Export data-&gt;action.malware.variety.Spyware/Keylogger</data>
    </edge>
    <edge source="action.malware.variety.Export data" target="action.social.variety.Phishing">
      <data key="d5">1</data>
      <data key="d6">forward</data>
      <data key="d7">1.0</data>
      <data key="d8">action.malware.variety.Export data-&gt;action.social.variety.Phishing</data>
    </edge>
    <edge source="action.malware.variety.Export data" target="action.malware.variety.Exploit vuln">
      <data key="d5">1</data>
      <data key="d6">forward</data>
      <data key="d7">1.0</data>
      <data key="d8">action.malware.variety.Export data-&gt;action.malware.variety.Exploit vuln</data>
    </edge>
    <edge source="attribute.integrity.variety.Software installation" target="action.malware.variety.Ransomware">
      <data key="d5">2</data>
      <data key="d6">backward</data>
      <data key="d7">0.995024875622</data>
      <data key="d8">attribute.integrity.variety.Software installation-&gt;action.malware.variety.Ransomware</data>
    </edge>
    <edge source="attribute.integrity.variety.Software installation" target="end">
      <data key="d5">1</data>
      <data key="d6">forward</data>
      <data key="d7">1.0</data>
      <data key="d8">attribute.integrity.variety.Software installation-&gt;end</data>
    </edge>
    <edge source="attribute.integrity.variety.Software installation" target="action.social.variety.Phishing">
      <data key="d5">2</data>
      <data key="d6">backward</data>
      <data key="d7">0.995024875622</data>
      <data key="d8">attribute.integrity.variety.Software installation-&gt;action.social.variety.Phishing</data>
    </edge>
    <edge source="attribute.integrity.variety.Software installation" target="action.malware.variety.Adware">
      <data key="d5">1</data>
      <data key="d6">backward</data>
      <data key="d7">1.0</data>
      <data key="d8">attribute.integrity.variety.Software installation-&gt;action.malware.variety.Adware</data>
    </edge>
    <edge source="attribute.integrity.variety.Software installation" target="action.malware.variety.Exploit vuln">
      <data key="d5">2</data>
      <data key="d6">backward</data>
      <data key="d7">0.995024875622</data>
      <data key="d8">attribute.integrity.variety.Software installation-&gt;action.malware.variety.Exploit vuln</data>
    </edge>
    <edge source="attribute.integrity.variety.Software installation" target="action.malware.variety.Spyware/Keylogger">
      <data key="d5">8</data>
      <data key="d6">backward</data>
      <data key="d7">0.965174129353</data>
      <data key="d8">attribute.integrity.variety.Software installation-&gt;action.malware.variety.Spyware/Keylogger</data>
    </edge>
    <edge source="action.malware.variety.Capture app data" target="action.malware.variety.Ransomware">
      <data key="d5">1</data>
      <data key="d6">forward</data>
      <data key="d7">1.0</data>
      <data key="d8">action.malware.variety.Capture app data-&gt;action.malware.variety.Ransomware</data>
    </edge>
    <edge source="action.malware.variety.Capture app data" target="action.malware.variety.Spyware/Keylogger">
      <data key="d5">1</data>
      <data key="d6">forward</data>
      <data key="d7">1.0</data>
      <data key="d8">action.malware.variety.Capture app data-&gt;action.malware.variety.Spyware/Keylogger</data>
    </edge>
    <edge source="action.malware.variety.Capture app data" target="action.malware.variety.Exploit vuln">
      <data key="d5">1</data>
      <data key="d6">forward</data>
      <data key="d7">1.0</data>
      <data key="d8">action.malware.variety.Capture app data-&gt;action.malware.variety.Exploit vuln</data>
    </edge>
    <edge source="action.malware.variety.Rootkit" target="action.malware.variety.Ransomware">
      <data key="d5">1</data>
      <data key="d6">forward</data>
      <data key="d7">1.0</data>
      <data key="d8">action.malware.variety.Rootkit-&gt;action.malware.variety.Ransomware</data>
    </edge>
    <edge source="action.malware.variety.Rootkit" target="action.malware.variety.Spyware/Keylogger">
      <data key="d5">1</data>
      <data key="d6">forward</data>
      <data key="d7">1.0</data>
      <data key="d8">action.malware.variety.Rootkit-&gt;action.malware.variety.Spyware/Keylogger</data>
    </edge>
    <edge source="action.malware.variety.Rootkit" target="action.malware.variety.Exploit vuln">
      <data key="d5">1</data>
      <data key="d6">forward</data>
      <data key="d7">1.0</data>
      <data key="d8">action.malware.variety.Rootkit-&gt;action.malware.variety.Exploit vuln</data>
    </edge>
    <edge source="attribute.availability.variety.Loss" target="action.physical.variety.Theft">
      <data key="d5">6</data>
      <data key="d6">backward</data>
      <data key="d7">0.975124378109</data>
      <data key="d8">attribute.availability.variety.Loss-&gt;action.physical.variety.Theft</data>
    </edge>
    <edge source="attribute.availability.variety.Loss" target="end">
      <data key="d5">1</data>
      <data key="d6">forward</data>
      <data key="d7">1.0</data>
      <data key="d8">attribute.availability.variety.Loss-&gt;end</data>
    </edge>
    <edge source="attribute.availability.variety.Loss" target="action.misuse.variety.Data mishandling">
      <data key="d5">1</data>
      <data key="d6">backward</data>
      <data key="d7">1.0</data>
      <data key="d8">attribute.availability.variety.Loss-&gt;action.misuse.variety.Data mishandling</data>
    </edge>
    <edge source="attribute.availability.variety.Loss" target="action.hacking.variety.DoS">
      <data key="d5">1</data>
      <data key="d6">backward</data>
      <data key="d7">1.0</data>
      <data key="d8">attribute.availability.variety.Loss-&gt;action.hacking.variety.DoS</data>
    </edge>
    <edge source="attribute.integrity.variety.Modify data" target="end">
      <data key="d5">1</data>
      <data key="d6">forward</data>
      <data key="d7">1.0</data>
      <data key="d8">attribute.integrity.variety.Modify data-&gt;end</data>
    </edge>
    <edge source="action.malware.variety.Backdoor" target="action.malware.variety.Ransomware">
      <data key="d5">1</data>
      <data key="d6">forward</data>
      <data key="d7">1.0</data>
      <data key="d8">action.malware.variety.Backdoor-&gt;action.malware.variety.Ransomware</data>
    </edge>
    <edge source="action.malware.variety.Backdoor" target="action.malware.variety.Spyware/Keylogger">
      <data key="d5">2</data>
      <data key="d6">forward</data>
      <data key="d7">0.995024875622</data>
      <data key="d8">action.malware.variety.Backdoor-&gt;action.malware.variety.Spyware/Keylogger</data>
    </edge>
    <edge source="action.malware.variety.Backdoor" target="action.social.variety.Phishing">
      <data key="d5">1</data>
      <data key="d6">forward</data>
      <data key="d7">1.0</data>
      <data key="d8">action.malware.variety.Backdoor-&gt;action.social.variety.Phishing</data>
    </edge>
    <edge source="action.malware.variety.Backdoor" target="action.malware.variety.Exploit vuln">
      <data key="d5">1</data>
      <data key="d6">forward</data>
      <data key="d7">1.0</data>
      <data key="d8">action.malware.variety.Backdoor-&gt;action.malware.variety.Exploit vuln</data>
    </edge>
    <edge source="attribute.confidentiality.data.variety.Bank" target="action.physical.variety.Theft">
      <data key="d5">1</data>
      <data key="d6">backward</data>
      <data key="d7">1.0</data>
      <data key="d8">attribute.confidentiality.data.variety.Bank-&gt;action.physical.variety.Theft</data>
    </edge>
    <edge source="attribute.confidentiality.data.variety.Bank" target="end">
      <data key="d5">1</data>
      <data key="d6">forward</data>
      <data key="d7">1.0</data>
      <data key="d8">attribute.confidentiality.data.variety.Bank-&gt;end</data>
    </edge>
    <edge source="action.malware.variety.SQL injection" target="action.malware.variety.Ransomware">
      <data key="d5">1</data>
      <data key="d6">forward</data>
      <data key="d7">1.0</data>
      <data key="d8">action.malware.variety.SQL injection-&gt;action.malware.variety.Ransomware</data>
    </edge>
    <edge source="action.malware.variety.SQL injection" target="action.malware.variety.Spyware/Keylogger">
      <data key="d5">1</data>
      <data key="d6">forward</data>
      <data key="d7">1.0</data>
      <data key="d8">action.malware.variety.SQL injection-&gt;action.malware.variety.Spyware/Keylogger</data>
    </edge>
    <edge source="action.malware.variety.SQL injection" target="action.malware.variety.Exploit vuln">
      <data key="d5">1</data>
      <data key="d6">forward</data>
      <data key="d7">1.0</data>
      <data key="d8">action.malware.variety.SQL injection-&gt;action.malware.variety.Exploit vuln</data>
    </edge>
    <edge source="attribute.confidentiality.data.variety.Personal" target="action.hacking.variety.SQLi">
      <data key="d5">1</data>
      <data key="d6">backward</data>
      <data key="d7">1.0</data>
      <data key="d8">attribute.confidentiality.data.variety.Personal-&gt;action.hacking.variety.SQLi</data>
    </edge>
    <edge source="attribute.confidentiality.data.variety.Personal" target="end">
      <data key="d5">1</data>
      <data key="d6">forward</data>
      <data key="d7">1.0</data>
      <data key="d8">attribute.confidentiality.data.variety.Personal-&gt;end</data>
    </edge>
    <edge source="attribute.confidentiality.data.variety.Personal" target="action.misuse.variety.Data mishandling">
      <data key="d5">1</data>
      <data key="d6">backward</data>
      <data key="d7">1.0</data>
      <data key="d8">attribute.confidentiality.data.variety.Personal-&gt;action.misuse.variety.Data mishandling</data>
    </edge>
    <edge source="action.malware.variety.Capture stored data" target="action.malware.variety.Spyware/Keylogger">
      <data key="d5">1</data>
      <data key="d6">forward</data>
      <data key="d7">1.0</data>
      <data key="d8">action.malware.variety.Capture stored data-&gt;action.malware.variety.Spyware/Keylogger</data>
    </edge>
    <edge source="action.malware.variety.Capture stored data" target="action.social.variety.Phishing">
      <data key="d5">1</data>
      <data key="d6">forward</data>
      <data key="d7">1.0</data>
      <data key="d8">action.malware.variety.Capture stored data-&gt;action.social.variety.Phishing</data>
    </edge>
    <edge source="attribute.integrity.variety.Created account" target="end">
      <data key="d5">1</data>
      <data key="d6">forward</data>
      <data key="d7">1.0</data>
      <data key="d8">attribute.integrity.variety.Created account-&gt;end</data>
    </edge>
    <edge source="start" target="action.malware.variety.Destroy data">
      <data key="d5">1</data>
      <data key="d6">forward</data>
      <data key="d7">1.0</data>
      <data key="d8">start-&gt;action.malware.variety.Destroy data</data>
    </edge>
    <edge source="start" target="action.malware.variety.Client-side attack">
      <data key="d5">1</data>
      <data key="d6">forward</data>
      <data key="d7">1.0</data>
      <data key="d8">start-&gt;action.malware.variety.Client-side attack</data>
    </edge>
    <edge source="start" target="action.misuse.variety.Privilege abuse">
      <data key="d5">1</data>
      <data key="d6">forward</data>
      <data key="d7">1.0</data>
      <data key="d8">start-&gt;action.misuse.variety.Privilege abuse</data>
    </edge>
    <edge source="start" target="action.malware.variety.Capture app data">
      <data key="d5">1</data>
      <data key="d6">forward</data>
      <data key="d7">1.0</data>
      <data key="d8">start-&gt;action.malware.variety.Capture app data</data>
    </edge>
    <edge source="start" target="action.malware.variety.Other">
      <data key="d5">1</data>
      <data key="d6">forward</data>
      <data key="d7">1.0</data>
      <data key="d8">start-&gt;action.malware.variety.Other</data>
    </edge>
    <edge source="start" target="action.social.variety.Phishing">
      <data key="d5">1</data>
      <data key="d6">forward</data>
      <data key="d7">1.0</data>
      <data key="d8">start-&gt;action.social.variety.Phishing</data>
    </edge>
    <edge source="start" target="action.hacking.variety.Use of stolen creds">
      <data key="d5">1</data>
      <data key="d6">forward</data>
      <data key="d7">1.0</data>
      <data key="d8">start-&gt;action.hacking.variety.Use of stolen creds</data>
    </edge>
    <edge source="start" target="action.malware.variety.Export data">
      <data key="d5">1</data>
      <data key="d6">forward</data>
      <data key="d7">1.0</data>
      <data key="d8">start-&gt;action.malware.variety.Export data</data>
    </edge>
    <edge source="start" target="action.hacking.variety.SQLi">
      <data key="d5">1</data>
      <data key="d6">forward</data>
      <data key="d7">1.0</data>
      <data key="d8">start-&gt;action.hacking.variety.SQLi</data>
    </edge>
    <edge source="start" target="action.hacking.variety.Other">
      <data key="d5">1</data>
      <data key="d6">forward</data>
      <data key="d7">1.0</data>
      <data key="d8">start-&gt;action.hacking.variety.Other</data>
    </edge>
    <edge source="start" target="action.malware.variety.Backdoor">
      <data key="d5">1</data>
      <data key="d6">forward</data>
      <data key="d7">1.0</data>
      <data key="d8">start-&gt;action.malware.variety.Backdoor</data>
    </edge>
    <edge source="start" target="action.malware.variety.Rootkit">
      <data key="d5">1</data>
      <data key="d6">forward</data>
      <data key="d7">1.0</data>
      <data key="d8">start-&gt;action.malware.variety.Rootkit</data>
    </edge>
    <edge source="start" target="action.malware.variety.Click fraud">
      <data key="d5">1</data>
      <data key="d6">forward</data>
      <data key="d7">1.0</data>
      <data key="d8">start-&gt;action.malware.variety.Click fraud</data>
    </edge>
    <edge source="start" target="action.malware.variety.Capture stored data">
      <data key="d5">1</data>
      <data key="d6">forward</data>
      <data key="d7">1.0</data>
      <data key="d8">start-&gt;action.malware.variety.Capture stored data</data>
    </edge>
    <edge source="start" target="action.malware.variety.Disable controls">
      <data key="d5">1</data>
      <data key="d6">forward</data>
      <data key="d7">1.0</data>
      <data key="d8">start-&gt;action.malware.variety.Disable controls</data>
    </edge>
    <edge source="start" target="action.hacking.variety.Offline cracking">
      <data key="d5">1</data>
      <data key="d6">forward</data>
      <data key="d7">1.0</data>
      <data key="d8">start-&gt;action.hacking.variety.Offline cracking</data>
    </edge>
    <edge source="start" target="action.misuse.variety.Data mishandling">
      <data key="d5">1</data>
      <data key="d6">forward</data>
      <data key="d7">1.0</data>
      <data key="d8">start-&gt;action.misuse.variety.Data mishandling</data>
    </edge>
    <edge source="start" target="action.malware.variety.Packet sniffer">
      <data key="d5">1</data>
      <data key="d6">forward</data>
      <data key="d7">1.0</data>
      <data key="d8">start-&gt;action.malware.variety.Packet sniffer</data>
    </edge>
    <edge source="start" target="action.malware.variety.Downloader">
      <data key="d5">1</data>
      <data key="d6">forward</data>
      <data key="d7">1.0</data>
      <data key="d8">start-&gt;action.malware.variety.Downloader</data>
    </edge>
    <edge source="start" target="action.malware.variety.C2">
      <data key="d5">1</data>
      <data key="d6">forward</data>
      <data key="d7">1.0</data>
      <data key="d8">start-&gt;action.malware.variety.C2</data>
    </edge>
    <edge source="start" target="action.malware.variety.Adminware">
      <data key="d5">1</data>
      <data key="d6">forward</data>
      <data key="d7">1.0</data>
      <data key="d8">start-&gt;action.malware.variety.Adminware</data>
    </edge>
    <edge source="start" target="action.malware.variety.Password dumper">
      <data key="d5">1</data>
      <data key="d6">forward</data>
      <data key="d7">1.0</data>
      <data key="d8">start-&gt;action.malware.variety.Password dumper</data>
    </edge>
    <edge source="start" target="action.malware.variety.Ransomware">
      <data key="d5">1</data>
      <data key="d6">forward</data>
      <data key="d7">1.0</data>
      <data key="d8">start-&gt;action.malware.variety.Ransomware</data>
    </edge>
    <edge source="start" target="action.malware.variety.Spyware/Keylogger">
      <data key="d5">1</data>
      <data key="d6">forward</data>
      <data key="d7">1.0</data>
      <data key="d8">start-&gt;action.malware.variety.Spyware/Keylogger</data>
    </edge>
    <edge source="start" target="action.malware.variety.Ram scraper">
      <data key="d5">1</data>
      <data key="d6">forward</data>
      <data key="d7">1.0</data>
      <data key="d8">start-&gt;action.malware.variety.Ram scraper</data>
    </edge>
    <edge source="start" target="action.malware.variety.SQL injection">
      <data key="d5">1</data>
      <data key="d6">forward</data>
      <data key="d7">1.0</data>
      <data key="d8">start-&gt;action.malware.variety.SQL injection</data>
    </edge>
    <edge source="start" target="action.hacking.variety.Brute force">
      <data key="d5">1</data>
      <data key="d6">forward</data>
      <data key="d7">1.0</data>
      <data key="d8">start-&gt;action.hacking.variety.Brute force</data>
    </edge>
    <edge source="start" target="action.hacking.variety.Path traversal">
      <data key="d5">1</data>
      <data key="d6">forward</data>
      <data key="d7">1.0</data>
      <data key="d8">start-&gt;action.hacking.variety.Path traversal</data>
    </edge>
    <edge source="start" target="action.malware.variety.Adware">
      <data key="d5">1</data>
      <data key="d6">forward</data>
      <data key="d7">1.0</data>
      <data key="d8">start-&gt;action.malware.variety.Adware</data>
    </edge>
    <edge source="start" target="action.malware.variety.Exploit vuln">
      <data key="d5">1</data>
      <data key="d6">forward</data>
      <data key="d7">1.0</data>
      <data key="d8">start-&gt;action.malware.variety.Exploit vuln</data>
    </edge>
    <edge source="start" target="action.malware.variety.DoS">
      <data key="d5">1</data>
      <data key="d6">forward</data>
      <data key="d7">1.0</data>
      <data key="d8">start-&gt;action.malware.variety.DoS</data>
    </edge>
    <edge source="start" target="action.hacking.variety.Use of backdoor or C2">
      <data key="d5">1</data>
      <data key="d6">forward</data>
      <data key="d7">1.0</data>
      <data key="d8">start-&gt;action.hacking.variety.Use of backdoor or C2</data>
    </edge>
    <edge source="start" target="action.malware.variety.Spam">
      <data key="d5">1</data>
      <data key="d6">forward</data>
      <data key="d7">1.0</data>
      <data key="d8">start-&gt;action.malware.variety.Spam</data>
    </edge>
    <edge source="start" target="action.hacking.variety.DoS">
      <data key="d5">1</data>
      <data key="d6">forward</data>
      <data key="d7">1.0</data>
      <data key="d8">start-&gt;action.hacking.variety.DoS</data>
    </edge>
    <edge source="start" target="action.malware.variety.Scan network">
      <data key="d5">1</data>
      <data key="d6">forward</data>
      <data key="d7">1.0</data>
      <data key="d8">start-&gt;action.malware.variety.Scan network</data>
    </edge>
    <edge source="start" target="action.physical.variety.Theft">
      <data key="d5">1</data>
      <data key="d6">forward</data>
      <data key="d7">1.0</data>
      <data key="d8">start-&gt;action.physical.variety.Theft</data>
    </edge>
    <edge source="start" target="action.hacking.variety.Null byte injection">
      <data key="d5">1</data>
      <data key="d6">forward</data>
      <data key="d7">1.0</data>
      <data key="d8">start-&gt;action.hacking.variety.Null byte injection</data>
    </edge>
    <edge source="action.malware.variety.Disable controls" target="action.malware.variety.Ransomware">
      <data key="d5">1</data>
      <data key="d6">forward</data>
      <data key="d7">1.0</data>
      <data key="d8">action.malware.variety.Disable controls-&gt;action.malware.variety.Ransomware</data>
    </edge>
    <edge source="action.malware.variety.Disable controls" target="action.malware.variety.Spyware/Keylogger">
      <data key="d5">1</data>
      <data key="d6">forward</data>
      <data key="d7">1.0</data>
      <data key="d8">action.malware.variety.Disable controls-&gt;action.malware.variety.Spyware/Keylogger</data>
    </edge>
    <edge source="action.malware.variety.Disable controls" target="action.malware.variety.Exploit vuln">
      <data key="d5">1</data>
      <data key="d6">forward</data>
      <data key="d7">1.0</data>
      <data key="d8">action.malware.variety.Disable controls-&gt;action.malware.variety.Exploit vuln</data>
    </edge>
    <edge source="action.misuse.variety.Data mishandling" target="attribute.availability.variety.Loss">
      <data key="d5">1</data>
      <data key="d6">forward</data>
      <data key="d7">1.0</data>
      <data key="d8">action.misuse.variety.Data mishandling-&gt;attribute.availability.variety.Loss</data>
    </edge>
    <edge source="action.misuse.variety.Data mishandling" target="attribute.confidentiality.data.variety.Personal">
      <data key="d5">1</data>
      <data key="d6">forward</data>
      <data key="d7">1.0</data>
      <data key="d8">action.misuse.variety.Data mishandling-&gt;attribute.confidentiality.data.variety.Personal</data>
    </edge>
    <edge source="action.malware.variety.Packet sniffer" target="action.malware.variety.Ransomware">
      <data key="d5">1</data>
      <data key="d6">forward</data>
      <data key="d7">1.0</data>
      <data key="d8">action.malware.variety.Packet sniffer-&gt;action.malware.variety.Ransomware</data>
    </edge>
    <edge source="action.malware.variety.Packet sniffer" target="action.malware.variety.Spyware/Keylogger">
      <data key="d5">1</data>
      <data key="d6">forward</data>
      <data key="d7">1.0</data>
      <data key="d8">action.malware.variety.Packet sniffer-&gt;action.malware.variety.Spyware/Keylogger</data>
    </edge>
    <edge source="action.malware.variety.Packet sniffer" target="action.malware.variety.Exploit vuln">
      <data key="d5">1</data>
      <data key="d6">forward</data>
      <data key="d7">1.0</data>
      <data key="d8">action.malware.variety.Packet sniffer-&gt;action.malware.variety.Exploit vuln</data>
    </edge>
    <edge source="action.malware.variety.Downloader" target="action.malware.variety.Ransomware">
      <data key="d5">1</data>
      <data key="d6">forward</data>
      <data key="d7">1.0</data>
      <data key="d8">action.malware.variety.Downloader-&gt;action.malware.variety.Ransomware</data>
    </edge>
    <edge source="action.malware.variety.Downloader" target="action.malware.variety.Spyware/Keylogger">
      <data key="d5">2</data>
      <data key="d6">forward</data>
      <data key="d7">0.995024875622</data>
      <data key="d8">action.malware.variety.Downloader-&gt;action.malware.variety.Spyware/Keylogger</data>
    </edge>
    <edge source="action.malware.variety.Downloader" target="action.social.variety.Phishing">
      <data key="d5">1</data>
      <data key="d6">forward</data>
      <data key="d7">1.0</data>
      <data key="d8">action.malware.variety.Downloader-&gt;action.social.variety.Phishing</data>
    </edge>
    <edge source="action.malware.variety.Downloader" target="action.malware.variety.Exploit vuln">
      <data key="d5">1</data>
      <data key="d6">forward</data>
      <data key="d7">1.0</data>
      <data key="d8">action.malware.variety.Downloader-&gt;action.malware.variety.Exploit vuln</data>
    </edge>
    <edge source="action.malware.variety.C2" target="action.malware.variety.Ransomware">
      <data key="d5">1</data>
      <data key="d6">forward</data>
      <data key="d7">1.0</data>
      <data key="d8">action.malware.variety.C2-&gt;action.malware.variety.Ransomware</data>
    </edge>
    <edge source="action.malware.variety.C2" target="action.malware.variety.Spyware/Keylogger">
      <data key="d5">1</data>
      <data key="d6">forward</data>
      <data key="d7">1.0</data>
      <data key="d8">action.malware.variety.C2-&gt;action.malware.variety.Spyware/Keylogger</data>
    </edge>
    <edge source="action.malware.variety.C2" target="action.social.variety.Phishing">
      <data key="d5">2</data>
      <data key="d6">forward</data>
      <data key="d7">0.995024875622</data>
      <data key="d8">action.malware.variety.C2-&gt;action.social.variety.Phishing</data>
    </edge>
    <edge source="action.malware.variety.C2" target="action.malware.variety.Exploit vuln">
      <data key="d5">1</data>
      <data key="d6">forward</data>
      <data key="d7">1.0</data>
      <data key="d8">action.malware.variety.C2-&gt;action.malware.variety.Exploit vuln</data>
    </edge>
    <edge source="action.malware.variety.Adminware" target="action.malware.variety.Ransomware">
      <data key="d5">1</data>
      <data key="d6">forward</data>
      <data key="d7">1.0</data>
      <data key="d8">action.malware.variety.Adminware-&gt;action.malware.variety.Ransomware</data>
    </edge>
    <edge source="action.malware.variety.Adminware" target="action.malware.variety.Spyware/Keylogger">
      <data key="d5">1</data>
      <data key="d6">forward</data>
      <data key="d7">1.0</data>
      <data key="d8">action.malware.variety.Adminware-&gt;action.malware.variety.Spyware/Keylogger</data>
    </edge>
    <edge source="action.malware.variety.Adminware" target="action.malware.variety.Exploit vuln">
      <data key="d5">1</data>
      <data key="d6">forward</data>
      <data key="d7">1.0</data>
      <data key="d8">action.malware.variety.Adminware-&gt;action.malware.variety.Exploit vuln</data>
    </edge>
    <edge source="action.hacking.variety.SQLi" target="attribute.confidentiality.data.variety.Personal">
      <data key="d5">1</data>
      <data key="d6">forward</data>
      <data key="d7">1.0</data>
      <data key="d8">action.hacking.variety.SQLi-&gt;attribute.confidentiality.data.variety.Personal</data>
    </edge>
    <edge source="action.hacking.variety.SQLi" target="attribute.integrity.variety.Repurpose">
      <data key="d5">1</data>
      <data key="d6">forward</data>
      <data key="d7">1.0</data>
      <data key="d8">action.hacking.variety.SQLi-&gt;attribute.integrity.variety.Repurpose</data>
    </edge>
    <edge source="action.malware.variety.Ransomware" target="attribute.integrity.variety.Software installation">
      <data key="d5">2</data>
      <data key="d6">forward</data>
      <data key="d7">0.995024875622</data>
      <data key="d8">action.malware.variety.Ransomware-&gt;attribute.integrity.variety.Software installation</data>
    </edge>
    <edge source="action.malware.variety.Spyware/Keylogger" target="attribute.confidentiality.data.variety.Credentials">
      <data key="d5">4</data>
      <data key="d6">forward</data>
      <data key="d7">0.985074626866</data>
      <data key="d8">action.malware.variety.Spyware/Keylogger-&gt;attribute.confidentiality.data.variety.Credentials</data>
    </edge>
    <edge source="action.malware.variety.Spyware/Keylogger" target="attribute.integrity.variety.Software installation">
      <data key="d5">5</data>
      <data key="d6">forward</data>
      <data key="d7">0.980099502488</data>
      <data key="d8">action.malware.variety.Spyware/Keylogger-&gt;attribute.integrity.variety.Software installation</data>
    </edge>
    <edge source="attribute.integrity.variety.Repurpose" target="action.hacking.variety.SQLi">
      <data key="d5">1</data>
      <data key="d6">backward</data>
      <data key="d7">1.0</data>
      <data key="d8">attribute.integrity.variety.Repurpose-&gt;action.hacking.variety.SQLi</data>
    </edge>
    <edge source="attribute.integrity.variety.Repurpose" target="end">
      <data key="d5">1</data>
      <data key="d6">forward</data>
      <data key="d7">1.0</data>
      <data key="d8">attribute.integrity.variety.Repurpose-&gt;end</data>
    </edge>
    <edge source="attribute.integrity.variety.Log tampering" target="end">
      <data key="d5">1</data>
      <data key="d6">forward</data>
      <data key="d7">1.0</data>
      <data key="d8">attribute.integrity.variety.Log tampering-&gt;end</data>
    </edge>
    <edge source="action.malware.variety.Adware" target="attribute.confidentiality.data.variety.Medical">
      <data key="d5">1</data>
      <data key="d6">forward</data>
      <data key="d7">1.0</data>
      <data key="d8">action.malware.variety.Adware-&gt;attribute.confidentiality.data.variety.Medical</data>
    </edge>
    <edge source="action.malware.variety.Adware" target="attribute.integrity.variety.Software installation">
      <data key="d5">1</data>
      <data key="d6">forward</data>
      <data key="d7">1.0</data>
      <data key="d8">action.malware.variety.Adware-&gt;attribute.integrity.variety.Software installation</data>
    </edge>
    <edge source="action.malware.variety.Ram scraper" target="action.malware.variety.Ransomware">
      <data key="d5">1</data>
      <data key="d6">forward</data>
      <data key="d7">1.0</data>
      <data key="d8">action.malware.variety.Ram scraper-&gt;action.malware.variety.Ransomware</data>
    </edge>
    <edge source="action.malware.variety.Ram scraper" target="action.malware.variety.Spyware/Keylogger">
      <data key="d5">1</data>
      <data key="d6">forward</data>
      <data key="d7">1.0</data>
      <data key="d8">action.malware.variety.Ram scraper-&gt;action.malware.variety.Spyware/Keylogger</data>
    </edge>
    <edge source="action.malware.variety.Ram scraper" target="action.malware.variety.Exploit vuln">
      <data key="d5">1</data>
      <data key="d6">forward</data>
      <data key="d7">1.0</data>
      <data key="d8">action.malware.variety.Ram scraper-&gt;action.malware.variety.Exploit vuln</data>
    </edge>
    <edge source="action.hacking.variety.DoS" target="attribute.availability.variety.Degradation">
      <data key="d5">201</data>
      <data key="d6">forward</data>
      <data key="d7">0.00497512437811</data>
      <data key="d8">action.hacking.variety.DoS-&gt;attribute.availability.variety.Degradation</data>
    </edge>
    <edge source="action.hacking.variety.DoS" target="attribute.availability.variety.Loss">
      <data key="d5">1</data>
      <data key="d6">forward</data>
      <data key="d7">1.0</data>
      <data key="d8">action.hacking.variety.DoS-&gt;attribute.availability.variety.Loss</data>
    </edge>
    <edge source="action.hacking.variety.DoS" target="attribute.availability.variety.Interruption">
      <data key="d5">6</data>
      <data key="d6">forward</data>
      <data key="d7">0.975124378109</data>
      <data key="d8">action.hacking.variety.DoS-&gt;attribute.availability.variety.Interruption</data>
    </edge>
    <edge source="attribute.confidentiality.data.variety.Credentials" target="end">
      <data key="d5">1</data>
      <data key="d6">forward</data>
      <data key="d7">1.0</data>
      <data key="d8">attribute.confidentiality.data.variety.Credentials-&gt;end</data>
    </edge>
    <edge source="attribute.confidentiality.data.variety.Credentials" target="action.malware.variety.Ransomware">
      <data key="d5">1</data>
      <data key="d6">backward</data>
      <data key="d7">1.0</data>
      <data key="d8">attribute.confidentiality.data.variety.Credentials-&gt;action.malware.variety.Ransomware</data>
    </edge>
    <edge source="attribute.confidentiality.data.variety.Credentials" target="action.malware.variety.Spyware/Keylogger">
      <data key="d5">4</data>
      <data key="d6">backward</data>
      <data key="d7">0.985074626866</data>
      <data key="d8">attribute.confidentiality.data.variety.Credentials-&gt;action.malware.variety.Spyware/Keylogger</data>
    </edge>
    <edge source="attribute.confidentiality.data.variety.Credentials" target="action.social.variety.Phishing">
      <data key="d5">1</data>
      <data key="d6">backward</data>
      <data key="d7">1.0</data>
      <data key="d8">attribute.confidentiality.data.variety.Credentials-&gt;action.social.variety.Phishing</data>
    </edge>
    <edge source="attribute.confidentiality.data.variety.Credentials" target="action.malware.variety.Exploit vuln">
      <data key="d5">1</data>
      <data key="d6">backward</data>
      <data key="d7">1.0</data>
      <data key="d8">attribute.confidentiality.data.variety.Credentials-&gt;action.malware.variety.Exploit vuln</data>
    </edge>
    <edge source="attribute.confidentiality.data.variety.Secrets" target="end">
      <data key="d5">1</data>
      <data key="d6">forward</data>
      <data key="d7">1.0</data>
      <data key="d8">attribute.confidentiality.data.variety.Secrets-&gt;end</data>
    </edge>
    <edge source="attribute.integrity.variety.Alter behavior" target="end">
      <data key="d5">1</data>
      <data key="d6">forward</data>
      <data key="d7">1.0</data>
      <data key="d8">attribute.integrity.variety.Alter behavior-&gt;end</data>
    </edge>
    <edge source="attribute.integrity.variety.Alter behavior" target="action.malware.variety.Spyware/Keylogger">
      <data key="d5">3</data>
      <data key="d6">backward</data>
      <data key="d7">0.990049751244</data>
      <data key="d8">attribute.integrity.variety.Alter behavior-&gt;action.malware.variety.Spyware/Keylogger</data>
    </edge>
    <edge source="action.hacking.variety.Brute force" target="action.hacking.variety.DoS">
      <data key="d5">1</data>
      <data key="d6">forward</data>
      <data key="d7">1.0</data>
      <data key="d8">action.hacking.variety.Brute force-&gt;action.hacking.variety.DoS</data>
    </edge>
    <edge source="action.malware.variety.DoS" target="action.malware.variety.Ransomware">
      <data key="d5">1</data>
      <data key="d6">forward</data>
      <data key="d7">1.0</data>
      <data key="d8">action.malware.variety.DoS-&gt;action.malware.variety.Ransomware</data>
    </edge>
    <edge source="action.malware.variety.DoS" target="action.malware.variety.Spyware/Keylogger">
      <data key="d5">1</data>
      <data key="d6">forward</data>
      <data key="d7">1.0</data>
      <data key="d8">action.malware.variety.DoS-&gt;action.malware.variety.Spyware/Keylogger</data>
    </edge>
    <edge source="action.malware.variety.DoS" target="action.malware.variety.Exploit vuln">
      <data key="d5">1</data>
      <data key="d6">forward</data>
      <data key="d7">1.0</data>
      <data key="d8">action.malware.variety.DoS-&gt;action.malware.variety.Exploit vuln</data>
    </edge>
    <edge source="attribute.integrity.variety.Modify privileges" target="end">
      <data key="d5">1</data>
      <data key="d6">forward</data>
      <data key="d7">1.0</data>
      <data key="d8">attribute.integrity.variety.Modify privileges-&gt;end</data>
    </edge>
    <edge source="action.malware.variety.Scan network" target="action.malware.variety.Ransomware">
      <data key="d5">1</data>
      <data key="d6">forward</data>
      <data key="d7">1.0</data>
      <data key="d8">action.malware.variety.Scan network-&gt;action.malware.variety.Ransomware</data>
    </edge>
    <edge source="action.malware.variety.Scan network" target="action.malware.variety.Spyware/Keylogger">
      <data key="d5">1</data>
      <data key="d6">forward</data>
      <data key="d7">1.0</data>
      <data key="d8">action.malware.variety.Scan network-&gt;action.malware.variety.Spyware/Keylogger</data>
    </edge>
    <edge source="action.malware.variety.Scan network" target="action.malware.variety.Exploit vuln">
      <data key="d5">1</data>
      <data key="d6">forward</data>
      <data key="d7">1.0</data>
      <data key="d8">action.malware.variety.Scan network-&gt;action.malware.variety.Exploit vuln</data>
    </edge>
    <edge source="action.hacking.variety.Use of backdoor or C2" target="action.malware.variety.Ransomware">
      <data key="d5">1</data>
      <data key="d6">forward</data>
      <data key="d7">1.0</data>
      <data key="d8">action.hacking.variety.Use of backdoor or C2-&gt;action.malware.variety.Ransomware</data>
    </edge>
    <edge source="action.hacking.variety.Use of backdoor or C2" target="action.malware.variety.Spyware/Keylogger">
      <data key="d5">1</data>
      <data key="d6">forward</data>
      <data key="d7">1.0</data>
      <data key="d8">action.hacking.variety.Use of backdoor or C2-&gt;action.malware.variety.Spyware/Keylogger</data>
    </edge>
    <edge source="action.hacking.variety.Use of backdoor or C2" target="action.social.variety.Phishing">
      <data key="d5">2</data>
      <data key="d6">forward</data>
      <data key="d7">0.995024875622</data>
      <data key="d8">action.hacking.variety.Use of backdoor or C2-&gt;action.social.variety.Phishing</data>
    </edge>
    <edge source="action.hacking.variety.Use of backdoor or C2" target="action.malware.variety.Exploit vuln">
      <data key="d5">1</data>
      <data key="d6">forward</data>
      <data key="d7">1.0</data>
      <data key="d8">action.hacking.variety.Use of backdoor or C2-&gt;action.malware.variety.Exploit vuln</data>
    </edge>
    <edge source="action.malware.variety.Spam" target="action.malware.variety.Ransomware">
      <data key="d5">1</data>
      <data key="d6">forward</data>
      <data key="d7">1.0</data>
      <data key="d8">action.malware.variety.Spam-&gt;action.malware.variety.Ransomware</data>
    </edge>
    <edge source="action.malware.variety.Spam" target="action.malware.variety.Spyware/Keylogger">
      <data key="d5">1</data>
      <data key="d6">forward</data>
      <data key="d7">1.0</data>
      <data key="d8">action.malware.variety.Spam-&gt;action.malware.variety.Spyware/Keylogger</data>
    </edge>
    <edge source="action.malware.variety.Spam" target="action.malware.variety.Exploit vuln">
      <data key="d5">1</data>
      <data key="d6">forward</data>
      <data key="d7">1.0</data>
      <data key="d8">action.malware.variety.Spam-&gt;action.malware.variety.Exploit vuln</data>
    </edge>
    <edge source="attribute.integrity.variety.Fraudulent transaction" target="end">
      <data key="d5">1</data>
      <data key="d6">forward</data>
      <data key="d7">1.0</data>
      <data key="d8">attribute.integrity.variety.Fraudulent transaction-&gt;end</data>
    </edge>
    <edge source="attribute.integrity.variety.Modify configuration" target="end">
      <data key="d5">1</data>
      <data key="d6">forward</data>
      <data key="d7">1.0</data>
      <data key="d8">attribute.integrity.variety.Modify configuration-&gt;end</data>
    </edge>
    <edge source="attribute.availability.variety.Degradation" target="end">
      <data key="d5">1</data>
      <data key="d6">forward</data>
      <data key="d7">1.0</data>
      <data key="d8">attribute.availability.variety.Degradation-&gt;end</data>
    </edge>
    <edge source="action.physical.variety.Theft" target="attribute.confidentiality.data.variety.Medical">
      <data key="d5">5</data>
      <data key="d6">forward</data>
      <data key="d7">0.980099502488</data>
      <data key="d8">action.physical.variety.Theft-&gt;attribute.confidentiality.data.variety.Medical</data>
    </edge>
    <edge source="action.physical.variety.Theft" target="attribute.availability.variety.Loss">
      <data key="d5">6</data>
      <data key="d6">forward</data>
      <data key="d7">0.975124378109</data>
      <data key="d8">action.physical.variety.Theft-&gt;attribute.availability.variety.Loss</data>
    </edge>
    <edge source="action.physical.variety.Theft" target="attribute.confidentiality.data.variety.Bank">
      <data key="d5">1</data>
      <data key="d6">forward</data>
      <data key="d7">1.0</data>
      <data key="d8">action.physical.variety.Theft-&gt;attribute.confidentiality.data.variety.Bank</data>
    </edge>
    <edge source="attribute.availability.variety.Interruption" target="action.hacking.variety.DoS">
      <data key="d5">1</data>
      <data key="d6">backward</data>
      <data key="d7">1.0</data>
      <data key="d8">attribute.availability.variety.Interruption-&gt;action.hacking.variety.DoS</data>
    </edge>
    <edge source="attribute.availability.variety.Interruption" target="end">
      <data key="d5">1</data>
      <data key="d6">forward</data>
      <data key="d7">1.0</data>
      <data key="d8">attribute.availability.variety.Interruption-&gt;end</data>
    </edge>
  </graph>
</graphml>
