<?xml version="1.0" encoding="UTF-8"?><graphml xmlns="http://graphml.graphdrawing.org/xmlns">
<key attr.name="label" attr.type="string" for="node" id="label"/>
<key attr.name="Edge Label" attr.type="string" for="edge" id="edgelabel"/>
<key attr.name="weight" attr.type="double" for="edge" id="weight"/>
<key attr.name="r" attr.type="int" for="node" id="r"/>
<key attr.name="g" attr.type="int" for="node" id="g"/>
<key attr.name="b" attr.type="int" for="node" id="b"/>
<key attr.name="x" attr.type="float" for="node" id="x"/>
<key attr.name="y" attr.type="float" for="node" id="y"/>
<key attr.name="size" attr.type="float" for="node" id="size"/>
<key attr.name="Label" attr.type="string" for="node" id="d4"/>
<key attr.name="weight" attr.type="double" for="node" id="d3"/>
<key attr.name="sub_type" attr.type="string" for="node" id="d2"/>
<key attr.name="type" attr.type="string" for="node" id="d1"/>
<key attr.name="count" attr.type="int" for="node" id="d0"/>
<key attr.name="Label" attr.type="string" for="edge" id="d8"/>
<key attr.name="direction" attr.type="string" for="edge" id="d6"/>
<key attr.name="count" attr.type="int" for="edge" id="d5"/>
<graph edgedefault="directed">
<node id="action.malware.variety.Password dumper">
<data key="label">action.malware.variety.Password dumper</data>
<data key="d4">action.malware.variety.Password dumper</data>
<data key="d3">0.5</data>
<data key="d2">action.malware</data>
<data key="d1">action</data>
<data key="d0">1</data>
<data key="size">40.0</data>
<data key="r">0</data>
<data key="g">175</data>
<data key="b">135</data>
<data key="x">125.4278</data>
<data key="y">100.02534</data>
</node>
<node id="end">
<data key="label">end</data>
<data key="d4">end</data>
<data key="d3">1.0</data>
<data key="d2">end</data>
<data key="d1">end</data>
<data key="d0">0</data>
<data key="size">10.0</data>
<data key="r">250</data>
<data key="g">146</data>
<data key="b">0</data>
<data key="x">-235.21854</data>
<data key="y">151.01378</data>
</node>
<node id="action.social.variety.Pretexting">
<data key="label">action.social.variety.Pretexting</data>
<data key="d4">action.social.variety.Pretexting</data>
<data key="d3">0.5</data>
<data key="d2">action.social</data>
<data key="d1">action</data>
<data key="d0">1</data>
<data key="size">40.0</data>
<data key="r">105</data>
<data key="g">196</data>
<data key="b">4</data>
<data key="x">138.93488</data>
<data key="y">-80.21409</data>
</node>
<node id="attribute.confidentiality.data.variety.Bank">
<data key="label">attribute.confidentiality.data.variety.Bank</data>
<data key="d4">attribute.confidentiality.data.variety.Bank</data>
<data key="d3">0.5</data>
<data key="d2">attribute.confidentiality</data>
<data key="d1">attribute</data>
<data key="d0">1</data>
<data key="size">40.0</data>
<data key="r">226</data>
<data key="g">139</data>
<data key="b">255</data>
<data key="x">69.60718</data>
<data key="y">-144.5408</data>
</node>
<node id="attribute.confidentiality.data.variety.Personal">
<data key="label">attribute.confidentiality.data.variety.Personal</data>
<data key="d4">attribute.confidentiality.data.variety.Personal</data>
<data key="d3">0.5</data>
<data key="d2">attribute.confidentiality</data>
<data key="d1">attribute</data>
<data key="d0">1</data>
<data key="size">40.0</data>
<data key="r">226</data>
<data key="g">139</data>
<data key="b">255</data>
<data key="x">-109.11887</data>
<data key="y">-117.60218</data>
</node>
<node id="action.social.variety.Phishing">
<data key="label">action.social.variety.Phishing</data>
<data key="d4">action.social.variety.Phishing</data>
<data key="d3">0.5</data>
<data key="d2">action.social</data>
<data key="d1">action</data>
<data key="d0">1</data>
<data key="size">40.0</data>
<data key="r">105</data>
<data key="g">196</data>
<data key="b">4</data>
<data key="x">159.9796</data>
<data key="y">11.988813</data>
</node>
<node id="attribute.confidentiality.data.variety.System">
<data key="label">attribute.confidentiality.data.variety.System</data>
<data key="d4">attribute.confidentiality.data.variety.System</data>
<data key="d3">0.5</data>
<data key="d2">attribute.confidentiality</data>
<data key="d1">attribute</data>
<data key="d0">1</data>
<data key="size">40.0</data>
<data key="r">226</data>
<data key="g">139</data>
<data key="b">255</data>
<data key="x">-156.40591</data>
<data key="y">-35.698627</data>
</node>
<node id="action.hacking.variety.Use of stolen creds">
<data key="label">action.hacking.variety.Use of stolen creds</data>
<data key="d4">action.hacking.variety.Use of stolen creds</data>
<data key="d3">0.5</data>
<data key="d2">action.hacking</data>
<data key="d1">action</data>
<data key="d0">1</data>
<data key="size">40.0</data>
<data key="r">255</data>
<data key="g">93</data>
<data key="b">133</data>
<data key="x">47.287037</data>
<data key="y">153.30081</data>
</node>
<node id="attribute.confidentiality.data.variety.Credentials">
<data key="label">attribute.confidentiality.data.variety.Credentials</data>
<data key="d4">attribute.confidentiality.data.variety.Credentials</data>
<data key="d3">0.5</data>
<data key="d2">attribute.confidentiality</data>
<data key="d1">attribute</data>
<data key="d0">1</data>
<data key="size">40.0</data>
<data key="r">226</data>
<data key="g">139</data>
<data key="b">255</data>
<data key="x">-23.91058</data>
<data key="y">-158.63634</data>
</node>
<node id="attribute.integrity.variety.Alter behavior">
<data key="label">attribute.integrity.variety.Alter behavior</data>
<data key="d4">attribute.integrity.variety.Alter behavior</data>
<data key="d3">0.5</data>
<data key="d2">attribute.integrity</data>
<data key="d1">attribute</data>
<data key="d0">1</data>
<data key="size">40.0</data>
<data key="r">0</data>
<data key="g">199</data>
<data key="b">255</data>
<data key="x">-149.33838</data>
<data key="y">58.610996</data>
</node>
<node id="attribute.integrity.variety.Software installation">
<data key="label">attribute.integrity.variety.Software installation</data>
<data key="d4">attribute.integrity.variety.Software installation</data>
<data key="d3">0.5</data>
<data key="d2">attribute.integrity</data>
<data key="d1">attribute</data>
<data key="d0">1</data>
<data key="size">40.0</data>
<data key="r">0</data>
<data key="g">199</data>
<data key="b">255</data>
<data key="x">-90.37241</data>
<data key="y">132.55199</data>
</node>
<node id="start">
<data key="label">start</data>
<data key="d4">start</data>
<data key="d3">1.0</data>
<data key="d2">start</data>
<data key="d1">start</data>
<data key="d0">0</data>
<data key="size">10.0</data>
<data key="r">128</data>
<data key="g">107</data>
<data key="b">104</data>
<data key="x">237.86044</data>
<data key="y">-149.16943</data>
</node>
<edge id="3287" source="attribute.confidentiality.data.variety.Bank" target="end">
<data key="weight">1.0</data>
<data key="d8">attribute.confidentiality.data.variety.Bank-&gt;end</data>
<data key="d6">forward</data>
<data key="d5">1</data>
</edge>
<edge id="3288" source="attribute.confidentiality.data.variety.Personal" target="end">
<data key="weight">1.0</data>
<data key="d8">attribute.confidentiality.data.variety.Personal-&gt;end</data>
<data key="d6">forward</data>
<data key="d5">1</data>
</edge>
<edge id="3289" source="attribute.confidentiality.data.variety.System" target="end">
<data key="weight">1.0</data>
<data key="d8">attribute.confidentiality.data.variety.System-&gt;end</data>
<data key="d6">forward</data>
<data key="d5">1</data>
</edge>
<edge id="3290" source="attribute.confidentiality.data.variety.Credentials" target="end">
<data key="weight">1.0</data>
<data key="d8">attribute.confidentiality.data.variety.Credentials-&gt;end</data>
<data key="d6">forward</data>
<data key="d5">1</data>
</edge>
<edge id="3291" source="attribute.integrity.variety.Alter behavior" target="end">
<data key="weight">1.0</data>
<data key="d8">attribute.integrity.variety.Alter behavior-&gt;end</data>
<data key="d6">forward</data>
<data key="d5">1</data>
</edge>
<edge id="3292" source="attribute.integrity.variety.Software installation" target="end">
<data key="weight">1.0</data>
<data key="d8">attribute.integrity.variety.Software installation-&gt;end</data>
<data key="d6">forward</data>
<data key="d5">1</data>
</edge>
<edge id="3293" source="start" target="action.malware.variety.Password dumper">
<data key="weight">1.0</data>
<data key="d8">start-&gt;action.malware.variety.Password dumper</data>
<data key="d6">forward</data>
<data key="d5">1</data>
</edge>
<edge id="3294" source="start" target="action.hacking.variety.Use of stolen creds">
<data key="weight">1.0</data>
<data key="d8">start-&gt;action.hacking.variety.Use of stolen creds</data>
<data key="d6">forward</data>
<data key="d5">1</data>
</edge>
<edge id="3295" source="start" target="action.social.variety.Phishing">
<data key="weight">1.0</data>
<data key="d8">start-&gt;action.social.variety.Phishing</data>
<data key="d6">forward</data>
<data key="d5">1</data>
</edge>
<edge id="3296" source="start" target="action.social.variety.Pretexting">
<data key="weight">1.0</data>
<data key="d8">start-&gt;action.social.variety.Pretexting</data>
<data key="d6">forward</data>
<data key="d5">1</data>
</edge>
</graph>
</graphml>
