<?xml version='1.0' encoding='utf-8'?>
<gexf version="1.1" xmlns="http://www.gexf.net/1.1draft" xmlns:viz="http://www.gexf.net/1.1draft/viz" xmlns:xsi="http://www.w3.org/2001/XMLSchema-instance" xsi:schemaLocation="http://www.w3.org/2001/XMLSchema-instance">
  <graph defaultedgetype="directed" mode="static">
    <attributes class="edge" mode="static">
      <attribute id="5" title="count" type="integer" />
      <attribute id="6" title="direction" type="string" />
      <attribute id="7" title="Label" type="string" />
    </attributes>
    <attributes class="node" mode="static">
      <attribute id="0" title="count" type="integer" />
      <attribute id="1" title="type" type="string" />
      <attribute id="2" title="sub_type" type="string" />
      <attribute id="3" title="weight" type="double" />
      <attribute id="4" title="Label" type="string" />
    </attributes>
    <nodes>
      <node id="action.misuse.variety.Privilege abuse" label="action.misuse.variety.Privilege abuse">
        <attvalues>
          <attvalue for="0" value="4" />
          <attvalue for="1" value="action" />
          <attvalue for="2" value="action.misuse" />
          <attvalue for="3" value="0.929824561404" />
          <attvalue for="4" value="action.misuse.variety.Privilege abuse" />
        </attvalues>
      </node>
      <node id="action.malware.variety.Capture app data" label="action.malware.variety.Capture app data">
        <attvalues>
          <attvalue for="0" value="2" />
          <attvalue for="1" value="action" />
          <attvalue for="2" value="action.malware" />
          <attvalue for="3" value="0.964912280702" />
          <attvalue for="4" value="action.malware.variety.Capture app data" />
        </attvalues>
      </node>
      <node id="attribute.confidentiality.data.variety.Internal" label="attribute.confidentiality.data.variety.Internal">
        <attvalues>
          <attvalue for="0" value="6" />
          <attvalue for="1" value="attribute" />
          <attvalue for="2" value="attribute.confidentiality" />
          <attvalue for="3" value="0.894736842105" />
          <attvalue for="4" value="attribute.confidentiality.data.variety.Internal" />
        </attvalues>
      </node>
      <node id="action.social.variety.Phishing" label="action.social.variety.Phishing">
        <attvalues>
          <attvalue for="0" value="38" />
          <attvalue for="1" value="action" />
          <attvalue for="2" value="action.social" />
          <attvalue for="3" value="0.333333333333" />
          <attvalue for="4" value="action.social.variety.Phishing" />
        </attvalues>
      </node>
      <node id="action.hacking.variety.Use of stolen creds" label="action.hacking.variety.Use of stolen creds">
        <attvalues>
          <attvalue for="0" value="41" />
          <attvalue for="1" value="action" />
          <attvalue for="2" value="action.hacking" />
          <attvalue for="3" value="0.280701754386" />
          <attvalue for="4" value="action.hacking.variety.Use of stolen creds" />
        </attvalues>
      </node>
      <node id="action.malware.variety.Export data" label="action.malware.variety.Export data">
        <attvalues>
          <attvalue for="0" value="37" />
          <attvalue for="1" value="action" />
          <attvalue for="2" value="action.malware" />
          <attvalue for="3" value="0.350877192982" />
          <attvalue for="4" value="action.malware.variety.Export data" />
        </attvalues>
      </node>
      <node id="attribute.availability.variety.Loss" label="attribute.availability.variety.Loss">
        <attvalues>
          <attvalue for="0" value="3" />
          <attvalue for="1" value="attribute" />
          <attvalue for="2" value="attribute.availability" />
          <attvalue for="3" value="0.947368421053" />
          <attvalue for="4" value="attribute.availability.variety.Loss" />
        </attvalues>
      </node>
      <node id="attribute.confidentiality.data.variety.Payment" label="attribute.confidentiality.data.variety.Payment">
        <attvalues>
          <attvalue for="0" value="3" />
          <attvalue for="1" value="attribute" />
          <attvalue for="2" value="attribute.confidentiality" />
          <attvalue for="3" value="0.947368421053" />
          <attvalue for="4" value="attribute.confidentiality.data.variety.Payment" />
        </attvalues>
      </node>
      <node id="attribute.integrity.variety.Software installation" label="attribute.integrity.variety.Software installation">
        <attvalues>
          <attvalue for="0" value="56" />
          <attvalue for="1" value="attribute" />
          <attvalue for="2" value="attribute.integrity" />
          <attvalue for="3" value="0.0175438596491" />
          <attvalue for="4" value="attribute.integrity.variety.Software installation" />
        </attvalues>
      </node>
      <node id="end" label="end">
        <attvalues>
          <attvalue for="0" value="0" />
          <attvalue for="1" value="end" />
          <attvalue for="2" value="end" />
          <attvalue for="3" value="1.0" />
          <attvalue for="4" value="end" />
        </attvalues>
      </node>
      <node id="action.physical.variety.Theft" label="action.physical.variety.Theft">
        <attvalues>
          <attvalue for="0" value="3" />
          <attvalue for="1" value="action" />
          <attvalue for="2" value="action.physical" />
          <attvalue for="3" value="0.947368421053" />
          <attvalue for="4" value="action.physical.variety.Theft" />
        </attvalues>
      </node>
      <node id="attribute.confidentiality.data.variety.Personal" label="attribute.confidentiality.data.variety.Personal">
        <attvalues>
          <attvalue for="0" value="6" />
          <attvalue for="1" value="attribute" />
          <attvalue for="2" value="attribute.confidentiality" />
          <attvalue for="3" value="0.894736842105" />
          <attvalue for="4" value="attribute.confidentiality.data.variety.Personal" />
        </attvalues>
      </node>
      <node id="start" label="start">
        <attvalues>
          <attvalue for="0" value="0" />
          <attvalue for="1" value="start" />
          <attvalue for="2" value="start" />
          <attvalue for="3" value="1.0" />
          <attvalue for="4" value="start" />
        </attvalues>
      </node>
      <node id="action.malware.variety.C2" label="action.malware.variety.C2">
        <attvalues>
          <attvalue for="0" value="38" />
          <attvalue for="1" value="action" />
          <attvalue for="2" value="action.malware" />
          <attvalue for="3" value="0.333333333333" />
          <attvalue for="4" value="action.malware.variety.C2" />
        </attvalues>
      </node>
      <node id="action.social.variety.Pretexting" label="action.social.variety.Pretexting">
        <attvalues>
          <attvalue for="0" value="6" />
          <attvalue for="1" value="action" />
          <attvalue for="2" value="action.social" />
          <attvalue for="3" value="0.894736842105" />
          <attvalue for="4" value="action.social.variety.Pretexting" />
        </attvalues>
      </node>
      <node id="action.malware.variety.Ransomware" label="action.malware.variety.Ransomware">
        <attvalues>
          <attvalue for="0" value="18" />
          <attvalue for="1" value="action" />
          <attvalue for="2" value="action.malware" />
          <attvalue for="3" value="0.684210526316" />
          <attvalue for="4" value="action.malware.variety.Ransomware" />
        </attvalues>
      </node>
      <node id="action.malware.variety.Spyware/Keylogger" label="action.malware.variety.Spyware/Keylogger">
        <attvalues>
          <attvalue for="0" value="37" />
          <attvalue for="1" value="action" />
          <attvalue for="2" value="action.malware" />
          <attvalue for="3" value="0.350877192982" />
          <attvalue for="4" value="action.malware.variety.Spyware/Keylogger" />
        </attvalues>
      </node>
      <node id="attribute.availability.variety.Obscuration" label="attribute.availability.variety.Obscuration">
        <attvalues>
          <attvalue for="0" value="18" />
          <attvalue for="1" value="attribute" />
          <attvalue for="2" value="attribute.availability" />
          <attvalue for="3" value="0.684210526316" />
          <attvalue for="4" value="attribute.availability.variety.Obscuration" />
        </attvalues>
      </node>
      <node id="action.misuse.variety.Possession abuse" label="action.misuse.variety.Possession abuse">
        <attvalues>
          <attvalue for="0" value="2" />
          <attvalue for="1" value="action" />
          <attvalue for="2" value="action.misuse" />
          <attvalue for="3" value="0.964912280702" />
          <attvalue for="4" value="action.misuse.variety.Possession abuse" />
        </attvalues>
      </node>
      <node id="action.hacking.variety.DoS" label="action.hacking.variety.DoS">
        <attvalues>
          <attvalue for="0" value="8" />
          <attvalue for="1" value="action" />
          <attvalue for="2" value="action.hacking" />
          <attvalue for="3" value="0.859649122807" />
          <attvalue for="4" value="action.hacking.variety.DoS" />
        </attvalues>
      </node>
      <node id="attribute.confidentiality.data.variety.Credentials" label="attribute.confidentiality.data.variety.Credentials">
        <attvalues>
          <attvalue for="0" value="36" />
          <attvalue for="1" value="attribute" />
          <attvalue for="2" value="attribute.confidentiality" />
          <attvalue for="3" value="0.368421052632" />
          <attvalue for="4" value="attribute.confidentiality.data.variety.Credentials" />
        </attvalues>
      </node>
      <node id="attribute.confidentiality.data.variety.Secrets" label="attribute.confidentiality.data.variety.Secrets">
        <attvalues>
          <attvalue for="0" value="2" />
          <attvalue for="1" value="attribute" />
          <attvalue for="2" value="attribute.confidentiality" />
          <attvalue for="3" value="0.964912280702" />
          <attvalue for="4" value="attribute.confidentiality.data.variety.Secrets" />
        </attvalues>
      </node>
      <node id="attribute.integrity.variety.Alter behavior" label="attribute.integrity.variety.Alter behavior">
        <attvalues>
          <attvalue for="0" value="43" />
          <attvalue for="1" value="attribute" />
          <attvalue for="2" value="attribute.integrity" />
          <attvalue for="3" value="0.245614035088" />
          <attvalue for="4" value="attribute.integrity.variety.Alter behavior" />
        </attvalues>
      </node>
      <node id="attribute.integrity.variety.Misrepresentation" label="attribute.integrity.variety.Misrepresentation">
        <attvalues>
          <attvalue for="0" value="2" />
          <attvalue for="1" value="attribute" />
          <attvalue for="2" value="attribute.integrity" />
          <attvalue for="3" value="0.964912280702" />
          <attvalue for="4" value="attribute.integrity.variety.Misrepresentation" />
        </attvalues>
      </node>
      <node id="action.hacking.variety.Use of backdoor or C2" label="action.hacking.variety.Use of backdoor or C2">
        <attvalues>
          <attvalue for="0" value="37" />
          <attvalue for="1" value="action" />
          <attvalue for="2" value="action.hacking" />
          <attvalue for="3" value="0.350877192982" />
          <attvalue for="4" value="action.hacking.variety.Use of backdoor or C2" />
        </attvalues>
      </node>
      <node id="attribute.integrity.variety.Fraudulent transaction" label="attribute.integrity.variety.Fraudulent transaction">
        <attvalues>
          <attvalue for="0" value="38" />
          <attvalue for="1" value="attribute" />
          <attvalue for="2" value="attribute.integrity" />
          <attvalue for="3" value="0.333333333333" />
          <attvalue for="4" value="attribute.integrity.variety.Fraudulent transaction" />
        </attvalues>
      </node>
      <node id="attribute.availability.variety.Degradation" label="attribute.availability.variety.Degradation">
        <attvalues>
          <attvalue for="0" value="3" />
          <attvalue for="1" value="attribute" />
          <attvalue for="2" value="attribute.availability" />
          <attvalue for="3" value="0.947368421053" />
          <attvalue for="4" value="attribute.availability.variety.Degradation" />
        </attvalues>
      </node>
      <node id="attribute.availability.variety.Interruption" label="attribute.availability.variety.Interruption">
        <attvalues>
          <attvalue for="0" value="6" />
          <attvalue for="1" value="attribute" />
          <attvalue for="2" value="attribute.availability" />
          <attvalue for="3" value="0.894736842105" />
          <attvalue for="4" value="attribute.availability.variety.Interruption" />
        </attvalues>
      </node>
    </nodes>
    <edges>
      <edge id="0" source="action.misuse.variety.Privilege abuse" target="attribute.confidentiality.data.variety.Payment" weight="1.0">
        <attvalues>
          <attvalue for="5" value="1" />
          <attvalue for="6" value="forward" />
          <attvalue for="7" value="action.misuse.variety.Privilege abuse-&gt;attribute.confidentiality.data.variety.Payment" />
        </attvalues>
      </edge>
      <edge id="1" source="action.misuse.variety.Privilege abuse" target="attribute.confidentiality.data.variety.Secrets" weight="1.0">
        <attvalues>
          <attvalue for="5" value="1" />
          <attvalue for="6" value="forward" />
          <attvalue for="7" value="action.misuse.variety.Privilege abuse-&gt;attribute.confidentiality.data.variety.Secrets" />
        </attvalues>
      </edge>
      <edge id="2" source="action.misuse.variety.Privilege abuse" target="attribute.confidentiality.data.variety.Personal" weight="1.0">
        <attvalues>
          <attvalue for="5" value="1" />
          <attvalue for="6" value="forward" />
          <attvalue for="7" value="action.misuse.variety.Privilege abuse-&gt;attribute.confidentiality.data.variety.Personal" />
        </attvalues>
      </edge>
      <edge id="3" source="action.misuse.variety.Privilege abuse" target="attribute.confidentiality.data.variety.Internal" weight="0.972972972973">
        <attvalues>
          <attvalue for="5" value="2" />
          <attvalue for="6" value="forward" />
          <attvalue for="7" value="action.misuse.variety.Privilege abuse-&gt;attribute.confidentiality.data.variety.Internal" />
        </attvalues>
      </edge>
      <edge id="4" source="action.malware.variety.Capture app data" target="attribute.confidentiality.data.variety.Payment" weight="1.0">
        <attvalues>
          <attvalue for="5" value="1" />
          <attvalue for="6" value="forward" />
          <attvalue for="7" value="action.malware.variety.Capture app data-&gt;attribute.confidentiality.data.variety.Payment" />
        </attvalues>
      </edge>
      <edge id="5" source="action.malware.variety.Capture app data" target="attribute.integrity.variety.Software installation" weight="1.0">
        <attvalues>
          <attvalue for="5" value="1" />
          <attvalue for="6" value="forward" />
          <attvalue for="7" value="action.malware.variety.Capture app data-&gt;attribute.integrity.variety.Software installation" />
        </attvalues>
      </edge>
      <edge id="6" source="attribute.confidentiality.data.variety.Internal" target="action.social.variety.Pretexting" weight="0.972972972973">
        <attvalues>
          <attvalue for="5" value="2" />
          <attvalue for="6" value="backward" />
          <attvalue for="7" value="attribute.confidentiality.data.variety.Internal-&gt;action.social.variety.Pretexting" />
        </attvalues>
      </edge>
      <edge id="7" source="attribute.confidentiality.data.variety.Internal" target="end" weight="1.0">
        <attvalues>
          <attvalue for="5" value="1" />
          <attvalue for="6" value="forward" />
          <attvalue for="7" value="attribute.confidentiality.data.variety.Internal-&gt;end" />
        </attvalues>
      </edge>
      <edge id="8" source="attribute.confidentiality.data.variety.Internal" target="action.misuse.variety.Privilege abuse" weight="0.972972972973">
        <attvalues>
          <attvalue for="5" value="2" />
          <attvalue for="6" value="backward" />
          <attvalue for="7" value="attribute.confidentiality.data.variety.Internal-&gt;action.misuse.variety.Privilege abuse" />
        </attvalues>
      </edge>
      <edge id="9" source="attribute.confidentiality.data.variety.Internal" target="action.hacking.variety.Use of stolen creds" weight="1.0">
        <attvalues>
          <attvalue for="5" value="1" />
          <attvalue for="6" value="backward" />
          <attvalue for="7" value="attribute.confidentiality.data.variety.Internal-&gt;action.hacking.variety.Use of stolen creds" />
        </attvalues>
      </edge>
      <edge id="10" source="action.social.variety.Phishing" target="action.hacking.variety.Use of stolen creds" weight="1.0">
        <attvalues>
          <attvalue for="5" value="1" />
          <attvalue for="6" value="forward" />
          <attvalue for="7" value="action.social.variety.Phishing-&gt;action.hacking.variety.Use of stolen creds" />
        </attvalues>
      </edge>
      <edge id="11" source="action.social.variety.Phishing" target="action.malware.variety.C2" weight="0.0540540540541">
        <attvalues>
          <attvalue for="5" value="36" />
          <attvalue for="6" value="forward" />
          <attvalue for="7" value="action.social.variety.Phishing-&gt;action.malware.variety.C2" />
        </attvalues>
      </edge>
      <edge id="12" source="action.hacking.variety.Use of stolen creds" target="action.malware.variety.C2" weight="0.0540540540541">
        <attvalues>
          <attvalue for="5" value="36" />
          <attvalue for="6" value="forward" />
          <attvalue for="7" value="action.hacking.variety.Use of stolen creds-&gt;action.malware.variety.C2" />
        </attvalues>
      </edge>
      <edge id="13" source="action.hacking.variety.Use of stolen creds" target="attribute.confidentiality.data.variety.Internal" weight="0.918918918919">
        <attvalues>
          <attvalue for="5" value="4" />
          <attvalue for="6" value="forward" />
          <attvalue for="7" value="action.hacking.variety.Use of stolen creds-&gt;attribute.confidentiality.data.variety.Internal" />
        </attvalues>
      </edge>
      <edge id="14" source="action.malware.variety.Export data" target="action.malware.variety.C2" weight="0.0540540540541">
        <attvalues>
          <attvalue for="5" value="36" />
          <attvalue for="6" value="forward" />
          <attvalue for="7" value="action.malware.variety.Export data-&gt;action.malware.variety.C2" />
        </attvalues>
      </edge>
      <edge id="15" source="attribute.availability.variety.Loss" target="action.physical.variety.Theft" weight="0.972972972973">
        <attvalues>
          <attvalue for="5" value="2" />
          <attvalue for="6" value="backward" />
          <attvalue for="7" value="attribute.availability.variety.Loss-&gt;action.physical.variety.Theft" />
        </attvalues>
      </edge>
      <edge id="16" source="attribute.availability.variety.Loss" target="end" weight="1.0">
        <attvalues>
          <attvalue for="5" value="1" />
          <attvalue for="6" value="forward" />
          <attvalue for="7" value="attribute.availability.variety.Loss-&gt;end" />
        </attvalues>
      </edge>
      <edge id="17" source="attribute.confidentiality.data.variety.Payment" target="end" weight="1.0">
        <attvalues>
          <attvalue for="5" value="1" />
          <attvalue for="6" value="forward" />
          <attvalue for="7" value="attribute.confidentiality.data.variety.Payment-&gt;end" />
        </attvalues>
      </edge>
      <edge id="18" source="attribute.confidentiality.data.variety.Payment" target="action.misuse.variety.Privilege abuse" weight="1.0">
        <attvalues>
          <attvalue for="5" value="1" />
          <attvalue for="6" value="backward" />
          <attvalue for="7" value="attribute.confidentiality.data.variety.Payment-&gt;action.misuse.variety.Privilege abuse" />
        </attvalues>
      </edge>
      <edge id="19" source="attribute.confidentiality.data.variety.Payment" target="action.malware.variety.Capture app data" weight="1.0">
        <attvalues>
          <attvalue for="5" value="1" />
          <attvalue for="6" value="backward" />
          <attvalue for="7" value="attribute.confidentiality.data.variety.Payment-&gt;action.malware.variety.Capture app data" />
        </attvalues>
      </edge>
      <edge id="20" source="attribute.integrity.variety.Software installation" target="action.malware.variety.Ransomware" weight="0.567567567568">
        <attvalues>
          <attvalue for="5" value="17" />
          <attvalue for="6" value="backward" />
          <attvalue for="7" value="attribute.integrity.variety.Software installation-&gt;action.malware.variety.Ransomware" />
        </attvalues>
      </edge>
      <edge id="21" source="attribute.integrity.variety.Software installation" target="end" weight="1.0">
        <attvalues>
          <attvalue for="5" value="1" />
          <attvalue for="6" value="forward" />
          <attvalue for="7" value="attribute.integrity.variety.Software installation-&gt;end" />
        </attvalues>
      </edge>
      <edge id="22" source="attribute.integrity.variety.Software installation" target="action.malware.variety.Capture app data" weight="1.0">
        <attvalues>
          <attvalue for="5" value="1" />
          <attvalue for="6" value="backward" />
          <attvalue for="7" value="attribute.integrity.variety.Software installation-&gt;action.malware.variety.Capture app data" />
        </attvalues>
      </edge>
      <edge id="23" source="action.physical.variety.Theft" target="attribute.availability.variety.Loss" weight="0.972972972973">
        <attvalues>
          <attvalue for="5" value="2" />
          <attvalue for="6" value="forward" />
          <attvalue for="7" value="action.physical.variety.Theft-&gt;attribute.availability.variety.Loss" />
        </attvalues>
      </edge>
      <edge id="24" source="action.physical.variety.Theft" target="attribute.confidentiality.data.variety.Personal" weight="0.972972972973">
        <attvalues>
          <attvalue for="5" value="2" />
          <attvalue for="6" value="forward" />
          <attvalue for="7" value="action.physical.variety.Theft-&gt;attribute.confidentiality.data.variety.Personal" />
        </attvalues>
      </edge>
      <edge id="25" source="attribute.confidentiality.data.variety.Personal" target="action.social.variety.Pretexting" weight="0.972972972973">
        <attvalues>
          <attvalue for="5" value="2" />
          <attvalue for="6" value="backward" />
          <attvalue for="7" value="attribute.confidentiality.data.variety.Personal-&gt;action.social.variety.Pretexting" />
        </attvalues>
      </edge>
      <edge id="26" source="attribute.confidentiality.data.variety.Personal" target="end" weight="1.0">
        <attvalues>
          <attvalue for="5" value="1" />
          <attvalue for="6" value="forward" />
          <attvalue for="7" value="attribute.confidentiality.data.variety.Personal-&gt;end" />
        </attvalues>
      </edge>
      <edge id="27" source="attribute.confidentiality.data.variety.Personal" target="action.misuse.variety.Privilege abuse" weight="1.0">
        <attvalues>
          <attvalue for="5" value="1" />
          <attvalue for="6" value="backward" />
          <attvalue for="7" value="attribute.confidentiality.data.variety.Personal-&gt;action.misuse.variety.Privilege abuse" />
        </attvalues>
      </edge>
      <edge id="28" source="attribute.confidentiality.data.variety.Personal" target="action.physical.variety.Theft" weight="0.972972972973">
        <attvalues>
          <attvalue for="5" value="2" />
          <attvalue for="6" value="backward" />
          <attvalue for="7" value="attribute.confidentiality.data.variety.Personal-&gt;action.physical.variety.Theft" />
        </attvalues>
      </edge>
      <edge id="29" source="start" target="action.social.variety.Pretexting" weight="1.0">
        <attvalues>
          <attvalue for="5" value="1" />
          <attvalue for="6" value="forward" />
          <attvalue for="7" value="start-&gt;action.social.variety.Pretexting" />
        </attvalues>
      </edge>
      <edge id="30" source="start" target="action.malware.variety.Ransomware" weight="1.0">
        <attvalues>
          <attvalue for="5" value="1" />
          <attvalue for="6" value="forward" />
          <attvalue for="7" value="start-&gt;action.malware.variety.Ransomware" />
        </attvalues>
      </edge>
      <edge id="31" source="start" target="action.misuse.variety.Privilege abuse" weight="1.0">
        <attvalues>
          <attvalue for="5" value="1" />
          <attvalue for="6" value="forward" />
          <attvalue for="7" value="start-&gt;action.misuse.variety.Privilege abuse" />
        </attvalues>
      </edge>
      <edge id="32" source="start" target="action.malware.variety.Capture app data" weight="1.0">
        <attvalues>
          <attvalue for="5" value="1" />
          <attvalue for="6" value="forward" />
          <attvalue for="7" value="start-&gt;action.malware.variety.Capture app data" />
        </attvalues>
      </edge>
      <edge id="33" source="start" target="action.hacking.variety.DoS" weight="1.0">
        <attvalues>
          <attvalue for="5" value="1" />
          <attvalue for="6" value="forward" />
          <attvalue for="7" value="start-&gt;action.hacking.variety.DoS" />
        </attvalues>
      </edge>
      <edge id="34" source="start" target="action.physical.variety.Theft" weight="1.0">
        <attvalues>
          <attvalue for="5" value="1" />
          <attvalue for="6" value="forward" />
          <attvalue for="7" value="start-&gt;action.physical.variety.Theft" />
        </attvalues>
      </edge>
      <edge id="35" source="start" target="action.misuse.variety.Possession abuse" weight="1.0">
        <attvalues>
          <attvalue for="5" value="1" />
          <attvalue for="6" value="forward" />
          <attvalue for="7" value="start-&gt;action.misuse.variety.Possession abuse" />
        </attvalues>
      </edge>
      <edge id="36" source="start" target="action.social.variety.Phishing" weight="1.0">
        <attvalues>
          <attvalue for="5" value="1" />
          <attvalue for="6" value="forward" />
          <attvalue for="7" value="start-&gt;action.social.variety.Phishing" />
        </attvalues>
      </edge>
      <edge id="37" source="start" target="action.hacking.variety.Use of stolen creds" weight="1.0">
        <attvalues>
          <attvalue for="5" value="1" />
          <attvalue for="6" value="forward" />
          <attvalue for="7" value="start-&gt;action.hacking.variety.Use of stolen creds" />
        </attvalues>
      </edge>
      <edge id="38" source="start" target="action.malware.variety.Export data" weight="1.0">
        <attvalues>
          <attvalue for="5" value="1" />
          <attvalue for="6" value="forward" />
          <attvalue for="7" value="start-&gt;action.malware.variety.Export data" />
        </attvalues>
      </edge>
      <edge id="39" source="start" target="action.malware.variety.Spyware/Keylogger" weight="1.0">
        <attvalues>
          <attvalue for="5" value="1" />
          <attvalue for="6" value="forward" />
          <attvalue for="7" value="start-&gt;action.malware.variety.Spyware/Keylogger" />
        </attvalues>
      </edge>
      <edge id="40" source="start" target="action.malware.variety.C2" weight="1.0">
        <attvalues>
          <attvalue for="5" value="1" />
          <attvalue for="6" value="forward" />
          <attvalue for="7" value="start-&gt;action.malware.variety.C2" />
        </attvalues>
      </edge>
      <edge id="41" source="start" target="action.hacking.variety.Use of backdoor or C2" weight="1.0">
        <attvalues>
          <attvalue for="5" value="1" />
          <attvalue for="6" value="forward" />
          <attvalue for="7" value="start-&gt;action.hacking.variety.Use of backdoor or C2" />
        </attvalues>
      </edge>
      <edge id="42" source="action.malware.variety.C2" target="attribute.integrity.variety.Software installation" weight="0.027027027027">
        <attvalues>
          <attvalue for="5" value="37" />
          <attvalue for="6" value="forward" />
          <attvalue for="7" value="action.malware.variety.C2-&gt;attribute.integrity.variety.Software installation" />
        </attvalues>
      </edge>
      <edge id="43" source="action.social.variety.Pretexting" target="attribute.integrity.variety.Fraudulent transaction" weight="1.0">
        <attvalues>
          <attvalue for="5" value="1" />
          <attvalue for="6" value="forward" />
          <attvalue for="7" value="action.social.variety.Pretexting-&gt;attribute.integrity.variety.Fraudulent transaction" />
        </attvalues>
      </edge>
      <edge id="44" source="action.social.variety.Pretexting" target="attribute.confidentiality.data.variety.Personal" weight="0.972972972973">
        <attvalues>
          <attvalue for="5" value="2" />
          <attvalue for="6" value="forward" />
          <attvalue for="7" value="action.social.variety.Pretexting-&gt;attribute.confidentiality.data.variety.Personal" />
        </attvalues>
      </edge>
      <edge id="45" source="action.social.variety.Pretexting" target="attribute.integrity.variety.Alter behavior" weight="0.891891891892">
        <attvalues>
          <attvalue for="5" value="5" />
          <attvalue for="6" value="forward" />
          <attvalue for="7" value="action.social.variety.Pretexting-&gt;attribute.integrity.variety.Alter behavior" />
        </attvalues>
      </edge>
      <edge id="46" source="action.malware.variety.Ransomware" target="attribute.availability.variety.Obscuration" weight="0.567567567568">
        <attvalues>
          <attvalue for="5" value="17" />
          <attvalue for="6" value="forward" />
          <attvalue for="7" value="action.malware.variety.Ransomware-&gt;attribute.availability.variety.Obscuration" />
        </attvalues>
      </edge>
      <edge id="47" source="action.malware.variety.Ransomware" target="attribute.integrity.variety.Software installation" weight="0.567567567568">
        <attvalues>
          <attvalue for="5" value="17" />
          <attvalue for="6" value="forward" />
          <attvalue for="7" value="action.malware.variety.Ransomware-&gt;attribute.integrity.variety.Software installation" />
        </attvalues>
      </edge>
      <edge id="48" source="action.malware.variety.Spyware/Keylogger" target="action.malware.variety.C2" weight="0.0540540540541">
        <attvalues>
          <attvalue for="5" value="36" />
          <attvalue for="6" value="forward" />
          <attvalue for="7" value="action.malware.variety.Spyware/Keylogger-&gt;action.malware.variety.C2" />
        </attvalues>
      </edge>
      <edge id="49" source="attribute.availability.variety.Obscuration" target="action.malware.variety.Ransomware" weight="0.567567567568">
        <attvalues>
          <attvalue for="5" value="17" />
          <attvalue for="6" value="backward" />
          <attvalue for="7" value="attribute.availability.variety.Obscuration-&gt;action.malware.variety.Ransomware" />
        </attvalues>
      </edge>
      <edge id="50" source="attribute.availability.variety.Obscuration" target="end" weight="1.0">
        <attvalues>
          <attvalue for="5" value="1" />
          <attvalue for="6" value="forward" />
          <attvalue for="7" value="attribute.availability.variety.Obscuration-&gt;end" />
        </attvalues>
      </edge>
      <edge id="51" source="action.misuse.variety.Possession abuse" target="action.physical.variety.Theft" weight="1.0">
        <attvalues>
          <attvalue for="5" value="1" />
          <attvalue for="6" value="forward" />
          <attvalue for="7" value="action.misuse.variety.Possession abuse-&gt;action.physical.variety.Theft" />
        </attvalues>
      </edge>
      <edge id="52" source="action.hacking.variety.DoS" target="attribute.availability.variety.Degradation" weight="0.972972972973">
        <attvalues>
          <attvalue for="5" value="2" />
          <attvalue for="6" value="forward" />
          <attvalue for="7" value="action.hacking.variety.DoS-&gt;attribute.availability.variety.Degradation" />
        </attvalues>
      </edge>
      <edge id="53" source="action.hacking.variety.DoS" target="attribute.availability.variety.Interruption" weight="0.891891891892">
        <attvalues>
          <attvalue for="5" value="5" />
          <attvalue for="6" value="forward" />
          <attvalue for="7" value="action.hacking.variety.DoS-&gt;attribute.availability.variety.Interruption" />
        </attvalues>
      </edge>
      <edge id="54" source="attribute.confidentiality.data.variety.Credentials" target="end" weight="1.0">
        <attvalues>
          <attvalue for="5" value="1" />
          <attvalue for="6" value="forward" />
          <attvalue for="7" value="attribute.confidentiality.data.variety.Credentials-&gt;end" />
        </attvalues>
      </edge>
      <edge id="55" source="attribute.confidentiality.data.variety.Secrets" target="end" weight="1.0">
        <attvalues>
          <attvalue for="5" value="1" />
          <attvalue for="6" value="forward" />
          <attvalue for="7" value="attribute.confidentiality.data.variety.Secrets-&gt;end" />
        </attvalues>
      </edge>
      <edge id="56" source="attribute.confidentiality.data.variety.Secrets" target="action.misuse.variety.Privilege abuse" weight="1.0">
        <attvalues>
          <attvalue for="5" value="1" />
          <attvalue for="6" value="backward" />
          <attvalue for="7" value="attribute.confidentiality.data.variety.Secrets-&gt;action.misuse.variety.Privilege abuse" />
        </attvalues>
      </edge>
      <edge id="57" source="attribute.integrity.variety.Alter behavior" target="action.social.variety.Pretexting" weight="0.945945945946">
        <attvalues>
          <attvalue for="5" value="3" />
          <attvalue for="6" value="backward" />
          <attvalue for="7" value="attribute.integrity.variety.Alter behavior-&gt;action.social.variety.Pretexting" />
        </attvalues>
      </edge>
      <edge id="58" source="attribute.integrity.variety.Alter behavior" target="end" weight="1.0">
        <attvalues>
          <attvalue for="5" value="1" />
          <attvalue for="6" value="forward" />
          <attvalue for="7" value="attribute.integrity.variety.Alter behavior-&gt;end" />
        </attvalues>
      </edge>
      <edge id="59" source="attribute.integrity.variety.Alter behavior" target="action.misuse.variety.Privilege abuse" weight="1.0">
        <attvalues>
          <attvalue for="5" value="1" />
          <attvalue for="6" value="backward" />
          <attvalue for="7" value="attribute.integrity.variety.Alter behavior-&gt;action.misuse.variety.Privilege abuse" />
        </attvalues>
      </edge>
      <edge id="60" source="attribute.integrity.variety.Alter behavior" target="action.hacking.variety.Use of stolen creds" weight="1.0">
        <attvalues>
          <attvalue for="5" value="1" />
          <attvalue for="6" value="backward" />
          <attvalue for="7" value="attribute.integrity.variety.Alter behavior-&gt;action.hacking.variety.Use of stolen creds" />
        </attvalues>
      </edge>
      <edge id="61" source="attribute.integrity.variety.Misrepresentation" target="end" weight="1.0">
        <attvalues>
          <attvalue for="5" value="1" />
          <attvalue for="6" value="forward" />
          <attvalue for="7" value="attribute.integrity.variety.Misrepresentation-&gt;end" />
        </attvalues>
      </edge>
      <edge id="62" source="action.hacking.variety.Use of backdoor or C2" target="action.malware.variety.C2" weight="0.0540540540541">
        <attvalues>
          <attvalue for="5" value="36" />
          <attvalue for="6" value="forward" />
          <attvalue for="7" value="action.hacking.variety.Use of backdoor or C2-&gt;action.malware.variety.C2" />
        </attvalues>
      </edge>
      <edge id="63" source="attribute.integrity.variety.Fraudulent transaction" target="action.social.variety.Pretexting" weight="1.0">
        <attvalues>
          <attvalue for="5" value="1" />
          <attvalue for="6" value="backward" />
          <attvalue for="7" value="attribute.integrity.variety.Fraudulent transaction-&gt;action.social.variety.Pretexting" />
        </attvalues>
      </edge>
      <edge id="64" source="attribute.integrity.variety.Fraudulent transaction" target="end" weight="1.0">
        <attvalues>
          <attvalue for="5" value="1" />
          <attvalue for="6" value="forward" />
          <attvalue for="7" value="attribute.integrity.variety.Fraudulent transaction-&gt;end" />
        </attvalues>
      </edge>
      <edge id="65" source="attribute.availability.variety.Degradation" target="end" weight="1.0">
        <attvalues>
          <attvalue for="5" value="1" />
          <attvalue for="6" value="forward" />
          <attvalue for="7" value="attribute.availability.variety.Degradation-&gt;end" />
        </attvalues>
      </edge>
      <edge id="66" source="attribute.availability.variety.Interruption" target="end" weight="1.0">
        <attvalues>
          <attvalue for="5" value="1" />
          <attvalue for="6" value="forward" />
          <attvalue for="7" value="attribute.availability.variety.Interruption-&gt;end" />
        </attvalues>
      </edge>
    </edges>
  </graph>
</gexf>
