<?xml version="1.0" encoding="UTF-8"?><graphml xmlns="http://graphml.graphdrawing.org/xmlns">
<key attr.name="label" attr.type="string" for="node" id="label"/>
<key attr.name="Edge Label" attr.type="string" for="edge" id="edgelabel"/>
<key attr.name="weight" attr.type="double" for="edge" id="weight"/>
<key attr.name="r" attr.type="int" for="node" id="r"/>
<key attr.name="g" attr.type="int" for="node" id="g"/>
<key attr.name="b" attr.type="int" for="node" id="b"/>
<key attr.name="x" attr.type="float" for="node" id="x"/>
<key attr.name="y" attr.type="float" for="node" id="y"/>
<key attr.name="size" attr.type="float" for="node" id="size"/>
<key attr.name="Label" attr.type="string" for="node" id="d4"/>
<key attr.name="weight" attr.type="double" for="node" id="d3"/>
<key attr.name="sub_type" attr.type="string" for="node" id="d2"/>
<key attr.name="type" attr.type="string" for="node" id="d1"/>
<key attr.name="count" attr.type="int" for="node" id="d0"/>
<key attr.name="Label" attr.type="string" for="edge" id="d8"/>
<key attr.name="direction" attr.type="string" for="edge" id="d6"/>
<key attr.name="count" attr.type="int" for="edge" id="d5"/>
<graph edgedefault="directed">
<node id="attribute.confidentiality.data.variety.Classified">
<data key="label">attribute.confidentiality.data.variety.Classified</data>
<data key="d4">attribute.confidentiality.data.variety.Classified</data>
<data key="d3">0.857142857143</data>
<data key="d2">attribute.confidentiality</data>
<data key="d1">attribute</data>
<data key="d0">4</data>
<data key="size">36.773056</data>
<data key="r">223</data>
<data key="g">137</data>
<data key="b">255</data>
<data key="x">-366.2054</data>
<data key="y">-250.36092</data>
</node>
<node id="action.misuse.variety.Privilege abuse">
<data key="label">action.misuse.variety.Privilege abuse</data>
<data key="d4">action.misuse.variety.Privilege abuse</data>
<data key="d3">0.821428571429</data>
<data key="d2">action.misuse</data>
<data key="d1">action</data>
<data key="d0">5</data>
<data key="size">37.542206</data>
<data key="r">255</data>
<data key="g">85</data>
<data key="b">132</data>
<data key="x">251.05873</data>
<data key="y">-365.7274</data>
</node>
<node id="attribute.confidentiality.data.variety.Internal">
<data key="label">attribute.confidentiality.data.variety.Internal</data>
<data key="d4">attribute.confidentiality.data.variety.Internal</data>
<data key="d3">0.892857142857</data>
<data key="d2">attribute.confidentiality</data>
<data key="d1">attribute</data>
<data key="d0">3</data>
<data key="size">35.67284</data>
<data key="r">223</data>
<data key="g">137</data>
<data key="b">255</data>
<data key="x">-435.84155</data>
<data key="y">-82.63857</data>
</node>
<node id="attribute.confidentiality.data.variety.Medical">
<data key="label">attribute.confidentiality.data.variety.Medical</data>
<data key="d4">attribute.confidentiality.data.variety.Medical</data>
<data key="d3">0.928571428571</data>
<data key="d2">attribute.confidentiality</data>
<data key="d1">attribute</data>
<data key="d0">2</data>
<data key="size">33.969173</data>
<data key="r">223</data>
<data key="g">137</data>
<data key="b">255</data>
<data key="x">-443.6066</data>
<data key="y">0.44625312</data>
</node>
<node id="action.hacking.variety.OS commanding">
<data key="label">action.hacking.variety.OS commanding</data>
<data key="d4">action.hacking.variety.OS commanding</data>
<data key="d3">0.928571428571</data>
<data key="d2">action.hacking</data>
<data key="d1">action</data>
<data key="d0">2</data>
<data key="size">33.969173</data>
<data key="r">115</data>
<data key="g">192</data>
<data key="b">0</data>
<data key="x">207.15977</data>
<data key="y">392.265</data>
</node>
<node id="action.social.variety.Phishing">
<data key="label">action.social.variety.Phishing</data>
<data key="d4">action.social.variety.Phishing</data>
<data key="d3">0.214285714286</data>
<data key="d2">action.social</data>
<data key="d1">action</data>
<data key="d0">22</data>
<data key="size">39.991116</data>
<data key="r">0</data>
<data key="g">189</data>
<data key="b">148</data>
<data key="x">87.6316</data>
<data key="y">-434.86514</data>
</node>
<node id="action.malware.variety.Click fraud">
<data key="label">action.malware.variety.Click fraud</data>
<data key="d4">action.malware.variety.Click fraud</data>
<data key="d3">0.928571428571</data>
<data key="d2">action.malware</data>
<data key="d1">action</data>
<data key="d0">2</data>
<data key="size">33.969173</data>
<data key="r">0</data>
<data key="g">196</data>
<data key="b">255</data>
<data key="x">442.5719</data>
<data key="y">30.284124</data>
</node>
<node id="attribute.confidentiality.data.variety.System">
<data key="label">attribute.confidentiality.data.variety.System</data>
<data key="d4">attribute.confidentiality.data.variety.System</data>
<data key="d3">0.964285714286</data>
<data key="d2">attribute.confidentiality</data>
<data key="d1">attribute</data>
<data key="d0">1</data>
<data key="size">30.844551</data>
<data key="r">223</data>
<data key="g">137</data>
<data key="b">255</data>
<data key="x">-330.5351</data>
<data key="y">295.8607</data>
</node>
<node id="action.hacking.variety.Use of stolen creds">
<data key="label">action.hacking.variety.Use of stolen creds</data>
<data key="d4">action.hacking.variety.Use of stolen creds</data>
<data key="d3">0.285714285714</data>
<data key="d2">action.hacking</data>
<data key="d1">action</data>
<data key="d0">20</data>
<data key="size">39.973328</data>
<data key="r">115</data>
<data key="g">192</data>
<data key="b">0</data>
<data key="x">348.11954</data>
<data key="y">274.9542</data>
</node>
<node id="action.malware.variety.Export data">
<data key="label">action.malware.variety.Export data</data>
<data key="d4">action.malware.variety.Export data</data>
<data key="d3">0.285714285714</data>
<data key="d2">action.malware</data>
<data key="d1">action</data>
<data key="d0">20</data>
<data key="size">39.973328</data>
<data key="r">0</data>
<data key="g">196</data>
<data key="b">255</data>
<data key="x">439.76517</data>
<data key="y">-58.25456</data>
</node>
<node id="attribute.integrity.variety.Software installation">
<data key="label">attribute.integrity.variety.Software installation</data>
<data key="d4">attribute.integrity.variety.Software installation</data>
<data key="d3">0.0357142857143</data>
<data key="d2">attribute.integrity</data>
<data key="d1">attribute</data>
<data key="d0">27</data>
<data key="size">40.0</data>
<data key="r">255</data>
<data key="g">136</data>
<data key="b">5</data>
<data key="x">-95.25243</data>
<data key="y">433.2597</data>
</node>
<node id="attribute.confidentiality.data.variety.Payment">
<data key="label">attribute.confidentiality.data.variety.Payment</data>
<data key="d4">attribute.confidentiality.data.variety.Payment</data>
<data key="d3">0.964285714286</data>
<data key="d2">attribute.confidentiality</data>
<data key="d1">attribute</data>
<data key="d0">1</data>
<data key="size">30.844551</data>
<data key="r">223</data>
<data key="g">137</data>
<data key="b">255</data>
<data key="x">-436.72803</data>
<data key="y">77.817986</data>
</node>
<node id="attribute.availability.variety.Loss">
<data key="label">attribute.availability.variety.Loss</data>
<data key="d4">attribute.availability.variety.Loss</data>
<data key="d3">0.892857142857</data>
<data key="d2">attribute.availability</data>
<data key="d1">attribute</data>
<data key="d0">3</data>
<data key="size">35.67284</data>
<data key="r">76</data>
<data key="g">70</data>
<data key="b">62</data>
<data key="x">-172.67528</data>
<data key="y">-408.61993</data>
</node>
<node id="end">
<data key="label">end</data>
<data key="d4">end</data>
<data key="d3">1.0</data>
<data key="d2">end</data>
<data key="d1">end</data>
<data key="d0">0</data>
<data key="size">10.0</data>
<data key="r">211</data>
<data key="g">179</data>
<data key="b">176</data>
<data key="x">-520.52106</data>
<data key="y">429.13852</data>
</node>
<node id="action.physical.variety.Theft">
<data key="label">action.physical.variety.Theft</data>
<data key="d4">action.physical.variety.Theft</data>
<data key="d3">0.892857142857</data>
<data key="d2">action.physical</data>
<data key="d1">action</data>
<data key="d0">3</data>
<data key="size">35.67284</data>
<data key="r">192</data>
<data key="g">192</data>
<data key="b">192</data>
<data key="x">174.18976</data>
<data key="y">-407.97662</data>
</node>
<node id="attribute.confidentiality.data.variety.Bank">
<data key="label">attribute.confidentiality.data.variety.Bank</data>
<data key="d4">attribute.confidentiality.data.variety.Bank</data>
<data key="d3">0.964285714286</data>
<data key="d2">attribute.confidentiality</data>
<data key="d1">attribute</data>
<data key="d0">1</data>
<data key="size">30.844551</data>
<data key="r">223</data>
<data key="g">137</data>
<data key="b">255</data>
<data key="x">-314.55728</data>
<data key="y">-312.795</data>
</node>
<node id="attribute.confidentiality.data.variety.Personal">
<data key="label">attribute.confidentiality.data.variety.Personal</data>
<data key="d4">attribute.confidentiality.data.variety.Personal</data>
<data key="d3">0.821428571429</data>
<data key="d2">attribute.confidentiality</data>
<data key="d1">attribute</data>
<data key="d0">5</data>
<data key="size">37.542206</data>
<data key="r">223</data>
<data key="g">137</data>
<data key="b">255</data>
<data key="x">-414.96255</data>
<data key="y">156.82178</data>
</node>
<node id="start">
<data key="label">start</data>
<data key="d4">start</data>
<data key="d3">1.0</data>
<data key="d2">start</data>
<data key="d1">start</data>
<data key="d0">0</data>
<data key="size">10.0</data>
<data key="r">192</data>
<data key="g">192</data>
<data key="b">192</data>
<data key="x">521.34326</data>
<data key="y">-424.86197</data>
</node>
<node id="action.hacking.variety.Virtual machine escape">
<data key="label">action.hacking.variety.Virtual machine escape</data>
<data key="d4">action.hacking.variety.Virtual machine escape</data>
<data key="d3">0.928571428571</data>
<data key="d2">action.hacking</data>
<data key="d1">action</data>
<data key="d0">2</data>
<data key="size">33.969173</data>
<data key="r">115</data>
<data key="g">192</data>
<data key="b">0</data>
<data key="x">395.80963</data>
<data key="y">200.30412</data>
</node>
<node id="action.misuse.variety.Data mishandling">
<data key="label">action.misuse.variety.Data mishandling</data>
<data key="d4">action.misuse.variety.Data mishandling</data>
<data key="d3">0.821428571429</data>
<data key="d2">action.misuse</data>
<data key="d1">action</data>
<data key="d0">5</data>
<data key="size">37.542206</data>
<data key="r">255</data>
<data key="g">85</data>
<data key="b">132</data>
<data key="x">319.6714</data>
<data key="y">-307.5666</data>
</node>
<node id="action.malware.variety.C2">
<data key="label">action.malware.variety.C2</data>
<data key="d4">action.malware.variety.C2</data>
<data key="d3">0.178571428571</data>
<data key="d2">action.malware</data>
<data key="d1">action</data>
<data key="d0">23</data>
<data key="size">39.995644</data>
<data key="r">0</data>
<data key="g">196</data>
<data key="b">255</data>
<data key="x">427.72372</data>
<data key="y">117.64104</data>
</node>
<node id="action.social.variety.Pretexting">
<data key="label">action.social.variety.Pretexting</data>
<data key="d4">action.social.variety.Pretexting</data>
<data key="d3">0.928571428571</data>
<data key="d2">action.social</data>
<data key="d1">action</data>
<data key="d0">2</data>
<data key="size">33.969173</data>
<data key="r">0</data>
<data key="g">189</data>
<data key="b">148</data>
<data key="x">-0.5405547</data>
<data key="y">-443.60648</data>
</node>
<node id="action.malware.variety.Ransomware">
<data key="label">action.malware.variety.Ransomware</data>
<data key="d4">action.malware.variety.Ransomware</data>
<data key="d3">0.75</data>
<data key="d2">action.malware</data>
<data key="d1">action</data>
<data key="d0">7</data>
<data key="size">38.52922</data>
<data key="r">0</data>
<data key="g">196</data>
<data key="b">255</data>
<data key="x">417.60864</data>
<data key="y">-149.63292</data>
</node>
<node id="action.malware.variety.Spyware/Keylogger">
<data key="label">action.malware.variety.Spyware/Keylogger</data>
<data key="d4">action.malware.variety.Spyware/Keylogger</data>
<data key="d3">0.285714285714</data>
<data key="d2">action.malware</data>
<data key="d1">action</data>
<data key="d0">20</data>
<data key="size">39.973328</data>
<data key="r">0</data>
<data key="g">196</data>
<data key="b">255</data>
<data key="x">376.69052</data>
<data key="y">-234.28883</data>
</node>
<node id="attribute.availability.variety.Obscuration">
<data key="label">attribute.availability.variety.Obscuration</data>
<data key="d4">attribute.availability.variety.Obscuration</data>
<data key="d3">0.75</data>
<data key="d2">attribute.availability</data>
<data key="d1">attribute</data>
<data key="d0">7</data>
<data key="size">38.52922</data>
<data key="r">76</data>
<data key="g">70</data>
<data key="b">62</data>
<data key="x">-250.67851</data>
<data key="y">-365.9881</data>
</node>
<node id="action.hacking.variety.DoS">
<data key="label">action.hacking.variety.DoS</data>
<data key="d4">action.hacking.variety.DoS</data>
<data key="d3">0.714285714286</data>
<data key="d2">action.hacking</data>
<data key="d1">action</data>
<data key="d0">8</data>
<data key="size">38.85505</data>
<data key="r">115</data>
<data key="g">192</data>
<data key="b">0</data>
<data key="x">126.377</data>
<data key="y">425.2245</data>
</node>
<node id="attribute.confidentiality.data.variety.Credentials">
<data key="label">attribute.confidentiality.data.variety.Credentials</data>
<data key="d4">attribute.confidentiality.data.variety.Credentials</data>
<data key="d3">0.25</data>
<data key="d2">attribute.confidentiality</data>
<data key="d1">attribute</data>
<data key="d0">21</data>
<data key="size">39.983955</data>
<data key="r">223</data>
<data key="g">137</data>
<data key="b">255</data>
<data key="x">-409.95078</data>
<data key="y">-169.49147</data>
</node>
<node id="attribute.confidentiality.data.variety.Secrets">
<data key="label">attribute.confidentiality.data.variety.Secrets</data>
<data key="d4">attribute.confidentiality.data.variety.Secrets</data>
<data key="d3">0.928571428571</data>
<data key="d2">attribute.confidentiality</data>
<data key="d1">attribute</data>
<data key="d0">2</data>
<data key="size">33.969173</data>
<data key="r">223</data>
<data key="g">137</data>
<data key="b">255</data>
<data key="x">-377.07498</data>
<data key="y">233.66954</data>
</node>
<node id="attribute.integrity.variety.Alter behavior">
<data key="label">attribute.integrity.variety.Alter behavior</data>
<data key="d4">attribute.integrity.variety.Alter behavior</data>
<data key="d3">0.178571428571</data>
<data key="d2">attribute.integrity</data>
<data key="d1">attribute</data>
<data key="d0">23</data>
<data key="size">39.995644</data>
<data key="r">255</data>
<data key="g">136</data>
<data key="b">5</data>
<data key="x">-268.13538</data>
<data key="y">353.39838</data>
</node>
<node id="action.hacking.variety.Brute force">
<data key="label">action.hacking.variety.Brute force</data>
<data key="d4">action.hacking.variety.Brute force</data>
<data key="d3">0.928571428571</data>
<data key="d2">action.hacking</data>
<data key="d1">action</data>
<data key="d0">2</data>
<data key="size">33.969173</data>
<data key="r">115</data>
<data key="g">192</data>
<data key="b">0</data>
<data key="x">40.705666</data>
<data key="y">441.73526</data>
</node>
<node id="action.hacking.variety.Use of backdoor or C2">
<data key="label">action.hacking.variety.Use of backdoor or C2</data>
<data key="d4">action.hacking.variety.Use of backdoor or C2</data>
<data key="d3">0.178571428571</data>
<data key="d2">action.hacking</data>
<data key="d1">action</data>
<data key="d0">23</data>
<data key="size">39.995644</data>
<data key="r">115</data>
<data key="g">192</data>
<data key="b">0</data>
<data key="x">280.98956</data>
<data key="y">343.26645</data>
</node>
<node id="attribute.integrity.variety.Fraudulent transaction">
<data key="label">attribute.integrity.variety.Fraudulent transaction</data>
<data key="d4">attribute.integrity.variety.Fraudulent transaction</data>
<data key="d3">0.285714285714</data>
<data key="d2">attribute.integrity</data>
<data key="d1">attribute</data>
<data key="d0">20</data>
<data key="size">39.973328</data>
<data key="r">255</data>
<data key="g">136</data>
<data key="b">5</data>
<data key="x">-186.0323</data>
<data key="y">402.7145</data>
</node>
<node id="attribute.availability.variety.Degradation">
<data key="label">attribute.availability.variety.Degradation</data>
<data key="d4">attribute.availability.variety.Degradation</data>
<data key="d3">0.714285714286</data>
<data key="d2">attribute.availability</data>
<data key="d1">attribute</data>
<data key="d0">8</data>
<data key="size">38.85505</data>
<data key="r">76</data>
<data key="g">70</data>
<data key="b">62</data>
<data key="x">-87.35497</data>
<data key="y">-434.9208</data>
</node>
<edge id="1828" source="attribute.confidentiality.data.variety.Classified" target="action.physical.variety.Theft">
<data key="weight">1.0</data>
<data key="d8">attribute.confidentiality.data.variety.Classified-&gt;action.physical.variety.Theft</data>
<data key="d6">backward</data>
<data key="d5">1</data>
</edge>
<edge id="1829" source="attribute.confidentiality.data.variety.Classified" target="end">
<data key="weight">1.0</data>
<data key="d8">attribute.confidentiality.data.variety.Classified-&gt;end</data>
<data key="d6">forward</data>
<data key="d5">1</data>
</edge>
<edge id="1830" source="action.misuse.variety.Privilege abuse" target="attribute.confidentiality.data.variety.Medical">
<data key="weight">1.0</data>
<data key="d8">action.misuse.variety.Privilege abuse-&gt;attribute.confidentiality.data.variety.Medical</data>
<data key="d6">forward</data>
<data key="d5">1</data>
</edge>
<edge id="1831" source="action.misuse.variety.Privilege abuse" target="attribute.confidentiality.data.variety.Personal">
<data key="weight">1.0</data>
<data key="d8">action.misuse.variety.Privilege abuse-&gt;attribute.confidentiality.data.variety.Personal</data>
<data key="d6">forward</data>
<data key="d5">1</data>
</edge>
<edge id="1832" source="action.misuse.variety.Privilege abuse" target="attribute.confidentiality.data.variety.Internal">
<data key="weight">0.8571428656578064</data>
<data key="d8">action.misuse.variety.Privilege abuse-&gt;attribute.confidentiality.data.variety.Internal</data>
<data key="d6">forward</data>
<data key="d5">2</data>
</edge>
<edge id="1833" source="attribute.confidentiality.data.variety.Internal" target="end">
<data key="weight">1.0</data>
<data key="d8">attribute.confidentiality.data.variety.Internal-&gt;end</data>
<data key="d6">forward</data>
<data key="d5">1</data>
</edge>
<edge id="1834" source="attribute.confidentiality.data.variety.Medical" target="end">
<data key="weight">1.0</data>
<data key="d8">attribute.confidentiality.data.variety.Medical-&gt;end</data>
<data key="d6">forward</data>
<data key="d5">1</data>
</edge>
<edge id="1835" source="action.hacking.variety.OS commanding" target="attribute.confidentiality.data.variety.Personal">
<data key="weight">1.0</data>
<data key="d8">action.hacking.variety.OS commanding-&gt;attribute.confidentiality.data.variety.Personal</data>
<data key="d6">forward</data>
<data key="d5">1</data>
</edge>
<edge id="1836" source="action.social.variety.Phishing" target="action.malware.variety.Ransomware">
<data key="weight">1.0</data>
<data key="d8">action.social.variety.Phishing-&gt;action.malware.variety.Ransomware</data>
<data key="d6">forward</data>
<data key="d5">1</data>
</edge>
<edge id="1837" source="action.malware.variety.Click fraud" target="action.malware.variety.Ransomware">
<data key="weight">1.0</data>
<data key="d8">action.malware.variety.Click fraud-&gt;action.malware.variety.Ransomware</data>
<data key="d6">forward</data>
<data key="d5">1</data>
</edge>
<edge id="1838" source="attribute.confidentiality.data.variety.System" target="end">
<data key="weight">1.0</data>
<data key="d8">attribute.confidentiality.data.variety.System-&gt;end</data>
<data key="d6">forward</data>
<data key="d5">1</data>
</edge>
<edge id="1839" source="attribute.integrity.variety.Software installation" target="action.malware.variety.Ransomware">
<data key="weight">0.2857142984867096</data>
<data key="d8">attribute.integrity.variety.Software installation-&gt;action.malware.variety.Ransomware</data>
<data key="d6">backward</data>
<data key="d5">6</data>
</edge>
<edge id="1840" source="attribute.integrity.variety.Software installation" target="end">
<data key="weight">1.0</data>
<data key="d8">attribute.integrity.variety.Software installation-&gt;end</data>
<data key="d6">forward</data>
<data key="d5">1</data>
</edge>
<edge id="1841" source="attribute.confidentiality.data.variety.Payment" target="end">
<data key="weight">1.0</data>
<data key="d8">attribute.confidentiality.data.variety.Payment-&gt;end</data>
<data key="d6">forward</data>
<data key="d5">1</data>
</edge>
<edge id="1842" source="attribute.availability.variety.Loss" target="action.physical.variety.Theft">
<data key="weight">0.8571428656578064</data>
<data key="d8">attribute.availability.variety.Loss-&gt;action.physical.variety.Theft</data>
<data key="d6">backward</data>
<data key="d5">2</data>
</edge>
<edge id="1843" source="attribute.availability.variety.Loss" target="end">
<data key="weight">1.0</data>
<data key="d8">attribute.availability.variety.Loss-&gt;end</data>
<data key="d6">forward</data>
<data key="d5">1</data>
</edge>
<edge id="1844" source="action.physical.variety.Theft" target="attribute.confidentiality.data.variety.Classified">
<data key="weight">1.0</data>
<data key="d8">action.physical.variety.Theft-&gt;attribute.confidentiality.data.variety.Classified</data>
<data key="d6">forward</data>
<data key="d5">1</data>
</edge>
<edge id="1845" source="action.physical.variety.Theft" target="attribute.availability.variety.Loss">
<data key="weight">0.8571428656578064</data>
<data key="d8">action.physical.variety.Theft-&gt;attribute.availability.variety.Loss</data>
<data key="d6">forward</data>
<data key="d5">2</data>
</edge>
<edge id="1846" source="action.physical.variety.Theft" target="attribute.confidentiality.data.variety.Secrets">
<data key="weight">1.0</data>
<data key="d8">action.physical.variety.Theft-&gt;attribute.confidentiality.data.variety.Secrets</data>
<data key="d6">forward</data>
<data key="d5">1</data>
</edge>
<edge id="1847" source="attribute.confidentiality.data.variety.Bank" target="end">
<data key="weight">1.0</data>
<data key="d8">attribute.confidentiality.data.variety.Bank-&gt;end</data>
<data key="d6">forward</data>
<data key="d5">1</data>
</edge>
<edge id="1848" source="attribute.confidentiality.data.variety.Personal" target="action.social.variety.Pretexting">
<data key="weight">1.0</data>
<data key="d8">attribute.confidentiality.data.variety.Personal-&gt;action.social.variety.Pretexting</data>
<data key="d6">backward</data>
<data key="d5">1</data>
</edge>
<edge id="1849" source="attribute.confidentiality.data.variety.Personal" target="end">
<data key="weight">1.0</data>
<data key="d8">attribute.confidentiality.data.variety.Personal-&gt;end</data>
<data key="d6">forward</data>
<data key="d5">1</data>
</edge>
<edge id="1850" source="start" target="action.social.variety.Pretexting">
<data key="weight">1.0</data>
<data key="d8">start-&gt;action.social.variety.Pretexting</data>
<data key="d6">forward</data>
<data key="d5">1</data>
</edge>
<edge id="1851" source="start" target="action.malware.variety.Ransomware">
<data key="weight">1.0</data>
<data key="d8">start-&gt;action.malware.variety.Ransomware</data>
<data key="d6">forward</data>
<data key="d5">1</data>
</edge>
<edge id="1852" source="start" target="action.misuse.variety.Privilege abuse">
<data key="weight">1.0</data>
<data key="d8">start-&gt;action.misuse.variety.Privilege abuse</data>
<data key="d6">forward</data>
<data key="d5">1</data>
</edge>
<edge id="1853" source="start" target="action.hacking.variety.Brute force">
<data key="weight">1.0</data>
<data key="d8">start-&gt;action.hacking.variety.Brute force</data>
<data key="d6">forward</data>
<data key="d5">1</data>
</edge>
<edge id="1854" source="start" target="action.hacking.variety.DoS">
<data key="weight">1.0</data>
<data key="d8">start-&gt;action.hacking.variety.DoS</data>
<data key="d6">forward</data>
<data key="d5">1</data>
</edge>
<edge id="1855" source="start" target="action.physical.variety.Theft">
<data key="weight">1.0</data>
<data key="d8">start-&gt;action.physical.variety.Theft</data>
<data key="d6">forward</data>
<data key="d5">1</data>
</edge>
<edge id="1856" source="start" target="action.hacking.variety.OS commanding">
<data key="weight">1.0</data>
<data key="d8">start-&gt;action.hacking.variety.OS commanding</data>
<data key="d6">forward</data>
<data key="d5">1</data>
</edge>
<edge id="1857" source="start" target="action.social.variety.Phishing">
<data key="weight">1.0</data>
<data key="d8">start-&gt;action.social.variety.Phishing</data>
<data key="d6">forward</data>
<data key="d5">1</data>
</edge>
<edge id="1858" source="start" target="action.malware.variety.Click fraud">
<data key="weight">1.0</data>
<data key="d8">start-&gt;action.malware.variety.Click fraud</data>
<data key="d6">forward</data>
<data key="d5">1</data>
</edge>
<edge id="1859" source="start" target="action.hacking.variety.Use of stolen creds">
<data key="weight">1.0</data>
<data key="d8">start-&gt;action.hacking.variety.Use of stolen creds</data>
<data key="d6">forward</data>
<data key="d5">1</data>
</edge>
<edge id="1860" source="start" target="action.malware.variety.Export data">
<data key="weight">1.0</data>
<data key="d8">start-&gt;action.malware.variety.Export data</data>
<data key="d6">forward</data>
<data key="d5">1</data>
</edge>
<edge id="1861" source="start" target="action.misuse.variety.Data mishandling">
<data key="weight">1.0</data>
<data key="d8">start-&gt;action.misuse.variety.Data mishandling</data>
<data key="d6">forward</data>
<data key="d5">1</data>
</edge>
<edge id="1862" source="start" target="action.malware.variety.Spyware/Keylogger">
<data key="weight">1.0</data>
<data key="d8">start-&gt;action.malware.variety.Spyware/Keylogger</data>
<data key="d6">forward</data>
<data key="d5">1</data>
</edge>
<edge id="1863" source="start" target="action.malware.variety.C2">
<data key="weight">1.0</data>
<data key="d8">start-&gt;action.malware.variety.C2</data>
<data key="d6">forward</data>
<data key="d5">1</data>
</edge>
<edge id="1864" source="start" target="action.hacking.variety.Use of backdoor or C2">
<data key="weight">1.0</data>
<data key="d8">start-&gt;action.hacking.variety.Use of backdoor or C2</data>
<data key="d6">forward</data>
<data key="d5">1</data>
</edge>
<edge id="1865" source="start" target="action.hacking.variety.Virtual machine escape">
<data key="weight">1.0</data>
<data key="d8">start-&gt;action.hacking.variety.Virtual machine escape</data>
<data key="d6">forward</data>
<data key="d5">1</data>
</edge>
<edge id="1866" source="action.hacking.variety.Virtual machine escape" target="action.malware.variety.Ransomware">
<data key="weight">1.0</data>
<data key="d8">action.hacking.variety.Virtual machine escape-&gt;action.malware.variety.Ransomware</data>
<data key="d6">forward</data>
<data key="d5">1</data>
</edge>
<edge id="1867" source="action.misuse.variety.Data mishandling" target="attribute.confidentiality.data.variety.Classified">
<data key="weight">0.8571428656578064</data>
<data key="d8">action.misuse.variety.Data mishandling-&gt;attribute.confidentiality.data.variety.Classified</data>
<data key="d6">forward</data>
<data key="d5">2</data>
</edge>
<edge id="1868" source="action.misuse.variety.Data mishandling" target="action.misuse.variety.Privilege abuse">
<data key="weight">1.0</data>
<data key="d8">action.misuse.variety.Data mishandling-&gt;action.misuse.variety.Privilege abuse</data>
<data key="d6">forward</data>
<data key="d5">1</data>
</edge>
<edge id="1869" source="action.misuse.variety.Data mishandling" target="attribute.confidentiality.data.variety.Personal">
<data key="weight">1.0</data>
<data key="d8">action.misuse.variety.Data mishandling-&gt;attribute.confidentiality.data.variety.Personal</data>
<data key="d6">forward</data>
<data key="d5">1</data>
</edge>
<edge id="1870" source="action.malware.variety.C2" target="action.malware.variety.Ransomware">
<data key="weight">0.8571428656578064</data>
<data key="d8">action.malware.variety.C2-&gt;action.malware.variety.Ransomware</data>
<data key="d6">forward</data>
<data key="d5">2</data>
</edge>
<edge id="1871" source="action.social.variety.Pretexting" target="attribute.confidentiality.data.variety.Personal">
<data key="weight">1.0</data>
<data key="d8">action.social.variety.Pretexting-&gt;attribute.confidentiality.data.variety.Personal</data>
<data key="d6">forward</data>
<data key="d5">1</data>
</edge>
<edge id="1872" source="action.social.variety.Pretexting" target="attribute.integrity.variety.Alter behavior">
<data key="weight">1.0</data>
<data key="d8">action.social.variety.Pretexting-&gt;attribute.integrity.variety.Alter behavior</data>
<data key="d6">forward</data>
<data key="d5">1</data>
</edge>
<edge id="1873" source="action.malware.variety.Ransomware" target="attribute.availability.variety.Obscuration">
<data key="weight">0.2857142984867096</data>
<data key="d8">action.malware.variety.Ransomware-&gt;attribute.availability.variety.Obscuration</data>
<data key="d6">forward</data>
<data key="d5">6</data>
</edge>
<edge id="1874" source="action.malware.variety.Ransomware" target="attribute.integrity.variety.Software installation">
<data key="weight">0.2857142984867096</data>
<data key="d8">action.malware.variety.Ransomware-&gt;attribute.integrity.variety.Software installation</data>
<data key="d6">forward</data>
<data key="d5">6</data>
</edge>
<edge id="1875" source="attribute.availability.variety.Obscuration" target="action.malware.variety.Ransomware">
<data key="weight">0.2857142984867096</data>
<data key="d8">attribute.availability.variety.Obscuration-&gt;action.malware.variety.Ransomware</data>
<data key="d6">backward</data>
<data key="d5">6</data>
</edge>
<edge id="1876" source="attribute.availability.variety.Obscuration" target="end">
<data key="weight">1.0</data>
<data key="d8">attribute.availability.variety.Obscuration-&gt;end</data>
<data key="d6">forward</data>
<data key="d5">1</data>
</edge>
<edge id="1877" source="action.hacking.variety.DoS" target="attribute.availability.variety.Degradation">
<data key="weight">0.1428571492433548</data>
<data key="d8">action.hacking.variety.DoS-&gt;attribute.availability.variety.Degradation</data>
<data key="d6">forward</data>
<data key="d5">7</data>
</edge>
<edge id="1878" source="attribute.confidentiality.data.variety.Credentials" target="end">
<data key="weight">1.0</data>
<data key="d8">attribute.confidentiality.data.variety.Credentials-&gt;end</data>
<data key="d6">forward</data>
<data key="d5">1</data>
</edge>
<edge id="1879" source="attribute.confidentiality.data.variety.Secrets" target="action.physical.variety.Theft">
<data key="weight">1.0</data>
<data key="d8">attribute.confidentiality.data.variety.Secrets-&gt;action.physical.variety.Theft</data>
<data key="d6">backward</data>
<data key="d5">1</data>
</edge>
<edge id="1880" source="attribute.confidentiality.data.variety.Secrets" target="end">
<data key="weight">1.0</data>
<data key="d8">attribute.confidentiality.data.variety.Secrets-&gt;end</data>
<data key="d6">forward</data>
<data key="d5">1</data>
</edge>
<edge id="1881" source="attribute.integrity.variety.Alter behavior" target="action.social.variety.Pretexting">
<data key="weight">1.0</data>
<data key="d8">attribute.integrity.variety.Alter behavior-&gt;action.social.variety.Pretexting</data>
<data key="d6">backward</data>
<data key="d5">1</data>
</edge>
<edge id="1882" source="attribute.integrity.variety.Alter behavior" target="end">
<data key="weight">1.0</data>
<data key="d8">attribute.integrity.variety.Alter behavior-&gt;end</data>
<data key="d6">forward</data>
<data key="d5">1</data>
</edge>
<edge id="1883" source="action.hacking.variety.Brute force" target="action.malware.variety.Ransomware">
<data key="weight">1.0</data>
<data key="d8">action.hacking.variety.Brute force-&gt;action.malware.variety.Ransomware</data>
<data key="d6">forward</data>
<data key="d5">1</data>
</edge>
<edge id="1884" source="action.hacking.variety.Use of backdoor or C2" target="action.malware.variety.Ransomware">
<data key="weight">0.8571428656578064</data>
<data key="d8">action.hacking.variety.Use of backdoor or C2-&gt;action.malware.variety.Ransomware</data>
<data key="d6">forward</data>
<data key="d5">2</data>
</edge>
<edge id="1885" source="attribute.integrity.variety.Fraudulent transaction" target="end">
<data key="weight">1.0</data>
<data key="d8">attribute.integrity.variety.Fraudulent transaction-&gt;end</data>
<data key="d6">forward</data>
<data key="d5">1</data>
</edge>
<edge id="1886" source="attribute.availability.variety.Degradation" target="end">
<data key="weight">1.0</data>
<data key="d8">attribute.availability.variety.Degradation-&gt;end</data>
<data key="d6">forward</data>
<data key="d5">1</data>
</edge>
</graph>
</graphml>
