<?xml version='1.0' encoding='utf-8'?>
<gexf version="1.1" xmlns="http://www.gexf.net/1.1draft" xmlns:viz="http://www.gexf.net/1.1draft/viz" xmlns:xsi="http://www.w3.org/2001/XMLSchema-instance" xsi:schemaLocation="http://www.w3.org/2001/XMLSchema-instance">
  <graph defaultedgetype="directed" mode="static">
    <attributes class="edge" mode="static">
      <attribute id="5" title="count" type="integer" />
      <attribute id="6" title="direction" type="string" />
      <attribute id="7" title="Label" type="string" />
    </attributes>
    <attributes class="node" mode="static">
      <attribute id="0" title="count" type="integer" />
      <attribute id="1" title="type" type="string" />
      <attribute id="2" title="sub_type" type="string" />
      <attribute id="3" title="weight" type="double" />
      <attribute id="4" title="Label" type="string" />
    </attributes>
    <nodes>
      <node id="action.misuse.variety.Privilege abuse" label="action.misuse.variety.Privilege abuse">
        <attvalues>
          <attvalue for="0" value="3" />
          <attvalue for="1" value="action" />
          <attvalue for="2" value="action.misuse" />
          <attvalue for="3" value="0.999580478255" />
          <attvalue for="4" value="action.misuse.variety.Privilege abuse" />
        </attvalues>
      </node>
      <node id="attribute.confidentiality.data.variety.Internal" label="attribute.confidentiality.data.variety.Internal">
        <attvalues>
          <attvalue for="0" value="3" />
          <attvalue for="1" value="attribute" />
          <attvalue for="2" value="attribute.confidentiality" />
          <attvalue for="3" value="0.999580478255" />
          <attvalue for="4" value="attribute.confidentiality.data.variety.Internal" />
        </attvalues>
      </node>
      <node id="action.hacking.variety.SQLi" label="action.hacking.variety.SQLi">
        <attvalues>
          <attvalue for="0" value="1" />
          <attvalue for="1" value="action" />
          <attvalue for="2" value="action.hacking" />
          <attvalue for="3" value="0.999860159418" />
          <attvalue for="4" value="action.hacking.variety.SQLi" />
        </attvalues>
      </node>
      <node id="action.social.variety.Phishing" label="action.social.variety.Phishing">
        <attvalues>
          <attvalue for="0" value="70" />
          <attvalue for="1" value="action" />
          <attvalue for="2" value="action.social" />
          <attvalue for="3" value="0.990211159278" />
          <attvalue for="4" value="action.social.variety.Phishing" />
        </attvalues>
      </node>
      <node id="action.hacking.variety.OS commanding" label="action.hacking.variety.OS commanding">
        <attvalues>
          <attvalue for="0" value="1" />
          <attvalue for="1" value="action" />
          <attvalue for="2" value="action.hacking" />
          <attvalue for="3" value="0.999860159418" />
          <attvalue for="4" value="action.hacking.variety.OS commanding" />
        </attvalues>
      </node>
      <node id="action.hacking.variety.Use of stolen creds" label="action.hacking.variety.Use of stolen creds">
        <attvalues>
          <attvalue for="0" value="68" />
          <attvalue for="1" value="action" />
          <attvalue for="2" value="action.hacking" />
          <attvalue for="3" value="0.990490840442" />
          <attvalue for="4" value="action.hacking.variety.Use of stolen creds" />
        </attvalues>
      </node>
      <node id="action.malware.variety.Export data" label="action.malware.variety.Export data">
        <attvalues>
          <attvalue for="0" value="67" />
          <attvalue for="1" value="action" />
          <attvalue for="2" value="action.malware" />
          <attvalue for="3" value="0.990630681024" />
          <attvalue for="4" value="action.malware.variety.Export data" />
        </attvalues>
      </node>
      <node id="attribute.availability.variety.Loss" label="attribute.availability.variety.Loss">
        <attvalues>
          <attvalue for="0" value="5" />
          <attvalue for="1" value="attribute" />
          <attvalue for="2" value="attribute.availability" />
          <attvalue for="3" value="0.999300797091" />
          <attvalue for="4" value="attribute.availability.variety.Loss" />
        </attvalues>
      </node>
      <node id="attribute.confidentiality.data.variety.Medical" label="attribute.confidentiality.data.variety.Medical">
        <attvalues>
          <attvalue for="0" value="2" />
          <attvalue for="1" value="attribute" />
          <attvalue for="2" value="attribute.confidentiality" />
          <attvalue for="3" value="0.999720318837" />
          <attvalue for="4" value="attribute.confidentiality.data.variety.Medical" />
        </attvalues>
      </node>
      <node id="attribute.confidentiality.data.variety.Payment" label="attribute.confidentiality.data.variety.Payment">
        <attvalues>
          <attvalue for="0" value="3" />
          <attvalue for="1" value="attribute" />
          <attvalue for="2" value="attribute.confidentiality" />
          <attvalue for="3" value="0.999580478255" />
          <attvalue for="4" value="attribute.confidentiality.data.variety.Payment" />
        </attvalues>
      </node>
      <node id="attribute.integrity.variety.Software installation" label="attribute.integrity.variety.Software installation">
        <attvalues>
          <attvalue for="0" value="80" />
          <attvalue for="1" value="attribute" />
          <attvalue for="2" value="attribute.integrity" />
          <attvalue for="3" value="0.988812753461" />
          <attvalue for="4" value="attribute.integrity.variety.Software installation" />
        </attvalues>
      </node>
      <node id="end" label="end">
        <attvalues>
          <attvalue for="0" value="0" />
          <attvalue for="1" value="end" />
          <attvalue for="2" value="end" />
          <attvalue for="3" value="1.0" />
          <attvalue for="4" value="end" />
        </attvalues>
      </node>
      <node id="action.physical.variety.Theft" label="action.physical.variety.Theft">
        <attvalues>
          <attvalue for="0" value="4" />
          <attvalue for="1" value="action" />
          <attvalue for="2" value="action.physical" />
          <attvalue for="3" value="0.999440637673" />
          <attvalue for="4" value="action.physical.variety.Theft" />
        </attvalues>
      </node>
      <node id="attribute.confidentiality.data.variety.Personal" label="attribute.confidentiality.data.variety.Personal">
        <attvalues>
          <attvalue for="0" value="10" />
          <attvalue for="1" value="attribute" />
          <attvalue for="2" value="attribute.confidentiality" />
          <attvalue for="3" value="0.998601594183" />
          <attvalue for="4" value="attribute.confidentiality.data.variety.Personal" />
        </attvalues>
      </node>
      <node id="start" label="start">
        <attvalues>
          <attvalue for="0" value="0" />
          <attvalue for="1" value="start" />
          <attvalue for="2" value="start" />
          <attvalue for="3" value="1.0" />
          <attvalue for="4" value="start" />
        </attvalues>
      </node>
      <node id="action.misuse.variety.Data mishandling" label="action.misuse.variety.Data mishandling">
        <attvalues>
          <attvalue for="0" value="2" />
          <attvalue for="1" value="action" />
          <attvalue for="2" value="action.misuse" />
          <attvalue for="3" value="0.999720318837" />
          <attvalue for="4" value="action.misuse.variety.Data mishandling" />
        </attvalues>
      </node>
      <node id="attribute.confidentiality.data.variety.Copyrighted" label="attribute.confidentiality.data.variety.Copyrighted">
        <attvalues>
          <attvalue for="0" value="5" />
          <attvalue for="1" value="attribute" />
          <attvalue for="2" value="attribute.confidentiality" />
          <attvalue for="3" value="0.999300797091" />
          <attvalue for="4" value="attribute.confidentiality.data.variety.Copyrighted" />
        </attvalues>
      </node>
      <node id="action.malware.variety.Downloader" label="action.malware.variety.Downloader">
        <attvalues>
          <attvalue for="0" value="4" />
          <attvalue for="1" value="action" />
          <attvalue for="2" value="action.malware" />
          <attvalue for="3" value="0.999440637673" />
          <attvalue for="4" value="action.malware.variety.Downloader" />
        </attvalues>
      </node>
      <node id="action.malware.variety.C2" label="action.malware.variety.C2">
        <attvalues>
          <attvalue for="0" value="69" />
          <attvalue for="1" value="action" />
          <attvalue for="2" value="action.malware" />
          <attvalue for="3" value="0.99035099986" />
          <attvalue for="4" value="action.malware.variety.C2" />
        </attvalues>
      </node>
      <node id="action.social.variety.Pretexting" label="action.social.variety.Pretexting">
        <attvalues>
          <attvalue for="0" value="8" />
          <attvalue for="1" value="action" />
          <attvalue for="2" value="action.social" />
          <attvalue for="3" value="0.998881275346" />
          <attvalue for="4" value="action.social.variety.Pretexting" />
        </attvalues>
      </node>
      <node id="action.malware.variety.Ransomware" label="action.malware.variety.Ransomware">
        <attvalues>
          <attvalue for="0" value="6" />
          <attvalue for="1" value="action" />
          <attvalue for="2" value="action.malware" />
          <attvalue for="3" value="0.99916095651" />
          <attvalue for="4" value="action.malware.variety.Ransomware" />
        </attvalues>
      </node>
      <node id="action.malware.variety.Spyware/Keylogger" label="action.malware.variety.Spyware/Keylogger">
        <attvalues>
          <attvalue for="0" value="69" />
          <attvalue for="1" value="action" />
          <attvalue for="2" value="action.malware" />
          <attvalue for="3" value="0.99035099986" />
          <attvalue for="4" value="action.malware.variety.Spyware/Keylogger" />
        </attvalues>
      </node>
      <node id="attribute.integrity.variety.Repurpose" label="attribute.integrity.variety.Repurpose">
        <attvalues>
          <attvalue for="0" value="1" />
          <attvalue for="1" value="attribute" />
          <attvalue for="2" value="attribute.integrity" />
          <attvalue for="3" value="0.999860159418" />
          <attvalue for="4" value="attribute.integrity.variety.Repurpose" />
        </attvalues>
      </node>
      <node id="attribute.availability.variety.Obscuration" label="attribute.availability.variety.Obscuration">
        <attvalues>
          <attvalue for="0" value="5" />
          <attvalue for="1" value="attribute" />
          <attvalue for="2" value="attribute.availability" />
          <attvalue for="3" value="0.999300797091" />
          <attvalue for="4" value="attribute.availability.variety.Obscuration" />
        </attvalues>
      </node>
      <node id="action.malware.variety.Ram scraper" label="action.malware.variety.Ram scraper">
        <attvalues>
          <attvalue for="0" value="2" />
          <attvalue for="1" value="action" />
          <attvalue for="2" value="action.malware" />
          <attvalue for="3" value="0.999720318837" />
          <attvalue for="4" value="action.malware.variety.Ram scraper" />
        </attvalues>
      </node>
      <node id="action.hacking.variety.DoS" label="action.hacking.variety.DoS">
        <attvalues>
          <attvalue for="0" value="7150" />
          <attvalue for="1" value="action" />
          <attvalue for="2" value="action.hacking" />
          <attvalue for="3" value="0.000139840581737" />
          <attvalue for="4" value="action.hacking.variety.DoS" />
        </attvalues>
      </node>
      <node id="attribute.confidentiality.data.variety.Credentials" label="attribute.confidentiality.data.variety.Credentials">
        <attvalues>
          <attvalue for="0" value="66" />
          <attvalue for="1" value="attribute" />
          <attvalue for="2" value="attribute.confidentiality" />
          <attvalue for="3" value="0.990770521605" />
          <attvalue for="4" value="attribute.confidentiality.data.variety.Credentials" />
        </attvalues>
      </node>
      <node id="attribute.integrity.variety.Alter behavior" label="attribute.integrity.variety.Alter behavior">
        <attvalues>
          <attvalue for="0" value="78" />
          <attvalue for="1" value="attribute" />
          <attvalue for="2" value="attribute.integrity" />
          <attvalue for="3" value="0.989092434625" />
          <attvalue for="4" value="attribute.integrity.variety.Alter behavior" />
        </attvalues>
      </node>
      <node id="action.hacking.variety.Brute force" label="action.hacking.variety.Brute force">
        <attvalues>
          <attvalue for="0" value="4" />
          <attvalue for="1" value="action" />
          <attvalue for="2" value="action.hacking" />
          <attvalue for="3" value="0.999440637673" />
          <attvalue for="4" value="action.hacking.variety.Brute force" />
        </attvalues>
      </node>
      <node id="action.hacking.variety.Use of backdoor or C2" label="action.hacking.variety.Use of backdoor or C2">
        <attvalues>
          <attvalue for="0" value="69" />
          <attvalue for="1" value="action" />
          <attvalue for="2" value="action.hacking" />
          <attvalue for="3" value="0.99035099986" />
          <attvalue for="4" value="action.hacking.variety.Use of backdoor or C2" />
        </attvalues>
      </node>
      <node id="attribute.integrity.variety.Fraudulent transaction" label="attribute.integrity.variety.Fraudulent transaction">
        <attvalues>
          <attvalue for="0" value="66" />
          <attvalue for="1" value="attribute" />
          <attvalue for="2" value="attribute.integrity" />
          <attvalue for="3" value="0.990770521605" />
          <attvalue for="4" value="attribute.integrity.variety.Fraudulent transaction" />
        </attvalues>
      </node>
      <node id="attribute.availability.variety.Degradation" label="attribute.availability.variety.Degradation">
        <attvalues>
          <attvalue for="0" value="7149" />
          <attvalue for="1" value="attribute" />
          <attvalue for="2" value="attribute.availability" />
          <attvalue for="3" value="0.000279681163474" />
          <attvalue for="4" value="attribute.availability.variety.Degradation" />
        </attvalues>
      </node>
      <node id="action.malware.variety.Backdoor" label="action.malware.variety.Backdoor">
        <attvalues>
          <attvalue for="0" value="2" />
          <attvalue for="1" value="action" />
          <attvalue for="2" value="action.malware" />
          <attvalue for="3" value="0.999720318837" />
          <attvalue for="4" value="action.malware.variety.Backdoor" />
        </attvalues>
      </node>
      <node id="action.hacking.variety.Footprinting" label="action.hacking.variety.Footprinting">
        <attvalues>
          <attvalue for="0" value="1" />
          <attvalue for="1" value="action" />
          <attvalue for="2" value="action.hacking" />
          <attvalue for="3" value="0.999860159418" />
          <attvalue for="4" value="action.hacking.variety.Footprinting" />
        </attvalues>
      </node>
      <node id="attribute.availability.variety.Interruption" label="attribute.availability.variety.Interruption">
        <attvalues>
          <attvalue for="0" value="2" />
          <attvalue for="1" value="attribute" />
          <attvalue for="2" value="attribute.availability" />
          <attvalue for="3" value="0.999720318837" />
          <attvalue for="4" value="attribute.availability.variety.Interruption" />
        </attvalues>
      </node>
    </nodes>
    <edges>
      <edge id="0" source="action.misuse.variety.Privilege abuse" target="attribute.confidentiality.data.variety.Internal" weight="0.999860100727">
        <attvalues>
          <attvalue for="5" value="2" />
          <attvalue for="6" value="forward" />
          <attvalue for="7" value="action.misuse.variety.Privilege abuse-&gt;attribute.confidentiality.data.variety.Internal" />
        </attvalues>
      </edge>
      <edge id="1" source="attribute.confidentiality.data.variety.Internal" target="end" weight="1.0">
        <attvalues>
          <attvalue for="5" value="1" />
          <attvalue for="6" value="forward" />
          <attvalue for="7" value="attribute.confidentiality.data.variety.Internal-&gt;end" />
        </attvalues>
      </edge>
      <edge id="2" source="action.social.variety.Phishing" target="attribute.integrity.variety.Software installation" weight="0.990486849468">
        <attvalues>
          <attvalue for="5" value="69" />
          <attvalue for="6" value="forward" />
          <attvalue for="7" value="action.social.variety.Phishing-&gt;attribute.integrity.variety.Software installation" />
        </attvalues>
      </edge>
      <edge id="3" source="action.social.variety.Phishing" target="attribute.integrity.variety.Alter behavior" weight="0.990486849468">
        <attvalues>
          <attvalue for="5" value="69" />
          <attvalue for="6" value="forward" />
          <attvalue for="7" value="action.social.variety.Phishing-&gt;attribute.integrity.variety.Alter behavior" />
        </attvalues>
      </edge>
      <edge id="4" source="action.social.variety.Phishing" target="attribute.confidentiality.data.variety.Personal" weight="1.0">
        <attvalues>
          <attvalue for="5" value="1" />
          <attvalue for="6" value="forward" />
          <attvalue for="7" value="action.social.variety.Phishing-&gt;attribute.confidentiality.data.variety.Personal" />
        </attvalues>
      </edge>
      <edge id="5" source="action.hacking.variety.Use of stolen creds" target="action.social.variety.Pretexting" weight="1.0">
        <attvalues>
          <attvalue for="5" value="1" />
          <attvalue for="6" value="forward" />
          <attvalue for="7" value="action.hacking.variety.Use of stolen creds-&gt;action.social.variety.Pretexting" />
        </attvalues>
      </edge>
      <edge id="6" source="action.hacking.variety.Use of stolen creds" target="action.malware.variety.Ransomware" weight="1.0">
        <attvalues>
          <attvalue for="5" value="1" />
          <attvalue for="6" value="forward" />
          <attvalue for="7" value="action.hacking.variety.Use of stolen creds-&gt;action.malware.variety.Ransomware" />
        </attvalues>
      </edge>
      <edge id="7" source="action.hacking.variety.Use of stolen creds" target="action.social.variety.Phishing" weight="0.991046446558">
        <attvalues>
          <attvalue for="5" value="65" />
          <attvalue for="6" value="forward" />
          <attvalue for="7" value="action.hacking.variety.Use of stolen creds-&gt;action.social.variety.Phishing" />
        </attvalues>
      </edge>
      <edge id="8" source="action.malware.variety.Export data" target="action.social.variety.Phishing" weight="0.991046446558">
        <attvalues>
          <attvalue for="5" value="65" />
          <attvalue for="6" value="forward" />
          <attvalue for="7" value="action.malware.variety.Export data-&gt;action.social.variety.Phishing" />
        </attvalues>
      </edge>
      <edge id="9" source="attribute.availability.variety.Loss" target="action.physical.variety.Theft" weight="0.999860100727">
        <attvalues>
          <attvalue for="5" value="2" />
          <attvalue for="6" value="backward" />
          <attvalue for="7" value="attribute.availability.variety.Loss-&gt;action.physical.variety.Theft" />
        </attvalues>
      </edge>
      <edge id="10" source="attribute.availability.variety.Loss" target="action.malware.variety.Ransomware" weight="0.999860100727">
        <attvalues>
          <attvalue for="5" value="2" />
          <attvalue for="6" value="backward" />
          <attvalue for="7" value="attribute.availability.variety.Loss-&gt;action.malware.variety.Ransomware" />
        </attvalues>
      </edge>
      <edge id="11" source="attribute.availability.variety.Loss" target="end" weight="1.0">
        <attvalues>
          <attvalue for="5" value="1" />
          <attvalue for="6" value="forward" />
          <attvalue for="7" value="attribute.availability.variety.Loss-&gt;end" />
        </attvalues>
      </edge>
      <edge id="12" source="attribute.confidentiality.data.variety.Medical" target="action.physical.variety.Theft" weight="1.0">
        <attvalues>
          <attvalue for="5" value="1" />
          <attvalue for="6" value="backward" />
          <attvalue for="7" value="attribute.confidentiality.data.variety.Medical-&gt;action.physical.variety.Theft" />
        </attvalues>
      </edge>
      <edge id="13" source="attribute.confidentiality.data.variety.Medical" target="end" weight="1.0">
        <attvalues>
          <attvalue for="5" value="1" />
          <attvalue for="6" value="forward" />
          <attvalue for="7" value="attribute.confidentiality.data.variety.Medical-&gt;end" />
        </attvalues>
      </edge>
      <edge id="14" source="attribute.confidentiality.data.variety.Payment" target="end" weight="1.0">
        <attvalues>
          <attvalue for="5" value="1" />
          <attvalue for="6" value="forward" />
          <attvalue for="7" value="attribute.confidentiality.data.variety.Payment-&gt;end" />
        </attvalues>
      </edge>
      <edge id="15" source="attribute.integrity.variety.Software installation" target="action.malware.variety.Ransomware" weight="0.999020705092">
        <attvalues>
          <attvalue for="5" value="8" />
          <attvalue for="6" value="backward" />
          <attvalue for="7" value="attribute.integrity.variety.Software installation-&gt;action.malware.variety.Ransomware" />
        </attvalues>
      </edge>
      <edge id="16" source="attribute.integrity.variety.Software installation" target="end" weight="1.0">
        <attvalues>
          <attvalue for="5" value="1" />
          <attvalue for="6" value="forward" />
          <attvalue for="7" value="attribute.integrity.variety.Software installation-&gt;end" />
        </attvalues>
      </edge>
      <edge id="17" source="attribute.integrity.variety.Software installation" target="action.social.variety.Phishing" weight="0.990346950196">
        <attvalues>
          <attvalue for="5" value="70" />
          <attvalue for="6" value="backward" />
          <attvalue for="7" value="attribute.integrity.variety.Software installation-&gt;action.social.variety.Phishing" />
        </attvalues>
      </edge>
      <edge id="18" source="action.physical.variety.Theft" target="attribute.confidentiality.data.variety.Medical" weight="1.0">
        <attvalues>
          <attvalue for="5" value="1" />
          <attvalue for="6" value="forward" />
          <attvalue for="7" value="action.physical.variety.Theft-&gt;attribute.confidentiality.data.variety.Medical" />
        </attvalues>
      </edge>
      <edge id="19" source="action.physical.variety.Theft" target="attribute.availability.variety.Loss" weight="0.999720201455">
        <attvalues>
          <attvalue for="5" value="3" />
          <attvalue for="6" value="forward" />
          <attvalue for="7" value="action.physical.variety.Theft-&gt;attribute.availability.variety.Loss" />
        </attvalues>
      </edge>
      <edge id="20" source="action.physical.variety.Theft" target="attribute.confidentiality.data.variety.Personal" weight="1.0">
        <attvalues>
          <attvalue for="5" value="1" />
          <attvalue for="6" value="forward" />
          <attvalue for="7" value="action.physical.variety.Theft-&gt;attribute.confidentiality.data.variety.Personal" />
        </attvalues>
      </edge>
      <edge id="21" source="attribute.confidentiality.data.variety.Personal" target="action.social.variety.Pretexting" weight="0.999720201455">
        <attvalues>
          <attvalue for="5" value="3" />
          <attvalue for="6" value="backward" />
          <attvalue for="7" value="attribute.confidentiality.data.variety.Personal-&gt;action.social.variety.Pretexting" />
        </attvalues>
      </edge>
      <edge id="22" source="attribute.confidentiality.data.variety.Personal" target="action.malware.variety.Ransomware" weight="0.99944040291">
        <attvalues>
          <attvalue for="5" value="5" />
          <attvalue for="6" value="backward" />
          <attvalue for="7" value="attribute.confidentiality.data.variety.Personal-&gt;action.malware.variety.Ransomware" />
        </attvalues>
      </edge>
      <edge id="23" source="attribute.confidentiality.data.variety.Personal" target="end" weight="1.0">
        <attvalues>
          <attvalue for="5" value="1" />
          <attvalue for="6" value="forward" />
          <attvalue for="7" value="attribute.confidentiality.data.variety.Personal-&gt;end" />
        </attvalues>
      </edge>
      <edge id="24" source="attribute.confidentiality.data.variety.Personal" target="action.social.variety.Phishing" weight="0.999860100727">
        <attvalues>
          <attvalue for="5" value="2" />
          <attvalue for="6" value="backward" />
          <attvalue for="7" value="attribute.confidentiality.data.variety.Personal-&gt;action.social.variety.Phishing" />
        </attvalues>
      </edge>
      <edge id="25" source="attribute.confidentiality.data.variety.Personal" target="action.physical.variety.Theft" weight="1.0">
        <attvalues>
          <attvalue for="5" value="1" />
          <attvalue for="6" value="backward" />
          <attvalue for="7" value="attribute.confidentiality.data.variety.Personal-&gt;action.physical.variety.Theft" />
        </attvalues>
      </edge>
      <edge id="26" source="start" target="action.hacking.variety.SQLi" weight="1.0">
        <attvalues>
          <attvalue for="5" value="1" />
          <attvalue for="6" value="forward" />
          <attvalue for="7" value="start-&gt;action.hacking.variety.SQLi" />
        </attvalues>
      </edge>
      <edge id="27" source="start" target="action.malware.variety.Ransomware" weight="1.0">
        <attvalues>
          <attvalue for="5" value="1" />
          <attvalue for="6" value="forward" />
          <attvalue for="7" value="start-&gt;action.malware.variety.Ransomware" />
        </attvalues>
      </edge>
      <edge id="28" source="start" target="action.misuse.variety.Privilege abuse" weight="1.0">
        <attvalues>
          <attvalue for="5" value="1" />
          <attvalue for="6" value="forward" />
          <attvalue for="7" value="start-&gt;action.misuse.variety.Privilege abuse" />
        </attvalues>
      </edge>
      <edge id="29" source="start" target="action.hacking.variety.Brute force" weight="1.0">
        <attvalues>
          <attvalue for="5" value="1" />
          <attvalue for="6" value="forward" />
          <attvalue for="7" value="start-&gt;action.hacking.variety.Brute force" />
        </attvalues>
      </edge>
      <edge id="30" source="start" target="action.social.variety.Pretexting" weight="1.0">
        <attvalues>
          <attvalue for="5" value="1" />
          <attvalue for="6" value="forward" />
          <attvalue for="7" value="start-&gt;action.social.variety.Pretexting" />
        </attvalues>
      </edge>
      <edge id="31" source="start" target="action.physical.variety.Theft" weight="1.0">
        <attvalues>
          <attvalue for="5" value="1" />
          <attvalue for="6" value="forward" />
          <attvalue for="7" value="start-&gt;action.physical.variety.Theft" />
        </attvalues>
      </edge>
      <edge id="32" source="start" target="action.hacking.variety.OS commanding" weight="1.0">
        <attvalues>
          <attvalue for="5" value="1" />
          <attvalue for="6" value="forward" />
          <attvalue for="7" value="start-&gt;action.hacking.variety.OS commanding" />
        </attvalues>
      </edge>
      <edge id="33" source="start" target="action.social.variety.Phishing" weight="1.0">
        <attvalues>
          <attvalue for="5" value="1" />
          <attvalue for="6" value="forward" />
          <attvalue for="7" value="start-&gt;action.social.variety.Phishing" />
        </attvalues>
      </edge>
      <edge id="34" source="start" target="action.hacking.variety.DoS" weight="1.0">
        <attvalues>
          <attvalue for="5" value="1" />
          <attvalue for="6" value="forward" />
          <attvalue for="7" value="start-&gt;action.hacking.variety.DoS" />
        </attvalues>
      </edge>
      <edge id="35" source="start" target="action.malware.variety.Ram scraper" weight="1.0">
        <attvalues>
          <attvalue for="5" value="1" />
          <attvalue for="6" value="forward" />
          <attvalue for="7" value="start-&gt;action.malware.variety.Ram scraper" />
        </attvalues>
      </edge>
      <edge id="36" source="start" target="action.hacking.variety.Use of stolen creds" weight="1.0">
        <attvalues>
          <attvalue for="5" value="1" />
          <attvalue for="6" value="forward" />
          <attvalue for="7" value="start-&gt;action.hacking.variety.Use of stolen creds" />
        </attvalues>
      </edge>
      <edge id="37" source="start" target="action.hacking.variety.Footprinting" weight="1.0">
        <attvalues>
          <attvalue for="5" value="1" />
          <attvalue for="6" value="forward" />
          <attvalue for="7" value="start-&gt;action.hacking.variety.Footprinting" />
        </attvalues>
      </edge>
      <edge id="38" source="start" target="action.malware.variety.Export data" weight="1.0">
        <attvalues>
          <attvalue for="5" value="1" />
          <attvalue for="6" value="forward" />
          <attvalue for="7" value="start-&gt;action.malware.variety.Export data" />
        </attvalues>
      </edge>
      <edge id="39" source="start" target="action.misuse.variety.Data mishandling" weight="1.0">
        <attvalues>
          <attvalue for="5" value="1" />
          <attvalue for="6" value="forward" />
          <attvalue for="7" value="start-&gt;action.misuse.variety.Data mishandling" />
        </attvalues>
      </edge>
      <edge id="40" source="start" target="action.malware.variety.Backdoor" weight="1.0">
        <attvalues>
          <attvalue for="5" value="1" />
          <attvalue for="6" value="forward" />
          <attvalue for="7" value="start-&gt;action.malware.variety.Backdoor" />
        </attvalues>
      </edge>
      <edge id="41" source="start" target="action.malware.variety.Spyware/Keylogger" weight="1.0">
        <attvalues>
          <attvalue for="5" value="1" />
          <attvalue for="6" value="forward" />
          <attvalue for="7" value="start-&gt;action.malware.variety.Spyware/Keylogger" />
        </attvalues>
      </edge>
      <edge id="42" source="start" target="action.malware.variety.Downloader" weight="1.0">
        <attvalues>
          <attvalue for="5" value="1" />
          <attvalue for="6" value="forward" />
          <attvalue for="7" value="start-&gt;action.malware.variety.Downloader" />
        </attvalues>
      </edge>
      <edge id="43" source="start" target="action.malware.variety.C2" weight="1.0">
        <attvalues>
          <attvalue for="5" value="1" />
          <attvalue for="6" value="forward" />
          <attvalue for="7" value="start-&gt;action.malware.variety.C2" />
        </attvalues>
      </edge>
      <edge id="44" source="start" target="action.hacking.variety.Use of backdoor or C2" weight="1.0">
        <attvalues>
          <attvalue for="5" value="1" />
          <attvalue for="6" value="forward" />
          <attvalue for="7" value="start-&gt;action.hacking.variety.Use of backdoor or C2" />
        </attvalues>
      </edge>
      <edge id="45" source="action.misuse.variety.Data mishandling" target="action.misuse.variety.Privilege abuse" weight="1.0">
        <attvalues>
          <attvalue for="5" value="1" />
          <attvalue for="6" value="forward" />
          <attvalue for="7" value="action.misuse.variety.Data mishandling-&gt;action.misuse.variety.Privilege abuse" />
        </attvalues>
      </edge>
      <edge id="46" source="attribute.confidentiality.data.variety.Copyrighted" target="action.social.variety.Pretexting" weight="0.999580302182">
        <attvalues>
          <attvalue for="5" value="4" />
          <attvalue for="6" value="backward" />
          <attvalue for="7" value="attribute.confidentiality.data.variety.Copyrighted-&gt;action.social.variety.Pretexting" />
        </attvalues>
      </edge>
      <edge id="47" source="attribute.confidentiality.data.variety.Copyrighted" target="end" weight="1.0">
        <attvalues>
          <attvalue for="5" value="1" />
          <attvalue for="6" value="forward" />
          <attvalue for="7" value="attribute.confidentiality.data.variety.Copyrighted-&gt;end" />
        </attvalues>
      </edge>
      <edge id="48" source="action.malware.variety.Downloader" target="action.social.variety.Phishing" weight="0.999720201455">
        <attvalues>
          <attvalue for="5" value="3" />
          <attvalue for="6" value="forward" />
          <attvalue for="7" value="action.malware.variety.Downloader-&gt;action.social.variety.Phishing" />
        </attvalues>
      </edge>
      <edge id="49" source="action.malware.variety.C2" target="action.social.variety.Phishing" weight="0.990766648013">
        <attvalues>
          <attvalue for="5" value="67" />
          <attvalue for="6" value="forward" />
          <attvalue for="7" value="action.malware.variety.C2-&gt;action.social.variety.Phishing" />
        </attvalues>
      </edge>
      <edge id="50" source="action.social.variety.Pretexting" target="attribute.confidentiality.data.variety.Copyrighted" weight="0.999580302182">
        <attvalues>
          <attvalue for="5" value="4" />
          <attvalue for="6" value="forward" />
          <attvalue for="7" value="action.social.variety.Pretexting-&gt;attribute.confidentiality.data.variety.Copyrighted" />
        </attvalues>
      </edge>
      <edge id="51" source="action.social.variety.Pretexting" target="attribute.confidentiality.data.variety.Personal" weight="0.999720201455">
        <attvalues>
          <attvalue for="5" value="3" />
          <attvalue for="6" value="forward" />
          <attvalue for="7" value="action.social.variety.Pretexting-&gt;attribute.confidentiality.data.variety.Personal" />
        </attvalues>
      </edge>
      <edge id="52" source="action.social.variety.Pretexting" target="attribute.integrity.variety.Alter behavior" weight="0.999160604365">
        <attvalues>
          <attvalue for="5" value="7" />
          <attvalue for="6" value="forward" />
          <attvalue for="7" value="action.social.variety.Pretexting-&gt;attribute.integrity.variety.Alter behavior" />
        </attvalues>
      </edge>
      <edge id="53" source="action.malware.variety.Ransomware" target="attribute.availability.variety.Loss" weight="1.0">
        <attvalues>
          <attvalue for="5" value="1" />
          <attvalue for="6" value="forward" />
          <attvalue for="7" value="action.malware.variety.Ransomware-&gt;attribute.availability.variety.Loss" />
        </attvalues>
      </edge>
      <edge id="54" source="action.malware.variety.Ransomware" target="attribute.availability.variety.Obscuration" weight="0.999580302182">
        <attvalues>
          <attvalue for="5" value="4" />
          <attvalue for="6" value="forward" />
          <attvalue for="7" value="action.malware.variety.Ransomware-&gt;attribute.availability.variety.Obscuration" />
        </attvalues>
      </edge>
      <edge id="55" source="action.malware.variety.Ransomware" target="attribute.integrity.variety.Software installation" weight="0.99944040291">
        <attvalues>
          <attvalue for="5" value="5" />
          <attvalue for="6" value="forward" />
          <attvalue for="7" value="action.malware.variety.Ransomware-&gt;attribute.integrity.variety.Software installation" />
        </attvalues>
      </edge>
      <edge id="56" source="action.malware.variety.Ransomware" target="attribute.confidentiality.data.variety.Personal" weight="0.999860100727">
        <attvalues>
          <attvalue for="5" value="2" />
          <attvalue for="6" value="forward" />
          <attvalue for="7" value="action.malware.variety.Ransomware-&gt;attribute.confidentiality.data.variety.Personal" />
        </attvalues>
      </edge>
      <edge id="57" source="action.malware.variety.Ransomware" target="attribute.integrity.variety.Alter behavior" weight="1.0">
        <attvalues>
          <attvalue for="5" value="1" />
          <attvalue for="6" value="forward" />
          <attvalue for="7" value="action.malware.variety.Ransomware-&gt;attribute.integrity.variety.Alter behavior" />
        </attvalues>
      </edge>
      <edge id="58" source="action.malware.variety.Spyware/Keylogger" target="action.social.variety.Phishing" weight="0.990626748741">
        <attvalues>
          <attvalue for="5" value="68" />
          <attvalue for="6" value="forward" />
          <attvalue for="7" value="action.malware.variety.Spyware/Keylogger-&gt;action.social.variety.Phishing" />
        </attvalues>
      </edge>
      <edge id="59" source="attribute.integrity.variety.Repurpose" target="end" weight="1.0">
        <attvalues>
          <attvalue for="5" value="1" />
          <attvalue for="6" value="forward" />
          <attvalue for="7" value="attribute.integrity.variety.Repurpose-&gt;end" />
        </attvalues>
      </edge>
      <edge id="60" source="attribute.availability.variety.Obscuration" target="action.malware.variety.Ransomware" weight="0.999300503637">
        <attvalues>
          <attvalue for="5" value="6" />
          <attvalue for="6" value="backward" />
          <attvalue for="7" value="attribute.availability.variety.Obscuration-&gt;action.malware.variety.Ransomware" />
        </attvalues>
      </edge>
      <edge id="61" source="attribute.availability.variety.Obscuration" target="end" weight="1.0">
        <attvalues>
          <attvalue for="5" value="1" />
          <attvalue for="6" value="forward" />
          <attvalue for="7" value="attribute.availability.variety.Obscuration-&gt;end" />
        </attvalues>
      </edge>
      <edge id="62" source="action.hacking.variety.DoS" target="attribute.availability.variety.Degradation" weight="0.000139899272524">
        <attvalues>
          <attvalue for="5" value="7148" />
          <attvalue for="6" value="forward" />
          <attvalue for="7" value="action.hacking.variety.DoS-&gt;attribute.availability.variety.Degradation" />
        </attvalues>
      </edge>
      <edge id="63" source="action.hacking.variety.DoS" target="attribute.availability.variety.Interruption" weight="1.0">
        <attvalues>
          <attvalue for="5" value="1" />
          <attvalue for="6" value="forward" />
          <attvalue for="7" value="action.hacking.variety.DoS-&gt;attribute.availability.variety.Interruption" />
        </attvalues>
      </edge>
      <edge id="64" source="attribute.confidentiality.data.variety.Credentials" target="end" weight="1.0">
        <attvalues>
          <attvalue for="5" value="1" />
          <attvalue for="6" value="forward" />
          <attvalue for="7" value="attribute.confidentiality.data.variety.Credentials-&gt;end" />
        </attvalues>
      </edge>
      <edge id="65" source="attribute.integrity.variety.Alter behavior" target="action.social.variety.Pretexting" weight="0.999160604365">
        <attvalues>
          <attvalue for="5" value="7" />
          <attvalue for="6" value="backward" />
          <attvalue for="7" value="attribute.integrity.variety.Alter behavior-&gt;action.social.variety.Pretexting" />
        </attvalues>
      </edge>
      <edge id="66" source="attribute.integrity.variety.Alter behavior" target="action.malware.variety.Ransomware" weight="0.999720201455">
        <attvalues>
          <attvalue for="5" value="3" />
          <attvalue for="6" value="backward" />
          <attvalue for="7" value="attribute.integrity.variety.Alter behavior-&gt;action.malware.variety.Ransomware" />
        </attvalues>
      </edge>
      <edge id="67" source="attribute.integrity.variety.Alter behavior" target="end" weight="1.0">
        <attvalues>
          <attvalue for="5" value="1" />
          <attvalue for="6" value="forward" />
          <attvalue for="7" value="attribute.integrity.variety.Alter behavior-&gt;end" />
        </attvalues>
      </edge>
      <edge id="68" source="attribute.integrity.variety.Alter behavior" target="action.social.variety.Phishing" weight="0.990346950196">
        <attvalues>
          <attvalue for="5" value="70" />
          <attvalue for="6" value="backward" />
          <attvalue for="7" value="attribute.integrity.variety.Alter behavior-&gt;action.social.variety.Phishing" />
        </attvalues>
      </edge>
      <edge id="69" source="action.hacking.variety.Brute force" target="attribute.confidentiality.data.variety.Personal" weight="1.0">
        <attvalues>
          <attvalue for="5" value="1" />
          <attvalue for="6" value="forward" />
          <attvalue for="7" value="action.hacking.variety.Brute force-&gt;attribute.confidentiality.data.variety.Personal" />
        </attvalues>
      </edge>
      <edge id="70" source="action.hacking.variety.Use of backdoor or C2" target="action.social.variety.Phishing" weight="0.990906547286">
        <attvalues>
          <attvalue for="5" value="66" />
          <attvalue for="6" value="forward" />
          <attvalue for="7" value="action.hacking.variety.Use of backdoor or C2-&gt;action.social.variety.Phishing" />
        </attvalues>
      </edge>
      <edge id="71" source="attribute.integrity.variety.Fraudulent transaction" target="end" weight="1.0">
        <attvalues>
          <attvalue for="5" value="1" />
          <attvalue for="6" value="forward" />
          <attvalue for="7" value="attribute.integrity.variety.Fraudulent transaction-&gt;end" />
        </attvalues>
      </edge>
      <edge id="72" source="attribute.availability.variety.Degradation" target="end" weight="1.0">
        <attvalues>
          <attvalue for="5" value="1" />
          <attvalue for="6" value="forward" />
          <attvalue for="7" value="attribute.availability.variety.Degradation-&gt;end" />
        </attvalues>
      </edge>
      <edge id="73" source="attribute.availability.variety.Interruption" target="end" weight="1.0">
        <attvalues>
          <attvalue for="5" value="1" />
          <attvalue for="6" value="forward" />
          <attvalue for="7" value="attribute.availability.variety.Interruption-&gt;end" />
        </attvalues>
      </edge>
    </edges>
  </graph>
</gexf>
