<?xml version="1.0" encoding="UTF-8"?><graphml xmlns="http://graphml.graphdrawing.org/xmlns">
<key attr.name="label" attr.type="string" for="node" id="label"/>
<key attr.name="Edge Label" attr.type="string" for="edge" id="edgelabel"/>
<key attr.name="weight" attr.type="double" for="edge" id="weight"/>
<key attr.name="r" attr.type="int" for="node" id="r"/>
<key attr.name="g" attr.type="int" for="node" id="g"/>
<key attr.name="b" attr.type="int" for="node" id="b"/>
<key attr.name="x" attr.type="float" for="node" id="x"/>
<key attr.name="y" attr.type="float" for="node" id="y"/>
<key attr.name="size" attr.type="float" for="node" id="size"/>
<key attr.name="Label" attr.type="string" for="node" id="d4"/>
<key attr.name="weight" attr.type="double" for="node" id="d3"/>
<key attr.name="sub_type" attr.type="string" for="node" id="d2"/>
<key attr.name="type" attr.type="string" for="node" id="d1"/>
<key attr.name="count" attr.type="int" for="node" id="d0"/>
<key attr.name="Label" attr.type="string" for="edge" id="d8"/>
<key attr.name="direction" attr.type="string" for="edge" id="d6"/>
<key attr.name="count" attr.type="int" for="edge" id="d5"/>
<graph edgedefault="directed">
<node id="attribute.confidentiality.data.variety.Payment">
<data key="label">attribute.confidentiality.data.variety.Payment</data>
<data key="d4">attribute.confidentiality.data.variety.Payment</data>
<data key="d3">0.1</data>
<data key="d2">attribute.confidentiality</data>
<data key="d1">attribute</data>
<data key="d0">126</data>
<data key="size">39.998966</data>
<data key="r">105</data>
<data key="g">196</data>
<data key="b">4</data>
<data key="x">-140.18988</data>
<data key="y">-39.90453</data>
</node>
<node id="action.misuse.variety.Unapproved hardware">
<data key="label">action.misuse.variety.Unapproved hardware</data>
<data key="d4">action.misuse.variety.Unapproved hardware</data>
<data key="d3">0.985714285714</data>
<data key="d2">action.misuse</data>
<data key="d1">action</data>
<data key="d0">2</data>
<data key="size">26.612045</data>
<data key="r">128</data>
<data key="g">107</data>
<data key="b">104</data>
<data key="x">31.679586</data>
<data key="y">142.2743</data>
</node>
<node id="action.physical.variety.Skimmer">
<data key="label">action.physical.variety.Skimmer</data>
<data key="d4">action.physical.variety.Skimmer</data>
<data key="d3">0.00714285714286</data>
<data key="d2">action.physical</data>
<data key="d1">action</data>
<data key="d0">139</data>
<data key="size">40.0</data>
<data key="r">226</data>
<data key="g">139</data>
<data key="b">255</data>
<data key="x">138.61368</data>
<data key="y">45.075733</data>
</node>
<node id="action.physical.variety.Disabled controls">
<data key="label">action.physical.variety.Disabled controls</data>
<data key="d4">action.physical.variety.Disabled controls</data>
<data key="d3">0.971428571429</data>
<data key="d2">action.physical</data>
<data key="d1">action</data>
<data key="d0">4</data>
<data key="size">29.69216</data>
<data key="r">226</data>
<data key="g">139</data>
<data key="b">255</data>
<data key="x">91.94999</data>
<data key="y">113.0963</data>
</node>
<node id="attribute.availability.variety.Degradation">
<data key="label">attribute.availability.variety.Degradation</data>
<data key="d4">attribute.availability.variety.Degradation</data>
<data key="d3">0.985714285714</data>
<data key="d2">attribute.availability</data>
<data key="d1">attribute</data>
<data key="d0">2</data>
<data key="size">26.612045</data>
<data key="r">0</data>
<data key="g">199</data>
<data key="b">255</data>
<data key="x">36.105278</data>
<data key="y">-141.21608</data>
</node>
<node id="action.physical.variety.Surveillance">
<data key="label">action.physical.variety.Surveillance</data>
<data key="d4">action.physical.variety.Surveillance</data>
<data key="d3">0.9</data>
<data key="d2">action.physical</data>
<data key="d1">action</data>
<data key="d0">14</data>
<data key="size">35.274265</data>
<data key="r">226</data>
<data key="g">139</data>
<data key="b">255</data>
<data key="x">139.01767</data>
<data key="y">-43.81394</data>
</node>
<node id="attribute.confidentiality.data.variety.Bank">
<data key="label">attribute.confidentiality.data.variety.Bank</data>
<data key="d4">attribute.confidentiality.data.variety.Bank</data>
<data key="d3">0.928571428571</data>
<data key="d2">attribute.confidentiality</data>
<data key="d1">attribute</data>
<data key="d0">10</data>
<data key="size">33.84144</data>
<data key="r">105</data>
<data key="g">196</data>
<data key="b">4</data>
<data key="x">-92.282074</data>
<data key="y">-112.8255</data>
</node>
<node id="attribute.integrity.variety.Hardware tampering">
<data key="label">attribute.integrity.variety.Hardware tampering</data>
<data key="d4">attribute.integrity.variety.Hardware tampering</data>
<data key="d3">0.164285714286</data>
<data key="d2">attribute.integrity</data>
<data key="d1">attribute</data>
<data key="d0">117</data>
<data key="size">39.994625</data>
<data key="r">250</data>
<data key="g">146</data>
<data key="b">0</data>
<data key="x">-89.20334</data>
<data key="y">115.275055</data>
</node>
<node id="start">
<data key="label">start</data>
<data key="d4">start</data>
<data key="d3">1.0</data>
<data key="d2">start</data>
<data key="d1">start</data>
<data key="d0">0</data>
<data key="size">10.0</data>
<data key="r">0</data>
<data key="g">175</data>
<data key="b">135</data>
<data key="x">210.59595</data>
<data key="y">-150.58994</data>
</node>
<node id="attribute.integrity.variety.Fraudulent transaction">
<data key="label">attribute.integrity.variety.Fraudulent transaction</data>
<data key="d4">attribute.integrity.variety.Fraudulent transaction</data>
<data key="d3">0.95</data>
<data key="d2">attribute.integrity</data>
<data key="d1">attribute</data>
<data key="d0">7</data>
<data key="size">32.246605</data>
<data key="r">250</data>
<data key="g">146</data>
<data key="b">0</data>
<data key="x">-138.47478</data>
<data key="y">45.50067</data>
</node>
<node id="end">
<data key="label">end</data>
<data key="d4">end</data>
<data key="d3">1.0</data>
<data key="d2">end</data>
<data key="d1">end</data>
<data key="d0">0</data>
<data key="size">10.0</data>
<data key="r">255</data>
<data key="g">93</data>
<data key="b">133</data>
<data key="x">-230.56752</data>
<data key="y">138.57047</data>
</node>
<node id="action.physical.variety.Tampering">
<data key="label">action.physical.variety.Tampering</data>
<data key="d4">action.physical.variety.Tampering</data>
<data key="d3">0.964285714286</data>
<data key="d2">action.physical</data>
<data key="d1">action</data>
<data key="d0">5</data>
<data key="size">30.71097</data>
<data key="r">226</data>
<data key="g">139</data>
<data key="b">255</data>
<data key="x">96.356224</data>
<data key="y">-109.3666</data>
</node>
<node id="attribute.availability.variety.Loss">
<data key="label">attribute.availability.variety.Loss</data>
<data key="d4">attribute.availability.variety.Loss</data>
<data key="d3">0.985714285714</data>
<data key="d2">attribute.availability</data>
<data key="d1">attribute</data>
<data key="d0">2</data>
<data key="size">26.612045</data>
<data key="r">0</data>
<data key="g">199</data>
<data key="b">255</data>
<data key="x">-27.223017</data>
<data key="y">-143.19386</data>
</node>
<edge id="509" source="attribute.confidentiality.data.variety.Payment" target="end">
<data key="weight">1.0</data>
<data key="d8">attribute.confidentiality.data.variety.Payment-&gt;end</data>
<data key="d6">forward</data>
<data key="d5">1</data>
</edge>
<edge id="510" source="attribute.confidentiality.data.variety.Payment" target="action.physical.variety.Tampering">
<data key="weight">0.9752066135406494</data>
<data key="d8">attribute.confidentiality.data.variety.Payment-&gt;action.physical.variety.Tampering</data>
<data key="d6">backward</data>
<data key="d5">4</data>
</edge>
<edge id="511" source="attribute.confidentiality.data.variety.Payment" target="action.physical.variety.Skimmer">
<data key="weight">0.13223139941692352</data>
<data key="d8">attribute.confidentiality.data.variety.Payment-&gt;action.physical.variety.Skimmer</data>
<data key="d6">backward</data>
<data key="d5">106</data>
</edge>
<edge id="512" source="action.misuse.variety.Unapproved hardware" target="action.physical.variety.Skimmer">
<data key="weight">1.0</data>
<data key="d8">action.misuse.variety.Unapproved hardware-&gt;action.physical.variety.Skimmer</data>
<data key="d6">forward</data>
<data key="d5">1</data>
</edge>
<edge id="513" source="action.physical.variety.Skimmer" target="attribute.confidentiality.data.variety.Payment">
<data key="weight">0.00826446246355772</data>
<data key="d8">action.physical.variety.Skimmer-&gt;attribute.confidentiality.data.variety.Payment</data>
<data key="d6">forward</data>
<data key="d5">121</data>
</edge>
<edge id="514" source="action.physical.variety.Skimmer" target="attribute.integrity.variety.Fraudulent transaction">
<data key="weight">0.9586777091026306</data>
<data key="d8">action.physical.variety.Skimmer-&gt;attribute.integrity.variety.Fraudulent transaction</data>
<data key="d6">forward</data>
<data key="d5">6</data>
</edge>
<edge id="515" source="action.physical.variety.Skimmer" target="attribute.availability.variety.Degradation">
<data key="weight">1.0</data>
<data key="d8">action.physical.variety.Skimmer-&gt;attribute.availability.variety.Degradation</data>
<data key="d6">forward</data>
<data key="d5">1</data>
</edge>
<edge id="516" source="action.physical.variety.Skimmer" target="attribute.confidentiality.data.variety.Bank">
<data key="weight">0.93388432264328</data>
<data key="d8">action.physical.variety.Skimmer-&gt;attribute.confidentiality.data.variety.Bank</data>
<data key="d6">forward</data>
<data key="d5">9</data>
</edge>
<edge id="517" source="action.physical.variety.Skimmer" target="attribute.integrity.variety.Hardware tampering">
<data key="weight">0.08264462649822235</data>
<data key="d8">action.physical.variety.Skimmer-&gt;attribute.integrity.variety.Hardware tampering</data>
<data key="d6">forward</data>
<data key="d5">112</data>
</edge>
<edge id="518" source="action.physical.variety.Skimmer" target="attribute.availability.variety.Loss">
<data key="weight">1.0</data>
<data key="d8">action.physical.variety.Skimmer-&gt;attribute.availability.variety.Loss</data>
<data key="d6">forward</data>
<data key="d5">1</data>
</edge>
<edge id="519" source="action.physical.variety.Disabled controls" target="action.physical.variety.Tampering">
<data key="weight">0.9834710955619812</data>
<data key="d8">action.physical.variety.Disabled controls-&gt;action.physical.variety.Tampering</data>
<data key="d6">forward</data>
<data key="d5">3</data>
</edge>
<edge id="520" source="attribute.availability.variety.Degradation" target="end">
<data key="weight">1.0</data>
<data key="d8">attribute.availability.variety.Degradation-&gt;end</data>
<data key="d6">forward</data>
<data key="d5">1</data>
</edge>
<edge id="521" source="attribute.availability.variety.Degradation" target="action.physical.variety.Skimmer">
<data key="weight">1.0</data>
<data key="d8">attribute.availability.variety.Degradation-&gt;action.physical.variety.Skimmer</data>
<data key="d6">backward</data>
<data key="d5">1</data>
</edge>
<edge id="522" source="action.physical.variety.Surveillance" target="action.physical.variety.Skimmer">
<data key="weight">0.9008264541625977</data>
<data key="d8">action.physical.variety.Surveillance-&gt;action.physical.variety.Skimmer</data>
<data key="d6">forward</data>
<data key="d5">13</data>
</edge>
<edge id="523" source="attribute.confidentiality.data.variety.Bank" target="end">
<data key="weight">1.0</data>
<data key="d8">attribute.confidentiality.data.variety.Bank-&gt;end</data>
<data key="d6">forward</data>
<data key="d5">1</data>
</edge>
<edge id="524" source="attribute.confidentiality.data.variety.Bank" target="action.physical.variety.Skimmer">
<data key="weight">0.942148745059967</data>
<data key="d8">attribute.confidentiality.data.variety.Bank-&gt;action.physical.variety.Skimmer</data>
<data key="d6">backward</data>
<data key="d5">8</data>
</edge>
<edge id="525" source="attribute.integrity.variety.Hardware tampering" target="end">
<data key="weight">1.0</data>
<data key="d8">attribute.integrity.variety.Hardware tampering-&gt;end</data>
<data key="d6">forward</data>
<data key="d5">1</data>
</edge>
<edge id="526" source="attribute.integrity.variety.Hardware tampering" target="action.physical.variety.Tampering">
<data key="weight">0.9752066135406494</data>
<data key="d8">attribute.integrity.variety.Hardware tampering-&gt;action.physical.variety.Tampering</data>
<data key="d6">backward</data>
<data key="d5">4</data>
</edge>
<edge id="527" source="attribute.integrity.variety.Hardware tampering" target="action.physical.variety.Skimmer">
<data key="weight">0.12396693974733353</data>
<data key="d8">attribute.integrity.variety.Hardware tampering-&gt;action.physical.variety.Skimmer</data>
<data key="d6">backward</data>
<data key="d5">107</data>
</edge>
<edge id="528" source="start" target="action.physical.variety.Disabled controls">
<data key="weight">1.0</data>
<data key="d8">start-&gt;action.physical.variety.Disabled controls</data>
<data key="d6">forward</data>
<data key="d5">1</data>
</edge>
<edge id="529" source="start" target="action.physical.variety.Surveillance">
<data key="weight">1.0</data>
<data key="d8">start-&gt;action.physical.variety.Surveillance</data>
<data key="d6">forward</data>
<data key="d5">1</data>
</edge>
<edge id="530" source="start" target="action.misuse.variety.Unapproved hardware">
<data key="weight">1.0</data>
<data key="d8">start-&gt;action.misuse.variety.Unapproved hardware</data>
<data key="d6">forward</data>
<data key="d5">1</data>
</edge>
<edge id="531" source="start" target="action.physical.variety.Skimmer">
<data key="weight">1.0</data>
<data key="d8">start-&gt;action.physical.variety.Skimmer</data>
<data key="d6">forward</data>
<data key="d5">1</data>
</edge>
<edge id="532" source="start" target="action.physical.variety.Tampering">
<data key="weight">1.0</data>
<data key="d8">start-&gt;action.physical.variety.Tampering</data>
<data key="d6">forward</data>
<data key="d5">1</data>
</edge>
<edge id="533" source="attribute.integrity.variety.Fraudulent transaction" target="end">
<data key="weight">1.0</data>
<data key="d8">attribute.integrity.variety.Fraudulent transaction-&gt;end</data>
<data key="d6">forward</data>
<data key="d5">1</data>
</edge>
<edge id="534" source="attribute.integrity.variety.Fraudulent transaction" target="action.physical.variety.Skimmer">
<data key="weight">0.9752066135406494</data>
<data key="d8">attribute.integrity.variety.Fraudulent transaction-&gt;action.physical.variety.Skimmer</data>
<data key="d6">backward</data>
<data key="d5">4</data>
</edge>
<edge id="535" source="action.physical.variety.Tampering" target="attribute.confidentiality.data.variety.Payment">
<data key="weight">0.9752066135406494</data>
<data key="d8">action.physical.variety.Tampering-&gt;attribute.confidentiality.data.variety.Payment</data>
<data key="d6">forward</data>
<data key="d5">4</data>
</edge>
<edge id="536" source="action.physical.variety.Tampering" target="attribute.integrity.variety.Hardware tampering">
<data key="weight">0.9752066135406494</data>
<data key="d8">action.physical.variety.Tampering-&gt;attribute.integrity.variety.Hardware tampering</data>
<data key="d6">forward</data>
<data key="d5">4</data>
</edge>
<edge id="537" source="attribute.availability.variety.Loss" target="end">
<data key="weight">1.0</data>
<data key="d8">attribute.availability.variety.Loss-&gt;end</data>
<data key="d6">forward</data>
<data key="d5">1</data>
</edge>
<edge id="538" source="attribute.availability.variety.Loss" target="action.physical.variety.Skimmer">
<data key="weight">0.9917355179786682</data>
<data key="d8">attribute.availability.variety.Loss-&gt;action.physical.variety.Skimmer</data>
<data key="d6">backward</data>
<data key="d5">2</data>
</edge>
</graph>
</graphml>
