<?xml version="1.0" encoding="UTF-8"?><graphml xmlns="http://graphml.graphdrawing.org/xmlns">
<key attr.name="label" attr.type="string" for="node" id="label"/>
<key attr.name="Edge Label" attr.type="string" for="edge" id="edgelabel"/>
<key attr.name="weight" attr.type="double" for="edge" id="weight"/>
<key attr.name="r" attr.type="int" for="node" id="r"/>
<key attr.name="g" attr.type="int" for="node" id="g"/>
<key attr.name="b" attr.type="int" for="node" id="b"/>
<key attr.name="x" attr.type="float" for="node" id="x"/>
<key attr.name="y" attr.type="float" for="node" id="y"/>
<key attr.name="size" attr.type="float" for="node" id="size"/>
<key attr.name="Label" attr.type="string" for="node" id="d4"/>
<key attr.name="weight" attr.type="double" for="node" id="d3"/>
<key attr.name="sub_type" attr.type="string" for="node" id="d2"/>
<key attr.name="type" attr.type="string" for="node" id="d1"/>
<key attr.name="count" attr.type="int" for="node" id="d0"/>
<key attr.name="Label" attr.type="string" for="edge" id="d8"/>
<key attr.name="direction" attr.type="string" for="edge" id="d6"/>
<key attr.name="count" attr.type="int" for="edge" id="d5"/>
<graph edgedefault="directed">
<node id="attribute.confidentiality.data.variety.Medical">
<data key="label">attribute.confidentiality.data.variety.Medical</data>
<data key="d4">attribute.confidentiality.data.variety.Medical</data>
<data key="d3">0.5</data>
<data key="d2">attribute.confidentiality</data>
<data key="d1">attribute</data>
<data key="d0">2</data>
<data key="size">39.937534</data>
<data key="r">105</data>
<data key="g">196</data>
<data key="b">4</data>
<data key="x">23.964506</data>
<data key="y">-143.01219</data>
</node>
<node id="action.malware.variety.Ransomware">
<data key="label">action.malware.variety.Ransomware</data>
<data key="d4">action.malware.variety.Ransomware</data>
<data key="d3">0.25</data>
<data key="d2">action.malware</data>
<data key="d1">action</data>
<data key="d0">3</data>
<data key="size">40.0</data>
<data key="r">0</data>
<data key="g">175</data>
<data key="b">135</data>
<data key="x">47.128193</data>
<data key="y">137.13394</data>
</node>
<node id="end">
<data key="label">end</data>
<data key="d4">end</data>
<data key="d3">1.0</data>
<data key="d2">end</data>
<data key="d1">end</data>
<data key="d0">0</data>
<data key="size">10.0</data>
<data key="r">250</data>
<data key="g">146</data>
<data key="b">0</data>
<data key="x">-239.42703</data>
<data key="y">115.08581</data>
</node>
<node id="attribute.integrity.variety.Modify data">
<data key="label">attribute.integrity.variety.Modify data</data>
<data key="d4">attribute.integrity.variety.Modify data</data>
<data key="d3">0.5</data>
<data key="d2">attribute.integrity</data>
<data key="d1">attribute</data>
<data key="d0">2</data>
<data key="size">39.937534</data>
<data key="r">226</data>
<data key="g">139</data>
<data key="b">255</data>
<data key="x">-140.59705</data>
<data key="y">35.485985</data>
</node>
<node id="attribute.availability.variety.Loss">
<data key="label">attribute.availability.variety.Loss</data>
<data key="d4">attribute.availability.variety.Loss</data>
<data key="d3">0.5</data>
<data key="d2">attribute.availability</data>
<data key="d1">attribute</data>
<data key="d0">2</data>
<data key="size">39.937534</data>
<data key="r">0</data>
<data key="g">199</data>
<data key="b">255</data>
<data key="x">144.5099</data>
<data key="y">-11.986308</data>
</node>
<node id="attribute.availability.variety.Obscuration">
<data key="label">attribute.availability.variety.Obscuration</data>
<data key="d4">attribute.availability.variety.Obscuration</data>
<data key="d3">0.5</data>
<data key="d2">attribute.availability</data>
<data key="d1">attribute</data>
<data key="d0">2</data>
<data key="size">39.937534</data>
<data key="r">0</data>
<data key="g">199</data>
<data key="b">255</data>
<data key="x">106.713875</data>
<data key="y">-98.178055</data>
</node>
<node id="action.social.variety.Phishing">
<data key="label">action.social.variety.Phishing</data>
<data key="d4">action.social.variety.Phishing</data>
<data key="d3">0.5</data>
<data key="d2">action.social</data>
<data key="d1">action</data>
<data key="d0">2</data>
<data key="size">39.937534</data>
<data key="r">255</data>
<data key="g">93</data>
<data key="b">133</data>
<data key="x">121.430954</data>
<data key="y">79.25469</data>
</node>
<node id="attribute.confidentiality.data.variety.Personal">
<data key="label">attribute.confidentiality.data.variety.Personal</data>
<data key="d4">attribute.confidentiality.data.variety.Personal</data>
<data key="d3">0.25</data>
<data key="d2">attribute.confidentiality</data>
<data key="d1">attribute</data>
<data key="d0">3</data>
<data key="size">40.0</data>
<data key="r">105</data>
<data key="g">196</data>
<data key="b">4</data>
<data key="x">-68.94589</data>
<data key="y">-127.566635</data>
</node>
<node id="start">
<data key="label">start</data>
<data key="d4">start</data>
<data key="d3">1.0</data>
<data key="d2">start</data>
<data key="d1">start</data>
<data key="d0">0</data>
<data key="size">10.0</data>
<data key="r">128</data>
<data key="g">107</data>
<data key="b">104</data>
<data key="x">199.64772</data>
<data key="y">-131.79005</data>
</node>
<node id="attribute.integrity.variety.Alter behavior">
<data key="label">attribute.integrity.variety.Alter behavior</data>
<data key="d4">attribute.integrity.variety.Alter behavior</data>
<data key="d3">0.5</data>
<data key="d2">attribute.integrity</data>
<data key="d1">attribute</data>
<data key="d0">2</data>
<data key="size">39.937534</data>
<data key="r">226</data>
<data key="g">139</data>
<data key="b">255</data>
<data key="x">-132.76898</data>
<data key="y">-58.302494</data>
</node>
<node id="attribute.integrity.variety.Software installation">
<data key="label">attribute.integrity.variety.Software installation</data>
<data key="d4">attribute.integrity.variety.Software installation</data>
<data key="d3">0.25</data>
<data key="d2">attribute.integrity</data>
<data key="d1">attribute</data>
<data key="d0">3</data>
<data key="size">40.0</data>
<data key="r">226</data>
<data key="g">139</data>
<data key="b">255</data>
<data key="x">-89.13932</data>
<data key="y">114.37205</data>
</node>
<edge id="564" source="attribute.confidentiality.data.variety.Medical" target="action.malware.variety.Ransomware">
<data key="weight">0.6000000238418579</data>
<data key="d8">attribute.confidentiality.data.variety.Medical-&gt;action.malware.variety.Ransomware</data>
<data key="d6">backward</data>
<data key="d5">3</data>
</edge>
<edge id="565" source="attribute.confidentiality.data.variety.Medical" target="end">
<data key="weight">1.0</data>
<data key="d8">attribute.confidentiality.data.variety.Medical-&gt;end</data>
<data key="d6">forward</data>
<data key="d5">1</data>
</edge>
<edge id="566" source="action.malware.variety.Ransomware" target="attribute.confidentiality.data.variety.Medical">
<data key="weight">1.0</data>
<data key="d8">action.malware.variety.Ransomware-&gt;attribute.confidentiality.data.variety.Medical</data>
<data key="d6">forward</data>
<data key="d5">1</data>
</edge>
<edge id="567" source="action.malware.variety.Ransomware" target="attribute.integrity.variety.Software installation">
<data key="weight">0.800000011920929</data>
<data key="d8">action.malware.variety.Ransomware-&gt;attribute.integrity.variety.Software installation</data>
<data key="d6">forward</data>
<data key="d5">2</data>
</edge>
<edge id="568" source="action.malware.variety.Ransomware" target="attribute.integrity.variety.Modify data">
<data key="weight">1.0</data>
<data key="d8">action.malware.variety.Ransomware-&gt;attribute.integrity.variety.Modify data</data>
<data key="d6">forward</data>
<data key="d5">1</data>
</edge>
<edge id="569" source="action.malware.variety.Ransomware" target="attribute.availability.variety.Obscuration">
<data key="weight">1.0</data>
<data key="d8">action.malware.variety.Ransomware-&gt;attribute.availability.variety.Obscuration</data>
<data key="d6">forward</data>
<data key="d5">1</data>
</edge>
<edge id="570" source="action.malware.variety.Ransomware" target="attribute.confidentiality.data.variety.Personal">
<data key="weight">1.0</data>
<data key="d8">action.malware.variety.Ransomware-&gt;attribute.confidentiality.data.variety.Personal</data>
<data key="d6">forward</data>
<data key="d5">1</data>
</edge>
<edge id="571" source="action.malware.variety.Ransomware" target="attribute.availability.variety.Loss">
<data key="weight">1.0</data>
<data key="d8">action.malware.variety.Ransomware-&gt;attribute.availability.variety.Loss</data>
<data key="d6">forward</data>
<data key="d5">1</data>
</edge>
<edge id="572" source="attribute.integrity.variety.Modify data" target="action.malware.variety.Ransomware">
<data key="weight">0.6000000238418579</data>
<data key="d8">attribute.integrity.variety.Modify data-&gt;action.malware.variety.Ransomware</data>
<data key="d6">backward</data>
<data key="d5">3</data>
</edge>
<edge id="573" source="attribute.integrity.variety.Modify data" target="end">
<data key="weight">1.0</data>
<data key="d8">attribute.integrity.variety.Modify data-&gt;end</data>
<data key="d6">forward</data>
<data key="d5">1</data>
</edge>
<edge id="574" source="attribute.availability.variety.Loss" target="action.malware.variety.Ransomware">
<data key="weight">0.800000011920929</data>
<data key="d8">attribute.availability.variety.Loss-&gt;action.malware.variety.Ransomware</data>
<data key="d6">backward</data>
<data key="d5">2</data>
</edge>
<edge id="575" source="attribute.availability.variety.Loss" target="end">
<data key="weight">1.0</data>
<data key="d8">attribute.availability.variety.Loss-&gt;end</data>
<data key="d6">forward</data>
<data key="d5">1</data>
</edge>
<edge id="576" source="attribute.availability.variety.Obscuration" target="action.malware.variety.Ransomware">
<data key="weight">0.6000000238418579</data>
<data key="d8">attribute.availability.variety.Obscuration-&gt;action.malware.variety.Ransomware</data>
<data key="d6">backward</data>
<data key="d5">3</data>
</edge>
<edge id="577" source="attribute.availability.variety.Obscuration" target="end">
<data key="weight">1.0</data>
<data key="d8">attribute.availability.variety.Obscuration-&gt;end</data>
<data key="d6">forward</data>
<data key="d5">1</data>
</edge>
<edge id="578" source="action.social.variety.Phishing" target="attribute.confidentiality.data.variety.Personal">
<data key="weight">1.0</data>
<data key="d8">action.social.variety.Phishing-&gt;attribute.confidentiality.data.variety.Personal</data>
<data key="d6">forward</data>
<data key="d5">1</data>
</edge>
<edge id="579" source="action.social.variety.Phishing" target="attribute.integrity.variety.Alter behavior">
<data key="weight">1.0</data>
<data key="d8">action.social.variety.Phishing-&gt;attribute.integrity.variety.Alter behavior</data>
<data key="d6">forward</data>
<data key="d5">1</data>
</edge>
<edge id="580" source="attribute.confidentiality.data.variety.Personal" target="action.malware.variety.Ransomware">
<data key="weight">0.800000011920929</data>
<data key="d8">attribute.confidentiality.data.variety.Personal-&gt;action.malware.variety.Ransomware</data>
<data key="d6">backward</data>
<data key="d5">2</data>
</edge>
<edge id="581" source="attribute.confidentiality.data.variety.Personal" target="end">
<data key="weight">1.0</data>
<data key="d8">attribute.confidentiality.data.variety.Personal-&gt;end</data>
<data key="d6">forward</data>
<data key="d5">1</data>
</edge>
<edge id="582" source="attribute.confidentiality.data.variety.Personal" target="action.social.variety.Phishing">
<data key="weight">1.0</data>
<data key="d8">attribute.confidentiality.data.variety.Personal-&gt;action.social.variety.Phishing</data>
<data key="d6">backward</data>
<data key="d5">1</data>
</edge>
<edge id="583" source="start" target="action.malware.variety.Ransomware">
<data key="weight">1.0</data>
<data key="d8">start-&gt;action.malware.variety.Ransomware</data>
<data key="d6">forward</data>
<data key="d5">1</data>
</edge>
<edge id="584" source="start" target="action.social.variety.Phishing">
<data key="weight">1.0</data>
<data key="d8">start-&gt;action.social.variety.Phishing</data>
<data key="d6">forward</data>
<data key="d5">1</data>
</edge>
<edge id="585" source="attribute.integrity.variety.Alter behavior" target="end">
<data key="weight">1.0</data>
<data key="d8">attribute.integrity.variety.Alter behavior-&gt;end</data>
<data key="d6">forward</data>
<data key="d5">1</data>
</edge>
<edge id="586" source="attribute.integrity.variety.Alter behavior" target="action.social.variety.Phishing">
<data key="weight">1.0</data>
<data key="d8">attribute.integrity.variety.Alter behavior-&gt;action.social.variety.Phishing</data>
<data key="d6">backward</data>
<data key="d5">1</data>
</edge>
<edge id="587" source="attribute.integrity.variety.Software installation" target="action.malware.variety.Ransomware">
<data key="weight">0.20000000298023224</data>
<data key="d8">attribute.integrity.variety.Software installation-&gt;action.malware.variety.Ransomware</data>
<data key="d6">backward</data>
<data key="d5">5</data>
</edge>
<edge id="588" source="attribute.integrity.variety.Software installation" target="end">
<data key="weight">1.0</data>
<data key="d8">attribute.integrity.variety.Software installation-&gt;end</data>
<data key="d6">forward</data>
<data key="d5">1</data>
</edge>
</graph>
</graphml>
