<?xml version="1.0" encoding="UTF-8"?><graphml xmlns="http://graphml.graphdrawing.org/xmlns">
<key attr.name="label" attr.type="string" for="node" id="label"/>
<key attr.name="Edge Label" attr.type="string" for="edge" id="edgelabel"/>
<key attr.name="weight" attr.type="double" for="edge" id="weight"/>
<key attr.name="r" attr.type="int" for="node" id="r"/>
<key attr.name="g" attr.type="int" for="node" id="g"/>
<key attr.name="b" attr.type="int" for="node" id="b"/>
<key attr.name="x" attr.type="float" for="node" id="x"/>
<key attr.name="y" attr.type="float" for="node" id="y"/>
<key attr.name="size" attr.type="float" for="node" id="size"/>
<key attr.name="Label" attr.type="string" for="node" id="d4"/>
<key attr.name="weight" attr.type="double" for="node" id="d3"/>
<key attr.name="sub_type" attr.type="string" for="node" id="d2"/>
<key attr.name="type" attr.type="string" for="node" id="d1"/>
<key attr.name="count" attr.type="int" for="node" id="d0"/>
<key attr.name="Label" attr.type="string" for="edge" id="d8"/>
<key attr.name="direction" attr.type="string" for="edge" id="d6"/>
<key attr.name="count" attr.type="int" for="edge" id="d5"/>
<graph edgedefault="directed">
<node id="action.misuse.variety.Privilege abuse">
<data key="label">action.misuse.variety.Privilege abuse</data>
<data key="d4">action.misuse.variety.Privilege abuse</data>
<data key="d3">0.993865030675</data>
<data key="d2">action.misuse</data>
<data key="d1">action</data>
<data key="d0">2</data>
<data key="size">23.176922</data>
<data key="r">255</data>
<data key="g">85</data>
<data key="b">132</data>
<data key="x">-262.932</data>
<data key="y">-193.3287</data>
</node>
<node id="action.malware.variety.Capture app data">
<data key="label">action.malware.variety.Capture app data</data>
<data key="d4">action.malware.variety.Capture app data</data>
<data key="d3">0.98773006135</data>
<data key="d2">action.malware</data>
<data key="d1">action</data>
<data key="d0">4</data>
<data key="size">25.947292</data>
<data key="r">223</data>
<data key="g">137</data>
<data key="b">255</data>
<data key="x">313.14218</data>
<data key="y">-91.9304</data>
</node>
<node id="action.malware.variety.Rootkit">
<data key="label">action.malware.variety.Rootkit</data>
<data key="d4">action.malware.variety.Rootkit</data>
<data key="d3">0.993865030675</data>
<data key="d2">action.malware</data>
<data key="d1">action</data>
<data key="d0">2</data>
<data key="size">23.176922</data>
<data key="r">223</data>
<data key="g">137</data>
<data key="b">255</data>
<data key="x">-113.074455</data>
<data key="y">-306.14276</data>
</node>
<node id="action.hacking.variety.Use of stolen creds">
<data key="label">action.hacking.variety.Use of stolen creds</data>
<data key="d4">action.hacking.variety.Use of stolen creds</data>
<data key="d3">0.254601226994</data>
<data key="d2">action.hacking</data>
<data key="d1">action</data>
<data key="d0">243</data>
<data key="size">39.97563</data>
<data key="r">115</data>
<data key="g">192</data>
<data key="b">0</data>
<data key="x">240.21661</data>
<data key="y">220.91899</data>
</node>
<node id="attribute.integrity.variety.Created account">
<data key="label">attribute.integrity.variety.Created account</data>
<data key="d4">attribute.integrity.variety.Created account</data>
<data key="d3">0.996932515337</data>
<data key="d2">attribute.integrity</data>
<data key="d1">attribute</data>
<data key="d0">1</data>
<data key="size">20.738829</data>
<data key="r">0</data>
<data key="g">196</data>
<data key="b">255</data>
<data key="x">-207.21729</data>
<data key="y">252.13136</data>
</node>
<node id="attribute.integrity.variety.Software installation">
<data key="label">attribute.integrity.variety.Software installation</data>
<data key="d4">attribute.integrity.variety.Software installation</data>
<data key="d3">0.00613496932515</data>
<data key="d2">attribute.integrity</data>
<data key="d1">attribute</data>
<data key="d0">324</data>
<data key="size">40.0</data>
<data key="r">0</data>
<data key="g">196</data>
<data key="b">255</data>
<data key="x">-94.62154</data>
<data key="y">312.33954</data>
</node>
<node id="attribute.confidentiality.data.variety.Payment">
<data key="label">attribute.confidentiality.data.variety.Payment</data>
<data key="d4">attribute.confidentiality.data.variety.Payment</data>
<data key="d3">0.00306748466258</data>
<data key="d2">attribute.confidentiality</data>
<data key="d1">attribute</data>
<data key="d0">325</data>
<data key="size">40.0</data>
<data key="r">76</data>
<data key="g">70</data>
<data key="b">62</data>
<data key="x">-309.9283</data>
<data key="y">102.24317</data>
</node>
<node id="attribute.availability.variety.Loss">
<data key="label">attribute.availability.variety.Loss</data>
<data key="d4">attribute.availability.variety.Loss</data>
<data key="d3">0.990797546012</data>
<data key="d2">attribute.availability</data>
<data key="d1">attribute</data>
<data key="d0">3</data>
<data key="size">24.759953</data>
<data key="r">255</data>
<data key="g">136</data>
<data key="b">5</data>
<data key="x">-323.88553</data>
<data key="y">-40.092274</data>
</node>
<node id="end">
<data key="label">end</data>
<data key="d4">end</data>
<data key="d3">1.0</data>
<data key="d2">end</data>
<data key="d1">end</data>
<data key="d0">0</data>
<data key="size">10.0</data>
<data key="r">0</data>
<data key="g">189</data>
<data key="b">148</data>
<data key="x">-382.59265</data>
<data key="y">304.93283</data>
</node>
<node id="action.malware.variety.Backdoor">
<data key="label">action.malware.variety.Backdoor</data>
<data key="d4">action.malware.variety.Backdoor</data>
<data key="d3">0.984662576687</data>
<data key="d2">action.malware</data>
<data key="d1">action</data>
<data key="d0">5</data>
<data key="size">26.900854</data>
<data key="r">223</data>
<data key="g">137</data>
<data key="b">255</data>
<data key="x">322.9256</data>
<data key="y">47.20469</data>
</node>
<node id="attribute.confidentiality.data.variety.Personal">
<data key="label">attribute.confidentiality.data.variety.Personal</data>
<data key="d4">attribute.confidentiality.data.variety.Personal</data>
<data key="d3">0.993865030675</data>
<data key="d2">attribute.confidentiality</data>
<data key="d1">attribute</data>
<data key="d0">2</data>
<data key="size">23.176922</data>
<data key="r">76</data>
<data key="g">70</data>
<data key="b">62</data>
<data key="x">-278.0657</data>
<data key="y">170.84697</data>
</node>
<node id="action.malware.variety.Capture stored data">
<data key="label">action.malware.variety.Capture stored data</data>
<data key="d4">action.malware.variety.Capture stored data</data>
<data key="d3">0.981595092025</data>
<data key="d2">action.malware</data>
<data key="d1">action</data>
<data key="d0">6</data>
<data key="size">27.698345</data>
<data key="r">223</data>
<data key="g">137</data>
<data key="b">255</data>
<data key="x">289.05386</data>
<data key="y">-151.51599</data>
</node>
<node id="start">
<data key="label">start</data>
<data key="d4">start</data>
<data key="d3">1.0</data>
<data key="d2">start</data>
<data key="d1">start</data>
<data key="d0">0</data>
<data key="size">10.0</data>
<data key="r">211</data>
<data key="g">179</data>
<data key="b">176</data>
<data key="x">347.62778</data>
<data key="y">-299.21896</data>
</node>
<node id="action.malware.variety.Disable controls">
<data key="label">action.malware.variety.Disable controls</data>
<data key="d4">action.malware.variety.Disable controls</data>
<data key="d3">0.993865030675</data>
<data key="d2">action.malware</data>
<data key="d1">action</data>
<data key="d0">2</data>
<data key="size">23.176922</data>
<data key="r">223</data>
<data key="g">137</data>
<data key="b">255</data>
<data key="x">255.83263</data>
<data key="y">-202.62994</data>
</node>
<node id="action.malware.variety.Packet sniffer">
<data key="label">action.malware.variety.Packet sniffer</data>
<data key="d4">action.malware.variety.Packet sniffer</data>
<data key="d3">0.993865030675</data>
<data key="d2">action.malware</data>
<data key="d1">action</data>
<data key="d0">2</data>
<data key="size">23.176922</data>
<data key="r">223</data>
<data key="g">137</data>
<data key="b">255</data>
<data key="x">102.51124</data>
<data key="y">-309.83975</data>
</node>
<node id="action.malware.variety.Downloader">
<data key="label">action.malware.variety.Downloader</data>
<data key="d4">action.malware.variety.Downloader</data>
<data key="d3">0.984662576687</data>
<data key="d2">action.malware</data>
<data key="d1">action</data>
<data key="d0">5</data>
<data key="size">26.900854</data>
<data key="r">223</data>
<data key="g">137</data>
<data key="b">255</data>
<data key="x">214.4074</data>
<data key="y">-246.04614</data>
</node>
<node id="action.malware.variety.C2">
<data key="label">action.malware.variety.C2</data>
<data key="d4">action.malware.variety.C2</data>
<data key="d3">0.950920245399</data>
<data key="d2">action.malware</data>
<data key="d1">action</data>
<data key="d0">16</data>
<data key="size">32.14366</data>
<data key="r">223</data>
<data key="g">137</data>
<data key="b">255</data>
<data key="x">325.51306</data>
<data key="y">-23.462307</data>
</node>
<node id="action.malware.variety.Adminware">
<data key="label">action.malware.variety.Adminware</data>
<data key="d4">action.malware.variety.Adminware</data>
<data key="d3">0.990797546012</data>
<data key="d2">action.malware</data>
<data key="d1">action</data>
<data key="d0">3</data>
<data key="size">24.759953</data>
<data key="r">223</data>
<data key="g">137</data>
<data key="b">255</data>
<data key="x">285.53366</data>
<data key="y">158.04985</data>
</node>
<node id="action.malware.variety.Password dumper">
<data key="label">action.malware.variety.Password dumper</data>
<data key="d4">action.malware.variety.Password dumper</data>
<data key="d3">0.978527607362</data>
<data key="d2">action.malware</data>
<data key="d1">action</data>
<data key="d0">7</data>
<data key="size">28.38358</data>
<data key="r">223</data>
<data key="g">137</data>
<data key="b">255</data>
<data key="x">42.284664</data>
<data key="y">-323.6066</data>
</node>
<node id="action.malware.variety.Spyware/Keylogger">
<data key="label">action.malware.variety.Spyware/Keylogger</data>
<data key="d4">action.malware.variety.Spyware/Keylogger</data>
<data key="d3">0.941717791411</data>
<data key="d2">action.malware</data>
<data key="d1">action</data>
<data key="d0">19</data>
<data key="size">32.920135</data>
<data key="r">223</data>
<data key="g">137</data>
<data key="b">255</data>
<data key="x">-217.76352</data>
<data key="y">-243.0808</data>
</node>
<node id="action.hacking.variety.OS commanding">
<data key="label">action.hacking.variety.OS commanding</data>
<data key="d4">action.hacking.variety.OS commanding</data>
<data key="d3">0.993865030675</data>
<data key="d2">action.hacking</data>
<data key="d1">action</data>
<data key="d0">2</data>
<data key="size">23.176922</data>
<data key="r">115</data>
<data key="g">192</data>
<data key="b">0</data>
<data key="x">115.91542</data>
<data key="y">305.07843</data>
</node>
<node id="action.malware.variety.Ram scraper">
<data key="label">action.malware.variety.Ram scraper</data>
<data key="d4">action.malware.variety.Ram scraper</data>
<data key="d3">0.0460122699387</data>
<data key="d2">action.malware</data>
<data key="d1">action</data>
<data key="d0">311</data>
<data key="size">39.99991</data>
<data key="r">223</data>
<data key="g">137</data>
<data key="b">255</data>
<data key="x">-39.558792</data>
<data key="y">-323.9511</data>
</node>
<node id="action.malware.variety.Adware">
<data key="label">action.malware.variety.Adware</data>
<data key="d4">action.malware.variety.Adware</data>
<data key="d3">0.993865030675</data>
<data key="d2">action.malware</data>
<data key="d1">action</data>
<data key="d0">2</data>
<data key="size">23.176922</data>
<data key="r">223</data>
<data key="g">137</data>
<data key="b">255</data>
<data key="x">308.8237</data>
<data key="y">105.53267</data>
</node>
<node id="attribute.confidentiality.data.variety.Credentials">
<data key="label">attribute.confidentiality.data.variety.Credentials</data>
<data key="d4">attribute.confidentiality.data.variety.Credentials</data>
<data key="d3">0.981595092025</data>
<data key="d2">attribute.confidentiality</data>
<data key="d1">attribute</data>
<data key="d0">6</data>
<data key="size">27.698345</data>
<data key="r">76</data>
<data key="g">70</data>
<data key="b">62</data>
<data key="x">-325.56448</data>
<data key="y">22.737713</data>
</node>
<node id="attribute.integrity.variety.Alter behavior">
<data key="label">attribute.integrity.variety.Alter behavior</data>
<data key="d4">attribute.integrity.variety.Alter behavior</data>
<data key="d3">0.993865030675</data>
<data key="d2">attribute.integrity</data>
<data key="d1">attribute</data>
<data key="d0">2</data>
<data key="size">23.176922</data>
<data key="r">0</data>
<data key="g">196</data>
<data key="b">255</data>
<data key="x">-245.05807</data>
<data key="y">215.53601</data>
</node>
<node id="action.hacking.variety.Brute force">
<data key="label">action.hacking.variety.Brute force</data>
<data key="d4">action.hacking.variety.Brute force</data>
<data key="d3">0.800613496933</data>
<data key="d2">action.hacking</data>
<data key="d1">action</data>
<data key="d0">65</data>
<data key="size">37.787502</data>
<data key="r">115</data>
<data key="g">192</data>
<data key="b">0</data>
<data key="x">45.199245</data>
<data key="y">323.2124</data>
</node>
<node id="action.hacking.variety.Use of backdoor or C2">
<data key="label">action.hacking.variety.Use of backdoor or C2</data>
<data key="d4">action.hacking.variety.Use of backdoor or C2</data>
<data key="d3">0.957055214724</data>
<data key="d2">action.hacking</data>
<data key="d1">action</data>
<data key="d0">14</data>
<data key="size">31.535282</data>
<data key="r">115</data>
<data key="g">192</data>
<data key="b">0</data>
<data key="x">174.53842</data>
<data key="y">275.7636</data>
</node>
<node id="attribute.integrity.variety.Fraudulent transaction">
<data key="label">attribute.integrity.variety.Fraudulent transaction</data>
<data key="d4">attribute.integrity.variety.Fraudulent transaction</data>
<data key="d3">0.993865030675</data>
<data key="d2">attribute.integrity</data>
<data key="d1">attribute</data>
<data key="d0">2</data>
<data key="size">23.176922</data>
<data key="r">0</data>
<data key="g">196</data>
<data key="b">255</data>
<data key="x">-163.98515</data>
<data key="y">282.16678</data>
</node>
<node id="action.malware.variety.Scan network">
<data key="label">action.malware.variety.Scan network</data>
<data key="d4">action.malware.variety.Scan network</data>
<data key="d3">0.993865030675</data>
<data key="d2">action.malware</data>
<data key="d1">action</data>
<data key="d0">2</data>
<data key="size">23.176922</data>
<data key="r">223</data>
<data key="g">137</data>
<data key="b">255</data>
<data key="x">-163.36295</data>
<data key="y">-282.52747</data>
</node>
<node id="action.physical.variety.Theft">
<data key="label">action.physical.variety.Theft</data>
<data key="d4">action.physical.variety.Theft</data>
<data key="d3">0.990797546012</data>
<data key="d2">action.physical</data>
<data key="d1">action</data>
<data key="d0">3</data>
<data key="size">24.759953</data>
<data key="r">192</data>
<data key="g">192</data>
<data key="b">192</data>
<data key="x">-292.7584</data>
<data key="y">-144.22812</data>
</node>
<node id="attribute.availability.variety.Interruption">
<data key="label">attribute.availability.variety.Interruption</data>
<data key="d4">attribute.availability.variety.Interruption</data>
<data key="d3">0.996932515337</data>
<data key="d2">attribute.availability</data>
<data key="d1">attribute</data>
<data key="d0">1</data>
<data key="size">20.738829</data>
<data key="r">255</data>
<data key="g">136</data>
<data key="b">5</data>
<data key="x">-312.68756</data>
<data key="y">-93.46511</data>
</node>
<node id="action.malware.variety.Export data">
<data key="label">action.malware.variety.Export data</data>
<data key="d4">action.malware.variety.Export data</data>
<data key="d3">0.975460122699</data>
<data key="d2">action.malware</data>
<data key="d1">action</data>
<data key="d0">8</data>
<data key="size">28.983856</data>
<data key="r">223</data>
<data key="g">137</data>
<data key="b">255</data>
<data key="x">159.6929</data>
<data key="y">-284.618</data>
</node>
<edge id="425" source="action.misuse.variety.Privilege abuse" target="attribute.integrity.variety.Fraudulent transaction">
<data key="weight">1.0</data>
<data key="d8">action.misuse.variety.Privilege abuse-&gt;attribute.integrity.variety.Fraudulent transaction</data>
<data key="d6">forward</data>
<data key="d5">1</data>
</edge>
<edge id="426" source="action.malware.variety.Capture app data" target="attribute.confidentiality.data.variety.Payment">
<data key="weight">0.997521698474884</data>
<data key="d8">action.malware.variety.Capture app data-&gt;attribute.confidentiality.data.variety.Payment</data>
<data key="d6">forward</data>
<data key="d5">3</data>
</edge>
<edge id="427" source="action.malware.variety.Capture app data" target="attribute.integrity.variety.Software installation">
<data key="weight">0.997521698474884</data>
<data key="d8">action.malware.variety.Capture app data-&gt;attribute.integrity.variety.Software installation</data>
<data key="d6">forward</data>
<data key="d5">3</data>
</edge>
<edge id="428" source="action.malware.variety.Rootkit" target="action.malware.variety.Ram scraper">
<data key="weight">1.0</data>
<data key="d8">action.malware.variety.Rootkit-&gt;action.malware.variety.Ram scraper</data>
<data key="d6">forward</data>
<data key="d5">1</data>
</edge>
<edge id="429" source="action.hacking.variety.Use of stolen creds" target="attribute.confidentiality.data.variety.Payment">
<data key="weight">0.7013630867004395</data>
<data key="d8">action.hacking.variety.Use of stolen creds-&gt;attribute.confidentiality.data.variety.Payment</data>
<data key="d6">forward</data>
<data key="d5">242</data>
</edge>
<edge id="430" source="attribute.integrity.variety.Created account" target="end">
<data key="weight">1.0</data>
<data key="d8">attribute.integrity.variety.Created account-&gt;end</data>
<data key="d6">forward</data>
<data key="d5">1</data>
</edge>
<edge id="431" source="attribute.integrity.variety.Software installation" target="action.hacking.variety.Use of stolen creds">
<data key="weight">0.7013630867004395</data>
<data key="d8">attribute.integrity.variety.Software installation-&gt;action.hacking.variety.Use of stolen creds</data>
<data key="d6">backward</data>
<data key="d5">242</data>
</edge>
<edge id="432" source="attribute.integrity.variety.Software installation" target="end">
<data key="weight">1.0</data>
<data key="d8">attribute.integrity.variety.Software installation-&gt;end</data>
<data key="d6">forward</data>
<data key="d5">1</data>
</edge>
<edge id="433" source="attribute.integrity.variety.Software installation" target="action.malware.variety.Spyware/Keylogger">
<data key="weight">0.9491945505142212</data>
<data key="d8">attribute.integrity.variety.Software installation-&gt;action.malware.variety.Spyware/Keylogger</data>
<data key="d6">backward</data>
<data key="d5">42</data>
</edge>
<edge id="434" source="attribute.integrity.variety.Software installation" target="action.malware.variety.Ram scraper">
<data key="weight">0.5873606204986572</data>
<data key="d8">attribute.integrity.variety.Software installation-&gt;action.malware.variety.Ram scraper</data>
<data key="d6">backward</data>
<data key="d5">334</data>
</edge>
<edge id="435" source="attribute.integrity.variety.Software installation" target="action.malware.variety.Capture app data">
<data key="weight">0.997521698474884</data>
<data key="d8">attribute.integrity.variety.Software installation-&gt;action.malware.variety.Capture app data</data>
<data key="d6">backward</data>
<data key="d5">3</data>
</edge>
<edge id="436" source="attribute.confidentiality.data.variety.Payment" target="end">
<data key="weight">1.0</data>
<data key="d8">attribute.confidentiality.data.variety.Payment-&gt;end</data>
<data key="d6">forward</data>
<data key="d5">1</data>
</edge>
<edge id="437" source="attribute.confidentiality.data.variety.Payment" target="action.malware.variety.Capture app data">
<data key="weight">0.997521698474884</data>
<data key="d8">attribute.confidentiality.data.variety.Payment-&gt;action.malware.variety.Capture app data</data>
<data key="d6">backward</data>
<data key="d5">3</data>
</edge>
<edge id="438" source="attribute.confidentiality.data.variety.Payment" target="action.physical.variety.Theft">
<data key="weight">1.0</data>
<data key="d8">attribute.confidentiality.data.variety.Payment-&gt;action.physical.variety.Theft</data>
<data key="d6">backward</data>
<data key="d5">1</data>
</edge>
<edge id="439" source="attribute.confidentiality.data.variety.Payment" target="action.malware.variety.Ram scraper">
<data key="weight">0.0012391573982313275</data>
<data key="d8">attribute.confidentiality.data.variety.Payment-&gt;action.malware.variety.Ram scraper</data>
<data key="d6">backward</data>
<data key="d5">807</data>
</edge>
<edge id="440" source="attribute.confidentiality.data.variety.Payment" target="action.hacking.variety.Use of stolen creds">
<data key="weight">0.7013630867004395</data>
<data key="d8">attribute.confidentiality.data.variety.Payment-&gt;action.hacking.variety.Use of stolen creds</data>
<data key="d6">backward</data>
<data key="d5">242</data>
</edge>
<edge id="441" source="attribute.confidentiality.data.variety.Payment" target="action.malware.variety.Spyware/Keylogger">
<data key="weight">0.9368029832839966</data>
<data key="d8">attribute.confidentiality.data.variety.Payment-&gt;action.malware.variety.Spyware/Keylogger</data>
<data key="d6">backward</data>
<data key="d5">52</data>
</edge>
<edge id="442" source="attribute.availability.variety.Loss" target="action.physical.variety.Theft">
<data key="weight">0.9987608194351196</data>
<data key="d8">attribute.availability.variety.Loss-&gt;action.physical.variety.Theft</data>
<data key="d6">backward</data>
<data key="d5">2</data>
</edge>
<edge id="443" source="attribute.availability.variety.Loss" target="end">
<data key="weight">1.0</data>
<data key="d8">attribute.availability.variety.Loss-&gt;end</data>
<data key="d6">forward</data>
<data key="d5">1</data>
</edge>
<edge id="444" source="action.malware.variety.Backdoor" target="action.hacking.variety.Use of stolen creds">
<data key="weight">1.0</data>
<data key="d8">action.malware.variety.Backdoor-&gt;action.hacking.variety.Use of stolen creds</data>
<data key="d6">forward</data>
<data key="d5">1</data>
</edge>
<edge id="445" source="action.malware.variety.Backdoor" target="action.malware.variety.Spyware/Keylogger">
<data key="weight">1.0</data>
<data key="d8">action.malware.variety.Backdoor-&gt;action.malware.variety.Spyware/Keylogger</data>
<data key="d6">forward</data>
<data key="d5">1</data>
</edge>
<edge id="446" source="action.malware.variety.Backdoor" target="action.malware.variety.Ram scraper">
<data key="weight">0.997521698474884</data>
<data key="d8">action.malware.variety.Backdoor-&gt;action.malware.variety.Ram scraper</data>
<data key="d6">forward</data>
<data key="d5">3</data>
</edge>
<edge id="447" source="attribute.confidentiality.data.variety.Personal" target="action.physical.variety.Theft">
<data key="weight">1.0</data>
<data key="d8">attribute.confidentiality.data.variety.Personal-&gt;action.physical.variety.Theft</data>
<data key="d6">backward</data>
<data key="d5">1</data>
</edge>
<edge id="448" source="attribute.confidentiality.data.variety.Personal" target="end">
<data key="weight">1.0</data>
<data key="d8">attribute.confidentiality.data.variety.Personal-&gt;end</data>
<data key="d6">forward</data>
<data key="d5">1</data>
</edge>
<edge id="449" source="action.malware.variety.Capture stored data" target="action.hacking.variety.Use of stolen creds">
<data key="weight">0.997521698474884</data>
<data key="d8">action.malware.variety.Capture stored data-&gt;action.hacking.variety.Use of stolen creds</data>
<data key="d6">forward</data>
<data key="d5">3</data>
</edge>
<edge id="450" source="action.malware.variety.Capture stored data" target="action.malware.variety.Spyware/Keylogger">
<data key="weight">0.9962825179100037</data>
<data key="d8">action.malware.variety.Capture stored data-&gt;action.malware.variety.Spyware/Keylogger</data>
<data key="d6">forward</data>
<data key="d5">4</data>
</edge>
<edge id="451" source="start" target="action.malware.variety.Password dumper">
<data key="weight">1.0</data>
<data key="d8">start-&gt;action.malware.variety.Password dumper</data>
<data key="d6">forward</data>
<data key="d5">1</data>
</edge>
<edge id="452" source="start" target="action.misuse.variety.Privilege abuse">
<data key="weight">1.0</data>
<data key="d8">start-&gt;action.misuse.variety.Privilege abuse</data>
<data key="d6">forward</data>
<data key="d5">1</data>
</edge>
<edge id="453" source="start" target="action.malware.variety.Capture app data">
<data key="weight">1.0</data>
<data key="d8">start-&gt;action.malware.variety.Capture app data</data>
<data key="d6">forward</data>
<data key="d5">1</data>
</edge>
<edge id="454" source="start" target="action.malware.variety.Rootkit">
<data key="weight">1.0</data>
<data key="d8">start-&gt;action.malware.variety.Rootkit</data>
<data key="d6">forward</data>
<data key="d5">1</data>
</edge>
<edge id="455" source="start" target="action.malware.variety.Backdoor">
<data key="weight">1.0</data>
<data key="d8">start-&gt;action.malware.variety.Backdoor</data>
<data key="d6">forward</data>
<data key="d5">1</data>
</edge>
<edge id="456" source="start" target="action.hacking.variety.OS commanding">
<data key="weight">1.0</data>
<data key="d8">start-&gt;action.hacking.variety.OS commanding</data>
<data key="d6">forward</data>
<data key="d5">1</data>
</edge>
<edge id="457" source="start" target="action.malware.variety.Ram scraper">
<data key="weight">1.0</data>
<data key="d8">start-&gt;action.malware.variety.Ram scraper</data>
<data key="d6">forward</data>
<data key="d5">1</data>
</edge>
<edge id="458" source="start" target="action.malware.variety.Capture stored data">
<data key="weight">1.0</data>
<data key="d8">start-&gt;action.malware.variety.Capture stored data</data>
<data key="d6">forward</data>
<data key="d5">1</data>
</edge>
<edge id="459" source="start" target="action.malware.variety.Scan network">
<data key="weight">1.0</data>
<data key="d8">start-&gt;action.malware.variety.Scan network</data>
<data key="d6">forward</data>
<data key="d5">1</data>
</edge>
<edge id="460" source="start" target="action.physical.variety.Theft">
<data key="weight">1.0</data>
<data key="d8">start-&gt;action.physical.variety.Theft</data>
<data key="d6">forward</data>
<data key="d5">1</data>
</edge>
<edge id="461" source="start" target="action.hacking.variety.Use of stolen creds">
<data key="weight">1.0</data>
<data key="d8">start-&gt;action.hacking.variety.Use of stolen creds</data>
<data key="d6">forward</data>
<data key="d5">1</data>
</edge>
<edge id="462" source="start" target="action.malware.variety.Disable controls">
<data key="weight">1.0</data>
<data key="d8">start-&gt;action.malware.variety.Disable controls</data>
<data key="d6">forward</data>
<data key="d5">1</data>
</edge>
<edge id="463" source="start" target="action.malware.variety.Adware">
<data key="weight">1.0</data>
<data key="d8">start-&gt;action.malware.variety.Adware</data>
<data key="d6">forward</data>
<data key="d5">1</data>
</edge>
<edge id="464" source="start" target="action.hacking.variety.Brute force">
<data key="weight">1.0</data>
<data key="d8">start-&gt;action.hacking.variety.Brute force</data>
<data key="d6">forward</data>
<data key="d5">1</data>
</edge>
<edge id="465" source="start" target="action.malware.variety.Packet sniffer">
<data key="weight">1.0</data>
<data key="d8">start-&gt;action.malware.variety.Packet sniffer</data>
<data key="d6">forward</data>
<data key="d5">1</data>
</edge>
<edge id="466" source="start" target="action.malware.variety.Export data">
<data key="weight">1.0</data>
<data key="d8">start-&gt;action.malware.variety.Export data</data>
<data key="d6">forward</data>
<data key="d5">1</data>
</edge>
<edge id="467" source="start" target="action.malware.variety.Spyware/Keylogger">
<data key="weight">1.0</data>
<data key="d8">start-&gt;action.malware.variety.Spyware/Keylogger</data>
<data key="d6">forward</data>
<data key="d5">1</data>
</edge>
<edge id="468" source="start" target="action.malware.variety.Downloader">
<data key="weight">1.0</data>
<data key="d8">start-&gt;action.malware.variety.Downloader</data>
<data key="d6">forward</data>
<data key="d5">1</data>
</edge>
<edge id="469" source="start" target="action.malware.variety.C2">
<data key="weight">1.0</data>
<data key="d8">start-&gt;action.malware.variety.C2</data>
<data key="d6">forward</data>
<data key="d5">1</data>
</edge>
<edge id="470" source="start" target="action.hacking.variety.Use of backdoor or C2">
<data key="weight">1.0</data>
<data key="d8">start-&gt;action.hacking.variety.Use of backdoor or C2</data>
<data key="d6">forward</data>
<data key="d5">1</data>
</edge>
<edge id="471" source="start" target="action.malware.variety.Adminware">
<data key="weight">1.0</data>
<data key="d8">start-&gt;action.malware.variety.Adminware</data>
<data key="d6">forward</data>
<data key="d5">1</data>
</edge>
<edge id="472" source="action.malware.variety.Disable controls" target="action.malware.variety.Ram scraper">
<data key="weight">1.0</data>
<data key="d8">action.malware.variety.Disable controls-&gt;action.malware.variety.Ram scraper</data>
<data key="d6">forward</data>
<data key="d5">1</data>
</edge>
<edge id="473" source="action.malware.variety.Packet sniffer" target="action.hacking.variety.Use of stolen creds">
<data key="weight">1.0</data>
<data key="d8">action.malware.variety.Packet sniffer-&gt;action.hacking.variety.Use of stolen creds</data>
<data key="d6">forward</data>
<data key="d5">1</data>
</edge>
<edge id="474" source="action.malware.variety.Downloader" target="action.hacking.variety.Use of stolen creds">
<data key="weight">0.997521698474884</data>
<data key="d8">action.malware.variety.Downloader-&gt;action.hacking.variety.Use of stolen creds</data>
<data key="d6">forward</data>
<data key="d5">3</data>
</edge>
<edge id="475" source="action.malware.variety.Downloader" target="action.malware.variety.Spyware/Keylogger">
<data key="weight">0.9962825179100037</data>
<data key="d8">action.malware.variety.Downloader-&gt;action.malware.variety.Spyware/Keylogger</data>
<data key="d6">forward</data>
<data key="d5">4</data>
</edge>
<edge id="476" source="action.malware.variety.C2" target="action.hacking.variety.Use of stolen creds">
<data key="weight">0.9925650358200073</data>
<data key="d8">action.malware.variety.C2-&gt;action.hacking.variety.Use of stolen creds</data>
<data key="d6">forward</data>
<data key="d5">7</data>
</edge>
<edge id="477" source="action.malware.variety.C2" target="action.malware.variety.Spyware/Keylogger">
<data key="weight">0.9938042163848877</data>
<data key="d8">action.malware.variety.C2-&gt;action.malware.variety.Spyware/Keylogger</data>
<data key="d6">forward</data>
<data key="d5">6</data>
</edge>
<edge id="478" source="action.malware.variety.C2" target="action.malware.variety.Ram scraper">
<data key="weight">0.9900867342948914</data>
<data key="d8">action.malware.variety.C2-&gt;action.malware.variety.Ram scraper</data>
<data key="d6">forward</data>
<data key="d5">9</data>
</edge>
<edge id="479" source="action.malware.variety.Adminware" target="action.hacking.variety.Use of stolen creds">
<data key="weight">0.9987608194351196</data>
<data key="d8">action.malware.variety.Adminware-&gt;action.hacking.variety.Use of stolen creds</data>
<data key="d6">forward</data>
<data key="d5">2</data>
</edge>
<edge id="480" source="action.malware.variety.Adminware" target="action.malware.variety.Ram scraper">
<data key="weight">0.9987608194351196</data>
<data key="d8">action.malware.variety.Adminware-&gt;action.malware.variety.Ram scraper</data>
<data key="d6">forward</data>
<data key="d5">2</data>
</edge>
<edge id="481" source="action.malware.variety.Password dumper" target="action.hacking.variety.Use of stolen creds">
<data key="weight">0.9987608194351196</data>
<data key="d8">action.malware.variety.Password dumper-&gt;action.hacking.variety.Use of stolen creds</data>
<data key="d6">forward</data>
<data key="d5">2</data>
</edge>
<edge id="482" source="action.malware.variety.Password dumper" target="action.malware.variety.Spyware/Keylogger">
<data key="weight">1.0</data>
<data key="d8">action.malware.variety.Password dumper-&gt;action.malware.variety.Spyware/Keylogger</data>
<data key="d6">forward</data>
<data key="d5">1</data>
</edge>
<edge id="483" source="action.malware.variety.Password dumper" target="action.malware.variety.Ram scraper">
<data key="weight">0.9938042163848877</data>
<data key="d8">action.malware.variety.Password dumper-&gt;action.malware.variety.Ram scraper</data>
<data key="d6">forward</data>
<data key="d5">6</data>
</edge>
<edge id="484" source="action.malware.variety.Spyware/Keylogger" target="attribute.confidentiality.data.variety.Payment">
<data key="weight">0.9789343476295471</data>
<data key="d8">action.malware.variety.Spyware/Keylogger-&gt;attribute.confidentiality.data.variety.Payment</data>
<data key="d6">forward</data>
<data key="d5">18</data>
</edge>
<edge id="485" source="action.malware.variety.Spyware/Keylogger" target="attribute.integrity.variety.Software installation">
<data key="weight">0.9789343476295471</data>
<data key="d8">action.malware.variety.Spyware/Keylogger-&gt;attribute.integrity.variety.Software installation</data>
<data key="d6">forward</data>
<data key="d5">18</data>
</edge>
<edge id="486" source="action.hacking.variety.OS commanding" target="action.malware.variety.Capture app data">
<data key="weight">1.0</data>
<data key="d8">action.hacking.variety.OS commanding-&gt;action.malware.variety.Capture app data</data>
<data key="d6">forward</data>
<data key="d5">1</data>
</edge>
<edge id="487" source="action.malware.variety.Ram scraper" target="attribute.confidentiality.data.variety.Payment">
<data key="weight">0.6183395385742188</data>
<data key="d8">action.malware.variety.Ram scraper-&gt;attribute.confidentiality.data.variety.Payment</data>
<data key="d6">forward</data>
<data key="d5">309</data>
</edge>
<edge id="488" source="action.malware.variety.Ram scraper" target="attribute.integrity.variety.Software installation">
<data key="weight">0.6171003580093384</data>
<data key="d8">action.malware.variety.Ram scraper-&gt;attribute.integrity.variety.Software installation</data>
<data key="d6">forward</data>
<data key="d5">310</data>
</edge>
<edge id="489" source="action.malware.variety.Ram scraper" target="attribute.integrity.variety.Alter behavior">
<data key="weight">1.0</data>
<data key="d8">action.malware.variety.Ram scraper-&gt;attribute.integrity.variety.Alter behavior</data>
<data key="d6">forward</data>
<data key="d5">1</data>
</edge>
<edge id="490" source="action.malware.variety.Adware" target="action.malware.variety.Ram scraper">
<data key="weight">1.0</data>
<data key="d8">action.malware.variety.Adware-&gt;action.malware.variety.Ram scraper</data>
<data key="d6">forward</data>
<data key="d5">1</data>
</edge>
<edge id="491" source="attribute.confidentiality.data.variety.Credentials" target="end">
<data key="weight">1.0</data>
<data key="d8">attribute.confidentiality.data.variety.Credentials-&gt;end</data>
<data key="d6">forward</data>
<data key="d5">1</data>
</edge>
<edge id="492" source="attribute.integrity.variety.Alter behavior" target="end">
<data key="weight">1.0</data>
<data key="d8">attribute.integrity.variety.Alter behavior-&gt;end</data>
<data key="d6">forward</data>
<data key="d5">1</data>
</edge>
<edge id="493" source="attribute.integrity.variety.Alter behavior" target="action.malware.variety.Ram scraper">
<data key="weight">1.0</data>
<data key="d8">attribute.integrity.variety.Alter behavior-&gt;action.malware.variety.Ram scraper</data>
<data key="d6">backward</data>
<data key="d5">1</data>
</edge>
<edge id="494" source="action.hacking.variety.Brute force" target="action.malware.variety.Spyware/Keylogger">
<data key="weight">0.9888476133346558</data>
<data key="d8">action.hacking.variety.Brute force-&gt;action.malware.variety.Spyware/Keylogger</data>
<data key="d6">forward</data>
<data key="d5">10</data>
</edge>
<edge id="495" source="action.hacking.variety.Brute force" target="action.malware.variety.Ram scraper">
<data key="weight">0.9281288981437683</data>
<data key="d8">action.hacking.variety.Brute force-&gt;action.malware.variety.Ram scraper</data>
<data key="d6">forward</data>
<data key="d5">59</data>
</edge>
<edge id="496" source="action.hacking.variety.Brute force" target="action.malware.variety.Capture app data">
<data key="weight">1.0</data>
<data key="d8">action.hacking.variety.Brute force-&gt;action.malware.variety.Capture app data</data>
<data key="d6">forward</data>
<data key="d5">1</data>
</edge>
<edge id="497" source="action.hacking.variety.Use of backdoor or C2" target="action.hacking.variety.Use of stolen creds">
<data key="weight">0.9925650358200073</data>
<data key="d8">action.hacking.variety.Use of backdoor or C2-&gt;action.hacking.variety.Use of stolen creds</data>
<data key="d6">forward</data>
<data key="d5">7</data>
</edge>
<edge id="498" source="action.hacking.variety.Use of backdoor or C2" target="action.malware.variety.Spyware/Keylogger">
<data key="weight">0.9962825179100037</data>
<data key="d8">action.hacking.variety.Use of backdoor or C2-&gt;action.malware.variety.Spyware/Keylogger</data>
<data key="d6">forward</data>
<data key="d5">4</data>
</edge>
<edge id="499" source="action.hacking.variety.Use of backdoor or C2" target="action.malware.variety.Ram scraper">
<data key="weight">0.9900867342948914</data>
<data key="d8">action.hacking.variety.Use of backdoor or C2-&gt;action.malware.variety.Ram scraper</data>
<data key="d6">forward</data>
<data key="d5">9</data>
</edge>
<edge id="500" source="attribute.integrity.variety.Fraudulent transaction" target="end">
<data key="weight">1.0</data>
<data key="d8">attribute.integrity.variety.Fraudulent transaction-&gt;end</data>
<data key="d6">forward</data>
<data key="d5">1</data>
</edge>
<edge id="501" source="action.malware.variety.Scan network" target="action.malware.variety.Ram scraper">
<data key="weight">1.0</data>
<data key="d8">action.malware.variety.Scan network-&gt;action.malware.variety.Ram scraper</data>
<data key="d6">forward</data>
<data key="d5">1</data>
</edge>
<edge id="502" source="action.physical.variety.Theft" target="attribute.confidentiality.data.variety.Payment">
<data key="weight">1.0</data>
<data key="d8">action.physical.variety.Theft-&gt;attribute.confidentiality.data.variety.Payment</data>
<data key="d6">forward</data>
<data key="d5">1</data>
</edge>
<edge id="503" source="action.physical.variety.Theft" target="attribute.availability.variety.Loss">
<data key="weight">0.9987608194351196</data>
<data key="d8">action.physical.variety.Theft-&gt;attribute.availability.variety.Loss</data>
<data key="d6">forward</data>
<data key="d5">2</data>
</edge>
<edge id="504" source="action.physical.variety.Theft" target="attribute.confidentiality.data.variety.Personal">
<data key="weight">1.0</data>
<data key="d8">action.physical.variety.Theft-&gt;attribute.confidentiality.data.variety.Personal</data>
<data key="d6">forward</data>
<data key="d5">1</data>
</edge>
<edge id="505" source="attribute.availability.variety.Interruption" target="end">
<data key="weight">1.0</data>
<data key="d8">attribute.availability.variety.Interruption-&gt;end</data>
<data key="d6">forward</data>
<data key="d5">1</data>
</edge>
<edge id="506" source="action.malware.variety.Export data" target="action.hacking.variety.Use of stolen creds">
<data key="weight">0.9987608194351196</data>
<data key="d8">action.malware.variety.Export data-&gt;action.hacking.variety.Use of stolen creds</data>
<data key="d6">forward</data>
<data key="d5">2</data>
</edge>
<edge id="507" source="action.malware.variety.Export data" target="action.malware.variety.Capture app data">
<data key="weight">0.9987608194351196</data>
<data key="d8">action.malware.variety.Export data-&gt;action.malware.variety.Capture app data</data>
<data key="d6">forward</data>
<data key="d5">2</data>
</edge>
<edge id="508" source="action.malware.variety.Export data" target="action.malware.variety.Ram scraper">
<data key="weight">0.9950433969497681</data>
<data key="d8">action.malware.variety.Export data-&gt;action.malware.variety.Ram scraper</data>
<data key="d6">forward</data>
<data key="d5">5</data>
</edge>
</graph>
</graphml>
